Column9
"=HYPERLINK(""https://ecfsapi.fcc.gov/file/10829129208690/Midco 3.5 Letter Comments Final.pdf"",""Midco 3.5 Letter Comments Final.pdf"" )"
"=HYPERLINK(""https://ecfsapi.fcc.gov/file/1229134409319/Secondary MarketsFinalcv.pdf"",""Secondary MarketsFinalcv.pdf"" )"
"=HYPERLINK(""https://ecfsapi.fcc.gov/file/12291396513163/Comments of Verizon 3.5 NPRM - Final 12-28-17.pdf"",""Comments of Verizon 3.5 NPRM - Final 12-28-17.pdf"" )"
"=HYPERLINK(""https://ecfsapi.fcc.gov/file/12282485113710/CBRS.pdf"",""CBRS.pdf"" )"
"=HYPERLINK(""https://ecfsapi.fcc.gov/file/1080996923831/Reply Comments of United States Cellular Corporation (GN Docket No. 12-354) (August 8, 2017).pdf"",""Reply Comments of United States Cellular Corporation (GN Docket No. 12-354) (August 8, 2017).pdf"" )"
"=HYPERLINK(""https://ecfsapi.fcc.gov/file/10808037095407/Engine_USV Letter Re- 3.5 GHz.pdf"",""Engine_USV Letter Re- 3.5 GHz.pdf"" )"
"=HYPERLINK(""https://ecfsapi.fcc.gov/file/10808712205095/AS FILED GSMA Mid-Band Spectrum Comments.pdf"",""AS FILED GSMA Mid-Band Spectrum Comments.pdf"" )"
"=HYPERLINK(""https://ecfsapi.fcc.gov/file/1080322507684/Keep the CBRS Open for Small Business FCC.docx"",""Keep the CBRS Open for Small Business FCC.docx"" )"
"=HYPERLINK(""https://ecfsapi.fcc.gov/file/10801105923787/as-filed Nokia 3dot5 GHz Comment July 24 Aug 1.pdf"",""as-filed Nokia 3dot5 GHz Comment July 24 Aug 1.pdf"" )"
"=HYPERLINK(""https://ecfsapi.fcc.gov/file/10724242366096/fcc_comments_12-354_20170724.txt"",""fcc_comments_12-354_20170724.txt"" )"
"=HYPERLINK(""https://ecfsapi.fcc.gov/file/10725024268472/Comments of United States Cellular Corporation (GN Docket No. 12-354) (July 24, 2017).pdf"",""Comments of United States Cellular Corporation (GN Docket No. 12-354) (July 24, 2017).pdf"" )"
"=HYPERLINK(""https://ecfsapi.fcc.gov/file/10725500028769/OTI_PK_CBRS 3.5 Petitions_Comments_FINAL_AsFiled_072417.pdf"",""OTI_PK_CBRS 3.5 Petitions_Comments_FINAL_AsFiled_072417.pdf"" )"
"=HYPERLINK(""https://ecfsapi.fcc.gov/file/10724288597371/Federated Wireless Comments on 3.5 GHz Petitions for Rulemaking - FINAL.pdf"",""Federated Wireless Comments on 3.5 GHz Petitions for Rulemaking - FINAL.pdf"" )"
"=HYPERLINK(""https://ecfsapi.fcc.gov/file/10724231185613/072417 12-354 RM11788 RM11789 Comments.pdf"",""072417 12-354 RM11788 RM11789 Comments.pdf"" )"
"=HYPERLINK(""https://ecfsapi.fcc.gov/file/10724175587571/2017-07-24-cb-letter-docket-12-354.pdf"",""2017-07-24-cb-letter-docket-12-354.pdf"" )"
"=HYPERLINK(""https://ecfsapi.fcc.gov/file/10724633928785/petition.txt"",""petition.txt"" )"
"=HYPERLINK(""https://ecfsapi.fcc.gov/file/10724151222986/12-354 Comments.pdf"",""12-354 Comments.pdf"" )"
"=HYPERLINK(""https://ecfsapi.fcc.gov/file/107242778526836/CBRS Rulemaking Petition Comments FINAL.pdf"",""CBRS Rulemaking Petition Comments FINAL.pdf"" )"
"=HYPERLINK(""https://ecfsapi.fcc.gov/file/1072462368413/FCC Comments - 12-354.pdf"",""FCC Comments - 12-354.pdf"" )"
"=HYPERLINK(""https://ecfsapi.fcc.gov/file/10724467220036/Procedings 12-354.pdf"",""Procedings 12-354.pdf"" )"
"=HYPERLINK(""https://ecfsapi.fcc.gov/file/1072431688277/Comments of Bernhardt Communications on FCC Docket 12-354.doc"",""Comments of Bernhardt Communications on FCC Docket 12-354.doc"" )"
"=HYPERLINK(""https://ecfsapi.fcc.gov/file/1072489502472/AT&T 3.5 GHz Comments.pdf"",""AT&T 3.5 GHz Comments.pdf"" )"
"=HYPERLINK(""https://ecfsapi.fcc.gov/file/10724145539066/Vivint Comments.pdf"",""Vivint Comments.pdf"" )"
"=HYPERLINK(""https://ecfsapi.fcc.gov/file/10724013537274/Ruckus_Comments_DA_17-609_GN_12-354.pdf"",""Ruckus_Comments_DA_17-609_GN_12-354.pdf"" )"
"=HYPERLINK(""https://ecfsapi.fcc.gov/file/10722038985758/FCC CBRS Letter.pdf"",""FCC CBRS Letter.pdf"" )"
"=HYPERLINK(""https://ecfsapi.fcc.gov/file/107252308222843/FCC-12-354 Comment.docx"",""FCC-12-354 Comment.docx"" )"
"=HYPERLINK(""https://ecfsapi.fcc.gov/file/107252953322037/Blueriver_Networking_comment_12-354.pdf"",""Blueriver_Networking_comment_12-354.pdf"" )"
"=HYPERLINK(""https://ecfsapi.fcc.gov/file/10724788122490/ICIDocket12-354.pdf"",""ICIDocket12-354.pdf"" )"
"=HYPERLINK(""https://ecfsapi.fcc.gov/file/10724405020501/20170724 MimCom 12-354.pdf"",""20170724 MimCom 12-354.pdf"" )"
"=HYPERLINK(""https://ecfsapi.fcc.gov/file/10724151302283/ShelbyBB FCC Filing GN Docket 12-354.pdf"",""ShelbyBB FCC Filing GN Docket 12-354.pdf"" )"
"=HYPERLINK(""https://ecfsapi.fcc.gov/file/10724465130711/boltresponce07242017.pdf"",""boltresponce07242017.pdf"" )"
"=HYPERLINK(""https://ecfsapi.fcc.gov/file/10723271501992/fcc proceeding 12-354 - imagine networks.pdf"",""fcc proceeding 12-354 - imagine networks.pdf"" )"
"=HYPERLINK(""https://ecfsapi.fcc.gov/file/10724426522023/Cal-Net Comments on Proposed CBRS Rules Changes (12-354).pdf"",""Cal-Net Comments on Proposed CBRS Rules Changes (12-354).pdf"" )"
"=HYPERLINK(""https://ecfsapi.fcc.gov/file/10721309812013/Valnet FCC CBRS Filing.pdf"",""Valnet FCC CBRS Filing.pdf"" )"
"=HYPERLINK(""https://ecfsapi.fcc.gov/file/1072454126903/cbrs_comments.docx"",""cbrs_comments.docx"" )"
"=HYPERLINK(""https://ecfsapi.fcc.gov/file/107252691611051/comment 12-354.docx"",""comment 12-354.docx"" )"
"=HYPERLINK(""https://ecfsapi.fcc.gov/file/107252486322433/SCN_0001.pdf"",""SCN_0001.pdf"" )"
"=HYPERLINK(""https://ecfsapi.fcc.gov/file/107250222810462/FCC Comments GN Docket No. 12-354.pdf"",""FCC Comments GN Docket No. 12-354.pdf"" )"
"=HYPERLINK(""https://ecfsapi.fcc.gov/file/1072585178108/final draft MSI response to CBRS PFR BO.pdf"",""final draft MSI response to CBRS PFR BO.pdf"" )"
"=HYPERLINK(""https://ecfsapi.fcc.gov/file/10725188591297/FCC CBRS Letter Bland County 7-24-17.pdf"",""FCC CBRS Letter Bland County 7-24-17.pdf"" )"
"=HYPERLINK(""https://ecfsapi.fcc.gov/file/1072555394662/FCC response.pdf"",""FCC response.pdf"" )"
"=HYPERLINK(""https://ecfsapi.fcc.gov/file/1072501015354/FCC_Letter.pdf"",""FCC_Letter.pdf"" )"
"=HYPERLINK(""https://ecfsapi.fcc.gov/file/1072537587568/FCCCBRSLetter.docx"",""FCCCBRSLetter.docx"" )"
"=HYPERLINK(""https://ecfsapi.fcc.gov/file/10724124776723/NYC Letter Input Re Citizens Broadband Radio Service .pdf"",""NYC Letter Input Re Citizens Broadband Radio Service .pdf"" )"
"=HYPERLINK(""https://ecfsapi.fcc.gov/file/10724102316094/Comments of Southern Linc on CTIA and T-Mobile Petitions for Rulemaking.pdf"",""Comments of Southern Linc on CTIA and T-Mobile Petitions for Rulemaking.pdf"" )"
"=HYPERLINK(""https://ecfsapi.fcc.gov/file/107241461625870/Plains Internet, LLC Petition.pdf"",""Plains Internet, LLC Petition.pdf"" )"
"=HYPERLINK(""https://ecfsapi.fcc.gov/file/10724282779723/FCC letter_gn12-354_cbrs.pdf"",""FCC letter_gn12-354_cbrs.pdf"" )"
"=HYPERLINK(""https://ecfsapi.fcc.gov/file/10724220598825/Charter 3.5GHz Petition Comments.pdf"",""Charter 3.5GHz Petition Comments.pdf"" )"
"=HYPERLINK(""https://ecfsapi.fcc.gov/file/1072463649091/EWA 3.65 GHz Comments  GN 12-354  7-24-17.pdf"",""EWA 3.65 GHz Comments  GN 12-354  7-24-17.pdf"" )"
"=HYPERLINK(""https://ecfsapi.fcc.gov/file/10722967822293/FCC-Comments-by-Angie-Communications-on-T-Mobile-Petition.pdf"",""FCC-Comments-by-Angie-Communications-on-T-Mobile-Petition.pdf"" )"
"=HYPERLINK(""https://ecfsapi.fcc.gov/file/107220857524986/3650 MHz Protest #12-354 7-22-2017.pdf"",""3650 MHz Protest #12-354 7-22-2017.pdf"" )"
"=HYPERLINK(""https://ecfsapi.fcc.gov/file/10722581320751/FCC Letter CBRS.pdf"",""FCC Letter CBRS.pdf"" )"
"=HYPERLINK(""https://ecfsapi.fcc.gov/file/1072534676416/2017-07-24-letter-docket-12-354.docx"",""2017-07-24-letter-docket-12-354.docx"" )"
"=HYPERLINK(""https://ecfsapi.fcc.gov/file/1072285756424/FCC letter-proceeding 12-354.pdf"",""FCC letter-proceeding 12-354.pdf"" )"
"=HYPERLINK(""https://ecfsapi.fcc.gov/file/1072109520932/FCC 12-354 rbns hsl.pdf"",""FCC 12-354 rbns hsl.pdf"" )"
"=HYPERLINK(""https://ecfsapi.fcc.gov/file/10724001487610/5G Americas comments re 5G in 3.5 GHz.pdf"",""5G Americas comments re 5G in 3.5 GHz.pdf"" )"
"=HYPERLINK(""https://ecfsapi.fcc.gov/file/1072459189460/CBRS Rulemaking Petitions Response.pdf"",""CBRS Rulemaking Petitions Response.pdf"" )"
"=HYPERLINK(""https://ecfsapi.fcc.gov/file/10724072839949/FCC Comment.pdf"",""FCC Comment.pdf"" )"
"=HYPERLINK(""https://ecfsapi.fcc.gov/file/107240082800569/Leidos_Final_ CBRS Rulemaking_Comments -signed.pdf"",""Leidos_Final_ CBRS Rulemaking_Comments -signed.pdf"" )"
"=HYPERLINK(""https://ecfsapi.fcc.gov/file/107252265326841/fcc.pdf"",""fcc.pdf"" )"
"=HYPERLINK(""https://ecfsapi.fcc.gov/file/107242919807997/2017-07-24-letter-docket-12-354.pdf"",""2017-07-24-letter-docket-12-354.pdf"" )"
"=HYPERLINK(""https://ecfsapi.fcc.gov/file/1072425840658/Rise Broadband CBRS Comments.pdf"",""Rise Broadband CBRS Comments.pdf"" )"
"=HYPERLINK(""https://ecfsapi.fcc.gov/file/107241626904640/Opposition to CTIA & T-Mobile CBRS Petitions.pdf"",""Opposition to CTIA & T-Mobile CBRS Petitions.pdf"" )"
"=HYPERLINK(""https://ecfsapi.fcc.gov/file/1072410778327/FCC Comments - Wabash Mutual Telephone Company_WISPA_072417 (3).docx"",""FCC Comments - Wabash Mutual Telephone Company_WISPA_072417 (3).docx"" )"
"=HYPERLINK(""https://ecfsapi.fcc.gov/file/107240339624227/T-Mobile Comments on 3.5 GHz Ex Parte Letters -- 7.24.2017.pdf"",""T-Mobile Comments on 3.5 GHz Ex Parte Letters -- 7.24.2017.pdf"" )"
"=HYPERLINK(""https://ecfsapi.fcc.gov/file/107241855913169/Indigo Wireless 3.5 GHz Comments FINAL.pdf"",""Indigo Wireless 3.5 GHz Comments FINAL.pdf"" )"
"=HYPERLINK(""https://ecfsapi.fcc.gov/file/10724182709348/FCC 12-354 anti-CTIA and T-Mobile.docx"",""FCC 12-354 anti-CTIA and T-Mobile.docx"" )"
"=HYPERLINK(""https://ecfsapi.fcc.gov/file/1072481757704/VABB -- FCC-CBRS (GN Docket 12-354) OPPOSED 7-24-17.pdf"",""VABB -- FCC-CBRS (GN Docket 12-354) OPPOSED 7-24-17.pdf"" )"
"=HYPERLINK(""https://ecfsapi.fcc.gov/file/10724018829983/Eric 2017.pdf"",""Eric 2017.pdf"" )"
"=HYPERLINK(""https://ecfsapi.fcc.gov/file/10724505007250/CBRS Comments.pdf"",""CBRS Comments.pdf"" )"
"=HYPERLINK(""https://ecfsapi.fcc.gov/file/1072473455301/365.txt"",""365.txt"" )"
"=HYPERLINK(""https://ecfsapi.fcc.gov/file/1072473815545/12-354 CBRS-3650 to 3700 Petition.doc"",""12-354 CBRS-3650 to 3700 Petition.doc"" )"
"=HYPERLINK(""https://ecfsapi.fcc.gov/file/107242887626612/CBRS_Comments.pdf"",""CBRS_Comments.pdf"" )"
"=HYPERLINK(""https://ecfsapi.fcc.gov/file/1072439223888/Portative comments CBRS to FCC.pdf"",""Portative comments CBRS to FCC.pdf"" )"
"=HYPERLINK(""https://ecfsapi.fcc.gov/file/10724772314303/FCC CBRS Letter.pdf"",""FCC CBRS Letter.pdf"" )"
"=HYPERLINK(""https://ecfsapi.fcc.gov/file/1072472736185/Quantum CBRS Reply.pdf"",""Quantum CBRS Reply.pdf"" )"
"=HYPERLINK(""https://ecfsapi.fcc.gov/file/1072463439405/Ericsson 3_5 GHZ Comments on Petitions for Rulemaking.pdf"",""Ericsson 3_5 GHZ Comments on Petitions for Rulemaking.pdf"" )"
"=HYPERLINK(""https://ecfsapi.fcc.gov/file/1072137249868/CBRS Letter to FCC.docx"",""CBRS Letter to FCC.docx"" )"
"=HYPERLINK(""https://ecfsapi.fcc.gov/file/10724097902064/TIA 3 5 GHz Public Notice Comments.pdf"",""TIA 3 5 GHz Public Notice Comments.pdf"" )"
"=HYPERLINK(""https://ecfsapi.fcc.gov/file/1072472499333/12-354.pdf"",""12-354.pdf"" )"
"=HYPERLINK(""https://ecfsapi.fcc.gov/file/1072498577857/WIreless Innovation Forum CBRS Commercial Weather RADAR Comments.pdf"",""WIreless Innovation Forum CBRS Commercial Weather RADAR Comments.pdf"" )"
"=HYPERLINK(""https://ecfsapi.fcc.gov/file/10724764317187/e-vergent comments on 12-354.pdf"",""e-vergent comments on 12-354.pdf"" )"
"=HYPERLINK(""https://ecfsapi.fcc.gov/file/1072400160638/Boingo Response to GN 12-354 Clean2 (002)r1.docx"",""Boingo Response to GN 12-354 Clean2 (002)r1.docx"" )"
"=HYPERLINK(""https://ecfsapi.fcc.gov/file/1072470312360/Comments re CBRS.pdf"",""Comments re CBRS.pdf"" )"
"=HYPERLINK(""https://ecfsapi.fcc.gov/file/1072552716737/Amarillo Wireless FCC Comments.pdf"",""Amarillo Wireless FCC Comments.pdf"" )"
"=HYPERLINK(""https://ecfsapi.fcc.gov/file/107253015929117/Starry 3_5 GHz Comments FINAL 072417.pdf"",""Starry 3_5 GHz Comments FINAL 072417.pdf"" )"
"=HYPERLINK(""https://ecfsapi.fcc.gov/file/10725068389577/CTIA CBRS.pdf"",""CTIA CBRS.pdf"" )"
"=HYPERLINK(""https://ecfsapi.fcc.gov/file/10724113932152/FCC CBRS Opposing Letter_signed.pdf"",""FCC CBRS Opposing Letter_signed.pdf"" )"
"=HYPERLINK(""https://ecfsapi.fcc.gov/file/10724203323551/Qualcomm Comments 3.5GHz 2017 PfRs PN.pdf"",""Qualcomm Comments 3.5GHz 2017 PfRs PN.pdf"" )"
"=HYPERLINK(""https://ecfsapi.fcc.gov/file/1072470693099/sbletter CTIA TMOBILE.pdf"",""sbletter CTIA TMOBILE.pdf"" )"
"=HYPERLINK(""https://ecfsapi.fcc.gov/file/10722159918434/Forehought FCC COMMENT FCC 12-354.pdf"",""Forehought FCC COMMENT FCC 12-354.pdf"" )"
"=HYPERLINK(""https://ecfsapi.fcc.gov/file/10724702409939/Casa-Comments.pdf"",""Casa-Comments.pdf"" )"
"=HYPERLINK(""https://ecfsapi.fcc.gov/file/10724286775988/170724 - FILED CTIA 3.5 GHz Comments of Petitions for Rulemaking.pdf"",""170724 - FILED CTIA 3.5 GHz Comments of Petitions for Rulemaking.pdf"" )"
"=HYPERLINK(""https://ecfsapi.fcc.gov/file/1072450166116/DSA CBRS Comments July 24 2017.pdf"",""DSA CBRS Comments July 24 2017.pdf"" )"
"=HYPERLINK(""https://ecfsapi.fcc.gov/file/1072468479788/20170724140229263.pdf"",""20170724140229263.pdf"" )"
"=HYPERLINK(""https://ecfsapi.fcc.gov/file/1072449915372/Comments of Intelliwave LLC.pdf"",""Comments of Intelliwave LLC.pdf"" )"
"=HYPERLINK(""https://ecfsapi.fcc.gov/file/10724866207054/WW Letter to FCC re 12-354.pdf"",""WW Letter to FCC re 12-354.pdf"" )"
"=HYPERLINK(""https://ecfsapi.fcc.gov/file/1072483117921/2017 07 24 CBRS Comments.pdf"",""2017 07 24 CBRS Comments.pdf"" )"
"=HYPERLINK(""https://ecfsapi.fcc.gov/file/107241943101371/CBRS Comments.docx"",""CBRS Comments.docx"" )"
"=HYPERLINK(""https://ecfsapi.fcc.gov/file/10722613202215/HVW Reply Comments - GN Docket 12-354 (Final).pdf"",""HVW Reply Comments - GN Docket 12-354 (Final).pdf"" )"
"=HYPERLINK(""https://ecfsapi.fcc.gov/file/1072401306960/CTIA-TMO-OPP-letter.pdf"",""CTIA-TMO-OPP-letter.pdf"" )"
"=HYPERLINK(""https://ecfsapi.fcc.gov/file/10723810306398/AirLink Internet Services - CBRS Comments.pdf"",""AirLink Internet Services - CBRS Comments.pdf"" )"
"=HYPERLINK(""https://ecfsapi.fcc.gov/file/1072439656175/CBRS opposed.pdf"",""CBRS opposed.pdf"" )"
"=HYPERLINK(""https://ecfsapi.fcc.gov/file/107240162926565/3650 Letter.pdf"",""3650 Letter.pdf"" )"
"=HYPERLINK(""https://ecfsapi.fcc.gov/file/1072162590405/CBRS Letter.07212017.pdf"",""CBRS Letter.07212017.pdf"" )"
"=HYPERLINK(""https://ecfsapi.fcc.gov/file/10721210700860/CBRS FCC Filed Comments.pdf"",""CBRS FCC Filed Comments.pdf"" )"
"=HYPERLINK(""https://ecfsapi.fcc.gov/file/1072151839186/Arbuckle_CBRS_Comments.pdf"",""Arbuckle_CBRS_Comments.pdf"" )"
"=HYPERLINK(""https://ecfsapi.fcc.gov/file/1072108174438/FCC CBRS.docx"",""FCC CBRS.docx"" )"
"=HYPERLINK(""https://ecfsapi.fcc.gov/file/10721416501599/FCC Comments on Tmobile and CTIA petitions.pdf"",""FCC Comments on Tmobile and CTIA petitions.pdf"" )"
"=HYPERLINK(""https://ecfsapi.fcc.gov/file/10721243600730/All Points Broadband  Comments (20170721).pdf"",""All Points Broadband  Comments (20170721).pdf"" )"
"=HYPERLINK(""https://ecfsapi.fcc.gov/file/107213094823670/PEAK_GN Docket No. 12-354.pdf"",""PEAK_GN Docket No. 12-354.pdf"" )"
"=HYPERLINK(""https://ecfsapi.fcc.gov/file/1072125515472/Comments of Sony Electronics 2017-07-21.pdf"",""Comments of Sony Electronics 2017-07-21.pdf"" )"
"=HYPERLINK(""https://ecfsapi.fcc.gov/file/1072173933904/Docket_No_12-354.pdf"",""Docket_No_12-354.pdf"" )"
"=HYPERLINK(""https://ecfsapi.fcc.gov/file/107200805108875/CBRS.docx"",""CBRS.docx"" )"
"=HYPERLINK(""https://ecfsapi.fcc.gov/file/107210766625198/FCC NLBC comment on CBRS.doc"",""FCC NLBC comment on CBRS.doc"" )"
"=HYPERLINK(""https://ecfsapi.fcc.gov/file/1072074919242/CBRS Comments Signed.pdf"",""CBRS Comments Signed.pdf"" )"
"=HYPERLINK(""https://ecfsapi.fcc.gov/file/10720150730236/DOC-GN 12-354 - Oppostition..docx"",""DOC-GN 12-354 - Oppostition..docx"" )"
"=HYPERLINK(""https://ecfsapi.fcc.gov/file/107201637812678/Baicells Comment_FCC 12-354.pdf"",""Baicells Comment_FCC 12-354.pdf"" )"
"=HYPERLINK(""https://ecfsapi.fcc.gov/file/10719490115953/BBVI_CBRS_comment.pdf"",""BBVI_CBRS_comment.pdf"" )"
"=HYPERLINK(""https://ecfsapi.fcc.gov/file/10718558918646/Proceeding 12-354 Filing.pdf"",""Proceeding 12-354 Filing.pdf"" )"
"=HYPERLINK(""https://ecfsapi.fcc.gov/file/107181782806923/The WISP business needs the CBRS band to support rural America and even reach suburban areas with wireless services.docx"",""The WISP business needs the CBRS band to support rural America and even reach suburban areas with wireless services.docx"" )"
"=HYPERLINK(""https://ecfsapi.fcc.gov/file/10718384010406/FCC CBRS.pdf"",""FCC CBRS.pdf"" )"
"=HYPERLINK(""https://ecfsapi.fcc.gov/file/10420084455766/DSA Letter to FCC on 3.5GHz Band.pdf"",""DSA Letter to FCC on 3.5GHz Band.pdf"" )"
"=HYPERLINK(""https://ecfsapi.fcc.gov/file/10624266704232/3.5 GHz EUD Ex Parte ltr 06-22.pdf"",""3.5 GHz EUD Ex Parte ltr 06-22.pdf"" )"
"=HYPERLINK(""https://ecfsapi.fcc.gov/file/60001534915.pdf"",""60001502796"" )"
"=HYPERLINK(""https://ecfsapi.fcc.gov/file/60001403990.pdf"",""60001375431"" )"
"=HYPERLINK(""https://ecfsapi.fcc.gov/file/60001403868.pdf"",""60001375320"" )"
"=HYPERLINK(""https://ecfsapi.fcc.gov/file/60001393198.pdf"",""60001364810"" )"
"=HYPERLINK(""https://ecfsapi.fcc.gov/file/60001393124.pdf"",""60001364738"" )"
"=HYPERLINK(""https://ecfsapi.fcc.gov/file/60001392786.pdf"",""60001364405"" )"
"=HYPERLINK(""https://ecfsapi.fcc.gov/file/60001392557.pdf"",""60001364173"" )"
"=HYPERLINK(""https://ecfsapi.fcc.gov/file/60001392168.pdf"",""60001363804"" )"
"=HYPERLINK(""https://ecfsapi.fcc.gov/file/60001392069.pdf"",""60001363708"" )"
"=HYPERLINK(""https://ecfsapi.fcc.gov/file/60001390964.pdf"",""60001362611"" )"
"=HYPERLINK(""https://ecfsapi.fcc.gov/file/60001390129.pdf"",""60001361885"" )"
"=HYPERLINK(""https://ecfsapi.fcc.gov/file/60001353435.pdf"",""60001325674"" )"
"=HYPERLINK(""https://ecfsapi.fcc.gov/file/60001333662.pdf"",""60001306789"" )"
"=HYPERLINK(""https://ecfsapi.fcc.gov/file/60001330024.pdf"",""60001304377"" )"
"=HYPERLINK(""https://ecfsapi.fcc.gov/file/60001120632.pdf"",""60001096826"" )"
"=HYPERLINK(""https://ecfsapi.fcc.gov/file/60001115789.pdf"",""60001093473"" )"
"=HYPERLINK(""https://ecfsapi.fcc.gov/file/60001115758.pdf"",""60001093446"" )"
"=HYPERLINK(""https://ecfsapi.fcc.gov/file/60001115754.pdf"",""60001093442"" )"
"=HYPERLINK(""https://ecfsapi.fcc.gov/file/60001115753.pdf"",""60001093441"" )"
"=HYPERLINK(""https://ecfsapi.fcc.gov/file/60001115749.pdf"",""60001093437"" )"
"=HYPERLINK(""https://ecfsapi.fcc.gov/file/60001115745.pdf"",""60001093435"" )"
"=HYPERLINK(""https://ecfsapi.fcc.gov/file/60001115782.pdf"",""60001093467"" )"
"=HYPERLINK(""https://ecfsapi.fcc.gov/file/60001115781.pdf"",""60001093466"" )"
"=HYPERLINK(""https://ecfsapi.fcc.gov/file/60001115776.pdf"",""60001093461"" )"
"=HYPERLINK(""https://ecfsapi.fcc.gov/file/60001115774.pdf"",""60001093460"" )"
"=HYPERLINK(""https://ecfsapi.fcc.gov/file/60001115773.pdf"",""60001093459"" )"
"=HYPERLINK(""https://ecfsapi.fcc.gov/file/60001115762.pdf"",""60001093453"" )"
"=HYPERLINK(""https://ecfsapi.fcc.gov/file/60001115759.pdf"",""60001093445"" )"
"=HYPERLINK(""https://ecfsapi.fcc.gov/file/60001115708.pdf"",""60001093414"" )"
"=HYPERLINK(""https://ecfsapi.fcc.gov/file/60001115702.pdf"",""60001093411"" )"
"=HYPERLINK(""https://ecfsapi.fcc.gov/file/60001115680.pdf"",""60001093400"" )"
"=HYPERLINK(""https://ecfsapi.fcc.gov/file/60001115628.pdf"",""60001093387"" )"
"=HYPERLINK(""https://ecfsapi.fcc.gov/file/60001115575.pdf"",""60001093347"" )"
"=HYPERLINK(""https://ecfsapi.fcc.gov/file/60001115533.pdf"",""60001093317"" )"
"=HYPERLINK(""https://ecfsapi.fcc.gov/file/60001115518.pdf"",""60001093303"" )"
"=HYPERLINK(""https://ecfsapi.fcc.gov/file/60001115513.pdf"",""60001093300"" )"
"=HYPERLINK(""https://ecfsapi.fcc.gov/file/60001115519.pdf"",""60001093304"" )"
"=HYPERLINK(""https://ecfsapi.fcc.gov/file/60001115440.pdf"",""60001093243"" )"
"=HYPERLINK(""https://ecfsapi.fcc.gov/file/60001115214.pdf"",""60001093033"" )"
"=HYPERLINK(""https://ecfsapi.fcc.gov/file/60001115064.pdf"",""60001092917"" )"
"=HYPERLINK(""https://ecfsapi.fcc.gov/file/60001077223.pdf"",""60001060365"" )"
"=HYPERLINK(""https://ecfsapi.fcc.gov/file/60001077046.pdf"",""60001060203"" )"
"=HYPERLINK(""https://ecfsapi.fcc.gov/file/60001047353.pdf"",""60001031684"" )"
"=HYPERLINK(""https://ecfsapi.fcc.gov/file/60001046432.pdf"",""60001030877"" )"
"=HYPERLINK(""https://ecfsapi.fcc.gov/file/60000982813.pdf"",""60000979599"" )"
"=HYPERLINK(""https://ecfsapi.fcc.gov/file/7521768488.pdf"",""6018269095"" )"
"=HYPERLINK(""https://ecfsapi.fcc.gov/file/7521768445.pdf"",""6018269054"" )"
"=HYPERLINK(""https://ecfsapi.fcc.gov/file/7521768427.pdf"",""6018269036"" )"
"=HYPERLINK(""https://ecfsapi.fcc.gov/file/7521768232.pdf"",""6018268862"" )"
"=HYPERLINK(""https://ecfsapi.fcc.gov/file/7521759716.pdf"",""6018261454"" )"
"=HYPERLINK(""https://ecfsapi.fcc.gov/file/7521746266.pdf"",""6018249483"" )"
"=HYPERLINK(""https://ecfsapi.fcc.gov/file/7521744373.pdf"",""6018247959"" )"
"=HYPERLINK(""https://ecfsapi.fcc.gov/file/7521728920.pdf"",""6018232886"" )"
"=HYPERLINK(""https://ecfsapi.fcc.gov/file/7521727963.pdf"",""6018231936"" )"
"=HYPERLINK(""https://ecfsapi.fcc.gov/file/7521633008.pdf"",""6018137526"" )"
"=HYPERLINK(""https://ecfsapi.fcc.gov/file/7521393297.pdf"",""6017898296"" )"
"=HYPERLINK(""https://ecfsapi.fcc.gov/file/7521392042.pdf"",""6017897005"" )"
"=HYPERLINK(""https://ecfsapi.fcc.gov/file/7521389523.pdf"",""6017894494"" )"
"=HYPERLINK(""https://ecfsapi.fcc.gov/file/7521388247.pdf"",""6017894418"" )"
"=HYPERLINK(""https://ecfsapi.fcc.gov/file/7521387111.pdf"",""6017892087"" )"
"=HYPERLINK(""https://ecfsapi.fcc.gov/file/7521386332.pdf"",""6017891323"" )"
"=HYPERLINK(""https://ecfsapi.fcc.gov/file/7521385687.pdf"",""6017890677"" )"
"=HYPERLINK(""https://ecfsapi.fcc.gov/file/7521385094.pdf"",""6017890090"" )"
"=HYPERLINK(""https://ecfsapi.fcc.gov/file/7521384955.pdf"",""6017889922"" )"
"=HYPERLINK(""https://ecfsapi.fcc.gov/file/7521384942.pdf"",""6017889915"" )"
"=HYPERLINK(""https://ecfsapi.fcc.gov/file/7521384903.pdf"",""6017889876"" )"
"=HYPERLINK(""https://ecfsapi.fcc.gov/file/7521384877.pdf"",""6017889850"" )"
"=HYPERLINK(""https://ecfsapi.fcc.gov/file/7521384662.pdf"",""6017889641"" )"
"=HYPERLINK(""https://ecfsapi.fcc.gov/file/7521384517.pdf"",""6017889488"" )"
"=HYPERLINK(""https://ecfsapi.fcc.gov/file/7521384285.pdf"",""6017889257"" )"
"=HYPERLINK(""https://ecfsapi.fcc.gov/file/7521384256.pdf"",""6017889236"" )"
"=HYPERLINK(""https://ecfsapi.fcc.gov/file/7521384078.pdf"",""6017889086"" )"
"=HYPERLINK(""https://ecfsapi.fcc.gov/file/7521384091.pdf"",""6017889078"" )"
"=HYPERLINK(""https://ecfsapi.fcc.gov/file/7521384012.pdf"",""6017889001"" )"
"=HYPERLINK(""https://ecfsapi.fcc.gov/file/7521383944.pdf"",""6017888938"" )"
"=HYPERLINK(""https://ecfsapi.fcc.gov/file/7521383840.pdf"",""6017888860"" )"
"=HYPERLINK(""https://ecfsapi.fcc.gov/file/7521383637.pdf"",""6017888655"" )"
"=HYPERLINK(""https://ecfsapi.fcc.gov/file/7521383615.pdf"",""6017888623"" )"
"=HYPERLINK(""https://ecfsapi.fcc.gov/file/7521383545.pdf"",""6017888589"" )"
"=HYPERLINK(""https://ecfsapi.fcc.gov/file/7521383554.pdf"",""6017888576"" )"
"=HYPERLINK(""https://ecfsapi.fcc.gov/file/7521383359.pdf"",""6017888429"" )"
"=HYPERLINK(""https://ecfsapi.fcc.gov/file/7521383210.pdf"",""6017888220"" )"
"=HYPERLINK(""https://ecfsapi.fcc.gov/file/7521382777.pdf"",""6017887814"" )"
"=HYPERLINK(""https://ecfsapi.fcc.gov/file/7521382762.pdf"",""6017887770"" )"
"=HYPERLINK(""https://ecfsapi.fcc.gov/file/7521382467.pdf"",""6017887520"" )"
"=HYPERLINK(""https://ecfsapi.fcc.gov/file/7521382405.pdf"",""6017887417"" )"
"=HYPERLINK(""https://ecfsapi.fcc.gov/file/7521382324.pdf"",""6017887339"" )"
"=HYPERLINK(""https://ecfsapi.fcc.gov/file/7521382261.pdf"",""6017887269"" )"
"=HYPERLINK(""https://ecfsapi.fcc.gov/file/7521382182.pdf"",""6017887197"" )"
"=HYPERLINK(""https://ecfsapi.fcc.gov/file/7521381802.pdf"",""6017886823"" )"
"=HYPERLINK(""https://ecfsapi.fcc.gov/file/7521381696.pdf"",""6017886728"" )"
"=HYPERLINK(""https://ecfsapi.fcc.gov/file/7521381462.pdf"",""6017886516"" )"
"=HYPERLINK(""https://ecfsapi.fcc.gov/file/7521381331.pdf"",""6017886365"" )"
"=HYPERLINK(""https://ecfsapi.fcc.gov/file/7521381283.pdf"",""6017886315"" )"
"=HYPERLINK(""https://ecfsapi.fcc.gov/file/7521381104.pdf"",""6017886137"" )"
"=HYPERLINK(""https://ecfsapi.fcc.gov/file/7521381048.pdf"",""6017886095"" )"
"=HYPERLINK(""https://ecfsapi.fcc.gov/file/7521380995.pdf"",""6017886031"" )"
"=HYPERLINK(""https://ecfsapi.fcc.gov/file/7521380753.pdf"",""6017885786"" )"
"=HYPERLINK(""https://ecfsapi.fcc.gov/file/7521380735.pdf"",""6017885765"" )"
"=HYPERLINK(""https://ecfsapi.fcc.gov/file/7521380032.pdf"",""6017885068"" )"
"=HYPERLINK(""https://ecfsapi.fcc.gov/file/7521379955.pdf"",""6017884995"" )"
"=HYPERLINK(""https://ecfsapi.fcc.gov/file/7521379393.pdf"",""6017884473"" )"
"=HYPERLINK(""https://ecfsapi.fcc.gov/file/7521379183.pdf"",""6017884277"" )"
"=HYPERLINK(""https://ecfsapi.fcc.gov/file/7521378811.pdf"",""6017883899"" )"
"=HYPERLINK(""https://ecfsapi.fcc.gov/file/7521378796.pdf"",""6017883884"" )"
"=HYPERLINK(""https://ecfsapi.fcc.gov/file/7521378629.pdf"",""6017883719"" )"
"=HYPERLINK(""https://ecfsapi.fcc.gov/file/7521378357.pdf"",""6017883445"" )"
"=HYPERLINK(""https://ecfsapi.fcc.gov/file/7521376654.pdf"",""6017881760"" )"
"=HYPERLINK(""https://ecfsapi.fcc.gov/file/7521376125.pdf"",""6017881254"" )"
"=HYPERLINK(""https://ecfsapi.fcc.gov/file/7521375969.pdf"",""6017881102"" )"
"=HYPERLINK(""https://ecfsapi.fcc.gov/file/7521375861.pdf"",""6017881003"" )"
"=HYPERLINK(""https://ecfsapi.fcc.gov/file/7521375762.pdf"",""6017880927"" )"
"=HYPERLINK(""https://ecfsapi.fcc.gov/file/7521375693.pdf"",""6017880861"" )"
"=HYPERLINK(""https://ecfsapi.fcc.gov/file/7521374753.pdf"",""6017879968"" )"
"=HYPERLINK(""https://ecfsapi.fcc.gov/file/7521372217.pdf"",""6017877841"" )"
"=HYPERLINK(""https://ecfsapi.fcc.gov/file/7521223039.pdf"",""6017734041"" )"
"=HYPERLINK(""https://ecfsapi.fcc.gov/file/7521220061.pdf"",""6017731052"" )"
"=HYPERLINK(""https://ecfsapi.fcc.gov/file/7521165151.pdf"",""6017676710"" )"
"=HYPERLINK(""https://ecfsapi.fcc.gov/file/7521151465.pdf"",""6017663367"" )"
"=HYPERLINK(""https://ecfsapi.fcc.gov/file/7521100159.pdf"",""6017613603"" )"
"=HYPERLINK(""https://ecfsapi.fcc.gov/file/7521092263.pdf"",""6017607016"" )"
"=HYPERLINK(""https://ecfsapi.fcc.gov/file/7521065290.pdf"",""6017582952"" )"
"=HYPERLINK(""https://ecfsapi.fcc.gov/file/7521064597.pdf"",""6017582373"" )"
"=HYPERLINK(""https://ecfsapi.fcc.gov/file/7521064585.pdf"",""6017582363"" )"
"=HYPERLINK(""https://ecfsapi.fcc.gov/file/7521064567.pdf"",""6017582348"" )"
"=HYPERLINK(""https://ecfsapi.fcc.gov/file/7521064558.pdf"",""6017582341"" )"
"=HYPERLINK(""https://ecfsapi.fcc.gov/file/7521064569.pdf"",""6017582350"" )"
"=HYPERLINK(""https://ecfsapi.fcc.gov/file/7521064560.pdf"",""6017582343"" )"
"=HYPERLINK(""https://ecfsapi.fcc.gov/file/7521064576.pdf"",""6017582356"" )"
"=HYPERLINK(""https://ecfsapi.fcc.gov/file/7521064532.pdf"",""6017582319"" )"
"=HYPERLINK(""https://ecfsapi.fcc.gov/file/7521064531.pdf"",""6017582318"" )"
"=HYPERLINK(""https://ecfsapi.fcc.gov/file/7520963915.pdf"",""6017481791"" )"
"=HYPERLINK(""https://ecfsapi.fcc.gov/file/7520960927.pdf"",""6017479136"" )"
"=HYPERLINK(""https://ecfsapi.fcc.gov/file/7520960926.pdf"",""6017479135"" )"
"=HYPERLINK(""https://ecfsapi.fcc.gov/file/7520960889.pdf"",""6017479107"" )"
"=HYPERLINK(""https://ecfsapi.fcc.gov/file/7520960925.pdf"",""6017479134"" )"
"=HYPERLINK(""https://ecfsapi.fcc.gov/file/7520960916.pdf"",""6017479126"" )"
"=HYPERLINK(""https://ecfsapi.fcc.gov/file/7520960915.pdf"",""6017479125"" )"
"=HYPERLINK(""https://ecfsapi.fcc.gov/file/7520960901.pdf"",""6017479117"" )"
"=HYPERLINK(""https://ecfsapi.fcc.gov/file/7520960895.pdf"",""6017479112"" )"
"=HYPERLINK(""https://ecfsapi.fcc.gov/file/7520960797.pdf"",""6017479021"" )"
"=HYPERLINK(""https://ecfsapi.fcc.gov/file/7520960693.pdf"",""6017478939"" )"
"=HYPERLINK(""https://ecfsapi.fcc.gov/file/7520960928.pdf"",""6017479137"" )"
"=HYPERLINK(""https://ecfsapi.fcc.gov/file/7520960906.pdf"",""6017479120"" )"
"=HYPERLINK(""https://ecfsapi.fcc.gov/file/7520960900.pdf"",""6017479116"" )"
"=HYPERLINK(""https://ecfsapi.fcc.gov/file/7520960898.pdf"",""6017479114"" )"
"=HYPERLINK(""https://ecfsapi.fcc.gov/file/7520960891.pdf"",""6017479110"" )"
"=HYPERLINK(""https://ecfsapi.fcc.gov/file/7520960854.pdf"",""6017479100"" )"
"=HYPERLINK(""https://ecfsapi.fcc.gov/file/7520960878.pdf"",""6017479097"" )"
"=HYPERLINK(""https://ecfsapi.fcc.gov/file/7520960794.pdf"",""6017479018"" )"
"=HYPERLINK(""https://ecfsapi.fcc.gov/file/7520960784.pdf"",""6017479013"" )"
"=HYPERLINK(""https://ecfsapi.fcc.gov/file/7520960539.pdf"",""6017478799"" )"
"=HYPERLINK(""https://ecfsapi.fcc.gov/file/7520960923.pdf"",""6017479132"" )"
"=HYPERLINK(""https://ecfsapi.fcc.gov/file/7520960899.pdf"",""6017479115"" )"
"=HYPERLINK(""https://ecfsapi.fcc.gov/file/7520960886.pdf"",""6017479105"" )"
"=HYPERLINK(""https://ecfsapi.fcc.gov/file/7520960850.pdf"",""6017479068"" )"
"=HYPERLINK(""https://ecfsapi.fcc.gov/file/7520960839.pdf"",""6017479060"" )"
"=HYPERLINK(""https://ecfsapi.fcc.gov/file/7520960838.pdf"",""6017479058"" )"
"=HYPERLINK(""https://ecfsapi.fcc.gov/file/7520960475.pdf"",""6017478747"" )"
"=HYPERLINK(""https://ecfsapi.fcc.gov/file/7520959959.pdf"",""6017478331"" )"
"=HYPERLINK(""https://ecfsapi.fcc.gov/file/7520959943.pdf"",""6017478318"" )"
"=HYPERLINK(""https://ecfsapi.fcc.gov/file/7520934859.pdf"",""6017461283"" )"
"=HYPERLINK(""https://ecfsapi.fcc.gov/file/7022297039.pdf"",""6017326841"" )"
"=HYPERLINK(""https://ecfsapi.fcc.gov/file/7022137968.pdf"",""6017170650"" )"
"=HYPERLINK(""https://ecfsapi.fcc.gov/file/7022125270.pdf"",""6017165392"" )"
"=HYPERLINK(""https://ecfsapi.fcc.gov/file/7022123904.pdf"",""6017164732"" )"
"=HYPERLINK(""https://ecfsapi.fcc.gov/file/7022123789.pdf"",""6017164645"" )"
"=HYPERLINK(""https://ecfsapi.fcc.gov/file/7022123592.pdf"",""6017164555"" )"
"=HYPERLINK(""https://ecfsapi.fcc.gov/file/7022123545.pdf"",""6017164523"" )"
"=HYPERLINK(""https://ecfsapi.fcc.gov/file/7022123624.pdf"",""6017164572"" )"
"=HYPERLINK(""https://ecfsapi.fcc.gov/file/7022123583.pdf"",""6017164550"" )"
"=HYPERLINK(""https://ecfsapi.fcc.gov/file/7022123581.pdf"",""6017164549"" )"
"=HYPERLINK(""https://ecfsapi.fcc.gov/file/7022123564.pdf"",""6017164538"" )"
"=HYPERLINK(""https://ecfsapi.fcc.gov/file/7022123543.pdf"",""6017164524"" )"
"=HYPERLINK(""https://ecfsapi.fcc.gov/file/7022123541.pdf"",""6017164520"" )"
"=HYPERLINK(""https://ecfsapi.fcc.gov/file/7022123641.pdf"",""6017164577"" )"
"=HYPERLINK(""https://ecfsapi.fcc.gov/file/7022123630.pdf"",""6017164575"" )"
"=HYPERLINK(""https://ecfsapi.fcc.gov/file/7022123601.pdf"",""6017164559"" )"
"=HYPERLINK(""https://ecfsapi.fcc.gov/file/7022123579.pdf"",""6017164547"" )"
"=HYPERLINK(""https://ecfsapi.fcc.gov/file/7022123569.pdf"",""6017164540"" )"
"=HYPERLINK(""https://ecfsapi.fcc.gov/file/7022123580.pdf"",""6017164548"" )"
"=HYPERLINK(""https://ecfsapi.fcc.gov/file/7022123561.pdf"",""6017164536"" )"
"=HYPERLINK(""https://ecfsapi.fcc.gov/file/7022123560.pdf"",""6017164535"" )"
"=HYPERLINK(""https://ecfsapi.fcc.gov/file/7022123552.pdf"",""6017164528"" )"
"=HYPERLINK(""https://ecfsapi.fcc.gov/file/7022123626.pdf"",""6017164573"" )"
"=HYPERLINK(""https://ecfsapi.fcc.gov/file/7022123586.pdf"",""6017164552"" )"
"=HYPERLINK(""https://ecfsapi.fcc.gov/file/7022123572.pdf"",""6017164542"" )"
"=HYPERLINK(""https://ecfsapi.fcc.gov/file/7022123584.pdf"",""6017164551"" )"
"=HYPERLINK(""https://ecfsapi.fcc.gov/file/7022123558.pdf"",""6017164533"" )"
"=HYPERLINK(""https://ecfsapi.fcc.gov/file/7022123551.pdf"",""6017164527"" )"
"=HYPERLINK(""https://ecfsapi.fcc.gov/file/7022123549.pdf"",""6017164525"" )"
"=HYPERLINK(""https://ecfsapi.fcc.gov/file/7022123529.pdf"",""6017164513"" )"
"=HYPERLINK(""https://ecfsapi.fcc.gov/file/7022123603.pdf"",""6017164560"" )"
"=HYPERLINK(""https://ecfsapi.fcc.gov/file/7022123542.pdf"",""6017164521"" )"
"=HYPERLINK(""https://ecfsapi.fcc.gov/file/7022123538.pdf"",""6017164519"" )"
"=HYPERLINK(""https://ecfsapi.fcc.gov/file/7022123544.pdf"",""6017164522"" )"
"=HYPERLINK(""https://ecfsapi.fcc.gov/file/7022123527.pdf"",""6017164515"" )"
"=HYPERLINK(""https://ecfsapi.fcc.gov/file/7022123602.pdf"",""6017164558"" )"
"=HYPERLINK(""https://ecfsapi.fcc.gov/file/7022123585.pdf"",""6017164553"" )"
"=HYPERLINK(""https://ecfsapi.fcc.gov/file/7022123563.pdf"",""6017164539"" )"
"=HYPERLINK(""https://ecfsapi.fcc.gov/file/7022123503.pdf"",""6017164500"" )"
"=HYPERLINK(""https://ecfsapi.fcc.gov/file/7022123471.pdf"",""6017164478"" )"
"=HYPERLINK(""https://ecfsapi.fcc.gov/file/7022123459.pdf"",""6017164472"" )"
"=HYPERLINK(""https://ecfsapi.fcc.gov/file/7022123454.pdf"",""6017164468"" )"
"=HYPERLINK(""https://ecfsapi.fcc.gov/file/7022123504.pdf"",""6017164501"" )"
"=HYPERLINK(""https://ecfsapi.fcc.gov/file/7022123479.pdf"",""6017164482"" )"
"=HYPERLINK(""https://ecfsapi.fcc.gov/file/7022123413.pdf"",""6017164443"" )"
"=HYPERLINK(""https://ecfsapi.fcc.gov/file/7022123324.pdf"",""6017164378"" )"
"=HYPERLINK(""https://ecfsapi.fcc.gov/file/7022123245.pdf"",""6017164337"" )"
"=HYPERLINK(""https://ecfsapi.fcc.gov/file/7022122443.pdf"",""6017164052"" )"
"=HYPERLINK(""https://ecfsapi.fcc.gov/file/7022123321.pdf"",""6017164374"" )"
"=HYPERLINK(""https://ecfsapi.fcc.gov/file/7022123315.pdf"",""6017164369"" )"
"=HYPERLINK(""https://ecfsapi.fcc.gov/file/7022123080.pdf"",""6017164263"" )"
"=HYPERLINK(""https://ecfsapi.fcc.gov/file/7022123054.pdf"",""6017164250"" )"
"=HYPERLINK(""https://ecfsapi.fcc.gov/file/7022123275.pdf"",""6017164352"" )"
"=HYPERLINK(""https://ecfsapi.fcc.gov/file/7022123259.pdf"",""6017164343"" )"
"=HYPERLINK(""https://ecfsapi.fcc.gov/file/7022123165.pdf"",""6017164309"" )"
"=HYPERLINK(""https://ecfsapi.fcc.gov/file/7022123509.pdf"",""6017164503"" )"
"=HYPERLINK(""https://ecfsapi.fcc.gov/file/7022123314.pdf"",""6017164368"" )"
"=HYPERLINK(""https://ecfsapi.fcc.gov/file/7022113921.pdf"",""6017160809"" )"
"=HYPERLINK(""https://ecfsapi.fcc.gov/file/7022111714.pdf"",""6017159656"" )"
"=HYPERLINK(""https://ecfsapi.fcc.gov/file/7022091924.pdf"",""6017155065"" )"
"=HYPERLINK(""https://ecfsapi.fcc.gov/file/7022088707.pdf"",""6017154341"" )"
