text,text_lower,label
the last 13 year,the last 13 year,DATE
reach4,reach4,PRODUCT
acadia parish,acadia parish,ORG
south louisiana,south louisiana,LOC
"more than 2,500","more than 2,500",CARDINAL
the last 3 year,the last 3 year,DATE
reach4,reach4,PRODUCT
3650,3650,CARDINAL
2.4ghz,2.4ghz,GPE
3650 - 3700mhz,3650 - 3700mhz,CARDINAL
reach4,reach4,PRODUCT
one,one,CARDINAL
3650 - 3700mhz,3650 - 3700mhz,DATE
up to 12,up to 12,CARDINAL
4,4,CARDINAL
3650,3650,CARDINAL
50mhz,50mhz,CARDINAL
3650 - 3700mhz,3650 - 3700mhz,DATE
3650,3650,CARDINAL
reach4,reach4,PRODUCT
reach4,reach4,PRODUCT
acadia parish,acadia parish,ORG
rural america,rural america,LOC
