text,text_lower,label
2,2,CARDINAL
3,3,CARDINAL
3.65,3.65,CARDINAL
today,today,DATE
3.55 - 3.65ghz,3.55 - 3.65ghz,CARDINAL
over a decade,over a decade,DATE
3.55,3.55,CARDINAL
fcc,fcc,ORG
spectrum squatter,spectrum squatter,PERSON
sas,sas,ORG
fcc,fcc,ORG
america,america,GPE
beacon channel,beacon channel,ORG
fcc,fcc,ORG
att,att,PERSON
the past 50 - 100 year,the past 50 - 100 year,DATE
att,att,PERSON
congress,congress,ORG
fcc,fcc,ORG
one,one,CARDINAL
