text,text_lower,label
"communications , inc.","communications , inc.",ORG
the wireless telecommunications bureau bureau of the federal communications commission,the wireless telecommunications bureau bureau of the federal communications commission,ORG
fcc or commission,fcc or commission,ORG
"october 23 , 2015","october 23 , 2015",DATE
3.65,3.65,CARDINAL
second,second,ORDINAL
3550 - 3700,3550 - 3700,DATE
3.5 ghz ro.introduction,3.5 ghz ro.introduction,CARDINAL
3.5,3.5,CARDINAL
3.5,3.5,CARDINAL
3.65,3.65,CARDINAL
ghz,ghz,ORG
3.65,3.65,CARDINAL
3.65,3.65,CARDINAL
ghz licensee,ghz licensee,PERSON
the transition period end,the transition period end,DATE
april 17,april 17,DATE
two,two,CARDINAL
3.65,3.65,CARDINAL
first,first,ORDINAL
3.65,3.65,CARDINAL
cpe,cpe,ORG
second,second,ORDINAL
cpe,cpe,ORG
second,second,ORDINAL
cpe,cpe,ORG
wedge,wedge,ORG
cpe,cpe,ORG
second,second,ORDINAL
cpe,cpe,ORG
3.65,3.65,CARDINAL
18 km,18 km,QUANTITY
new mexico,new mexico,GPE
new mexico,new mexico,GPE
2004,2004,DATE
the many thousand,the many thousand,CARDINAL
new mexico,new mexico,GPE
navajo school,navajo school,ORG
2006,2006,DATE
"approximately 3,200 square mile","approximately 3,200 square mile",QUANTITY
new mexico,new mexico,GPE
navajo,navajo,GPE
"approximately 23,300","approximately 23,300",CARDINAL
98 percent,98 percent,PERCENT
about 7.3,about 7.3,CARDINAL
one,one,CARDINAL
"6,300","6,300",CARDINAL
prc,prc,GPE
last - mile,last - mile,TIME
2000,2000,DATE
3.65,3.65,CARDINAL
3.65,3.65,CARDINAL
3.65,3.65,CARDINAL
1,1,CARDINAL
99.999 percent,99.999 percent,PERCENT
5 minute,5 minute,TIME
802.16,802.16,CARDINAL
up to 10,up to 10,CARDINAL
up to 100,up to 100,CARDINAL
mbps,mbps,ORG
3.65,3.65,CARDINAL
working and protection channel,working and protection channel,ORG
45,45,CARDINAL
3.65,3.65,CARDINAL
later - deploy,later - deploy,MONEY
second,second,ORDINAL
cpe,cpe,ORG
second,second,ORDINAL
3.5,3.5,CARDINAL
"april 17 , 2015","april 17 , 2015",DATE
90,90,CARDINAL
"april 17 , 2016","april 17 , 2016",DATE
3.5,3.5,CARDINAL
cpe,cpe,ORG
beprotecte,beprotecte,PERSON
cpe,cpe,ORG
deployedaround,deployedaround,PERSON
3.65,3.65,CARDINAL
3.5,3.5,CARDINAL
"april 17 , 2015","april 17 , 2015",DATE
"april 17 , 2016","april 17 , 2016",DATE
later - deploy,later - deploy,MONEY
"the april 17 , 2015","the april 17 , 2015",DATE
additionalcpe,additionalcpe,ORG
cpe,cpe,ORG
citizens broadband radio service,citizens broadband radio service,ORG
cpe,cpe,ORG
3.65,3.65,CARDINAL
ghz,ghz,ORG
later - deploy,later - deploy,MONEY
cpe,cpe,ORG
cpe,cpe,ORG
cpe,cpe,ORG
approximately 18 km,approximately 18 km,QUANTITY
caution[ed,caution[ed,PERSON
3.65,3.65,CARDINAL
18 km,18 km,QUANTITY
cpe,cpe,ORG
cpe,cpe,ORG
18 km,18 km,QUANTITY
cpe.sacred,cpe.sacred,LOC
3.65,3.65,CARDINAL
911,911,CARDINAL
3.65,3.65,CARDINAL
at least one,at least one,CARDINAL
3.65,3.65,CARDINAL
3.65,3.65,CARDINAL
cpe,cpe,ORG
uls,uls,ORG
last - mile,last - mile,QUANTITY
register cpe,register cpe,PERSON
"april 17 , 2015","april 17 , 2015",DATE
new mexico,new mexico,GPE
cpe,cpe,ORG
3.65,3.65,CARDINAL
ghz,ghz,ORG
3.65,3.65,CARDINAL
ghz,ghz,ORG
navajo,navajo,GPE
five - year,five - year,DATE
the new mexico prc,the new mexico prc,ORG
the state rural universal service fund srusf,the state rural universal service fund srusf,ORG
the new mexico rural telecommunications act,the new mexico rural telecommunications act,ORG
1.4 million,1.4 million,CARDINAL
five - year,five - year,DATE
january 2016,january 2016,DATE
3.65,3.65,CARDINAL
approximately four year,approximately four year,DATE
five - year,five - year,DATE
the u.s. department of agricultures rural utilities,the u.s. department of agricultures rural utilities,ORG
new mexico,new mexico,GPE
five - year,five - year,DATE
as many as 800,as many as 800,CARDINAL
new mexico,new mexico,GPE
navajo,navajo,GPE
911,911,CARDINAL
inthe come year,inthe come year,DATE
cpe thatis,cpe thatis,ORG
cpe,cpe,ORG
at least one,at least one,CARDINAL
3.65,3.65,CARDINAL
prc,prc,GPE
1.4 million,1.4 million,CARDINAL
over 10.5 million,over 10.5 million,CARDINAL
the next five year,the next five year,DATE
over 4.5 million,over 4.5 million,CARDINAL
3.65,3.65,CARDINAL
3.65,3.65,CARDINAL
cpe,cpe,ORG
3.65,3.65,CARDINAL
