text,text_lower,label
the wireless telecommunications bureau,the wireless telecommunications bureau,ORG
3650 - 3700,3650 - 3700,DATE
the last several week,the last several week,DATE
wispa,wispa,GPE
licensee,licensee,PERSON
3650 - 3700,3650 - 3700,DATE
third,third,ORDINAL
third,third,ORDINAL
require licensee,require licensee,PERSON
third,third,ORDINAL
wispa,wispa,GPE
wispa,wispa,PERSON
third,third,ORDINAL
wispa,wispa,PERSON
sas.conclusionwispa,sas.conclusionwispa,ORG
