text,text_lower,label
introduction and summary.the commission,introduction and summary.the commission,ORG
3.5,3.5,CARDINAL
3.5,3.5,CARDINAL
ghz,ghz,ORG
5,5,CARDINAL
1,1,CARDINAL
2,2,CARDINAL
ncta the internet television association,ncta the internet television association,ORG
pal,pal,ORG
3.5,3.5,CARDINAL
3.5,3.5,CARDINAL
two,two,CARDINAL
70,70,CARDINAL
at least 80,at least 80,CARDINAL
qualcomm,qualcomm,ORG
mobileand,mobileand,GPE
ncta,ncta,ORG
sas,sas,ORG
3.5,3.5,CARDINAL
3.5,3.5,CARDINAL
3.5,3.5,CARDINAL
2015,2015,DATE
3.5,3.5,CARDINAL
nctas,nctas,ORG
3.5,3.5,CARDINAL
1,1,CARDINAL
at least seven,at least seven,CARDINAL
3.5,3.5,CARDINAL
more than 200,more than 200,CARDINAL
between 3550 - 3700,between 3550 - 3700,CARDINAL
2015,2015,DATE
66,66,CARDINAL
3.5,3.5,CARDINAL
ghz stakeholder,ghz stakeholder,PERSON
ge,ge,ORG
"ericsson , nokia","ericsson , nokia",ORG
qualcomm,qualcomm,ORG
3.5,3.5,CARDINAL
2017.att,2017.att,CARDINAL
3.5,3.5,CARDINAL
5g.in,5g.in,PRODUCT
3.5,3.5,CARDINAL
5,5,CARDINAL
5,5,CARDINAL
ncta agree,ncta agree,PERSON
3.5,3.5,CARDINAL
5,5,CARDINAL
5,5,CARDINAL
5,5,CARDINAL
ncta hasargue,ncta hasargue,ORG
5,5,CARDINAL
nokia,nokia,ORG
intel,intel,ORG
cisco,cisco,GPE
5,5,CARDINAL
that5 g,that5 g,NORP
3.5,3.5,CARDINAL
700,700,CARDINAL
5,5,CARDINAL
3.5,3.5,CARDINAL
3.5,3.5,CARDINAL
ghz,ghz,ORG
first,first,ORDINAL
ncta supports modest change,ncta supports modest change,GPE
pal geographic area,pal geographic area,ORG
3.5,3.5,CARDINAL
ncta,ncta,ORG
ncta agree,ncta agree,PERSON
one,one,CARDINAL
"74,000","74,000",CARDINAL
"518,000","518,000",CARDINAL
sas,sas,ORG
416,416,CARDINAL
sas,sas,ORG
"74,000","74,000",CARDINAL
"approximately 3,150","approximately 3,150",CARDINAL
sas,sas,ORG
ncta agree,ncta agree,PERSON
3.5,3.5,CARDINAL
secondary,secondary,ORDINAL
ctias,ctias,PERSON
3.5,3.5,CARDINAL
ten - year,ten - year,DATE
3.5 ghz license,3.5 ghz license,QUANTITY
ten year,ten year,DATE
ncta agree,ncta agree,PERSON
three - year,three - year,DATE
six - year,six - year,DATE
3.5,3.5,CARDINAL
3.5,3.5,CARDINAL
ten - year,ten - year,DATE
several year,several year,DATE
ten - year,ten - year,DATE
ten - year,ten - year,DATE
renewalin,renewalin,GPE
3.5,3.5,CARDINAL
pal,pal,ORG
2015,2015,DATE
3.5,3.5,CARDINAL
seven,seven,CARDINAL
70,70,CARDINAL
only 30,only 30,CARDINAL
3550 - 3650,3550 - 3650,DATE
anymarket,anymarket,GPE
50,50,CARDINAL
3650 - 3700,3650 - 3700,DATE
ncta agree,ncta agree,PERSON
microsoft,microsoft,ORG
entire3550 - 3700,entire3550 - 3700,DATE
3.5,3.5,CARDINAL
3650 - 3700,3650 - 3700,DATE
36503700,36503700,DATE
ncta agree,ncta agree,PERSON
3650 - 3700,3650 - 3700,DATE
ncta supports modest change,ncta supports modest change,ORG
qualcomm,qualcomm,GPE
ncta support modest technical rule,ncta support modest technical rule,ORG
ghz,ghz,ORG
2015,2015,DATE
qualcomm,qualcomm,GPE
gaaand pal licensee,gaaand pal licensee,PERSON
ncta support qualcomms,ncta support qualcomms,PERSON
20,20,CARDINAL
40,40,CARDINAL
ten,ten,QUANTITY
today,today,DATE
-40,-40,ORG
-40,-40,ORG
section 96.41e2,section 96.41e2,LAW
40,40,CARDINAL
ncta,ncta,ORG
sas,sas,ORG
three,three,CARDINAL
sas,sas,ORG
err,err,ORG
vi,vi,GPE
conclusionthe commission,conclusionthe commission,ORG
3.5,3.5,CARDINAL
