text,text_lower,label
3.5,3.5,CARDINAL
two,two,CARDINAL
first,first,ORDINAL
second,second,ORDINAL
3.5,3.5,CARDINAL
third,third,ORDINAL
sas,sas,ORG
third,third,ORDINAL
third,third,ORDINAL
3.5,3.5,CARDINAL
section 310d,section 310d,LAW
sas,sas,ORG
"74,000","74,000",CARDINAL
40,40,CARDINAL
mhz spectrum aggregation,mhz spectrum aggregation,ORG
establish spectrum exchange,establish spectrum exchange,ORG
one,one,CARDINAL
3.5,3.5,CARDINAL
section 10c,section 10c,LAW
section 310d,section 310d,LAW
3.5,3.5,CARDINAL
hundred of thousand,hundred of thousand,CARDINAL
