text,text_lower,label
cantor telecom services,cantor telecom services,ORG
l.p. cantor telecom,l.p. cantor telecom,ORG
3.5,3.5,CARDINAL
cantor telecom,cantor telecom,ORG
u.s.,u.s.,GPE
one,one,CARDINAL
cantor telecom,cantor telecom,ORG
spectrum exchange,spectrum exchange,ORG
cantor telecom,cantor telecom,ORG
spectrum exchange,spectrum exchange,ORG
cantor telecom services,cantor telecom services,ORG
l.p. cantor telecom,l.p. cantor telecom,ORG
the federal communications commission,the federal communications commission,ORG
fcc or commission,fcc or commission,ORG
second,second,ORDINAL
3550 - 3650,3550 - 3650,DATE
3.5,3.5,CARDINAL
cantor fitzgerald,cantor fitzgerald,ORG
l.p.,l.p.,ORG
fitzgerald,fitzgerald,PERSON
1945,1945,DATE
one,one,CARDINAL
"approximately 10,000","approximately 10,000",CARDINAL
20,20,CARDINAL
fitzgerald act,fitzgerald act,PERSON
one,one,CARDINAL
22,22,CARDINAL
the united states federal reserve,the united states federal reserve,GPE
decade,decade,DATE
fitzgerald,fitzgerald,PERSON
cantor fitzgerald,cantor fitzgerald,PERSON
more than 150 trillion,more than 150 trillion,MONEY
annually,annually,DATE
fitzgerald,fitzgerald,PERSON
cantor,cantor,ORG
cantor fitzgerald,cantor fitzgerald,PERSON
one,one,CARDINAL
u.s. treasury,u.s. treasury,ORG
nasdaq.cantor telecom applaud,nasdaq.cantor telecom applaud,ORG
cantor telecom,cantor telecom,ORG
3.5,3.5,CARDINAL
u.s.,u.s.,GPE
one,one,CARDINAL
1,1,CARDINAL
two,two,CARDINAL
3.5,3.5,CARDINAL
u.s.,u.s.,GPE
sas,sas,ORG
second,second,ORDINAL
sas,sas,ORG
spectrum bridge inc.,spectrum bridge inc.,ORG
spectrum bridge,spectrum bridge,FAC
one,one,CARDINAL
secondary,secondary,ORDINAL
cantor telecom,cantor telecom,ORG
one,one,CARDINAL
the spectrum exchange,the spectrum exchange,ORG
3.5,3.5,CARDINAL
ghz spectrum exchange,ghz spectrum exchange,ORG
disintereste third party,disintereste third party,ORG
underlie,underlie,NORP
cantor telecom,cantor telecom,ORG
solicit,solicit,ORG
sas,sas,ORG
cantor,cantor,ORG
spectrum exchange,spectrum exchange,ORG
usg,usg,ORG
the spectrum exchange,the spectrum exchange,ORG
first,first,ORDINAL
3.5,3.5,CARDINAL
sas,sas,ORG
second,second,ORDINAL
third,third,ORDINAL
3.5,3.5,CARDINAL
ghz spectrum resource,ghz spectrum resource,ORG
spectrum,spectrum,PERSON
usg,usg,ORG
the united states,the united states,GPE
3.5,3.5,CARDINAL
cantor telecom,cantor telecom,ORG
sas,sas,ORG
cantor envision spectrum exchange,cantor envision spectrum exchange,ORG
pal,pal,ORG
spectrum exchange,spectrum exchange,ORG
second,second,ORDINAL
"att services , inc.","att services , inc.",ORG
att,att,PERSON
qualcomm,qualcomm,PERSON
att assert,att assert,PERSON
3.5,3.5,CARDINAL
10,10,CARDINAL
three - year,three - year,DATE
six - year,six - year,DATE
two,two,CARDINAL
three - year,three - year,DATE
cantor telecom,cantor telecom,ORG
pal uer,pal uer,PERSON
cantor telecoms exchange,cantor telecoms exchange,ORG
cantortelecom,cantortelecom,ORG
sas,sas,ORG
week,week,DATE
month,month,DATE
1,1,CARDINAL
"spectrum bridge , inc.","spectrum bridge , inc.",ORG
sas,sas,ORG
3.5,3.5,CARDINAL
sas,sas,ORG
cantor telecom,cantor telecom,ORG
the spectrum exchange,the spectrum exchange,ORG
cantor telecom,cantor telecom,ORG
pal,pal,ORG
3.5,3.5,CARDINAL
3.5,3.5,CARDINAL
one,one,CARDINAL
toa,toa,ORG
seven,seven,CARDINAL
one,one,CARDINAL
every three year,every three year,DATE
three - year,three - year,DATE
3.5,3.5,CARDINAL
telecom,telecom,ORG
second,second,ORDINAL
fcc,fcc,ORG
3.5,3.5,CARDINAL
cantor telecom,cantor telecom,ORG
section 310,section 310,LAW
the communications act,the communications act,LAW
1934,1934,DATE
"more than 74,000","more than 74,000",CARDINAL
"manpower-,paperwork-","manpower-,paperwork-",NORP
3.5,3.5,CARDINAL
fcc,fcc,ORG
a later date,a later date,DATE
vi,vi,GPE
3.5,3.5,CARDINAL
