text,text_lower,label
3550 - 3700,3550 - 3700,DATE
3.5,3.5,CARDINAL
3.5,3.5,CARDINAL
first,first,ORDINAL
second,second,ORDINAL
sas,sas,ORG
second,second,ORDINAL
citizens broadband radio service,citizens broadband radio service,ORG
sas,sas,ORG
sas,sas,ORG
3.5,3.5,CARDINAL
fss,fss,ORG
fss,fss,ORG
fss earth,fss earth,LOC
earth,earth,LOC
3.5,3.5,CARDINAL
fss,fss,ORG
fss,fss,ORG
first,first,ORDINAL
3.5,3.5,CARDINAL
second,second,ORDINAL
sas,sas,ORG
sas,sas,ORG
sas,sas,ORG
sas,sas,ORG
3.5,3.5,CARDINAL
april 2015,april 2015,DATE
3.5,3.5,CARDINAL
