text,text_lower,label
3.5,3.5,CARDINAL
150,150,CARDINAL
second,second,ORDINAL
second,second,ORDINAL
fnprm,fnprm,NORP
3.5,3.5,CARDINAL
fss,fss,ORG
sas,sas,ORG
3.5,3.5,CARDINAL
3.5,3.5,CARDINAL
second,second,ORDINAL
pal,pal,ORG
citizens broadband radio service,citizens broadband radio service,ORG
pal cbsds,pal cbsds,PERSON
the pal licensee 's,the pal licensee 's,ORG
sas,sas,ORG
pal licensee,pal licensee,PERSON
sas,sas,ORG
sas,sas,ORG
sas,sas,ORG
revisit,revisit,GPE
96.41d1,96.41d1,CARDINAL
-80,-80,PRODUCT
one,one,CARDINAL
1,1,CARDINAL
one,one,CARDINAL
sas,sas,ORG
one,one,CARDINAL
1,1,CARDINAL
1,1,CARDINAL
-80,-80,PRODUCT
2,2,CARDINAL
orangeand,orangeand,GPE
sas,sas,GPE
one,one,CARDINAL
3,3,CARDINAL
4,4,CARDINAL
four,four,CARDINAL
first,first,ORDINAL
the united states,the united states,GPE
3.5,3.5,CARDINAL
pal licensee,pal licensee,PERSON
second,second,ORDINAL
sas,sas,ORG
sas,sas,ORG
sas,sas,ORG
mountain ridge,mountain ridge,GPE
sas,sas,GPE
sas,sas,ORG
-80,-80,PRODUCT
10,10,CARDINAL
1.5 meter,1.5 meter,QUANTITY
first,first,ORDINAL
96.41d1,96.41d1,CARDINAL
-80,-80,PRODUCT
96.41d1,96.41d1,CARDINAL
5,5,CARDINAL
pittsburgh,pittsburgh,GPE
pennsylvania,pennsylvania,GPE
1.5 meter,1.5 meter,QUANTITY
6,6,CARDINAL
los angeles,los angeles,GPE
around 1000 foot,around 1000 foot,QUANTITY
1.5 meter,1.5 meter,QUANTITY
over dozen,over dozen,CARDINAL
avocado heights,avocado heights,GPE
the highlight adjacent census tract,the highlight adjacent census tract,ORG
avocado heights,avocado heights,GPE
96.41d1,96.41d1,CARDINAL
one,one,CARDINAL
sas,sas,ORG
second,second,ORDINAL
sas,sas,ORG
sas.sass,sas.sass,ORG
thousand,thousand,CARDINAL
3.5,3.5,CARDINAL
sas,sas,ORG
secondary,secondary,ORDINAL
licensee,licensee,PERSON
3.5,3.5,CARDINAL
3.5,3.5,CARDINAL
1.e,1.e,CARDINAL
sas,sas,ORG
second,second,ORDINAL
william lehr,william lehr,PERSON
lehr,lehr,PERSON
pa,pa,NORP
3.5,3.5,CARDINAL
earth,earth,LOC
fss earth,fss earth,LOC
3.5,3.5,CARDINAL
sas capability,sas capability,ORG
fss,fss,ORG
3.5,3.5,CARDINAL
fss,fss,ORG
second,second,ORDINAL
the task group,the task group,ORG
sas,sas,ORG
the task group,the task group,ORG
fss,fss,ORG
google,google,ORG
fss,fss,ORG
fss,fss,ORG
2005,2005,DATE
2005,2005,DATE
fss,fss,ORG
andfixe,andfixe,ORG
fss,fss,ORG
three,three,CARDINAL
first,first,ORDINAL
1 - 4,1 - 4,CARDINAL
appendix,appendix,GPE
tothese,tothese,NORP
earth,earth,LOC
earth,earth,LOC
second,second,ORDINAL
1,1,CARDINAL
appendix,appendix,GPE
two,two,CARDINAL
appendix,appendix,GPE
6 and 7,6 and 7,CARDINAL
appendix,appendix,GPE
6 and 7,6 and 7,DATE
appendix,appendix,GPE
fcc,fcc,ORG
fss,fss,ORG
fss,fss,ORG
appendix,appendix,GPE
the international telecommunication union itu,the international telecommunication union itu,ORG
appendix ds,appendix ds,ORG
third,third,ORDINAL
s.1432 - 1,s.1432 - 1,DATE
fss,fss,ORG
google,google,ORG
fss earth,fss earth,PRODUCT
fss earth,fss earth,LOC
as much as 6,as much as 6,CARDINAL
142.8,142.8,CARDINAL
appendix,appendix,GPE
6 142.8,6 142.8,CARDINAL
8.6,8.6,CARDINAL
fss,fss,ORG
incumbent fss,incumbent fss,PRODUCT
less than 8.6,less than 8.6,CARDINAL
fss,fss,ORG
earth,earth,LOC
3700,3700,CARDINAL
fss,fss,ORG
3700,3700,CARDINAL
3700,3700,CARDINAL
fss,fss,ORG
fss,fss,ORG
fss earth,fss earth,LOC
earth,earth,LOC
sas,sas,ORG
fss,fss,ORG
fss,fss,ORG
3.5,3.5,CARDINAL
fss,fss,ORG
first,first,ORDINAL
sas,sas,ORG
recent year,recent year,DATE
one,one,CARDINAL
fss earth,fss earth,LOC
fss,fss,ORG
sas,sas,ORG
3.5,3.5,CARDINAL
3.5,3.5,CARDINAL
the national telecommunications and information administrations institute for telecommunication sciences,the national telecommunications and information administrations institute for telecommunication sciences,ORG
3.5,3.5,CARDINAL
colorado,colorado,GPE
area,area,GPE
hundred of thousand,hundred of thousand,CARDINAL
california,california,GPE
virginia,virginia,GPE
3.5,3.5,CARDINAL
chris anderson,chris anderson,PERSON
the u.s. naval academy,the u.s. naval academy,ORG
3.5,3.5,CARDINAL
3.5,3.5,CARDINAL
navy,navy,ORG
equipmentin,equipmentin,PERSON
maryland,maryland,GPE
google hope,google hope,PERSON
superiorspectrum,superiorspectrum,PERSON
3.5,3.5,CARDINAL
3.5,3.5,CARDINAL
cbsds,cbsds,PERSON
million,million,CARDINAL
sas,sas,ORG
3.5,3.5,CARDINAL
3.5,3.5,CARDINAL
3.5,3.5,CARDINAL
sas,sas,ORG
fss,fss,ORG
ntia,ntia,ORG
itu,itu,ORG
3,3,CARDINAL
today,today,DATE
fss,fss,ORG
3700,3700,CARDINAL
between 3700 mhz and 4200 mhz,between 3700 mhz and 4200 mhz,QUANTITY
second,second,ORDINAL
third,third,ORDINAL
5 - 10,5 - 10,CARDINAL
3700 - 4200,3700 - 4200,QUANTITY
1,1,CARDINAL
10 - 15,10 - 15,CARDINAL
2,2,CARDINAL
5,5,CARDINAL
fourth,fourth,ORDINAL
fcc,fcc,ORG
96,96,CARDINAL
fcc,fcc,ORG
sas,sas,ORG
sas,sas,ORG
fcc,fcc,ORG
3700 - 4200,3700 - 4200,CARDINAL
3550,3550,CARDINAL
as30mode 1,as30mode 1,FAC
2,2,CARDINAL
96,96,CARDINAL
3.5,3.5,CARDINAL
3.5,3.5,CARDINAL
