text,text_lower,label
802.11,802.11,CARDINAL
the federal communications commission,the federal communications commission,ORG
fcc or commission,fcc or commission,ORG
3550 - 3650,3550 - 3650,DATE
3.5,3.5,CARDINAL
3650 - 3700,3650 - 3700,DATE
ieee,ieee,PERSON
802.11,802.11,CARDINAL
802.11,802.11,CARDINAL
lan wlan,lan wlan,PERSON
802.15,802.15,CARDINAL
ieee 802-compliant,ieee 802-compliant,ORG
may 2015,may 2015,DATE
vancouver,vancouver,GPE
802.11,802.11,CARDINAL
3.5,3.5,CARDINAL
3550 - 3700,3550 - 3700,DATE
3.5 ghz bandin,3.5 ghz bandin,QUANTITY
fcc,fcc,ORG
3650 - 3700,3650 - 3700,DATE
802.11,802.11,CARDINAL
802.11y-2008,802.11y-2008,PRODUCT
802.11,802.11,CARDINAL
us,us,GPE
802.11,802.11,CARDINAL
fcc,fcc,ORG
08,08,CARDINAL
260,260,CARDINAL
802.11,802.11,CARDINAL
digital tv,digital tv,ORG
november of 2012,november of 2012,DATE
the intervene year,the intervene year,DATE
802.11af silicon,802.11af silicon,FAC
fcc,fcc,ORG
15,15,CARDINAL
802.11,802.11,CARDINAL
5,5,CARDINAL
fss,fss,ORG
wlan,wlan,GPE
802.11,802.11,CARDINAL
one,one,CARDINAL
two,two,CARDINAL
5,5,CARDINAL
us,us,GPE
fcc,fcc,ORG
several year ago,several year ago,DATE
3650 - 3700,3650 - 3700,DATE
mhz amendment,mhz amendment,PRODUCT
802.11,802.11,CARDINAL
conclusionieee 802.11,conclusionieee 802.11,PRODUCT
802.11,802.11,CARDINAL
the wlan community,the wlan community,ORG
the hundred of million,the hundred of million,CARDINAL
ieee 802.11,ieee 802.11,PERSON
