text,text_lower,label
cohere technologies backgroundcohere,cohere technologies backgroundcohere,ORG
santa clara,santa clara,GPE
california,california,GPE
2010,2010,DATE
3650,3650,CARDINAL
3700,3700,CARDINAL
million of dollar,million of dollar,MONEY
2012,2012,DATE
3500,3500,CARDINAL
fcc,fcc,ORG
100,100,CARDINAL
2013,2013,DATE
1,1,CARDINAL
3650,3650,CARDINAL
3700,3700,CARDINAL
2,2,CARDINAL
fcc,fcc,ORG
3650,3650,CARDINAL
march 2014,march 2014,DATE
3650 3700,3650 3700,DATE
the ensue month,the ensue month,DATE
sta,sta,ORG
3655 3665,3655 3665,DATE
california,california,GPE
"december 12 , 2012","december 12 , 2012",DATE
12,12,CARDINAL
3550 3650,3550 3650,DATE
3650,3650,CARDINAL
3700,3700,CARDINAL
"april 23 , 2014","april 23 , 2014",DATE
12,12,CARDINAL
150,150,CARDINAL
3650,3650,CARDINAL
3700,3700,CARDINAL
backhaul network,backhaul network,FAC
3500,3500,CARDINAL
3650,3650,CARDINAL
2015,2015,DATE
3650 3700,3650 3700,DATE
an additional 50,an additional 50,CARDINAL
the last two year,the last two year,DATE
man - hour,man - hour,TIME
3650 3700,3650 3700,DATE
96,96,CARDINAL
3560,3560,CARDINAL
two year or more,two year or more,DATE
five year,five year,DATE
3650,3650,CARDINAL
3700,3700,CARDINAL
five year,five year,DATE
3650,3650,CARDINAL
fnprm,fnprm,NORP
96.38b,96.38b,ORG
30,30,CARDINAL
30,30,CARDINAL
10,10,CARDINAL
fcc,fcc,ORG
five - year,five - year,DATE
3650,3650,CARDINAL
3700,3700,CARDINAL
3650,3650,CARDINAL
3700,3700,CARDINAL
