text,text_lower,label
"telcordia technologies , inc.","telcordia technologies , inc.",ORG
iconectiv telcordia,iconectiv telcordia,PERSON
iconectiv,iconectiv,ORG
fcc,fcc,ORG
iconectiv,iconectiv,PERSON
u.s.,u.s.,GPE
150,150,CARDINAL
3.5,3.5,CARDINAL
sas,sas,ORG
3.5,3.5,CARDINAL
iconectiv,iconectiv,ORG
sas,sas,ORG
3.5,3.5,CARDINAL
sas,sas,ORG
sas development,sas development,ORG
sas,sas,GPE
fcc,fcc,ORG
sas,sas,ORG
3.5,3.5,CARDINAL
sas,sas,ORG
achieve,achieve,PERSON
sas,sas,ORG
sas,sas,ORG
iconectiv,iconectiv,PERSON
sas,sas,ORG
3.5,3.5,CARDINAL
sas,sas,ORG
sas,sas,ORG
sas,sas,ORG
sas,sas,ORG
sas.in,sas.in,PRODUCT
10,10,CARDINAL
mhz spectrum assign,mhz spectrum assign,ORG
sas,sas,ORG
sas,sas,ORG
sas,sas,GPE
sas - oss,sas - oss,ORG
oss,oss,ORG
sas,sas,ORG
sas,sas,ORG
sas,sas,ORG
sas,sas,ORG
fcc,fcc,ORG
sas,sas,ORG
one,one,CARDINAL
third,third,ORDINAL
sas,sas,ORG
sas,sas,ORG
fcc,fcc,ORG
sas,sas,ORG
sas,sas,ORG
sas,sas,ORG
sas,sas,ORG
sas,sas,GPE
oss,oss,ORG
sas,sas,ORG
sas,sas,ORG
3.5,3.5,CARDINAL
sas,sas,ORG
fss,fss,ORG
fss,fss,ORG
iconectiv,iconectiv,PERSON
tvws,tvws,PERSON
u.s.,u.s.,GPE
3.5,3.5,CARDINAL
sas,sas,ORG
sas,sas,ORG
citizens broadbandradio service,citizens broadbandradio service,ORG
sas,sas,ORG
sas,sas,ORG
sas,sas,ORG
sas,sas,ORG
two,two,CARDINAL
two,two,CARDINAL
first,first,ORDINAL
third,third,ORDINAL
securityiconectiv,securityiconectiv,PERSON
sas,sas,ORG
iconectiv,iconectiv,ORG
adoptrule,adoptrule,PERSON
