text,text_lower,label
"southern company services , inc.","southern company services , inc.",ORG
southern supportsthe commission,southern supportsthe commission,ORG
3550 3650,3550 3650,DATE
3.5,3.5,CARDINAL
3.5,3.5,CARDINAL
three,three,CARDINAL
four,four,CARDINAL
alabama power company,alabama power company,ORG
georgia power company,georgia power company,ORG
gulf power company,gulf power company,ORG
mississippi power company,mississippi power company,ORG
wholesale electric service,wholesale electric service,ORG
"120,000 square mile","120,000 square mile",QUANTITY
georgia,georgia,GPE
alabama,alabama,GPE
florida,florida,GPE
mississippi,mississippi,GPE
fcc,fcc,ORG
citizens broadband radio service,citizens broadband radio service,ORG
3550 - 3650,3550 - 3650,CARDINAL
3550 - 3650,3550 - 3650,DATE
fcc,fcc,ORG
section 310,section 310,LAW
3550 - 3650,3550 - 3650,DATE
georgia,georgia,GPE
alabama,alabama,GPE
florida,florida,GPE
mississippi,mississippi,GPE
the national telecommunications andinformation administration ntia,the national telecommunications andinformation administration ntia,ORG
3.5,3.5,CARDINAL
309j2,309j2,CARDINAL
congress,congress,ORG
private internal radio service,private internal radio service,ORG
metropolitan transit system,metropolitan transit system,ORG
section 1,section 1,LAW
fcc,fcc,ORG
contain accessthe commission,contain accessthe commission,ORG
up to 20,up to 20,CARDINAL
sas,sas,ORG
caf.southern,caf.southern,ORG
first,first,ORDINAL
southern,southern,NORP
3.5,3.5,CARDINAL
express,express,ORG
second,second,ORDINAL
section 90.7,section 90.7,LAW
section 90.7,section 90.7,LAW
3.5,3.5,CARDINAL
3.5,3.5,CARDINAL
spectrum access,spectrum access,PERSON
one,one,CARDINAL
fcc,fcc,ORG
sas,sas,ORG
sas,sas,ORG
utilitys,utilitys,GPE
36503700,36503700,DATE
90,90,CARDINAL
2012,2012,DATE
3650 - 3700,3650 - 3700,DATE
35503650,35503650,CARDINAL
150,150,CARDINAL
3650 - 3700,3650 - 3700,DATE
90,90,CARDINAL
licensee,licensee,PERSON
3550 - 3650,3550 - 3650,DATE
3550 - 3650mhz,3550 - 3650mhz,DATE
3650 - 3700,3650 - 3700,DATE
150,150,CARDINAL
3650 - 3700,3650 - 3700,DATE
3650 - 3700,3650 - 3700,DATE
90,90,CARDINAL
3650 - 3700,3650 - 3700,DATE
3650 - 3700,3650 - 3700,DATE
90,90,CARDINAL
three,three,CARDINAL
3550 - 3650,3550 - 3650,DATE
sas,sas,ORG
3.5,3.5,CARDINAL
3650 - 3700,3650 - 3700,DATE
90.wherefore,90.wherefore,PRODUCT
