text,text_lower,label
3.5,3.5,CARDINAL
3550 - 3650,3550 - 3650,DATE
3.5,3.5,CARDINAL
ghz,ghz,ORG
3.5,3.5,CARDINAL
fcc,fcc,ORG
fcc,fcc,ORG
three,three,CARDINAL
fcc,fcc,ORG
five - year,five - year,DATE
3.5,3.5,CARDINAL
fcc,fcc,ORG
sas,sas,ORG
driv[e,driv[e,ORG
3.5,3.5,CARDINAL
3,3,CARDINAL
3.5,3.5,CARDINAL
3.5,3.5,CARDINAL
fcc,fcc,ORG
three,three,CARDINAL
3.5,3.5,CARDINAL
three,three,CARDINAL
three,three,CARDINAL
licensee,licensee,PERSON
spectrum withmultiple,spectrum withmultiple,PERSON
stakeholder interestedin,stakeholder interestedin,PERSON
sas,sas,ORG
department of defense dod,department of defense dod,ORG
three,three,CARDINAL
60 percent,60 percent,PERCENT
u.s.,u.s.,GPE
u.s.,u.s.,GPE
three,three,CARDINAL
fcc,fcc,ORG
three,three,CARDINAL
three,three,CARDINAL
3.5,3.5,CARDINAL
sas,sas,ORG
three,three,CARDINAL
sas,sas,ORG
multi - year,multi - year,DATE
3.5,3.5,CARDINAL
sas,sas,ORG
3.5,3.5,CARDINAL
sas,sas,ORG
three,three,CARDINAL
fcc,fcc,ORG
multi - year,multi - year,DATE
one - year,one - year,DATE
strand,strand,GPE
itcan,itcan,NORP
several year,several year,DATE
pal,pal,ORG
multi - year,multi - year,DATE
at least five year,at least five year,DATE
3.5,3.5,CARDINAL
fcc,fcc,ORG
ona county,ona county,GPE
"more than 74,000","more than 74,000",CARDINAL
3.5,3.5,CARDINAL
ghz spectrum,ghz spectrum,PRODUCT
fcc,fcc,ORG
sas,sas,GPE
10,10,CARDINAL
dynamically assign spectrum,dynamically assign spectrum,ORG
pal licensee,pal licensee,PERSON
incumbentsand,incumbentsand,ORG
sas,sas,ORG
fcc,fcc,ORG
3.5,3.5,CARDINAL
fcc,fcc,ORG
fcc,fcc,ORG
sas,sas,ORG
beenlicensee heighten,beenlicensee heighten,PERSON
fcc,fcc,ORG
3.5,3.5,CARDINAL
fcc,fcc,ORG
fcc,fcc,ORG
3.5,3.5,CARDINAL
fcc,fcc,ORG
all 3.5,all 3.5,CARDINAL
sas,sas,ORG
50 meter,50 meter,QUANTITY
3 meter,3 meter,QUANTITY
fcc,fcc,ORG
e-911,e-911,CARDINAL
today,today,DATE
e-911,e-911,FAC
3.5,3.5,CARDINAL
roughly 200 mile,roughly 200 mile,QUANTITY
u.s.,u.s.,GPE
60 percent,60 percent,PERCENT
u.s.,u.s.,GPE
3.5,3.5,CARDINAL
3.5,3.5,CARDINAL
2010,2010,DATE
2012,2012,DATE
3550 - 3650,3550 - 3650,DATE
qualcomm,qualcomm,GPE
ntias exclusion zone,ntias exclusion zone,ORG
346 mile,346 mile,QUANTITY
less than 10 mile,less than 10 mile,QUANTITY
one,one,CARDINAL
fcc,fcc,ORG
the commerce spectrum management advisory committee csmac,the commerce spectrum management advisory committee csmac,ORG
fcc,fcc,ORG
ntia,ntia,ORG
dod,dod,ORG
dod,dod,ORG
navy,navy,ORG
dod,dod,ORG
sas,sas,ORG
3.5,3.5,CARDINAL
sas,sas,ORG
sas,sas,ORG
multi - year,multi - year,DATE
sas,sas,ORG
namelydetermine,namelydetermine,GPE
sas,sas,ORG
sas,sas,ORG
fcc,fcc,ORG
norshould,norshould,PERSON
3.5,3.5,CARDINAL
third,third,ORDINAL
vi,vi,GPE
3.5,3.5,CARDINAL
sas,sas,ORG
3.5,3.5,CARDINAL
