text,text_lower,label
the american petroleum institute,the american petroleum institute,ORG
3.5,3.5,CARDINAL
3650 - 3700,3650 - 3700,DATE
3.65,3.65,CARDINAL
3.65,3.65,CARDINAL
only a few year ago,only a few year ago,DATE
3.65,3.65,CARDINAL
thousand,thousand,CARDINAL
ten of thousand,ten of thousand,CARDINAL
3.65,3.65,CARDINAL
the last five year,the last five year,DATE
3.5,3.5,CARDINAL
fcc,fcc,ORG
licensee,licensee,PERSON
10 consecutive year,10 consecutive year,DATE
50 percent,50 percent,PERCENT
citizens broadband radio service,citizens broadband radio service,ORG
5,5,CARDINAL
10,10,CARDINAL
sas,sas,ORG
3.5,3.5,CARDINAL
the american petroleum institute,the american petroleum institute,ORG
3550 - 3650,3550 - 3650,DATE
3.5,3.5,CARDINAL
3650 - 3700,3650 - 3700,DATE
3.65,3.65,CARDINAL
3.5,3.5,CARDINAL
backgroundthe united states,backgroundthe united states,GPE
u.s.,u.s.,GPE
saudi arabia,saudi arabia,GPE
11 million barrel,11 million barrel,QUANTITY
the first quarter of 2014,the first quarter of 2014,DATE
2008,2008,DATE
january 2014,january 2014,DATE
obama declare,obama declare,PERSON
one,one,CARDINAL
american,american,NORP
nearly 100 billion,nearly 100 billion,MONEY
1.5 million,1.5 million,CARDINAL
2015,2015,DATE
2.4 million,2.4 million,CARDINAL
2035,2035,DATE
332 billion,332 billion,MONEY
u.s.,u.s.,GPE
the united states,the united states,GPE
10,10,CARDINAL
the benchmark year of 2005,the benchmark year of 2005,DATE
the u.s. energy departments energy information administration,the u.s. energy departments energy information administration,ORG
the wall street journal,the wall street journal,ORG
u.s.,u.s.,GPE
1994,1994,DATE
just a few year,just a few year,DATE
3.65,3.65,CARDINAL
3.5,3.5,CARDINAL
fnprm.commentsapi,fnprm.commentsapi,GPE
3.65,3.65,CARDINAL
3.5,3.5,CARDINAL
3.65,3.65,CARDINAL
3.65,3.65,CARDINAL
the citizens broadband radio service,the citizens broadband radio service,ORG
3.65,3.65,CARDINAL
2012,2012,DATE
3.65,3.65,CARDINAL
3.5,3.5,CARDINAL
fnprm,fnprm,NORP
3.65,3.65,CARDINAL
3.65,3.65,CARDINAL
3.65,3.65,CARDINAL
"november 15 , 2007","november 15 , 2007",DATE
next day,next day,DATE
chevron,chevron,ORG
first,first,ORDINAL
3.65,3.65,CARDINAL
3650 - 3675,3650 - 3675,DATE
3675,3675,CARDINAL
"few than 1,500","few than 1,500",CARDINAL
first year,first year,DATE
"few than 5,000","few than 5,000",CARDINAL
the year,the year,DATE
first,first,ORDINAL
december 2009,december 2009,DATE
50,50,CARDINAL
next year,next year,DATE
"nearly 10,000","nearly 10,000",CARDINAL
3.65,3.65,CARDINAL
thepast year,thepast year,DATE
july 2013,july 2013,DATE
"more than 9,200","more than 9,200",CARDINAL
today,today,DATE
"more than 2,600","more than 2,600",CARDINAL
3.65,3.65,CARDINAL
ten of thousand,ten of thousand,CARDINAL
two,two,CARDINAL
first,first,ORDINAL
3.65,3.65,CARDINAL
3.65,3.65,CARDINAL
15,15,CARDINAL
3.65,3.65,CARDINAL
one,one,CARDINAL
3.5,3.5,CARDINAL
second,second,ORDINAL
3.65,3.65,CARDINAL
the last few year,the last few year,DATE
3.65,3.65,CARDINAL
five - year,five - year,DATE
3.5,3.5,CARDINAL
3.65,3.65,CARDINAL
the citizens broadband radio service,the citizens broadband radio service,ORG
5 year,5 year,DATE
3.65,3.65,CARDINAL
expect lifecycle,expect lifecycle,PERSON
close to 15 year than five,close to 15 year than five,DATE
only a few year,only a few year,DATE
90,90,CARDINAL
fcc,fcc,ORG
1992,1992,DATE
1997,1997,DATE
2013,2013,DATE
20 year,20 year,DATE
101,101,CARDINAL
more than 10 year,more than 10 year,DATE
2,2,CARDINAL
3.5,3.5,CARDINAL
3.5,3.5,CARDINAL
3.65,3.65,CARDINAL
ghz,ghz,ORG
licensee,licensee,GPE
3.65,3.65,CARDINAL
3.5,3.5,CARDINAL
3.65,3.65,CARDINAL
fnprm.if,fnprm.if,ORG
3.65,3.65,CARDINAL
frameworkapi,frameworkapi,GPE
3.65,3.65,CARDINAL
90,90,CARDINAL
3.5,3.5,CARDINAL
3.65,3.65,CARDINAL
3.65,3.65,CARDINAL
96,96,CARDINAL
3.65,3.65,CARDINAL
at least 10 - 15 year,at least 10 - 15 year,CARDINAL
3.65,3.65,CARDINAL
3.65,3.65,CARDINAL
licensee migrate,licensee migrate,PERSON
90,90,CARDINAL
3.65,3.65,CARDINAL
ghz,ghz,ORG
the citizens broadband radio service,the citizens broadband radio service,ORG
3.65,3.65,CARDINAL
fnprm,fnprm,NORP
express,express,ORG
up to 20,up to 20,CARDINAL
third,third,ORDINAL
fnprm,fnprm,NORP
3.5,3.5,CARDINAL
2012,2012,DATE
one - year,one - year,DATE
up to five consecutive year,up to five consecutive year,DATE
u.s.,u.s.,GPE
10 consecutive year,10 consecutive year,DATE
5 year,5 year,DATE
50,50,CARDINAL
50 percent,50 percent,PERCENT
citizens broadband radio service,citizens broadband radio service,ORG
5,5,CARDINAL
10,10,CARDINAL
sas,sas,ORG
fnprm,fnprm,NORP
at least one,at least one,CARDINAL
sas,sas,ORG
sas,sas,ORG
ascommissioner,ascommissioner,ORG
3.5,3.5,CARDINAL
east,east,LOC
west coast,west coast,LOC
gulf,gulf,LOC
new england,new england,GPE
florida,florida,GPE
south carolina,south carolina,GPE
louisiana,louisiana,GPE
new york,new york,GPE
virginia,virginia,GPE
california,california,GPE
half,half,CARDINAL
texas,texas,GPE
3.5,3.5,CARDINAL
3.5,3.5,CARDINAL
3.5,3.5,CARDINAL
caf.critical,caf.critical,ORG
los angeles,los angeles,GPE
los angeles,los angeles,GPE
one,one,CARDINAL
one,one,CARDINAL
3.5,3.5,CARDINAL
conclusionapi,conclusionapi,GPE
3.5,3.5,CARDINAL
3.65,3.65,CARDINAL
ghz,ghz,ORG
withthese,withthese,NORP
