text,text_lower,label
daniel r. vincent,daniel r. vincent,PERSON
the university of maryland,the university of maryland,ORG
fcc,fcc,ORG
fcc,fcc,ORG
the us department of justice antitrust,the us department of justice antitrust,ORG
third,third,ORDINAL
verizon communications,verizon communications,ORG
17135,17135,DATE
3.5,3.5,CARDINAL
unassigne spectrum license,unassigne spectrum license,ORG
one,one,CARDINAL
mayo,mayo,PERSON
between 2003 and 2008,between 2003 and 2008,DATE
around 10 billion mhzpop,around 10 billion mhzpop,QUANTITY
annually,annually,DATE
fcc,fcc,ORG
2006,2006,DATE
between 1998 and 2008,between 1998 and 2008,DATE
151 day,151 day,DATE
between 30 and 40 day,between 30 and 40 day,DATE
economists inc.,economists inc.,ORG
fluid,fluid,ORG
first,first,ORDINAL
second,second,ORDINAL
one,one,CARDINAL
fcc,fcc,ORG
appendix,appendix,GPE
two,two,CARDINAL
second,second,ORDINAL
longterm capital,longterm capital,ORG
shortterm allocative,shortterm allocative,ORG
two,two,CARDINAL
appendix,appendix,GPE
four year later,four year later,DATE
3 year,3 year,DATE
second,second,ORDINAL
second,second,ORDINAL
strand,strand,GPE
forego,forego,ORG
the next period,the next period,DATE
100,100,CARDINAL
0 v 100,0 v 100,CARDINAL
25,25,CARDINAL
two,two,CARDINAL
100,100,CARDINAL
12 v 12 100,12 v 12 100,DATE
12 100,12 100,CARDINAL
12,12,CARDINAL
one,one,CARDINAL
two,two,CARDINAL
100,100,CARDINAL
two,two,CARDINAL
two,two,CARDINAL
100,100,CARDINAL
two,two,CARDINAL
first,first,ORDINAL
50,50,CARDINAL
first,first,ORDINAL
25,25,CARDINAL
two,two,CARDINAL
paul milgrom,paul milgrom,PERSON
"as high as 70,000","as high as 70,000",CARDINAL
one,one,CARDINAL
700,700,CARDINAL
