text,text_lower,label
introduction and summaryatt services inc.,introduction and summaryatt services inc.,ORG
the federal communications commissions commission,the federal communications commissions commission,ORG
fnprm,fnprm,NORP
3.5,3.5,CARDINAL
fnprm.as,fnprm.as,ORG
att applaud,att applaud,PERSON
3.5,3.5,CARDINAL
3.5,3.5,CARDINAL
sas,sas,ORG
first,first,ORDINAL
3.5,3.5,CARDINAL
3.5,3.5,CARDINAL
sas,sas,ORG
sas,sas,NORP
citizens broadband service devices,citizens broadband service devices,ORG
sas,sas,ORG
sas,sas,ORG
sas,sas,ORG
3.5,3.5,CARDINAL
fcc,fcc,ORG
3.5,3.5,CARDINAL
sas,sas,ORG
three,three,CARDINAL
3.5,3.5,CARDINAL
sas,sas,ORG
sas,sas,ORG
sas development,sas development,ORG
3.5,3.5,CARDINAL
sas,sas,ORG
sas,sas,ORG
licensee,licensee,GPE
licensee,licensee,PERSON
several year,several year,DATE
sas,sas,ORG
3.5,3.5,CARDINAL
ghz licensee,ghz licensee,PERSON
first,first,ORDINAL
3.5,3.5,CARDINAL
3.5,3.5,CARDINAL
second,second,ORDINAL
sas,sas,ORG
sas,sas,ORG
third,third,ORDINAL
sas,sas,ORG
3.5,3.5,CARDINAL
3.5,3.5,CARDINAL
3650 - 3700,3650 - 3700,DATE
3.5,3.5,CARDINAL
3.5,3.5,CARDINAL
sas,sas,ORG
3.5,3.5,CARDINAL
ghz licensee,ghz licensee,PERSON
sas,sas,ORG
3.5,3.5,CARDINAL
prospectivelicensee,prospectivelicensee,GPE
att supports,att supports,PERSON
3.5,3.5,CARDINAL
broadbandthe united states,broadbandthe united states,GPE
mobile broadbandsky - rocket,mobile broadbandsky - rocket,PERSON
mobilebroadband,mobilebroadband,GPE
leftunaddresse,leftunaddresse,PERSON
the united states,the united states,GPE
2020,2020,DATE
first,first,ORDINAL
300,300,CARDINAL
2015,2015,DATE
att applaud,att applaud,PERSON
adopta,adopta,PERSON
65,65,CARDINAL
3.5,3.5,CARDINAL
fnprm,fnprm,NORP
2010,2010,DATE
3.5,3.5,CARDINAL
ntias,ntias,ORG
july 2012,july 2012,DATE
first,first,ORDINAL
usespectrum,usespectrum,ORG
3.5,3.5,CARDINAL
harness,harness,ORG
3.5,3.5,CARDINAL
preciousbroadband spectrum,preciousbroadband spectrum,ORG
3,3,CARDINAL
3.5,3.5,CARDINAL
3,3,CARDINAL
ghz,ghz,ORG
3.5,3.5,CARDINAL
3.5,3.5,CARDINAL
3.5,3.5,CARDINAL
3.5,3.5,CARDINAL
3.5,3.5,CARDINAL
thatdeploye,thatdeploye,CARDINAL
3.5,3.5,CARDINAL
3.5,3.5,CARDINAL
3.5,3.5,CARDINAL
3.5 ghz bandin,3.5 ghz bandin,QUANTITY
fnprm,fnprm,NORP
sas,sas,ORG
3.5,3.5,CARDINAL
sas,sas,ORG
citizens broadband service devices,citizens broadband service devices,ORG
citizens broadband radio service,citizens broadband radio service,ORG
sas,sas,ORG
3.5,3.5,CARDINAL
sas,sas,ORG
sas,sas,ORG
sas,sas,ORG
3.5,3.5,CARDINAL
sas,sas,ORG
fnprm,fnprm,NORP
sas,sas,ORG
3.5,3.5,CARDINAL
3gpp,3gpp,CARDINAL
td - lte,td - lte,PERSON
10,10,CARDINAL
10,10,CARDINAL
ten,ten,CARDINAL
1,1,CARDINAL
two,two,CARDINAL
0.5,0.5,CARDINAL
10,10,CARDINAL
20,20,CARDINAL
0.5,0.5,CARDINAL
0.5,0.5,CARDINAL
7,7,CARDINAL
td - lte,td - lte,PERSON
td - lte,td - lte,PERSON
3rd,3rd,ORDINAL
3rd,3rd,ORDINAL
13th,13th,ORDINAL
2nd,2nd,ORDINAL
12th,12th,ORDINAL
2nd,2nd,ORDINAL
td - lte,td - lte,FAC
the td - lte cell,the td - lte cell,PERSON
the td - lte network,the td - lte network,FAC
the td - lte network,the td - lte network,FAC
td - lte,td - lte,LOC
td - lte,td - lte,PERSON
first,first,ORDINAL
uplink channel,uplink channel,ORG
uplink,uplink,ORG
td - lte,td - lte,PERSON
td - lte,td - lte,PERSON
physical downlink control channel,physical downlink control channel,ORG
first,first,ORDINAL
two,two,CARDINAL
three,three,CARDINAL
pdcch.as,pdcch.as,ORG
3.5,3.5,CARDINAL
td - lte,td - lte,ORG
sas,sas,ORG
shannon,shannon,FAC
1,1,CARDINAL
2,2,CARDINAL
3,3,CARDINAL
3gpp,3gpp,CARDINAL
3.5,3.5,CARDINAL
sas,sas,ORG
3.5,3.5,CARDINAL
1,1,CARDINAL
180 khz,180 khz,QUANTITY
lte base,lte base,GPE
naic,naic,PERSON
non - lte such interference,non - lte such interference,PERSON
pal,pal,ORG
sas,sas,ORG
3.5,3.5,CARDINAL
one,one,CARDINAL
sas,sas,ORG
fnprm,fnprm,NORP
sas,sas,ORG
sas,sas,ORG
sas,sas,ORG
sas,sas,ORG
3.5,3.5,CARDINAL
sas,sas,ORG
sas,sas,ORG
sas,sas,ORG
sas,sas,ORG
sas,sas,ORG
sas,sas,ORG
first,first,ORDINAL
3.5,3.5,CARDINAL
sas,sas,ORG
sas,sas,ORG
sas,sas,ORG
three,three,CARDINAL
sas,sas,ORG
earth,earth,LOC
sas,sas,ORG
sas,sas,ORG
sas,sas,ORG
the sas development,the sas development,ORG
sas development,sas development,ORG
fcc,fcc,ORG
3.5,3.5,CARDINAL
3.5,3.5,CARDINAL
3550 - 3700,3550 - 3700,DATE
3.5,3.5,CARDINAL
sas,sas,ORG
att proposal,att proposal,PERSON
3650 - 3700,3650 - 3700,DATE
3650 - 3700,3650 - 3700,DATE
150,150,CARDINAL
3.5,3.5,CARDINAL
3650 - 3700,3650 - 3700,DATE
motorola mobility,motorola mobility,ORG
3650,3650,CARDINAL
3.5,3.5,CARDINAL
att agree,att agree,PERSON
3650 - 3700,3650 - 3700,DATE
3.5,3.5,CARDINAL
150,150,CARDINAL
sas,sas,ORG
3650 - 3700,3650 - 3700,DATE
3550 - 3650,3550 - 3650,DATE
mhz spectrum,mhz spectrum,FAC
3650 - 3700,3650 - 3700,DATE
a number of year,a number of year,DATE
3.5,3.5,CARDINAL
3gpp,3gpp,CARDINAL
3.5,3.5,CARDINAL
sas,sas,ORG
sas,sas,ORG
sas,sas,ORG
earth,earth,LOC
sas development,sas development,ORG
sas,sas,ORG
pal,pal,PERSON
pal,pal,PERSON
lte protocol,lte protocol,PRODUCT
pal,pal,ORG
sas,sas,ORG
3.5,3.5,CARDINAL
3.5 ghz,3.5 ghz,QUANTITY
3.5,3.5,CARDINAL
sas,sas,ORG
sas,sas,ORG
3.5,3.5,CARDINAL
3.5,3.5,CARDINAL
3.5,3.5,CARDINAL
one - year,one - year,DATE
the end of each year,the end of each year,DATE
licensee,licensee,PERSON
3.5,3.5,CARDINAL
3.5,3.5,CARDINAL
one - year,one - year,DATE
3.5ghz,3.5ghz,FAC
one - year,one - year,DATE
strand,strand,GPE
5,5,CARDINAL
one,one,CARDINAL
potentialcustomer,potentialcustomer,CARDINAL
year,year,DATE
two,two,CARDINAL
licensee,licensee,PERSON
one - year,one - year,DATE
multi - year,multi - year,DATE
fcc,fcc,ORG
year,year,DATE
first,first,ORDINAL
multiple year,multiple year,DATE
fcc,fcc,ORG
3.5,3.5,CARDINAL
three year,three year,DATE
first,first,ORDINAL
two year,two year,DATE
five year,five year,DATE
3.5,3.5,CARDINAL
pal,pal,ORG
adopt census,adopt census,PERSON
fnprm,fnprm,NORP
licensee,licensee,PERSON
border area,border area,LOC
the census bureau,the census bureau,ORG
modify census,modify census,ORG
3.5,3.5,CARDINAL
ghz licensee,ghz licensee,PERSON
one year,one year,DATE
3.5,3.5,CARDINAL
sas,sas,ORG
sas,sas,ORG
sas,sas,ORG
sas,sas,ORG
sas,sas,ORG
sas,sas,ORG
sas,sas,ORG
sas,sas,ORG
sas,sas,ORG
fnprm,fnprm,NORP
annual,annual,DATE
a give year,a give year,DATE
that year,that year,DATE
att agree,att agree,PERSON
five,five,CARDINAL
only four,only four,CARDINAL
congress,congress,ORG
section 309j6e,section 309j6e,LAW
first,first,ORDINAL
7,7,CARDINAL
"over 70,000","over 70,000",CARDINAL
second,second,ORDINAL
3.5,3.5,CARDINAL
3.5,3.5,CARDINAL
fnprm,fnprm,NORP
3.5,3.5,CARDINAL
3.5,3.5,CARDINAL
section 1.2105c,section 1.2105c,ORG
3.5,3.5,CARDINAL
sas,sas,ORG
sas,sas,ORG
3.5,3.5,CARDINAL
sas,sas,ORG
fcc,fcc,ORG
sas,sas,ORG
sas,sas,ORG
sas,sas,ORG
licensee,licensee,PERSON
sas.even,sas.even,FAC
sas,sas,ORG
fcc,fcc,ORG
sas,sas,ORG
fcc,fcc,ORG
sas,sas,ORG
fcc,fcc,ORG
fcc,fcc,ORG
"the department of defense , national telecommunications information administration ntia","the department of defense , national telecommunications information administration ntia",ORG
the general services administration,the general services administration,ORG
fcc,fcc,ORG
sas,sas,ORG
3.5,3.5,CARDINAL
sas,sas,ORG
sas administrators,sas administrators,ORG
sas,sas,ORG
sas,sas,ORG
citizens broadband radio service,citizens broadband radio service,ORG
citizens broadband radio service,citizens broadband radio service,ORG
sas,sas,ORG
sas,sas,ORG
sas,sas,ORG
sas,sas,ORG
sas,sas,NORP
sas,sas,ORG
sas,sas,ORG
sas,sas,ORG
sas,sas,ORG
sas,sas,GPE
sas,sas,NORP
sas,sas,ORG
sas,sas,NORP
the sas with appropriate commission,the sas with appropriate commission,ORG
fcc,fcc,ORG
3.5,3.5,CARDINAL
3.5,3.5,CARDINAL
july 2012,july 2012,DATE
3550 - 3650,3550 - 3650,DATE
sas,sas,ORG
sas,sas,ORG
fnprm,fnprm,NORP
fnprm,fnprm,NORP
first,first,ORDINAL
fnprm,fnprm,NORP
sas,sas,ORG
fnprm,fnprm,NORP
2010,2010,DATE
2010,2010,DATE
3.5,3.5,CARDINAL
60 percent,60 percent,PERCENT
u.s.,u.s.,GPE
3.5ghz,3.5ghz,FAC
d]espite,d]espite,PRODUCT
3.5,3.5,CARDINAL
5,5,CARDINAL
2010,2010,DATE
3.5,3.5,CARDINAL
two,two,CARDINAL
first,first,ORDINAL
3.5,3.5,CARDINAL
3.5,3.5,CARDINAL
second,second,ORDINAL
tertiary,tertiary,ORDINAL
att agree,att agree,PERSON
3.5,3.5,CARDINAL
3.5,3.5,CARDINAL
3650 - 3700,3650 - 3700,DATE
3.5,3.5,CARDINAL
att be,att be,PERSON
3.5,3.5,CARDINAL
sas,sas,ORG
sas,sas,ORG
sas,sas,ORG
one,one,CARDINAL
one,one,CARDINAL
metrocell,metrocell,ORG
3650 - 3700,3650 - 3700,DATE
3.5,3.5,CARDINAL
3650 - 3700,3650 - 3700,DATE
sas,sas,ORG
sas,sas,ORG
3650 - 3700,3650 - 3700,DATE
andor retune frequency,andor retune frequency,PERSON
25,25,CARDINAL
3650 - 3675,3650 - 3675,DATE
sas,sas,ORG
3.65,3.65,CARDINAL
licensee,licensee,PERSON
3.5,3.5,CARDINAL
3.5,3.5,CARDINAL
licensee require certainty,licensee require certainty,PERSON
att outline,att outline,PERSON
section 96.36,section 96.36,LAW
50 meter,50 meter,QUANTITY
3 meter,3 meter,QUANTITY
60 second,60 second,DATE
60,60,CARDINAL
second,second,ORDINAL
50 meter,50 meter,QUANTITY
3 meter,3 meter,QUANTITY
60 second,60 second,CARDINAL
section96.36a,section96.36a,CARDINAL
only one,only one,CARDINAL
50 meter,50 meter,QUANTITY
3.5,3.5,CARDINAL
60,60,CARDINAL
fcc,fcc,ORG
approximately 5 minute,approximately 5 minute,TIME
long than 5 minute,long than 5 minute,TIME
sas,sas,ORG
sas,sas,ORG
sas,sas,ORG
fcc,fcc,ORG
sas,sas,ORG
today,today,DATE
fcc,fcc,ORG
fcc,fcc,ORG
sas,sas,ORG
fcc,fcc,ORG
sas,sas,ORG
3550 - 3700,3550 - 3700,DATE
3650 - 3700,3650 - 3700,DATE
96,96,CARDINAL
3.5,3.5,CARDINAL
fnprm,fnprm,NORP
duplexer,duplexer,PRODUCT
3550,3550,CARDINAL
about 4 percent,about 4 percent,PERCENT
3550 - 3700,3550 - 3700,DATE
3625,3625,DATE
four percent,four percent,PERCENT
3625,3625,CARDINAL
145,145,CARDINAL
150,150,CARDINAL
96.36d,96.36d,ORG
sas,sas,ORG
sas,sas,ORG
licensee,licensee,PERSON
sas,sas,ORG
sas,sas,ORG
sas,sas,ORG
the sas mustemploy,the sas mustemploy,ORG
busy hour of the day,busy hour of the day,TIME
96.38,96.38,CARDINAL
section 96.38,section 96.38,LAW
23,23,CARDINAL
96.38,96.38,CARDINAL
fcc,fcc,ORG
ccdf,ccdf,GPE
ccdf,ccdf,GPE
first,first,ORDINAL
section 96.38,section 96.38,LAW
fcc,fcc,ORG
3650 - 3700,3650 - 3700,DATE
3650 - 3700,3650 - 3700,DATE
1w 30dbmmhz,1w 30dbmmhz,CARDINAL
10,10,CARDINAL
10w,10w,DATE
40dbm,40dbm,DATE
30,30,CARDINAL
10mhz,10mhz,CARDINAL
3650 - 3700,3650 - 3700,DATE
1w,1w,CARDINAL
fcc,fcc,ORG
96.38c,96.38c,ORG
-80,-80,PRODUCT
0,0,CARDINAL
10,10,CARDINAL
sas,sas,ORG
sas,sas,ORG
-80,-80,PRODUCT
3gpp,3gpp,CARDINAL
3gpp,3gpp,CARDINAL
42,42,CARDINAL
43,43,DATE
3550 - 3700,3550 - 3700,DATE
mhz spectrum,mhz spectrum,FAC
10,10,CARDINAL
fnprm,fnprm,NORP
first,first,ORDINAL
43 10,43 10,CARDINAL
channel assignment,channel assignment,ORG
sas,sas,ORG
3680,3680,CARDINAL
3520,3520,CARDINAL
watts,watts,LOC
at least 70 10,at least 70 10,CARDINAL
db.att,db.att,PERSON
43 10,43 10,CARDINAL
3.5,3.5,CARDINAL
70 10,70 10,CARDINAL
30,30,CARDINAL
96.38d,96.38d,PRODUCT
3650 - 3700,3650 - 3700,DATE
3550 - 3650,3550 - 3650,CARDINAL
3550 - 3700,3550 - 3700,DATE
96.362,96.362,CARDINAL
3680,3680,CARDINAL
3730,3730,DATE
3650 - 3700,3650 - 3700,DATE
3.5,3.5,CARDINAL
ghz,ghz,ORG
sas,sas,ORG
sas,sas,ORG
the commissions technological advisory council tac recommend,the commissions technological advisory council tac recommend,ORG
3.5,3.5,CARDINAL
fcc,fcc,ORG
fcc,fcc,ORG
multi - stakeholder,multi - stakeholder,ORG
fcc,fcc,ORG
the consumer electronics association,the consumer electronics association,ORG
multi - stakeholder,multi - stakeholder,ORG
3.5,3.5,CARDINAL
3.5,3.5,CARDINAL
ghz licensee,ghz licensee,PERSON
sas,sas,ORG
3.5,3.5,CARDINAL
sas,sas,ORG
att,att,PERSON
sas,sas,ORG
sas,sas,ORG
3.5,3.5,CARDINAL
sas,sas,ORG
sas,sas,ORG
andor channel,andor channel,PERSON
sas,sas,ORG
sas,sas,ORG
neighbor party,neighbor party,ORG
the sas manage neighboring party,the sas manage neighboring party,ORG
sas,sas,ORG
3.5,3.5,CARDINAL
3.5,3.5,CARDINAL
sas,sas,ORG
sas,sas,ORG
three,three,CARDINAL
sas,sas,ORG
sas,sas,ORG
sas,sas,ORG
sas,sas,ORG
sas,sas,ORG
sas,sas,ORG
fnprm,fnprm,NORP
att join,att join,PERSON
3.5,3.5,CARDINAL
3.5,3.5,CARDINAL
att,att,PERSON
3.5,3.5,CARDINAL
sas,sas,ORG
sas,sas,ORG
3.5,3.5,CARDINAL
3.5,3.5,CARDINAL
