text,text_lower,label
"december 12 , 2012","december 12 , 2012",DATE
12,12,CARDINAL
cbs,cbs,ORG
3550 - 3650,3550 - 3650,DATE
3650 - 3700,3650 - 3700,DATE
"april 23 , 2014","april 23 , 2014",DATE
12,12,CARDINAL
3650 - 3700,3650 - 3700,DATE
illinois,illinois,GPE
1652,1652,DATE
625 million,625 million,CARDINAL
10 year,10 year,DATE
five,five,CARDINAL
1operational,1operational,NORP
four,four,CARDINAL
4,4,CARDINAL
2014,2014,DATE
three 3,three 3,CARDINAL
2015,2015,DATE
3650 - 3700,3650 - 3700,DATE
2015,2015,DATE
3650 - 3700,3650 - 3700,DATE
2007,2007,DATE
eisa,eisa,PERSON
3650 - 3700,3650 - 3700,DATE
3650 - 3700,3650 - 3700,DATE
annual,annual,DATE
3650 - 3700,3650 - 3700,DATE
3650 - 3700,3650 - 3700,DATE
3650 - 3700,3650 - 3700,DATE
the utilities telecom council,the utilities telecom council,ORG
