text,text_lower,label
iberdrola usa,iberdrola usa,ORG
24,24,CARDINAL
new england,new england,LOC
the west coast,the west coast,LOC
the iberdrola usa network company,the iberdrola usa network company,ORG
new york state,new york state,GPE
"881,000","881,000",CARDINAL
"263,000","263,000",CARDINAL
more than 40,more than 40,CARDINAL
new york,new york,GPE
rochester gas,rochester gas,ORG
"371,000","371,000",CARDINAL
"307,000","307,000",CARDINAL
nine,nine,CARDINAL
rochester,rochester,GPE
ny.central maine,ny.central maine,ORG
"more than 600,000","more than 600,000",CARDINAL
maine,maine,GPE
maine,maine,GPE
4000,4000,CARDINAL
maine,maine,GPE
"december 12 , 2012","december 12 , 2012",DATE
12,12,CARDINAL
cbs,cbs,ORG
3550 - 3650,3550 - 3650,DATE
3650 - 3700,3650 - 3700,DATE
"april 23 , 2014","april 23 , 2014",DATE
12,12,CARDINAL
the next decade,the next decade,DATE
3650 - 3700,3650 - 3700,DATE
2007,2007,DATE
eisa,eisa,PERSON
3650 - 3700,3650 - 3700,DATE
one,one,CARDINAL
iberdrola usa,iberdrola usa,ORG
3650,3650,CARDINAL
"september 18 , 2013.with","september 18 , 2013.with",DATE
84,84,CARDINAL
60,60,CARDINAL
2014,2014,DATE
us,us,GPE
canadian,canadian,NORP
150 km,150 km,QUANTITY
first,first,ORDINAL
2.4,2.4,CARDINAL
5.8ghz,5.8ghz,ORG
3.65 - 3.700mhz,3.65 - 3.700mhz,CARDINAL
3.65,3.65,CARDINAL
3550 - 3650,3550 - 3650,DATE
two,two,CARDINAL
two,two,CARDINAL
3650 - 3700,3650 - 3700,DATE
3650 - 3700,3650 - 3700,DATE
3650 - 3700,3650 - 3700,DATE
163,163,CARDINAL
3650 - 3700,3650 - 3700,DATE
3650 - 3700mhz,3650 - 3700mhz,QUANTITY
3550 - 3650mhz,3550 - 3650mhz,CARDINAL
five - year,five - year,DATE
five year,five year,DATE
24 month,24 month,DATE
iusas,iusas,GPE
the past 18 month,the past 18 month,DATE
3650,3650,CARDINAL
five year,five year,DATE
five year,five year,DATE
3650 3700mhz,3650 3700mhz,DATE
a 20 year plus lifecycle,a 20 year plus lifecycle,DATE
40 year,40 year,DATE
20 year,20 year,DATE
"118,119,120if","118,119,120if",CARDINAL
3650 - 3700,3650 - 3700,DATE
220,220,CARDINAL
one - year,one - year,DATE
20 plus year,20 plus year,DATE
7 - 10 year,7 - 10 year,DATE
one,one,CARDINAL
several hundred thousand,several hundred thousand,CARDINAL
32 km 20 mile,32 km 20 mile,QUANTITY
sas,sas,ORG
sas,sas,ORG
3550 - 3650mhz,3550 - 3650mhz,DATE
sas.contained,sas.contained,ORG
only 58 - 60iusa,only 58 - 60iusa,CARDINAL
500,500,CARDINAL
annual,annual,DATE
day - to - day,day - to - day,DATE
50,50,CARDINAL
3650 - 3700mhz,3650 - 3700mhz,DATE
canada,canada,GPE
fss,fss,ORG
iusa strongly,iusa strongly,PERSON
60 or less,60 or less,CARDINAL
60,60,CARDINAL
sas assignment,sas assignment,ORG
3650 - 3700,3650 - 3700,DATE
3650 - 3700,3650 - 3700,DATE
3650 - 3700,3650 - 3700,DATE
7improved,7improved,CARDINAL
