text,text_lower,label
ieee,ieee,ORG
802.16,802.16,CARDINAL
wimax,wimax,PERSON
nomadic,nomadic,PERSON
wimax,wimax,PERSON
fnprm,fnprm,NORP
the federal communications commission commission,the federal communications commission commission,ORG
3650 - 3700,3650 - 3700,DATE
3650 - 3700,3650 - 3700,DATE
"december 12 , 2012","december 12 , 2012",DATE
12,12,CARDINAL
3550 - 3650,3550 - 3650,DATE
3650 - 3700,3650 - 3700,DATE
150,150,CARDINAL
"2,117","2,117",CARDINAL
"more than 25,000","more than 25,000",CARDINAL
the united states,the united states,GPE
october 2012,october 2012,DATE
3650 - 3700,3650 - 3700,DATE
125,125,CARDINAL
3650 - 3700,3650 - 3700,DATE
"april 23 , 2014","april 23 , 2014",DATE
12,12,CARDINAL
163,163,CARDINAL
168,168,CARDINAL
3650 - 3700,3650 - 3700,DATE
3650 - 3700,3650 - 3700,DATE
3550 - 3650,3550 - 3650,CARDINAL
two,two,CARDINAL
july 2012,july 2012,DATE
the presidents council of advisors,the presidents council of advisors,ORG
wimax,wimax,PERSON
2013,2013,CARDINAL
3650 - 3700,3650 - 3700,DATE
the3650 - 3700,the3650 - 3700,LOC
fnprm,fnprm,NORP
3650 - 3700,3650 - 3700,DATE
3650 - 3700,3650 - 3700,DATE
3550 - 3650,3550 - 3650,DATE
3650 - 3700,3650 - 3700,DATE
3550 - 3650,3550 - 3650,DATE
report2 n,report2 n,PERSON
3650 - 3700,3650 - 3700,DATE
the3550 - 3650,the3550 - 3650,CARDINAL
sas,sas,ORG
3650 - 3700,3650 - 3700,DATE
more than 100,more than 100,CARDINAL
3650 - 3700,3650 - 3700,DATE
3650 - 3700,3650 - 3700,DATE
3650 - 3700,3650 - 3700,DATE
us,us,GPE
smart grid network,smart grid network,ORG
smart grid network,smart grid network,ORG
3650 - 3700,3650 - 3700,DATE
one,one,CARDINAL
3650 - 3700,3650 - 3700,DATE
168,168,CARDINAL
3650 - 3700,3650 - 3700,DATE
3650 - 3700,3650 - 3700,DATE
5 year,5 year,DATE
five - year,five - year,DATE
3650 - 3700,3650 - 3700,DATE
up to 10 year,up to 10 year,DATE
only 5 year,only 5 year,DATE
5 year,5 year,DATE
4,4,CARDINAL
"118,119,120","118,119,120",CARDINAL
44,44,CARDINAL
44,44,CARDINAL
utilitys,utilitys,GPE
us,us,GPE
"1,200 to 8,000","1,200 to 8,000",CARDINAL
only 1 million,only 1 million,CARDINAL
"almost 1,000","almost 1,000",CARDINAL
every 10 year,every 10 year,DATE
"1,200","1,200",CARDINAL
"8,000","8,000",CARDINAL
one - year,one - year,DATE
49,49,CARDINAL
1 year,1 year,DATE
5,5,CARDINAL
at least 10 year,at least 10 year,DATE
3650 - 3700,3650 - 3700,DATE
only 1 year,only 1 year,DATE
span hundred or thousand,span hundred or thousand,CARDINAL
smart grid network,smart grid network,ORG
3650 - 3700,3650 - 3700,DATE
number over one hundred,number over one hundred,CARDINAL
70 - 76,70 - 76,CARDINAL
wan city,wan city,GPE
us,us,GPE
58 - 60,58 - 60,CARDINAL
300 foot,300 foot,QUANTITY
3650 - 3700,3650 - 3700,DATE
more than 100,more than 100,CARDINAL
3650 - 3700,3650 - 3700,DATE
3550 - 3650,3550 - 3650,DATE
2007,2007,DATE
3650 - 3700,3650 - 3700,DATE
3650 - 3700,3650 - 3700,DATE
