text,text_lower,label
fnprm,fnprm,NORP
3550 - 3650mhz 3.5,3550 - 3650mhz 3.5,DATE
"december 12 , 2012","december 12 , 2012",DATE
3550 - 3650,3550 - 3650,DATE
"march 14 , 2013","march 14 , 2013",DATE
november 1,november 1,DATE
"april 23 , 2014","april 23 , 2014",DATE
three,three,CARDINAL
3.65,3.65,CARDINAL
3.5,3.5,CARDINAL
3,3,CARDINAL
3.65,3.65,CARDINAL
2.4,2.4,CARDINAL
5.8,5.8,CARDINAL
3.65,3.65,CARDINAL
3.65,3.65,CARDINAL
epande,epande,PERSON
fcc,fcc,ORG
2,2,CARDINAL
sas,sas,ORG
entelec,entelec,GPE
earth,earth,LOC
one,one,CARDINAL
four,four,CARDINAL
10,10,CARDINAL
two,two,CARDINAL
5,5,CARDINAL
10,10,CARDINAL
5,5,CARDINAL
10,10,CARDINAL
10,10,CARDINAL
4,4,CARDINAL
channel 4,channel 4,ORG
5,5,CARDINAL
3.65,3.65,CARDINAL
5,5,CARDINAL
10,10,CARDINAL
3.650,3.650,CARDINAL
only 5,only 5,CARDINAL
3.5,3.5,CARDINAL
east,east,LOC
west coast,west coast,LOC
gulf,gulf,LOC
fnprm,fnprm,NORP
sas,sas,ORG
section 2,section 2,LAW
one,one,CARDINAL
2,2,CARDINAL
only a few two,only a few two,CARDINAL
palgm spectrum balance,palgm spectrum balance,PERSON
5050,5050,DATE
gm,gm,ORG
3.55,3.55,CARDINAL
3.65 - 3.70,3.65 - 3.70,QUANTITY
5050,5050,CARDINAL
50,50,CARDINAL
gm,gm,ORG
one,one,CARDINAL
the gulf of mexico,the gulf of mexico,LOC
50-states,50-states,MONEY
86,86,CARDINAL
three,three,CARDINAL
fnprm,fnprm,NORP
101,101,CARDINAL
90,90,CARDINAL
services.license,services.license,ORG
pal'sin,pal'sin,DATE
two,two,CARDINAL
the same day,the same day,DATE
two,two,CARDINAL
ten,ten,QUANTITY
fcc,fcc,ORG
fcc,fcc,ORG
entelec,entelec,PERSON
licensee,licensee,PERSON
bona,bona,GPE
the pa licensee,the pa licensee,LOC
licensee,licensee,PERSON
fnprm,fnprm,NORP
3.65,3.65,CARDINAL
ghz,ghz,ORG
fcc,fcc,ORG
3.65,3.65,CARDINAL
3.65,3.65,CARDINAL
3.65,3.65,CARDINAL
fcc,fcc,ORG
3.55,3.55,CARDINAL
3.65,3.65,CARDINAL
3.65,3.65,CARDINAL
3.55,3.55,CARDINAL
3.65,3.65,CARDINAL
10,10,CARDINAL
3.65 - 3.70,3.65 - 3.70,CARDINAL
fcc,fcc,ORG
two,two,CARDINAL
2,2,CARDINAL
3.675,3.675,CARDINAL
ghz,ghz,ORG
channel sizes,channel sizes,ORG
5,5,CARDINAL
1.75,1.75,CARDINAL
2.5,2.5,CARDINAL
3.5,3.5,CARDINAL
3.65,3.65,CARDINAL
one 1,one 1,CARDINAL
2,2,CARDINAL
two,two,CARDINAL
2.5,2.5,CARDINAL
two,two,CARDINAL
1.75,1.75,CARDINAL
palicensee,palicensee,GPE
entelec,entelec,PERSON
spectrumyes,spectrumyes,GPE
entelec,entelec,GPE
the pa licensee,the pa licensee,LOC
pa licensee,pa licensee,ORG
apa licensee,apa licensee,PERSON
pa licensee,pa licensee,PERSON
pa,pa,GPE
30 day,30 day,DATE
palicensee,palicensee,GPE
several square mile,several square mile,QUANTITY
ofless than 1 square mile,ofless than 1 square mile,QUANTITY
the pa licensee,the pa licensee,LOC
pa licensee,pa licensee,LOC
pa licensee,pa licensee,ORG
pa,pa,GPE
the pa licensee,the pa licensee,LOC
power feirpl,power feirpl,LOC
47,47,CARDINAL
53,53,CARDINAL
10,10,CARDINAL
5,5,CARDINAL
10,10,CARDINAL
one,one,CARDINAL
23,23,CARDINAL
5,5,CARDINAL
several week or,several week or,DATE
month,month,DATE
fnprm,fnprm,NORP
-50,-50,PRODUCT
-40,-40,PRODUCT
fnprm,fnprm,NORP
-80,-80,PRODUCT
the gulf of mexico,the gulf of mexico,LOC
-80,-80,PRODUCT
-80,-80,PRODUCT
pa licensee,pa licensee,LOC
10'above,10'above,CARDINAL
0,0,CARDINAL
30,30,CARDINAL
pa,pa,GPE
25 mile,25 mile,QUANTITY
no less than 10 day,no less than 10 day,DATE
pa licensee,pa licensee,PERSON
30 day,30 day,DATE
fcc,fcc,ORG
pa licensee,pa licensee,PERSON
fcc,fcc,ORG
licensee,licensee,PERSON
pa,pa,NORP
summarya,summarya,ORG
entelec,entelec,GPE
pseudo - licensed spectrum,pseudo - licensed spectrum,PERSON
msaarea,msaarea,ORG
3.65,3.65,CARDINAL
ghz bandshould,ghz bandshould,PERSON
the 21 century,the 21 century,DATE
