text,text_lower,label
ruckus,ruckus,ORG
17 - 609,17 - 609,CARDINAL
3550 - 3650,3550 - 3650,DATE
12,12,CARDINAL
clyburn,clyburn,PERSON
knapp,knapp,PERSON
stockdaleruckus,stockdaleruckus,PERSON
citizens broadband radio service,citizens broadband radio service,ORG
the united states,the united states,GPE
ruckus,ruckus,ORG
i. the,i. the,PERSON
5gboth,5gboth,CARDINAL
the united states,the united states,GPE
4,4,CARDINAL
5,5,CARDINAL
the united states,the united states,GPE
5,5,CARDINAL
5,5,CARDINAL
the united states,the united states,GPE
2020,2020,DATE
5,5,CARDINAL
5,5,CARDINAL
5 g,5 g,QUANTITY
2 g,2 g,QUANTITY
3,3,CARDINAL
4,4,CARDINAL
5,5,CARDINAL
3gpp,3gpp,CARDINAL
ieee specification e.g.,ieee specification e.g.,PERSON
802.11ax,802.11ax,FAC
802.11ay,802.11ay,NORP
5,5,CARDINAL
5,5,CARDINAL
5,5,CARDINAL
5g.just as 5,5g.just as 5,CARDINAL
5,5,CARDINAL
the united states,the united states,GPE
qualcomm,qualcomm,GPE
5,5,CARDINAL
3gpp,3gpp,ORDINAL
5,5,CARDINAL
ieee,ieee,ORG
5,5,CARDINAL
the united states,the united states,GPE
5,5,CARDINAL
5,5,CARDINAL
europe,europe,LOC
lsa,lsa,ORG
nokia,nokia,ORG
the european spectrum management conference,the european spectrum management conference,ORG
brussels,brussels,GPE
june 2017,june 2017,DATE
5,5,CARDINAL
the united states,the united states,GPE
the united states federal communications commission,the united states federal communications commission,ORG
today,today,DATE
the united states,the united states,GPE
5,5,CARDINAL
3400,3400,CARDINAL
3800,3800,CARDINAL
the united states,the united states,GPE
5,5,CARDINAL
3400 to 3800,3400 to 3800,DATE
3gpp,3gpp,CARDINAL
42,42,CARDINAL
3400 - 3600,3400 - 3600,DATE
43,43,CARDINAL
3600 - 3800,3600 - 3800,DATE
48,48,CARDINAL
the united states,the united states,GPE
5,5,CARDINAL
four,four,CARDINAL
thousand,thousand,CARDINAL
ten or hundred of thousand,ten or hundred of thousand,CARDINAL
5,5,CARDINAL
ruckus,ruckus,PERSON
cbrs,cbrs,PERSON
2015,2015,DATE
2016,2016,DATE
the united states,the united states,GPE
ruckus,ruckus,ORG
