text,text_lower,label
dortchwebformix,dortchwebformix,PERSON
3650 - 3700,3650 - 3700,DATE
3550,3550,CARDINAL
90,90,CARDINAL
3650 - 3700,3650 - 3700,DATE
third,third,ORDINAL
10,10,CARDINAL
20,20,CARDINAL
40,40,CARDINAL
sas,sas,ORG
webformix,webformix,PERSON
45,45,DATE
3550,3550,CARDINAL
3650 - 3700,3650 - 3700,DATE
802.11,802.11,CARDINAL
american,american,NORP
3650 - 3700,3650 - 3700,DATE
3650 - 3700,3650 - 3700,DATE
americans,americans,NORP
3650 - 3700,3650 - 3700,DATE
90,90,CARDINAL
webformix,webformix,PERSON
3550 - 3700,3550 - 3700,DATE
90,90,CARDINAL
3650 - 3700,3650 - 3700,DATE
the3300,the3300,CARDINAL
90,90,CARDINAL
3650 - 3700,3650 - 3700,DATE
90,90,CARDINAL
section 1.1206b 2,section 1.1206b 2,LAW
