text,text_lower,label
dortch,dortch,PERSON
llc regard,llc regard,PERSON
cbrs,cbrs,PERSON
rural virginia,rural virginia,GPE
1500,1500,CARDINAL
seven,seven,CARDINAL
southwestern virginia,southwestern virginia,LOC
southern west virginia,southern west virginia,LOC
two,two,CARDINAL
an additional 300 to 400,an additional 300 to 400,CARDINAL
one,one,CARDINAL
kentucky,kentucky,GPE
3.65ghz light license,3.65ghz light license,QUANTITY
"450,000","450,000",CARDINAL
this year,this year,DATE
"an additional 500,000","an additional 500,000",CARDINAL
the next two year,the next two year,DATE
fcc,fcc,ORG
rural america,rural america,LOC
americas entrepreneur,americas entrepreneur,LOC
hundred,hundred,CARDINAL
rural america,rural america,LOC
