text,text_lower,label
3.5,3.5,CARDINAL
3.5,3.5,CARDINAL
channel allocation and guard,channel allocation and guard,ORG
sas,sas,ORG
sas,sas,ORG
3.5,3.5,CARDINAL
1,1,CARDINAL
3.5,3.5,CARDINAL
sas,sas,ORG
3.5ghz,3.5ghz,PRODUCT
sas,sas,ORG
several spectrum regulate agency,several spectrum regulate agency,ORG
8,8,CARDINAL
two,two,CARDINAL
sas,sas,GPE
sas,sas,GPE
sas,sas,GPE
8,8,CARDINAL
sas,sas,ORG
8,8,CARDINAL
180 khz,180 khz,QUANTITY
1.8,1.8,CARDINAL
10,10,CARDINAL
1,1,CARDINAL
sas,sas,ORG
8,8,CARDINAL
0,0,CARDINAL
kbps,kbps,ORG
100,100,CARDINAL
300,300,CARDINAL
max,max,PERSON
2,2,CARDINAL
all 8,all 8,CARDINAL
2,2,CARDINAL
sas,sas,ORG
180 khz,180 khz,QUANTITY
625 khz,625 khz,QUANTITY
5,5,CARDINAL
8,8,CARDINAL
2,2,CARDINAL
sas,sas,ORG
1,1,CARDINAL
sas,sas,ORG
2,2,CARDINAL
1,1,CARDINAL
sas,sas,ORG
reduce guard,reduce guard,ORG
sas,sas,ORG
two,two,CARDINAL
sas,sas,GPE
3.5,3.5,CARDINAL
