text,text_lower,label
nokia,nokia,ORG
llc nokia,llc nokia,ORG
3550 - 3650,3550 - 3650,DATE
3.5,3.5,CARDINAL
nokia,nokia,ORG
3.5,3.5,CARDINAL
introduction.nokia,introduction.nokia,ORG
nokia,nokia,ORG
nokia,nokia,ORG
td - lte,td - lte,PERSON
pioneer,pioneer,ORG
nokia,nokia,ORG
nokia,nokia,ORG
3.5,3.5,CARDINAL
nokia,nokia,ORG
3550 - 3700,3550 - 3700,DATE
mhz spectrum,mhz spectrum,FAC
qos requirement,qos requirement,ORG
one year,one year,DATE
multi - year,multi - year,DATE
one year,one year,DATE
3650 - 3700mhz,3650 - 3700mhz,DATE
10 year,10 year,DATE
10-year,10-year,DATE
3550 - 3650mhz,3550 - 3650mhz,CARDINAL
10 year,10 year,DATE
more than a single year,more than a single year,DATE
"some 74,000","some 74,000",CARDINAL
one,one,CARDINAL
10,10,CARDINAL
10,10,CARDINAL
10,10,CARDINAL
mhz channel,mhz channel,PERSON
100,100,CARDINAL
150,150,CARDINAL
3.5,3.5,CARDINAL
3650,3650,CARDINAL
3550 - 3700,3550 - 3700,CARDINAL
two,two,CARDINAL
3550 - 3650,3550 - 3650,CARDINAL
fss,fss,ORG
3650 - 3700,3650 - 3700,DATE
3650 - 3700,3650 - 3700,QUANTITY
three,three,CARDINAL
sites.10 mhz channel,sites.10 mhz channel,ORG
area.10,area.10,GPE
3gpp,3gpp,CARDINAL
42,42,CARDINAL
43,43,DATE
42,42,CARDINAL
3400,3400,CARDINAL
43,43,CARDINAL
3600 - 3800,3600 - 3800,DATE
3gpp,3gpp,CARDINAL
3.5,3.5,CARDINAL
3gpp band,3gpp band,QUANTITY
42,42,DATE
43,43,DATE
3.5,3.5,CARDINAL
cbs,cbs,ORG
2,2,CARDINAL
first,first,ORDINAL
50,50,CARDINAL
cbs,cbs,ORG
3550 - 3600,3550 - 3600,DATE
42,42,DATE
second,second,ORDINAL
50,50,CARDINAL
3600 - 3650,3600 - 3650,DATE
43,43,DATE
fcc,fcc,ORG
cbs,cbs,ORG
3700,3700,CARDINAL
43,43,CARDINAL
fcc,fcc,ORG
cbs,cbs,ORG
3550 - 3650,3550 - 3650,DATE
recent year,recent year,DATE
3550,3550,CARDINAL
3650,3650,CARDINAL
40,40,DATE
50 percent,50 percent,PERCENT
3650 - 3700,3650 - 3700,DATE
20mhz,20mhz,CARDINAL
36,36,CARDINAL
3.5,3.5,CARDINAL
first,first,ORDINAL
department of defense dod,department of defense dod,ORG
the citizens broadband service,the citizens broadband service,ORG
3.5,3.5,CARDINAL
four,four,CARDINAL
4,4,CARDINAL
3.5,3.5,CARDINAL
four,four,CARDINAL
one,one,CARDINAL
3650,3650,CARDINAL
50,50,CARDINAL
3650 - 3700,3650 - 3700,DATE
3650 - 3700,3650 - 3700,DATE
3650 - 3700,3650 - 3700,DATE
3650 - 3700,3650 - 3700,DATE
3650 - 3700,3650 - 3700,DATE
3550 - 3650,3550 - 3650,CARDINAL
3650 - 3700,3650 - 3700,DATE
3gpp tdd,3gpp tdd,QUANTITY
43,43,CARDINAL
3600 - 3800,3600 - 3800,DATE
3650 - 3700,3650 - 3700,DATE
3650 - 3700,3650 - 3700,DATE
3650 - 3700,3650 - 3700,DATE
150 km,150 km,QUANTITY
3650 - 3700,3650 - 3700,DATE
sas,sas,ORG
3650 - 3700,3650 - 3700,DATE
3650,3650,CARDINAL
3550 - 3650mhz,3550 - 3650mhz,DATE
3550 - 3650mhz,3550 - 3650mhz,DATE
3550 - 3650,3550 - 3650,DATE
3550 - 3650,3550 - 3650,DATE
40,40,CARDINAL
only 60mhz,only 60mhz,CARDINAL
3550 - 3650mhz,3550 - 3650mhz,DATE
the pa licensee,the pa licensee,LOC
20,20,CARDINAL
20,20,CARDINAL
20,20,CARDINAL
80,80,CARDINAL
40,40,CARDINAL
3550 - 3650,3550 - 3650,DATE
3550 - 3650,3550 - 3650,DATE
sas,sas,ORG
100,100,CARDINAL
5,5,CARDINAL
3550 - 3650,3550 - 3650,DATE
3650 - 3700,3650 - 3700,DATE
sas.iv,sas.iv,PRODUCT
sas.as express,sas.as express,PRODUCT
3550 - 3650,3550 - 3650,DATE
3.5,3.5,CARDINAL
sas,sas,ORG
3550 - 3650,3550 - 3650,DATE
sas,sas,ORG
sas,sas,ORG
asalsa,asalsa,PERSON
3.5,3.5,CARDINAL
6,6,CARDINAL
the asa repository,the asa repository,ORG
third,third,ORDINAL
3550 - 3650,3550 - 3650,DATE
the pa licensee,the pa licensee,LOC
pa,pa,ORG
sas.there,sas.there,ORG
sas,sas,FAC
asalsapa controller,asalsapa controller,PERSON
asalsapa,asalsapa,PERSON
the asalsapa controller,the asalsapa controller,FAC
sas,sas,FAC
3gpp,3gpp,FAC
36.101,36.101,CARDINAL
25dbm,25dbm,CARDINAL
3.5,3.5,CARDINAL
42,42,DATE
43,43,DATE
3gpp,3gpp,CARDINAL
conclusion.nokia,conclusion.nokia,ORG
3.5,3.5,CARDINAL
mobile broadband service,mobile broadband service,ORG
3.5,3.5,CARDINAL
asalsa tier,asalsa tier,PERSON
3550 - 3650mhz,3550 - 3650mhz,DATE
3650 - 3700,3650 - 3700,DATE
150,150,CARDINAL
50,50,CARDINAL
3650 - 3700,3650 - 3700,DATE
90,90,CARDINAL
3550 - 3700,3550 - 3700,DATE
mhz spectrum,mhz spectrum,FAC
the come year,the come year,DATE
3550 - 3650,3550 - 3650,DATE
