text,text_lower,label
"motorola solutions , inc.","motorola solutions , inc.",ORG
motorola,motorola,ORG
the federal communications commissions commission,the federal communications commissions commission,ORG
3.5,3.5,CARDINAL
introduction summarymotorola solutions,introduction summarymotorola solutions,ORG
3.5,3.5,CARDINAL
motorola,motorola,ORG
sas,sas,ORG
three,three,CARDINAL
licenses.3.5 ghz band service,licenses.3.5 ghz band service,ORG
3.5,3.5,CARDINAL
3.5,3.5,CARDINAL
100 - 150,100 - 150,CARDINAL
3.5,3.5,CARDINAL
motorola,motorola,ORG
three,three,CARDINAL
sas,sas,ORG
3.5,3.5,CARDINAL
one,one,CARDINAL
sas,sas,ORG
3,3,CARDINAL
wlan hotspot,wlan hotspot,FAC
criticaluser e.g.,criticaluser e.g.,PERSON
sas,sas,ORG
20 - 30,20 - 30,CARDINAL
10,10,CARDINAL
100,100,CARDINAL
10,10,CARDINAL
5,5,CARDINAL
sas,sas,ORG
motorola solutions,motorola solutions,ORG
3.5,3.5,CARDINAL
3650 - 3700,3650 - 3700,DATE
pa user,pa user,PRODUCT
sas,sas,ORG
all 3.5,all 3.5,CARDINAL
sas,sas,ORG
roughly 6,roughly 6,CARDINAL
sas,sas,ORG
sas,sas,ORG
3.5,3.5,CARDINAL
no more than 30,no more than 30,CARDINAL
less than 100 meter,less than 100 meter,QUANTITY
3650 - 3700,3650 - 3700,DATE
1wmhz,1wmhz,CARDINAL
sas,sas,ORG
sas,sas,ORG
sas,sas,FAC
3.5,3.5,CARDINAL
motorola,motorola,ORG
quarterly,quarterly,DATE
up to two year,up to two year,DATE
sas,sas,ORG
more than 3 month,more than 3 month,DATE
pal spectrum,pal spectrum,PERSON
sas,sas,ORG
sas,sas,ORG
5 to 15 minute,5 to 15 minute,TIME
a couple of hour,a couple of hour,TIME
sas,sas,ORG
100 x 100 meter,100 x 100 meter,QUANTITY
100 x 100 meter,100 x 100 meter,QUANTITY
50 - 100 meter,50 - 100 meter,QUANTITY
three,three,CARDINAL
spectrum cap,spectrum cap,PERSON
