text,text_lower,label
"november 1 , 2013","november 1 , 2013",DATE
3550 - 3650,3550 - 3650,DATE
3.5,3.5,CARDINAL
introductioncommscope,introductioncommscope,PERSON
hickory,hickory,GPE
north carolina,north carolina,GPE
"approximately 12,500","approximately 12,500",CARDINAL
more than 100,more than 100,CARDINAL
3.5,3.5,CARDINAL
ghz,ghz,ORG
meetincrease spectrum demand,meetincrease spectrum demand,ORG
45,45,CARDINAL
45.as,45.as,CARDINAL
3.5,3.5,CARDINAL
fcc,fcc,ORG
3.5,3.5,CARDINAL
3.5,3.5,CARDINAL
second,second,ORDINAL
bpshzkm^2,bpshzkm^2,GPE
ase.enhance,ase.enhance,ORG
rf pattern,rf pattern,PERSON
paragraph 45,paragraph 45,DATE
3.5,3.5,CARDINAL
24dbm,24dbm,CARDINAL
6dbi,6dbi,CARDINAL
30dbm,30dbm,CARDINAL
commscopes analysis,commscopes analysis,ORG
3.5,3.5,CARDINAL
up to 37dbm,up to 37dbm,CARDINAL
30dbm 1w,30dbm 1w,CARDINAL
700,700,CARDINAL
3.5,3.5,CARDINAL
700,700,CARDINAL
2.1,2.1,CARDINAL
3.5,3.5,CARDINAL
almost 14db,almost 14db,DATE
30dbm,30dbm,CARDINAL
7db,7db,ORDINAL
3.5,3.5,CARDINAL
14db,14db,ORDINAL
4.5db,4.5db,CARDINAL
700,700,CARDINAL
2.1,2.1,CARDINAL
paragraphwhen,paragraphwhen,GPE
3.5,3.5,CARDINAL
23dbm 200mw,23dbm 200mw,CARDINAL
2db,2db,ORDINAL
23dbm,23dbm,CARDINAL
2db,2db,ORDINAL
25dbm,25dbm,CARDINAL
at least 37dbm 25dbm 12dbi,at least 37dbm 25dbm 12dbi,CARDINAL
6dbi,6dbi,QUANTITY
12dbi,12dbi,QUANTITY
14th,14th,ORDINAL
100,100,CARDINAL
6dbi,6dbi,QUANTITY
2,2,CARDINAL
6db,6db,ORDINAL
6dbi,6dbi,NORP
12dbi antenna,12dbi antenna,LOC
35,35,DATE
39 degree,39 degree,QUANTITY
14 degree,14 degree,QUANTITY
earth,earth,LOC
45,45,CARDINAL
23dbm,23dbm,CARDINAL
12,12,CARDINAL
45,45,CARDINAL
24,24,CARDINAL
30,30,CARDINAL
12,12,CARDINAL
25,25,CARDINAL
37,37,CARDINAL
fcc,fcc,ORG
3.5,3.5,CARDINAL
3.5,3.5,CARDINAL
3.5,3.5,CARDINAL
3.5,3.5,CARDINAL
ptp,ptp,ORG
2,2,CARDINAL
3.5,3.5,CARDINAL
fcc,fcc,ORG
ptp,ptp,ORG
sas,sas,ORG
54dbm,54dbm,CARDINAL
3.5,3.5,CARDINAL
8 to 10,8 to 10,CARDINAL
at least 17db,at least 17db,CARDINAL
37dbm,37dbm,CARDINAL
54dbm.b,54dbm.b,CARDINAL
25dbm,25dbm,CARDINAL
3.5,3.5,CARDINAL
25dbm,25dbm,CARDINAL
37dbm,37dbm,CARDINAL
54dbm,54dbm,CARDINAL
12dbi,12dbi,CARDINAL
29dbi,29dbi,CARDINAL
3.5,3.5,CARDINAL
5.8,5.8,CARDINAL
1db,1db,ORDINAL
1db,1db,ORDINAL
29dbi,29dbi,CARDINAL
54,54,CARDINAL
conclusioncommscope,conclusioncommscope,PERSON
3.5,3.5,CARDINAL
3.5,3.5,CARDINAL
two,two,CARDINAL
fcc,fcc,ORG
3.5,3.5,CARDINAL
