text,text_lower,label
fcc,fcc,ORG
3.5,3.5,CARDINAL
spectrum bridge,spectrum bridge,FAC
sas,sas,ORG
sas,sas,ORG
sas geo -location,sas geo -location,ORG
i. comment,i. comment,PERSON
pa priority,pa priority,ORG
one year,one year,DATE
fcc,fcc,ORG
a single year - lease,a single year - lease,DATE
one year,one year,DATE
the us treasury,the us treasury,ORG
13,13,CARDINAL
annual,annual,DATE
componentan sas spectrum,componentan sas spectrum,FAC
fine grid,fine grid,PERSON
3.5,3.5,CARDINAL
1 square km,1 square km,QUANTITY
magnitude 40 square mile,magnitude 40 square mile,QUANTITY
alaska,alaska,GPE
demography,demography,ORG
17,17,CARDINAL
10,10,CARDINAL
three,three,CARDINAL
18,18,CARDINAL
sas spectrum,sas spectrum,ORG
19,19,CARDINAL
fcc,fcc,ORG
20,20,CARDINAL
one,one,CARDINAL
spectrum bridge inc.,spectrum bridge inc.,ORG
3550 - 3650mhz,3550 - 3650mhz,DATE
12,12,CARDINAL
21,21,CARDINAL
secondary,secondary,ORDINAL
fcc,fcc,ORG
year,year,DATE
pa,pa,PERSON
pa,pa,NORP
modify,modify,ORG
sas,sas,ORG
pa,pa,GPE
annually,annually,DATE
annual,annual,DATE
un,un,ORG
allow pa eligible,allow pa eligible,PERSON
pa,pa,GPE
pa spectrum,pa spectrum,ORG
1 year,1 year,DATE
unallocated spectrum,unallocated spectrum,ORG
sas,sas,GPE
spectrum marketplace,spectrum marketplace,FAC
paragraph 23,paragraph 23,CARDINAL
one - year,one - year,DATE
treasury,treasury,ORG
paragraph 24,paragraph 24,CARDINAL
"74,000 or more","74,000 or more",CARDINAL
annual,annual,DATE
annual,annual,DATE
26,26,CARDINAL
sas base spectrum management,sas base spectrum management,ORG
two,two,CARDINAL
two,two,CARDINAL
pa spectrum,pa spectrum,LOC
bandwidth channel,bandwidth channel,PERSON
less than one - third,less than one - third,CARDINAL
one - half,one - half,CARDINAL
annual,annual,DATE
sas,sas,ORG
paragraph 29,paragraph 29,CARDINAL
paragraph 32,paragraph 32,CARDINAL
gdb,gdb,ORG
log spectrum request,log spectrum request,ORG
fcc,fcc,ORG
vi,vi,PERSON
vii,vii,ORG
45,45,CARDINAL
sas spectrum management system,sas spectrum management system,ORG
uk.paragraph,uk.paragraph,GPE
3.5,3.5,CARDINAL
los application,los application,GPE
3650 - 3700,3650 - 3700,DATE
mhz bandexisting,mhz bandexisting,FAC
3650 - 3750,3650 - 3750,DATE
90,90,CARDINAL
3.65,3.65,CARDINAL
today,today,DATE
