text,text_lower,label
grant county,grant county,GPE
new mexico,new mexico,GPE
two plus year,two plus year,DATE
multiple party,multiple party,ORG
96,96,CARDINAL
three,three,CARDINAL
us,us,GPE
two,two,CARDINAL
"less than 30,000","less than 30,000",CARDINAL
"5,000","5,000",CARDINAL
two,two,CARDINAL
cover thousand of square mile,cover thousand of square mile,QUANTITY
"174,000","174,000",CARDINAL
ten year,ten year,DATE
50,50,CARDINAL
three,three,CARDINAL
america,america,GPE
