text,text_lower,label
the ieee dyspan standards committee,the ieee dyspan standards committee,ORG
1900.5,1900.5,CARDINAL
the dyspan - sc1 - 2.the,the dyspan - sc1 - 2.the,ORG
ieee dyspan - sc,ieee dyspan - sc,ORDINAL
spectrum access radio network,spectrum access radio network,ORG
ieee dyspan - sc,ieee dyspan - sc,PERSON
3550 - 3650,3550 - 3650,DATE
ieee dyspan - sc,ieee dyspan - sc,PERSON
3550 - 3650,3550 - 3650,DATE
ieee dyspan - sc,ieee dyspan - sc,PERSON
ieee dyspan - sc,ieee dyspan - sc,PERSON
3550 - 3650,3550 - 3650,DATE
1900.5,1900.5,CARDINAL
3550 - 3650,3550 - 3650,DATE
p1900.5,p1900.5,ORG
p1900.5,p1900.5,ORG
scm,scm,ORG
ieee dyspan - sc,ieee dyspan - sc,PERSON
p1900.5,p1900.5,ORG
spectrum management mbsm,spectrum management mbsm,ORG
rf spectrum,rf spectrum,ORG
scm,scm,PERSON
sas,sas,ORG
scm,scm,PERSON
only one,only one,CARDINAL
fcc,fcc,ORG
ieee dyspan - sc,ieee dyspan - sc,PERSON
p1900.5,p1900.5,ORG
mitre,mitre,PERSON
p1900.5 workinggroup,p1900.5 workinggroup,ORG
18 month,18 month,DATE
ieee standard,ieee standard,PERSON
1900.5.2.goal,1900.5.2.goal,DATE
13,13,CARDINAL
qualcomm,qualcomm,ORG
the rf spectrum,the rf spectrum,FAC
the land mobile radio service of broadband,the land mobile radio service of broadband,ORG
scm,scm,ORG
scm,scm,ORG
sas,sas,ORG
dsa.scms,dsa.scms,ORG
first,first,ORDINAL
sas,sas,ORG
sas,sas,ORG
scm,scm,ORG
spectrum mask,spectrum mask,PERSON
underlay mask,underlay mask,PERSON
sas,sas,ORG
ieee dyspan,ieee dyspan,PERSON
1900.5,1900.5,CARDINAL
3550 3650,3550 3650,DATE
