text,text_lower,label
the massachusetts institute of technology mit,the massachusetts institute of technology mit,ORG
fcc,fcc,ORG
3.5ghz,3.5ghz,FAC
fcc,fcc,ORG
fcc,fcc,ORG
3.5ghz,3.5ghz,FAC
byexpande spectrum,byexpande spectrum,FAC
fcc,fcc,ORG
15,15,CARDINAL
3650 - 3700,3650 - 3700,DATE
fcc,fcc,ORG
first,first,ORDINAL
second,second,ORDINAL
recent year,recent year,DATE
3.5ghz,3.5ghz,PRODUCT
150mhz,150mhz,CARDINAL
fcc,fcc,ORG
underutilize,underutilize,ORG
today,today,DATE
tomorrow,tomorrow,DATE
3.5ghz,3.5ghz,NORP
sas,sas,ORG
sas,sas,ORG
fcc,fcc,ORG
fcc,fcc,ORG
fcc,fcc,ORG
