text,text_lower,label
nokia siemens networks,nokia siemens networks,ORG
us,us,GPE
llc nokia siemens networks,llc nokia siemens networks,ORG
3550 - 3650,3550 - 3650,DATE
mhz spectrum,mhz spectrum,FAC
3.5,3.5,CARDINAL
nokia siemens,nokia siemens,ORG
3.5,3.5,CARDINAL
the united states,the united states,GPE
nokia siemens,nokia siemens,ORG
nokia siemens networks,nokia siemens networks,ORG
introduction.nokia siemens,introduction.nokia siemens,PERSON
nokia siemens,nokia siemens,ORG
nokia siemens,nokia siemens,ORG
td - lte,td - lte,PERSON
pioneer,pioneer,ORG
nokia siemens networks,nokia siemens networks,ORG
the broadcast spectrum incentive,the broadcast spectrum incentive,ORG
nokia siemens,nokia siemens,ORG
the united states,the united states,GPE
the 21 century,the 21 century,DATE
nokia siemensnetworks,nokia siemensnetworks,PERSON
3.5,3.5,CARDINAL
nokia siemens,nokia siemens,ORG
3550 - 3650,3550 - 3650,DATE
mhz band.nokia,mhz band.nokia,PRODUCT
nokia siemens,nokia siemens,ORG
nokia siemens,nokia siemens,ORG
3.5,3.5,CARDINAL
recent year,recent year,DATE
a. time division duplex,a. time division duplex,ORG
3.5,3.5,CARDINAL
3400 - 3800,3400 - 3800,DATE
mhz spectrum,mhz spectrum,FAC
3gpp,3gpp,CARDINAL
two,two,CARDINAL
42 3400 - 3600,42 3400 - 3600,CARDINAL
43,43,CARDINAL
3600,3600,CARDINAL
22,22,CARDINAL
3410 - 3490,3410 - 3490,DATE
uplink3510 - 3590,uplink3510 - 3590,CARDINAL
three,three,CARDINAL
3600,3600,DATE
3600,3600,CARDINAL
european,european,NORP
3.4,3.4,CARDINAL
3.6,3.6,CARDINAL
japan,japan,GPE
only 3.4,only 3.4,CARDINAL
3.6,3.6,CARDINAL
3.4 - 3.6,3.4 - 3.6,DATE
3.4 - 3.6,3.4 - 3.6,DATE
3.6,3.6,CARDINAL
3gpp,3gpp,CARDINAL
3550 - 3650,3550 - 3650,DATE
mhz spectrum,mhz spectrum,FAC
two,two,CARDINAL
3gpp tddband,3gpp tddband,QUANTITY
50,50,CARDINAL
3550,3550,CARDINAL
42 50,42 50,CARDINAL
3600 - 3650,3600 - 3650,DATE
3550 - 3650,3550 - 3650,DATE
two,two,CARDINAL
50,50,CARDINAL
42,42,CARDINAL
43,43,DATE
3gpp,3gpp,CARDINAL
3gpp,3gpp,LANGUAGE
3gpp,3gpp,QUANTITY
one year,one year,DATE
3gpp,3gpp,DATE
u.s.,u.s.,GPE
two,two,CARDINAL
42,42,DATE
43,43,DATE
81,81,CARDINAL
3550,3550,CARDINAL
3650,3650,CARDINAL
3gpp,3gpp,CARDINAL
42,42,DATE
43,43,DATE
3550 - 3650,3550 - 3650,DATE
3.5,3.5,CARDINAL
3gpp,3gpp,CARDINAL
42,42,DATE
43,43,DATE
22.looke,22.looke,PRODUCT
3.5,3.5,CARDINAL
3.5,3.5,CARDINAL
3.5,3.5,CARDINAL
fdd,fdd,ORG
22,22,CARDINAL
2x80,2x80,CARDINAL
2x80,2x80,CARDINAL
duplexer,duplexer,PRODUCT
one,one,CARDINAL
80,80,CARDINAL
two,two,CARDINAL
50,50,CARDINAL
20,20,CARDINAL
2,2,CARDINAL
two,two,CARDINAL
3gpp fdd band 22,3gpp fdd band 22,QUANTITY
22,22,CARDINAL
42,42,CARDINAL
3gpp technical specification 36.101,3gpp technical specification 36.101,QUANTITY
22,22,CARDINAL
42,42,CARDINAL
22,22,CARDINAL
2,2,CARDINAL
42,42,CARDINAL
22,22,DATE
42,42,CARDINAL
3.5,3.5,CARDINAL
42,42,CARDINAL
43,43,DATE
22,22,CARDINAL
3.5ghz,3.5ghz,FAC
roadmap,roadmap,GPE
td - lte chipset,td - lte chipset,PERSON
2013,2013,DATE
roadmap,roadmap,GPE
3.5,3.5,CARDINAL
wimax,wimax,GPE
td - lte,td - lte,PERSON
two,two,CARDINAL
td - lte,td - lte,PERSON
td - lte,td - lte,NORP
td - lte,td - lte,PERSON
nokia siemens networks,nokia siemens networks,ORG
4,4,CARDINAL
nokia siemens,nokia siemens,ORG
today,today,DATE
3550 - 3650,3550 - 3650,CARDINAL
year,year,DATE
2012,2012,DATE
the presidents council of advisors,the presidents council of advisors,ORG
three,three,CARDINAL
one,one,CARDINAL
3.5,3.5,CARDINAL
3.5,3.5,CARDINAL
3.5,3.5,CARDINAL
europe,europe,LOC
nokia,nokia,ORG
qualcomm,qualcomm,ORG
nokia siemens,nokia siemens,ORG
3550 - 3650,3550 - 3650,DATE
asa,asa,ORG
three,three,CARDINAL
two,two,CARDINAL
5.this,5.this,CARDINAL
europe,europe,LOC
radio spectrum policy,radio spectrum policy,ORG
the european union,the european union,ORG
eu,eu,ORG
eu,eu,ORG
november 2012,november 2012,DATE
european,european,NORP
june 2013,june 2013,DATE
november 2013,november 2013,DATE
eu,eu,ORG
asa,asa,ORG
third,third,ORDINAL
6,6,CARDINAL
locationgeography andor,locationgeography andor,GPE
6,6,CARDINAL
asa,asa,PERSON
asa spectrum,asa spectrum,PERSON
asa licensee,asa licensee,PERSON
asa licensee,asa licensee,PERSON
the asa framework,the asa framework,LAW
the asa licensee,the asa licensee,LOC
the asa licensee,the asa licensee,ORG
asa licensee,asa licensee,PERSON
asa,asa,PERSON
more than one,more than one,CARDINAL
two,two,CARDINAL
one,one,CARDINAL
the asa repository,the asa repository,ORG
third,third,ORDINAL
asa controller,asa controller,PERSON
asa controller,asa controller,ORG
asa spectrum,asa spectrum,FAC
the asa repository,the asa repository,ORG
the asa repository,the asa repository,ORG
the asa controller,the asa controller,ORG
one,one,CARDINAL
the asa controller,the asa controller,ORG
third,third,ORDINAL
3650 - 3700,3650 - 3700,DATE
unlicense spectrum,unlicense spectrum,ORG
asa allow,asa allow,PERSON
qos,qos,PERSON
asa,asa,ORG
qos,qos,ORG
asa,asa,PERSON
3.5,3.5,CARDINAL
3.5,3.5,CARDINAL
two,two,CARDINAL
nokia siemens networks,nokia siemens networks,ORG
theuser,theuser,PERSON
7,7,CARDINAL
qos requirement,qos requirement,ORG
100,100,CARDINAL
3.5,3.5,CARDINAL
450 km,450 km,QUANTITY
navy,navy,ORG
150 km,150 km,QUANTITY
3650 - 3700,3650 - 3700,DATE
fss,fss,ORG
cmrs licensee,cmrs licensee,PERSON
licensee,licensee,PERSON
3650 - 3700,3650 - 3700,DATE
3550 - 3650,3550 - 3650,DATE
vi,vi,GPE
conclusionnokia siemens networks applaud,conclusionnokia siemens networks applaud,ORG
3550 - 3650,3550 - 3650,DATE
nokia siemens,nokia siemens,ORG
prospect,prospect,ORG
nokia siemens networks implore the commission,nokia siemens networks implore the commission,ORG
nokia siemens,nokia siemens,ORG
