text,text_lower,label
summarypciathe wireless infrastructure association,summarypciathe wireless infrastructure association,ORG
the das forum,the das forum,ORG
pcia,pcia,GPE
3550 - 3650,3550 - 3650,DATE
3.5,3.5,CARDINAL
pcia,pcia,ORG
das,das,ORG
fcc,fcc,ORG
americans,americans,NORP
d]emand,d]emand,ORG
fcc,fcc,ORG
das,das,ORG
fcc,fcc,ORG
cbs,cbs,ORG
second,second,ORDINAL
third,third,ORDINAL
fcc,fcc,ORG
3.5,3.5,CARDINAL
fourth,fourth,ORDINAL
fcc,fcc,ORG
das,das,ORG
das,das,ORG
3.5,3.5,CARDINAL
fcc,fcc,ORG
das,das,ORG
das,das,ORG
das,das,ORG
das,das,ORG
att,att,PERSON
three - year,three - year,DATE
"1,000","1,000",CARDINAL
das,das,ORG
"40,000","40,000",CARDINAL
only a two,only a two,CARDINAL
das,das,ORG
macrocell site,macrocell site,PERSON
das network,das network,ORG
american,american,NORP
3.5,3.5,CARDINAL
das,das,ORG
3.5,3.5,CARDINAL
the united states,the united states,GPE
populous city,populous city,GPE
3.5,3.5,CARDINAL
nearly 60,nearly 60,CARDINAL
americans,americans,NORP
das,das,ORG
3.5,3.5,CARDINAL
cbs,cbs,ORG
cbs,cbs,ORG
3.5,3.5,CARDINAL
das,das,ORG
3.5,3.5,CARDINAL
ghz bandwireless service,ghz bandwireless service,ORG
sas,sas,ORG
3.5,3.5,CARDINAL
today,today,DATE
3.5,3.5,CARDINAL
3.5,3.5,CARDINAL
3.5,3.5,CARDINAL
3.5,3.5,CARDINAL
cbs,cbs,ORG
first,first,ORDINAL
3.5,3.5,CARDINAL
das,das,ORG
3.5,3.5,CARDINAL
das,das,ORG
pcia,pcia,PERSON
das,das,ORG
fcc,fcc,ORG
das,das,ORG
fcc,fcc,ORG
6409a,6409a,DATE
2012,2012,DATE
pcia be hearten,pcia be hearten,PERSON
genachowski,genachowski,PERSON
the come month,the come month,DATE
das,das,ORG
today,today,DATE
das,das,ORG
3.5,3.5,CARDINAL
ghz band the commission,ghz band the commission,ORG
das,das,ORG
pcia,pcia,ORG
3.5,3.5,CARDINAL
fcc,fcc,ORG
3.5,3.5,CARDINAL
inbuilde,inbuilde,PERSON
amos j. loveday,amos j. loveday,PERSON
ph.d.,ph.d.,GPE
ohio,ohio,GPE
fcc,fcc,ORG
loveday,loveday,DATE
pcia,pcia,PERSON
das,das,ORG
3.5,3.5,CARDINAL
3.5,3.5,CARDINAL
3.5,3.5,CARDINAL
ghz,ghz,ORG
fcc,fcc,ORG
das,das,ORG
