text,text_lower,label
3550 - 3650,3550 - 3650,DATE
3.5,3.5,CARDINAL
3.5,3.5,CARDINAL
u.s.,u.s.,GPE
u.s.,u.s.,GPE
hundred of million,hundred of million,CARDINAL
3.5,3.5,CARDINAL
u.s.,u.s.,GPE
80,80,CARDINAL
65,65,CARDINAL
american,american,NORP
3.5,3.5,CARDINAL
3,3,CARDINAL
3.5,3.5,CARDINAL
3.5,3.5,CARDINAL
one,one,CARDINAL
3.5,3.5,CARDINAL
3.5,3.5,CARDINAL
3.5,3.5,CARDINAL
3.5,3.5,CARDINAL
sas,sas,ORG
3.5,3.5,CARDINAL
peter rysavy,peter rysavy,PERSON
sas,sas,GPE
3.5,3.5,CARDINAL
3.5,3.5,CARDINAL
one - half,one - half,CARDINAL
3.5,3.5,CARDINAL
sas,sas,ORG
3.5,3.5,CARDINAL
one - half,one - half,CARDINAL
3.5,3.5,CARDINAL
deploy,deploy,QUANTITY
half,half,CARDINAL
3.5,3.5,CARDINAL
one,one,CARDINAL
3.5,3.5,CARDINAL
3.5,3.5,CARDINAL
the national telecommunications and information administrations ntia,the national telecommunications and information administrations ntia,ORG
3.5,3.5,CARDINAL
the united states,the united states,GPE
3.5,3.5,CARDINAL
3.5,3.5,CARDINAL
3.5,3.5,CARDINAL
3.5,3.5,CARDINAL
3,3,CARDINAL
america,america,GPE
600,600,CARDINAL
2,2,CARDINAL
3,3,CARDINAL
1755 - 1850,1755 - 1850,DATE
3.5,3.5,CARDINAL
fcc,fcc,ORG
modify,modify,ORG
