text,text_lower,label
fcc,fcc,ORG
12,12,CARDINAL
prescott,prescott,GPE
az,az,GPE
yavapai county,yavapai county,GPE
az,az,GPE
more than 800,more than 800,CARDINAL
3,3,CARDINAL
90,90,CARDINAL
"few than 50,000","few than 50,000",CARDINAL
3650 - 3700,3650 - 3700,DATE
"may 3 , 2011","may 3 , 2011",DATE
one,one,CARDINAL
3650,3650,CARDINAL
arizona,arizona,GPE
the last six year,the last six year,DATE
arizona,arizona,GPE
arizona,arizona,GPE
