text,text_lower,label
3550 - 3650,3550 - 3650,DATE
3.5,3.5,CARDINAL
introduction,introduction,ORG
more than 100,more than 100,CARDINAL
3.5,3.5,CARDINAL
cca,cca,ORG
3.5,3.5,CARDINAL
3.5,3.5,CARDINAL
cca,cca,ORG
3.5,3.5,CARDINAL
cca,cca,ORG
cca,cca,ORG
discussionthe commission,discussionthe commission,ORG
3.5,3.5,CARDINAL
three,three,CARDINAL
approximately 60 percent,approximately 60 percent,PERCENT
u.s.,u.s.,GPE
theband,theband,GPE
the other 40 percent,the other 40 percent,PERCENT
three,three,CARDINAL
sas,sas,ORG
three,three,CARDINAL
3.5,3.5,CARDINAL
3.5,3.5,CARDINAL
3.5,3.5,CARDINAL
a thousand - fold,a thousand - fold,CARDINAL
2020,2020,DATE
genachowski,genachowski,PERSON
3.5,3.5,CARDINAL
3.5,3.5,CARDINAL
3.5,3.5,CARDINAL
3.5,3.5,CARDINAL
3,3,CARDINAL
ghz,ghz,ORG
mobile broadband service,mobile broadband service,ORG
s]pectrum,s]pectrum,PRODUCT
a thousand - fold,a thousand - fold,CARDINAL
2020,2020,DATE
500,500,CARDINAL
2020,2020,DATE
4,4,CARDINAL
theimpende spectrum,theimpende spectrum,PERSON
meaningful accessto,meaningful accessto,PERSON
spectrum,spectrum,ORG
deploy mobile service,deploy mobile service,ORG
cca,cca,ORG
3.5,3.5,CARDINAL
cca,cca,ORG
cca,cca,ORG
