text,text_lower,label
3.5,3.5,CARDINAL
3,3,CARDINAL
300,300,CARDINAL
3,3,CARDINAL
today,today,DATE
japan,japan,GPE
south korea,south korea,GPE
uk,uk,GPE
spain,spain,GPE
germany,germany,GPE
italy,italy,GPE
france,france,GPE
canada,canada,GPE
the united states,the united states,GPE
congress,congress,ORG
3.5,3.5,CARDINAL
3,3,CARDINAL
ghz,ghz,ORG
1755 - 1780,1755 - 1780,DATE
u.s.,u.s.,GPE
three,three,CARDINAL
3.5,3.5,CARDINAL
3.5,3.5,CARDINAL
ghz,ghz,ORG
3,3,CARDINAL
ghz,ghz,ORG
3,3,CARDINAL
the spectrum act,the spectrum act,LAW
2011,2011,CARDINAL
three,three,CARDINAL
u.s.,u.s.,GPE
two,two,CARDINAL
3.5,3.5,CARDINAL
congress,congress,ORG
ntia,ntia,ORG
mobile broadband service,mobile broadband service,ORG
3.5,3.5,CARDINAL
3,3,CARDINAL
ghz,ghz,ORG
3.5,3.5,CARDINAL
fcc,fcc,ORG
300,300,CARDINAL
2015,2015,DATE
each under 3,each under 3,CARDINAL
3.5,3.5,CARDINAL
deploy amix,deploy amix,PERSON
3.5,3.5,CARDINAL
ntia,ntia,ORG
3.5,3.5,CARDINAL
3.5,3.5,CARDINAL
3,3,CARDINAL
3,3,CARDINAL
3,3,CARDINAL
3,3,CARDINAL
3,3,CARDINAL
3,3,CARDINAL
genachowski,genachowski,PERSON
u.s.,u.s.,GPE
u.s.,u.s.,GPE
3,3,CARDINAL
2011,2011,CARDINAL
the next five year,the next five year,DATE
98 percent,98 percent,PERCENT
americans,americans,NORP
america,america,GPE
fcc,fcc,ORG
500,500,CARDINAL
the next 10 year,the next 10 year,DATE
the wirelessbroadband coalition,the wirelessbroadband coalition,ORG
3ghzthe,3ghzthe,CARDINAL
3,3,CARDINAL
americas economy,americas economy,ORG
3,3,CARDINAL
3 ghz at least 300 mhz,3 ghz at least 300 mhz,QUANTITY
1755 - 1780,1755 - 1780,DATE
1780 - 1850,1780 - 1850,DATE
1755 - 1780,1755 - 1780,DATE
u.s.,u.s.,GPE
3,3,CARDINAL
isconcerne,isconcerne,PERSON
the presidents council of advisorson science and technology pcast,the presidents council of advisorson science and technology pcast,ORG
3,3,CARDINAL
congress,congress,ORG
thespectrum act,thespectrum act,ORG
ntia shall,ntia shall,ORG
sharingin,sharingin,ORG
u.s.,u.s.,GPE
u.s.,u.s.,GPE
hundred of billion of dollar,hundred of billion of dollar,MONEY
25 billion,25 billion,CARDINAL
july 2011-june 2012,july 2011-june 2012,DATE
98.5 percent,98.5 percent,PERCENT
americans,americans,NORP
4,4,CARDINAL
73 billion to 151 billion,73 billion to 151 billion,CARDINAL
"371,000 to 771,000","371,000 to 771,000",CARDINAL
2016,2016,DATE
three,three,CARDINAL
u.s.,u.s.,GPE
policy.to,policy.to,GPE
3.5,3.5,CARDINAL
ctias membersinclude,ctias membersinclude,PERSON
3.5,3.5,CARDINAL
three,three,CARDINAL
year,year,DATE
three,three,CARDINAL
3.5,3.5,CARDINAL
3.5,3.5,CARDINAL
three,three,CARDINAL
three,three,CARDINAL
first,first,ORDINAL
3.5,3.5,CARDINAL
second,second,ORDINAL
third,third,ORDINAL
first,first,ORDINAL
three,three,CARDINAL
licensee,licensee,PERSON
second,second,ORDINAL
fcc,fcc,ORG
two,two,CARDINAL
fcc,fcc,ORG
3.5,3.5,CARDINAL
three,three,CARDINAL
two,two,CARDINAL
3.5,3.5,CARDINAL
two,two,CARDINAL
3.5,3.5,CARDINAL
3,3,CARDINAL
ghz,ghz,ORG
three,three,CARDINAL
