text,text_lower,label
alcatel,alcatel,ORG
3550 - 3650,3550 - 3650,DATE
i. introduction,i. introduction,PERSON
video communication service,video communication service,ORG
mobile,mobile,GPE
2012,2012,DATE
50,50,CARDINAL
3,3,CARDINAL
united states,united states,GPE
alcatel,alcatel,ORG
bell labs,bell labs,ORG
alcatel,alcatel,ORG
3.5,3.5,CARDINAL
3.5,3.5,CARDINAL
alcatel,alcatel,ORG
one,one,CARDINAL
3.5,3.5,CARDINAL
approximately 60,approximately 60,CARDINAL
3.5,3.5,CARDINAL
alcatel,alcatel,ORG
topography,topography,ORG
sas,sas,ORG
3.5,3.5,CARDINAL
2,2,CARDINAL
one,one,CARDINAL
every hour,every hour,TIME
today,today,DATE
sas,sas,ORG
3.5,3.5,CARDINAL
3.5,3.5,CARDINAL
3.5,3.5,CARDINAL
pioneer,pioneer,ORG
alcatel - lucent,alcatel - lucent,ORG
3.5,3.5,CARDINAL
4,4,CARDINAL
3.5,3.5,CARDINAL
3.5,3.5,CARDINAL
8 to 20 foot,8 to 20 foot,QUANTITY
los backhaul provide challenge,los backhaul provide challenge,ORG
20 foot,20 foot,QUANTITY
286080,286080,DATE
ghz spectrum,ghz spectrum,GPE
nlos backhaul,nlos backhaul,PERSON
3ghz,3ghz,FAC
between 3 to 6 ghz,between 3 to 6 ghz,DATE
3.5,3.5,CARDINAL
2 km nlos backhaul,2 km nlos backhaul,QUANTITY
3.5,3.5,CARDINAL
cell antenna,cell antenna,PERSON
2x2,2x2,PERSON
4x4,4x4,PERSON
nlos backhaul application,nlos backhaul application,PERSON
nlos backhaul,nlos backhaul,PERSON
u.s.,u.s.,GPE
3.5,3.5,CARDINAL
many thousand,many thousand,CARDINAL
5 watts,5 watts,QUANTITY
sas,sas,ORG
sas,sas,ORG
sas,sas,ORG
d. sas,d. sas,PERSON
3.5,3.5,CARDINAL
alcatel,alcatel,ORG
sas,sas,ORG
sas,sas,ORG
secondary,secondary,ORDINAL
secondary,secondary,ORDINAL
sas,sas,ORG
sas,sas,ORG
sas,sas,ORG
sas,sas,ORG
sas,sas,NORP
sas,sas,ORG
second,second,ORDINAL
sas,sas,ORG
e. sas,e. sas,PERSON
sas,sas,ORG
sas,sas,ORG
sas,sas,GPE
sas,sas,ORG
sas,sas,ORG
sas,sas,ORG
f. tdd,f. tdd,PERSON
3.5,3.5,CARDINAL
3.5,3.5,CARDINAL
sas,sas,GPE
one,one,CARDINAL
ten,ten,CARDINAL
54,54,CARDINAL
3.5,3.5,CARDINAL
one,one,CARDINAL
3550 - 3650,3550 - 3650,DATE
the super bowl,the super bowl,EVENT
sas,sas,ORG
g. air interface protocol,g. air interface protocol,ORG
3.5,3.5,CARDINAL
3.5,3.5,CARDINAL
useof,useof,ORG
3.5,3.5,CARDINAL
td - lte,td - lte,PERSON
3.5,3.5,CARDINAL
three,three,CARDINAL
sas,sas,GPE
fcc,fcc,ORG
csmac,csmac,PERSON
alcatel - lucent fully,alcatel - lucent fully,ORG
3.5,3.5,CARDINAL
