text,text_lower,label
summarya,summarya,ORG
100,100,CARDINAL
3550 - 3650,3550 - 3650,CARDINAL
the low half,the low half,CARDINAL
the upper half,the upper half,DATE
3650 - 3700,3650 - 3700,DATE
3550 - 3650,3550 - 3650,DATE
up to 150,up to 150,CARDINAL
150,150,CARDINAL
1.405,1.405,CARDINAL
the utilities telecom council,the utilities telecom council,ORG
the edison electric institute,the edison electric institute,ORG
the national rural electric cooperative association,the national rural electric cooperative association,ORG
100,100,CARDINAL
3550 - 3650,3550 - 3650,CARDINAL
3.65,3.65,CARDINAL
3.5,3.5,CARDINAL
3.5,3.5,CARDINAL
3.5,3.5,CARDINAL
sas,sas,ORG
3.5,3.5,CARDINAL
sas,sas,GPE
3.5,3.5,CARDINAL
3.5,3.5,CARDINAL
3.5,3.5,CARDINAL
3650 - 3700,3650 - 3700,DATE
3.65,3.65,CARDINAL
3.65,3.65,CARDINAL
3.5,3.5,CARDINAL
3.65,3.65,CARDINAL
150,150,CARDINAL
sas,sas,ORG
3.65,3.65,CARDINAL
3.5,3.5,CARDINAL
3.65,3.65,CARDINAL
two,two,CARDINAL
3.5,3.5,CARDINAL
sas,sas,ORG
the homeland security act,the homeland security act,LAW
third,third,ORDINAL
3.65,3.65,CARDINAL
3.5,3.5,CARDINAL
3.5,3.5,CARDINAL
3.5,3.5,CARDINAL
100,100,CARDINAL
3550 - 3600,3550 - 3600,DATE
3.5,3.5,CARDINAL
million,million,CARDINAL
only a few thousand,only a few thousand,CARDINAL
u.s.,u.s.,GPE
approximately 70 percent,approximately 70 percent,PERCENT
u.s.,u.s.,GPE
about 70 percent,about 70 percent,PERCENT
the united states,the united states,GPE
u.s.,u.s.,GPE
congress,congress,ORG
nreca,nreca,PERSON
the national service organization,the national service organization,ORG
approximately 42 million,approximately 42 million,CARDINAL
47,47,CARDINAL
12 percent,12 percent,PERCENT
840,840,CARDINAL
nrecas,nrecas,GPE
approximately 65,approximately 65,CARDINAL
rural electric,rural electric,ORG
approximately 11 percent,approximately 11 percent,PERCENT
the united states,the united states,GPE
rural electric,rural electric,ORG
rural electric,rural electric,ORG
rural electric,rural electric,ORG
nrecas,nrecas,GPE
rural electric,rural electric,ORG
rural electric,rural electric,ORG
smart grid,smart grid,ORG
microwave spectrum,microwave spectrum,PERSON
unlicense spectrum,unlicense spectrum,ORG
thatthe national telecommunications and information administration,thatthe national telecommunications and information administration,ORG
fcc,fcc,ORG
i]dentifye,i]dentifye,ORG
3.5,3.5,CARDINAL
the commerce spectrum management advisory committee,the commerce spectrum management advisory committee,ORG
3.5,3.5,CARDINAL
1800 - 1830,1800 - 1830,DATE
3.5,3.5,CARDINAL
3.5,3.5,CARDINAL
citizens broadband service,citizens broadband service,ORG
3.5,3.5,CARDINAL
citizens broadband service,citizens broadband service,ORG
sas,sas,ORG
sas,sas,GPE
3.5,3.5,CARDINAL
3.5,3.5,CARDINAL
section 307,section 307,LAW
fcc,fcc,ORG
the citizens broadband service,the citizens broadband service,ORG
section 307,section 307,LAW
95,95,CARDINAL
3.5,3.5,CARDINAL
3.5,3.5,CARDINAL
citizens broadband service,citizens broadband service,ORG
sas,sas,ORG
underlie,underlie,NORP
3.5,3.5,CARDINAL
3.5,3.5,CARDINAL
ntias exclusion zone,ntias exclusion zone,ORG
approximately 60 percent,approximately 60 percent,PERCENT
the united states population,the united states population,GPE
the low half,the low half,DATE
3.5,3.5,CARDINAL
sas,sas,ORG
sas,sas,ORG
half,half,CARDINAL
3.5,3.5,CARDINAL
3.5,3.5,CARDINAL
sas,sas,ORG
100,100,CARDINAL
sas,sas,ORG
at least 50,at least 50,CARDINAL
3.5,3.5,CARDINAL
100,100,CARDINAL
3.5,3.5,CARDINAL
50,50,CARDINAL
3650 - 3700,3650 - 3700,DATE
3650 - 3700,3650 - 3700,DATE
3.5,3.5,CARDINAL
3.65,3.65,CARDINAL
ghz,ghz,ORG
150,150,CARDINAL
3650 - 3700,3650 - 3700,DATE
3650 - 3700,3650 - 3700,DATE
3650 - 3700,3650 - 3700,DATE
sas,sas,ORG
3.65,3.65,CARDINAL
3.5,3.5,CARDINAL
3.65,3.65,CARDINAL
ghz,ghz,ORG
3.65,3.65,CARDINAL
3.5,3.5,CARDINAL
3.65 ghz,3.65 ghz,QUANTITY
3.5,3.5,CARDINAL
3.65,3.65,CARDINAL
sas,sas,ORG
3.65,3.65,CARDINAL
3.5,3.5,CARDINAL
3.5,3.5,CARDINAL
3.5,3.5,CARDINAL
3.5,3.5,CARDINAL
3.5,3.5,CARDINAL
3.65,3.65,CARDINAL
ghz,ghz,ORG
3.5,3.5,CARDINAL
two,two,CARDINAL
15,15,CARDINAL
three,three,CARDINAL
two,two,CARDINAL
two,two,CARDINAL
two,two,CARDINAL
3.5,3.5,CARDINAL
15,15,CARDINAL
vi,vi,GPE
3.5,3.5,CARDINAL
3.5,3.5,CARDINAL
303y,303y,CARDINAL
303y,303y,CARDINAL
1,1,CARDINAL
2,2,CARDINAL
3,3,CARDINAL
3.5,3.5,CARDINAL
3.5,3.5,CARDINAL
sas,sas,ORG
fss earth,fss earth,LOC
3.65,3.65,CARDINAL
vii,vii,ORG
sas,sas,ORG
3.5,3.5,CARDINAL
sas,sas,ORG
sas,sas,ORG
100,100,CARDINAL
3.5,3.5,CARDINAL
sas,sas,ORG
sas,sas,ORG
3.5,3.5,CARDINAL
licensee,licensee,PERSON
sas,sas,ORG
third,third,ORDINAL
sas,sas,ORG
3.5,3.5,CARDINAL
450 km coastal area separation zone,450 km coastal area separation zone,QUANTITY
10,10,CARDINAL
the technical advisory committee,the technical advisory committee,ORG
digital,digital,ORG
3.5,3.5,CARDINAL
3.5,3.5,CARDINAL
ghz band .,ghz band .,ORG
smart grid,smart grid,ORG
commission,commission,ORG
200,200,CARDINAL
cbs,cbs,ORG
3.5,3.5,CARDINAL
7 dbi,7 dbi,QUANTITY
3.5,3.5,CARDINAL
3.65,3.65,CARDINAL
3.65,3.65,CARDINAL
3.5,3.5,CARDINAL
ghz band .,ghz band .,ORG
3.5,3.5,CARDINAL
three,three,CARDINAL
3500 - 3650,3500 - 3650,CARDINAL
fss earth,fss earth,LOC
3600 - 4200,3600 - 4200,CARDINAL
3650 - 3700,3650 - 3700,DATE
3.65,3.65,CARDINAL
3.5,3.5,CARDINAL
3.65,3.65,CARDINAL
3.5,3.5,CARDINAL
3.65,3.65,CARDINAL
3.5,3.5,CARDINAL
fcc,fcc,ORG
all 3.5,all 3.5,CARDINAL
3.5,3.5,CARDINAL
3.5,3.5,CARDINAL
3.5,3.5,CARDINAL
3.5,3.5,CARDINAL
3.5,3.5,CARDINAL
3.5,3.5,CARDINAL
3.5,3.5,CARDINAL
50,50,CARDINAL
3.5,3.5,CARDINAL
3550 - 3600,3550 - 3600,DATE
earth,earth,LOC
3.5,3.5,CARDINAL
3.5,3.5,CARDINAL
fss,fss,ORG
60,60,CARDINAL
the united states,the united states,GPE
150,150,CARDINAL
3.65,3.65,CARDINAL
3.5,3.5,CARDINAL
