text,text_lower,label
sita,sita,ORG
the federal communications commission,the federal communications commission,ORG
fcc,fcc,ORG
3550 - 3650,3550 - 3650,DATE
12,12,CARDINAL
fcc,fcc,ORG
3550- 3650,3550- 3650,CARDINAL
more than 60 year 1 949,more than 60 year 1 949,DATE
fcc,fcc,ORG
sita,sita,ORG
fcc,fcc,ORG
3550 - 3650,3550 - 3650,DATE
12,12,CARDINAL
1949,1949,DATE
more than 60 year 1949,more than 60 year 1949,DATE
3,3,CARDINAL
4,4,CARDINAL
3550 - 3650,3550 - 3650,DATE
3.5,3.5,CARDINAL
ghz bandsita applaud,ghz bandsita applaud,PERSON
3550 - 3650,3550 - 3650,DATE
3gpp enable,3gpp enable,PRODUCT
uk,uk,GPE
2.6,2.6,CARDINAL
25dbm5mhz,25dbm5mhz,CARDINAL
61,61,CARDINAL
approximately 4000,approximately 4000,CARDINAL
sas,sas,ORG
three,three,CARDINAL
three,three,CARDINAL
500,500,CARDINAL
boeing,boeing,ORG
747,747,PRODUCT
airbus,airbus,ORG
accesssita agree,accesssita agree,PERSON
today,today,DATE
million,million,CARDINAL
3.5,3.5,CARDINAL
sas,sas,ORG
