text,text_lower,label
redline communications inc.,redline communications inc.,ORG
toronto,toronto,GPE
canada,canada,GPE
specialized,specialized,ORG
470,470,CARDINAL
38,38,CARDINAL
the3550 - 3650,the3550 - 3650,CARDINAL
3.5,3.5,CARDINAL
u.s.,u.s.,GPE
includeutah department of transportation,includeutah department of transportation,ORG
511,511,CARDINAL
3.65,3.65,CARDINAL
5.4,5.4,CARDINAL
5.8,5.8,CARDINAL
i-15,i-15,PRODUCT
utah county,utah county,GPE
more than 200,more than 200,CARDINAL
avondale,avondale,ORG
az,az,GPE
rdl-3000,rdl-3000,CARDINAL
uses]alaska north slope,uses]alaska north slope,ORG
gci,gci,ORG
alaskas north slope,alaskas north slope,GPE
80 km,80 km,QUANTITY
1200 square mile,1200 square mile,QUANTITY
3.5,3.5,CARDINAL
rdl-3000,rdl-3000,CARDINAL
3300 - 3800,3300 - 3800,DATE
fcc,fcc,ORG
3.5,3.5,CARDINAL
the united states,the united states,GPE
tvws,tvws,PERSON
3550 - 3650mhz,3550 - 3650mhz,DATE
3.5,3.5,CARDINAL
fcc,fcc,ORG
1,1,CARDINAL
fcc,fcc,ORG
adjacent channel,adjacent channel,PERSON
3,3,CARDINAL
3.5,3.5,CARDINAL
u.s.,u.s.,GPE
sas,sas,ORG
3.5,3.5,CARDINAL
3.5,3.5,CARDINAL
dfs,dfs,ORG
23,23,CARDINAL
3.65,3.65,CARDINAL
3.5,3.5,CARDINAL
3.5,3.5,CARDINAL
3550 - 3650,3550 - 3650,CARDINAL
3650 - 3700,3650 - 3700,DATE
3.5,3.5,CARDINAL
3650 - 3700,3650 - 3700,DATE
3.65,3.65,CARDINAL
3550 - 3650,3550 - 3650,DATE
3650 - 3700,3650 - 3700,DATE
3550 - 3700,3550 - 3700,DATE
one,one,CARDINAL
3550 - 3650,3550 - 3650,DATE
3650 - 3700,3650 - 3700,DATE
3.65,3.65,CARDINAL
3.65,3.65,CARDINAL
sas,sas,ORG
redline communications inc.,redline communications inc.,ORG
3550,3550,CARDINAL
