text,text_lower,label
fcc,fcc,ORG
today,today,DATE
southeast kansas,southeast kansas,GPE
over 15 year,over 15 year,DATE
"over 1,000","over 1,000",CARDINAL
2.4ghz,2.4ghz,GPE
mid - america,mid - america,DATE
900mhz,900mhz,GPE
2.4ghz,2.4ghz,GPE
2.4ghz,2.4ghz,GPE
3.5ghz,3.5ghz,QUANTITY
second,second,ORDINAL
second,second,ORDINAL
3650 - 3700mhz,3650 - 3700mhz,DATE
5,5,CARDINAL
5,5,CARDINAL
fcc,fcc,ORG
fcc,fcc,ORG
