text,text_lower,label
n3nl,n3nl,ORG
fcc,fcc,ORG
three,three,CARDINAL
u.s.,u.s.,GPE
u.s.,u.s.,GPE
"6,771,935","6,771,935",CARDINAL
the johns hopkins university,the johns hopkins university,ORG
"july 7 , 1997","july 7 , 1997",DATE
mm,mm,PERSON
99 - 25,99 - 25,CARDINAL
200,200,CARDINAL
fcc,fcc,ORG
the year,the year,DATE
the 1970,the 1970,DATE
faa,faa,ORG
epa,epa,ORG
tsa.my,tsa.my,LOC
the united states,the united states,GPE
4,4,CARDINAL
1,1,CARDINAL
5,5,CARDINAL
first,first,ORDINAL
3300,3300,CARDINAL
3500,3500,CARDINAL
3550,3550,CARDINAL
3650,3650,CARDINAL
1 megabit,1 megabit,QUANTITY
1 milliwatt,1 milliwatt,QUANTITY
