text,text_lower,label
dortchkwisp,dortchkwisp,PERSON
700,700,CARDINAL
rural northern illinois,rural northern illinois,LOC
11,11,CARDINAL
lasalle,lasalle,GPE
dekalb county,dekalb county,GPE
half a mile,half a mile,QUANTITY
one,one,CARDINAL
3,3,CARDINAL
3650 - 3700,3650 - 3700,DATE
"october , 2008","october , 2008",DATE
"september , 2010","september , 2010",DATE
17,17,CARDINAL
7,7,CARDINAL
70,70,CARDINAL
4,4,CARDINAL
3650,3650,DATE
10,10,CARDINAL
3.65,3.65,CARDINAL
about 50,about 50,CARDINAL
2.4,2.4,CARDINAL
2.4,2.4,CARDINAL
3.65,3.65,CARDINAL
101,101,CARDINAL
3.65,3.65,CARDINAL
10 year ago,10 year ago,DATE
second,second,ORDINAL
101,101,CARDINAL
zero,zero,CARDINAL
one,one,CARDINAL
9 year,9 year,DATE
3650 - 3700,3650 - 3700,DATE
11,11,CARDINAL
desirable rural area,desirable rural area,LOC
101,101,CARDINAL
treasury,treasury,ORG
the big national isp,the big national isp,ORG
the big isp,the big isp,ORG
15 year ago,15 year ago,DATE
today,today,DATE
one,one,CARDINAL
thousand,thousand,CARDINAL
hundred of thousand maybe million,hundred of thousand maybe million,CARDINAL
