text,text_lower,label
marlene h. dortch,marlene h. dortch,PERSON
12,12,CARDINAL
rm-11789\nj\ncardinal,rm-11789\nj\ncardinal,ORG
"tech guy ,","tech guy ,",ORG
6,6,CARDINAL
2 - 3,2 - 3,CARDINAL
this year,this year,DATE
3650 - 3700mhz,3650 - 3700mhz,DATE
3650 - 3700mhz,3650 - 3700mhz,DATE
\n\nwe,\n\nwe,PRODUCT
the first 2 year,the first 2 year,DATE
\n\nto,\n\nto,CARDINAL
"almost 10,000","almost 10,000",CARDINAL
3650mhz,3650mhz,CARDINAL
"20,000","20,000",CARDINAL
the next 12 month,the next 12 month,DATE
"almost 60,000","almost 60,000",CARDINAL
3650,3650,CARDINAL
\n\ni,\n\ni,ORG
us,us,GPE
5,5,CARDINAL
2015 - 2016,2015 - 2016,DATE
one,one,CARDINAL
late at night,late at night,TIME
"guy , inc cardinal","guy , inc cardinal",ORG
