text,text_lower,label
isp,isp,ORG
"over 25,000 square mile","over 25,000 square mile",QUANTITY
minnesota,minnesota,GPE
iowa,iowa,GPE
"8,000","8,000",CARDINAL
3,3,CARDINAL
50,50,CARDINAL
500,500,CARDINAL
10 year,10 year,DATE
lte gear,lte gear,PERSON
2 - 3,2 - 3,CARDINAL
fcc,fcc,ORG
