text,text_lower,label
12,12,CARDINAL
north dakotas capital city,north dakotas capital city,GPE
three county,three county,GPE
230,230,CARDINAL
cbr,cbr,ORG
american,american,NORP
fcc,fcc,ORG
kevin cramer,kevin cramer,PERSON
