text,text_lower,label
17 - 609,17 - 609,CARDINAL
3550 - 3650,3550 - 3650,DATE
12,12,CARDINAL
new york,new york,GPE
new york city,new york city,GPE
twenty year,twenty year,DATE
first,first,ORDINAL
3550 - 3700,3550 - 3700,DATE
3.5,3.5,CARDINAL
new york city,new york city,GPE
3.5,3.5,CARDINAL
5,5,CARDINAL
3.5,3.5,CARDINAL
one,one,CARDINAL
5gs,5gs,ORDINAL
4,4,CARDINAL
3.5,3.5,CARDINAL
5,5,CARDINAL
5,5,CARDINAL
one,one,CARDINAL
5,5,CARDINAL
