text,text_lower,label
illinois,illinois,GPE
naperville\warrenville,naperville\warrenville,GPE
500,500,CARDINAL
at least a dozen,at least a dozen,CARDINAL
five,five,CARDINAL
at least four,at least four,CARDINAL
three,three,CARDINAL
at least a dozen,at least a dozen,CARDINAL
one,one,CARDINAL
those dozen,those dozen,CARDINAL
first,first,ORDINAL
a ton,a ton,QUANTITY
all these year,all these year,DATE
the 11 hour,the 11 hour,TIME
