text,text_lower,label
dortchthe gsm association,dortchthe gsm association,ORG
gsma applaud,gsma applaud,PERSON
fifth,fifth,ORDINAL
5,5,CARDINAL
gsma encourage the commission,gsma encourage the commission,ORG
3550 - 3700,3550 - 3700,DATE
3.5,3.5,CARDINAL
between 3.7 and 24 ghz,between 3.7 and 24 ghz,DATE
3,3,CARDINAL
5,5,CARDINAL
3,3,CARDINAL
ghz,ghz,ORG
5,5,CARDINAL
the australian communications,the australian communications,ORG
3.6,3.6,CARDINAL
3.6,3.6,CARDINAL
later this year,later this year,DATE
asia,asia,LOC
china,china,GPE
japan,japan,GPE
singapore,singapore,GPE
hong kong,hong kong,GPE
3,3,CARDINAL
5,5,CARDINAL
china,china,GPE
3.3,3.3,CARDINAL
5,5,CARDINAL
3.5,3.5,CARDINAL
ministry of internal affairs,ministry of internal affairs,ORG
3.6,3.6,CARDINAL
5,5,CARDINAL
5,5,CARDINAL
the communications authority of,the communications authority of,ORG
hong kong,hong kong,GPE
later this year,later this year,DATE
3.4 - 3.7,3.4 - 3.7,CARDINAL
5,5,CARDINAL
europe,europe,LOC
the european commission,the european commission,ORG
5,5,CARDINAL
europe,europe,LOC
european,european,NORP
3,3,CARDINAL
ghz,ghz,ORG
5,5,CARDINAL
the united kingdom,the united kingdom,GPE
150,150,CARDINAL
3.4,3.4,CARDINAL
5,5,CARDINAL
3.6,3.6,CARDINAL
5,5,CARDINAL
ireland,ireland,GPE
3.4 - 3.8,3.4 - 3.8,CARDINAL
5,5,CARDINAL
italy,italy,GPE
3.6,3.6,CARDINAL
5,5,CARDINAL
2018,2018,DATE
germany,germany,GPE
5,5,CARDINAL
3.5,3.5,CARDINAL
2018,2018,DATE
3.6,3.6,CARDINAL
ghz,ghz,ORG
pal,pal,ORG
ten - year,ten - year,DATE
3.5,3.5,CARDINAL
5,5,CARDINAL
qualcomm,qualcomm,ORG
3.5,3.5,CARDINAL
5,5,CARDINAL
the united states,the united states,GPE
3,3,CARDINAL
u.s.,u.s.,GPE
3.5,3.5,CARDINAL
5,5,CARDINAL
the united states,the united states,GPE
the united states,the united states,GPE
5,5,CARDINAL
5,5,CARDINAL
low-,low-,GPE
5,5,CARDINAL
u.s.,u.s.,GPE
3.5,3.5,CARDINAL
5,5,CARDINAL
3.7,3.7,CARDINAL
the united states,the united states,GPE
3.5,3.5,CARDINAL
3.7,3.7,CARDINAL
5,5,CARDINAL
japan,japan,GPE
5,5,CARDINAL
next summer,next summer,DATE
the united kingdom,the united kingdom,GPE
italy,italy,GPE
ireland,ireland,GPE
3.7,3.7,CARDINAL
5,5,CARDINAL
the united states,the united states,GPE
3.7,3.7,CARDINAL
5,5,CARDINAL
5,5,CARDINAL
gsma,gsma,ORG
3.5,3.5,CARDINAL
5,5,CARDINAL
