text,text_lower,label
12,12,CARDINAL
quantum,quantum,ORG
clec,clec,PERSON
maryland,maryland,GPE
baltimore city,baltimore city,GPE
baltimore,baltimore,GPE
100,100,CARDINAL
5,5,CARDINAL
2.4,2.4,CARDINAL
baltimore city,baltimore city,GPE
baltimore,baltimore,GPE
fcc,fcc,ORG
quantum,quantum,ORG
baltimore city,baltimore city,GPE
