text,text_lower,label
i. introductionthe dynamic spectrum alliance,i. introductionthe dynamic spectrum alliance,ORG
3.5,3.5,CARDINAL
1,1,CARDINAL
only one,only one,CARDINAL
3,3,CARDINAL
april of 2015,april of 2015,DATE
3.5,3.5,CARDINAL
the two year,the two year,DATE
fcc,fcc,ORG
sas,sas,ORG
sas,sas,ORG
this fall,this fall,DATE
first,first,ORDINAL
early next year,early next year,DATE
ericsson,ericsson,ORG
intel,intel,ORG
nokia,nokia,GPE
qualcomm,qualcomm,GPE
3.5,3.5,CARDINAL
3.5,3.5,CARDINAL
ghz lte handset,ghz lte handset,PERSON
later this year,later this year,DATE
fcc,fcc,ORG
one,one,CARDINAL
fcc,fcc,ORG
3.5,3.5,CARDINAL
enlarge pal area,enlarge pal area,PERSON
3.5,3.5,CARDINAL
fcc,fcc,ORG
3.5,3.5,CARDINAL
3.5,3.5,CARDINAL
one,one,CARDINAL
span hundred of square mile,span hundred of square mile,QUANTITY
ten of mile,ten of mile,QUANTITY
one,one,CARDINAL
sas,sas,ORG
sas,sas,ORG
sas,sas,ORG
fcc,fcc,ORG
half 3,half 3,CARDINAL
half,half,CARDINAL
3.5,3.5,CARDINAL
10-year,10-year,DATE
5,5,CARDINAL
3.5,3.5,CARDINAL
pal licensee,pal licensee,PERSON
all 3.5,all 3.5,CARDINAL
3.5,3.5,CARDINAL
licensee,licensee,PERSON
three,three,CARDINAL
three,three,CARDINAL
5,5,CARDINAL
5,5,CARDINAL
the united states,the united states,GPE
u.s.,u.s.,GPE
three,three,CARDINAL
u.s.,u.s.,GPE
sas,sas,ORG
3.5,3.5,CARDINAL
u.s.,u.s.,GPE
5,5,CARDINAL
strand,strand,GPE
3.5,3.5,CARDINAL
1100,1100,CARDINAL
5,5,CARDINAL
3.5,3.5,CARDINAL
5,5,CARDINAL
1100,1100,CARDINAL
fcc,fcc,ORG
3.5,3.5,CARDINAL
ghz,ghz,ORG
3.5ghz,3.5ghz,PRODUCT
2020,2020,DATE
55,55,CARDINAL
nearly five exabyte per month,nearly five exabyte per month,CARDINAL
2020,2020,DATE
2015,2015,DATE
50,50,CARDINAL
today,today,DATE
deploy lte - u,deploy lte - u,PERSON
gsma,gsma,ORG
billion,billion,CARDINAL
billion,billion,CARDINAL
between thousand,between thousand,CARDINAL
trillion of dollar,trillion of dollar,MONEY
americans,americans,NORP
3.5,3.5,CARDINAL
this late date,this late date,DATE
sas,sas,ORG
american,american,NORP
3.5,3.5,CARDINAL
