text,text_lower,label
3550 - 3700,3550 - 3700,DATE
3.5,3.5,CARDINAL
three year,three year,DATE
ten,ten,CARDINAL
3.5,3.5,CARDINAL
3.5,3.5,CARDINAL
3.5,3.5,CARDINAL
3.5,3.5,CARDINAL
verizon,verizon,ORG
winn forum,winn forum,ORG
3.5,3.5,CARDINAL
3.5,3.5,CARDINAL
verizon,verizon,ORG
u.s.,u.s.,GPE
american,american,NORP
verizon encourage the commission,verizon encourage the commission,ORG
3.5,3.5,CARDINAL
3.5,3.5,CARDINAL
ghz multi - tierframework,ghz multi - tierframework,ORG
verizon,verizon,ORG
3.5,3.5,CARDINAL
3.5,3.5,CARDINAL
two,two,CARDINAL
3.5,3.5,CARDINAL
3.5,3.5,CARDINAL
ghz,ghz,ORG
verizon,verizon,PERSON
3.5,3.5,CARDINAL
10-year,10-year,DATE
fcc,fcc,ORG
pai,pai,PERSON
a mile,a mile,QUANTITY
5,5,CARDINAL
deploy million,deploy million,CARDINAL
5,5,CARDINAL
one,one,CARDINAL
only a few year,only a few year,DATE
ctias request,ctias request,PERSON
ten - yearlicense,ten - yearlicense,CARDINAL
ten - year,ten - year,DATE
600,600,CARDINAL
ten - year,ten - year,DATE
3.5,3.5,CARDINAL
less than one third,less than one third,CARDINAL
three - year,three - year,DATE
license.ii,license.ii,ORG
3.5,3.5,CARDINAL
three - year,three - year,DATE
the early day,the early day,DATE
follow decade,follow decade,DATE
precedentand,precedentand,ORG
b. provide,b. provide,PERSON
"as many as 74,000","as many as 74,000",CARDINAL
"as many as 518,000","as many as 518,000",CARDINAL
"518,000","518,000",CARDINAL
between thousand,between thousand,CARDINAL
several year,several year,DATE
verizon,verizon,ORG
3.5,3.5,CARDINAL
2015,2015,DATE
3.5,3.5,CARDINAL
5,5,CARDINAL
600,600,CARDINAL
600,600,CARDINAL
5,5,CARDINAL
39,39,CARDINAL
39,39,CARDINAL
39,39,CARDINAL
3.5,3.5,CARDINAL
verizon agree,verizon agree,PERSON
pal licensee,pal licensee,PERSON
"as many as 518,000","as many as 518,000",CARDINAL
3.5,3.5,CARDINAL
5,5,CARDINAL
citizens broadband radio service,citizens broadband radio service,ORG
conclusionverizon,conclusionverizon,ORG
3.5,3.5,CARDINAL
