text,text_lower,lemma,lemma_lower,part_of_speech,is_alphabet,is_stopword
we,we,-PRON-,-pron-,PRON,True,True
server,server,server,server,VERB,True,False
just,just,just,just,ADV,True,True
over,over,over,over,ADP,True,True
1000,1000,1000,1000,NUM,False,False
rural,rural,rural,rural,ADJ,True,False
customer,customer,customer,customer,NOUN,True,False
in,in,in,in,ADP,True,True
central,central,central,central,ADJ,True,False
pennsylvania,pennsylvania,pennsylvania,pennsylvania,PROPN,True,False
and,and,and,and,CCONJ,True,True
we,we,-PRON-,-pron-,PRON,True,True
offer,offer,offer,offer,VERB,True,False
them,them,-PRON-,-pron-,PRON,True,True
up,up,up,up,ADP,True,True
to,to,to,to,ADP,True,True
15mbps,15mbps,15mbps,15mbps,NUM,False,False
with,with,with,with,ADP,True,True
traditional,traditional,traditional,traditional,ADJ,True,False
fix,fix,fix,fix,NOUN,True,False
point,point,point,point,NOUN,True,False
wireless,wireless,wireless,wireless,NOUN,True,False
technology,technology,technology,technology,NOUN,True,False
such,such,such,such,ADJ,True,True
as,as,as,as,SCONJ,True,True
5ghz,5ghz,5ghz,5ghz,NUM,False,False
wifi,wifi,wifi,wifi,VERB,True,False
base,base,base,base,NOUN,True,False
solution,solution,solution,solution,NOUN,True,False
.,.,.,.,PUNCT,False,False
we,we,-PRON-,-pron-,PRON,True,True
recently,recently,recently,recently,ADV,True,False
start,start,start,start,VERB,True,False
deploy,deploy,deploy,deploy,NOUN,True,False
lte,lte,lte,lte,PROPN,True,False
in,in,in,in,ADP,True,True
the,the,the,the,DET,True,True
3.5ghz,3.5ghz,3.5ghz,3.5ghz,PROPN,False,False
band,band,band,band,NOUN,True,False
and,and,and,and,CCONJ,True,True
have,have,have,have,AUX,True,True
invest,invest,invest,invest,VERB,True,False
about,about,about,about,ADV,True,True
"70,000","70,000","70,000","70,000",NUM,False,False
in,in,in,in,ADP,True,True
the,the,the,the,DET,True,True
adventure,adventure,adventure,adventure,NOUN,True,False
so,so,so,so,ADV,True,True
far,far,far,far,ADV,True,False
which,which,which,which,DET,True,True
will,will,will,will,VERB,True,True
give,give,give,give,VERB,True,True
us,us,-PRON-,-pron-,PRON,True,True
access,access,access,access,NOUN,True,False
to,to,to,to,ADP,True,True
many,many,many,many,ADJ,True,True
customer,customer,customer,customer,NOUN,True,False
that,that,that,that,DET,True,True
we,we,-PRON-,-pron-,PRON,True,True
otherwise,otherwise,otherwise,otherwise,ADV,True,True
can,can,can,can,VERB,True,True
not,not,not,not,PART,True,True
reach,reach,reach,reach,VERB,True,False
.,.,.,.,PUNCT,False,False
gain,gain,gain,gain,VERB,True,False
access,access,access,access,NOUN,True,False
to,to,to,to,ADP,True,True
the,the,the,the,DET,True,True
cbrs,cbrs,cbr,cbr,NOUN,True,False
band,band,band,band,NOUN,True,False
will,will,will,will,VERB,True,True
allow,allow,allow,allow,VERB,True,False
us,us,-PRON-,-pron-,PRON,True,True
to,to,to,to,PART,True,True
more,more,more,more,ADV,True,True
widely,widely,widely,widely,ADV,True,False
deploy,deploy,deploy,deploy,VERB,True,False
our,our,-PRON-,-pron-,DET,True,True
lte,lte,lte,lte,NOUN,True,False
solution,solution,solution,solution,NOUN,True,False
because,because,because,because,SCONJ,True,True
it,it,-PRON-,-pron-,PRON,True,True
will,will,will,will,VERB,True,True
allow,allow,allow,allow,VERB,True,False
to,to,to,to,ADP,True,True
more,more,more,more,ADV,True,True
densely,densely,densely,densely,ADV,True,False
deploy,deploy,deploy,deploy,NOUN,True,False
unit,unit,unit,unit,NOUN,True,False
due,due,due,due,ADP,True,True
to,to,to,to,ADP,True,True
the,the,the,the,DET,True,True
extra,extra,extra,extra,ADJ,True,False
spectrum,spectrum,spectrum,spectrum,NOUN,True,False
availability,availability,availability,availability,NOUN,True,False
.,.,.,.,PUNCT,False,False
this,this,this,this,DET,True,True
will,will,will,will,VERB,True,True
also,also,also,also,ADV,True,True
allow,allow,allow,allow,VERB,True,False
large,large,large,large,ADJ,True,False
channel,channel,channel,channel,NOUN,True,False
size,size,size,size,NOUN,True,False
which,which,which,which,DET,True,True
will,will,will,will,VERB,True,True
help,help,help,help,VERB,True,False
with,with,with,with,ADP,True,True
congestion,congestion,congestion,congestion,NOUN,True,False
and,and,and,and,CCONJ,True,True
througput,througput,througput,througput,NOUN,True,False
issue,issue,issue,issue,NOUN,True,False
that,that,that,that,DET,True,True
sometimes,sometimes,sometimes,sometimes,ADV,True,True
hurt,hurt,hurt,hurt,VERB,True,False
our,our,-PRON-,-pron-,DET,True,True
customer,customer,customer,customer,NOUN,True,False
.,.,.,.,PUNCT,False,False
these,these,these,these,DET,True,True
change,change,change,change,NOUN,True,False
will,will,will,will,VERB,True,True
let,let,let,let,VERB,True,False
us,us,-PRON-,-pron-,PRON,True,True
reach,reach,reach,reach,VERB,True,False
customer,customer,customer,customer,NOUN,True,False
that,that,that,that,SCONJ,True,True
we,we,-PRON-,-pron-,PRON,True,True
currently,currently,currently,currently,ADV,True,False
can,can,can,can,VERB,True,True
not,not,not,not,PART,True,True
get,get,get,get,AUX,True,True
to,to,to,to,ADP,True,True
with,with,with,with,ADP,True,True
our,our,-PRON-,-pron-,DET,True,True
exisitng,exisitng,exisitng,exisitng,NOUN,True,False
lte,lte,lte,lte,NOUN,True,False
or,or,or,or,CCONJ,True,True
wifi,wifi,wifi,wifi,PROPN,True,False
base,base,base,base,NOUN,True,False
solution,solution,solution,solution,NOUN,True,False
",",",",",",",",PUNCT,False,False
these,these,these,these,DET,True,True
customer,customer,customer,customer,NOUN,True,False
currently,currently,currently,currently,ADV,True,False
have,have,have,have,AUX,True,True
no,no,no,no,DET,True,True
option,option,option,option,NOUN,True,False
for,for,for,for,ADP,True,True
broadband,broadband,broadband,broadband,NOUN,True,False
internet,internet,internet,internet,NOUN,True,False
.,.,.,.,PUNCT,False,False
for,for,for,for,ADP,True,True
these,these,these,these,DET,True,True
reason,reason,reason,reason,NOUN,True,False
",",",",",",",",PUNCT,False,False
in,in,in,in,ADP,True,True
the,the,the,the,DET,True,True
stix,stix,stix,stix,PROPN,True,False
broadband,broadband,broadband,broadband,NOUN,True,False
",",",",",",",",PUNCT,False,False
llc,llc,llc,llc,PROPN,True,False
oppose,oppose,oppose,oppose,VERB,True,False
both,both,both,both,CCONJ,True,True
the,the,the,the,DET,True,True
ctia,ctia,ctia,ctia,NOUN,True,False
and,and,and,and,CCONJ,True,True
t,t,t,t,NOUN,True,False
-,-,-,-,PUNCT,False,False
mobile,mobile,mobile,mobile,NOUN,True,False
petition,petition,petition,petition,NOUN,True,False
.,.,.,.,PUNCT,False,False
