text,text_lower,lemma,lemma_lower,part_of_speech,is_alphabet,is_stopword
re,re,re,re,ADP,True,True
fcc,fcc,fcc,fcc,PROPN,True,False
federal,federal,federal,federal,PROPN,True,False
communications,communications,communication,communication,NOUN,True,False
commissionproceeding,commissionproceeding,commissionproceede,commissionproceede,VERB,True,False
12,12,12,12,NUM,False,False
-,-,-,-,SYM,False,False
354dear,354dear,354dear,354dear,PROPN,False,False
commissionersour,commissionersour,commissionersour,commissionersour,NOUN,True,False
company,company,company,company,NOUN,True,False
",",",",",",",",PUNCT,False,False
rapid,rapid,rapid,rapid,ADJ,True,False
systems,systems,system,system,NOUN,True,False
of,of,of,of,ADP,True,True
tampa,tampa,tampa,tampa,PROPN,True,False
florida,florida,florida,florida,PROPN,True,False
",",",",",",",",PUNCT,False,False
be,be,be,be,AUX,True,True
provide,provide,provide,provide,VERB,True,False
a,a,a,a,DET,True,True
very,very,very,very,ADV,True,True
valuable,valuable,valuable,valuable,ADJ,True,False
service,service,service,service,NOUN,True,False
to,to,to,to,ADP,True,True
community,community,community,community,NOUN,True,False
throughout,throughout,throughout,throughout,ADP,True,True
11,11,11,11,NUM,False,False
county,county,county,county,NOUN,True,False
in,in,in,in,ADP,True,True
our,our,-PRON-,-pron-,DET,True,True
state,state,state,state,NOUN,True,False
of,of,of,of,ADP,True,True
florida,florida,florida,florida,PROPN,True,False
.,.,.,.,PUNCT,False,False
many,many,many,many,ADJ,True,True
of,of,of,of,ADP,True,True
these,these,these,these,DET,True,True
county,county,county,county,NOUN,True,False
be,be,be,be,AUX,True,True
rural,rural,rural,rural,ADJ,True,False
and,and,and,and,CCONJ,True,True
do,do,do,do,AUX,True,True
not,not,not,not,PART,True,True
have,have,have,have,AUX,True,True
access,access,access,access,NOUN,True,False
to,to,to,to,ADP,True,True
broadband,broadband,broadband,broadband,NOUN,True,False
service,service,service,service,NOUN,True,False
that,that,that,that,DET,True,True
urban,urban,urban,urban,ADJ,True,False
community,community,community,community,NOUN,True,False
have,have,have,have,AUX,True,True
.,.,.,.,PUNCT,False,False
we,we,-PRON-,-pron-,PRON,True,True
supply,supply,supply,supply,VERB,True,False
broadband,broadband,broadband,broadband,NOUN,True,False
service,service,service,service,NOUN,True,False
to,to,to,to,ADP,True,True
local,local,local,local,ADJ,True,False
government,government,government,government,NOUN,True,False
",",",",",",",",PUNCT,False,False
small,small,small,small,ADJ,True,False
local,local,local,local,ADJ,True,False
business,business,business,business,NOUN,True,False
and,and,and,and,CCONJ,True,True
residential,residential,residential,residential,ADJ,True,False
user,user,user,user,NOUN,True,False
.,.,.,.,PUNCT,False,False
we,we,-PRON-,-pron-,PRON,True,True
have,have,have,have,AUX,True,True
million,million,million,million,NUM,True,False
of,of,of,of,ADP,True,True
dollar,dollar,dollar,dollar,NOUN,True,False
invest,invest,invest,invest,VERB,True,False
in,in,in,in,ADP,True,True
3.65,3.65,3.65,3.65,NUM,False,False
",",",",",",",",PUNCT,False,False
wimax,wimax,wimax,wimax,PROPN,True,False
and,and,and,and,CCONJ,True,True
cambium,cambium,cambium,cambium,NOUN,True,False
product,product,product,product,NOUN,True,False
to,to,to,to,PART,True,True
support,support,support,support,VERB,True,False
rural,rural,rural,rural,ADJ,True,False
florida,florida,florida,florida,PROPN,True,False
customers,customers,customer,customer,NOUN,True,False
so,so,so,so,SCONJ,True,True
the,the,the,the,DET,True,True
cbrs,cbrs,cbr,cbr,NOUN,True,False
band,band,band,band,NOUN,True,False
be,be,be,be,AUX,True,True
extremely,extremely,extremely,extremely,ADV,True,False
important,important,important,important,ADJ,True,False
.,.,.,.,PUNCT,False,False
the,the,the,the,DET,True,True
ability,ability,ability,ability,NOUN,True,False
to,to,to,to,PART,True,True
access,access,access,access,VERB,True,False
up,up,up,up,ADP,True,True
to,to,to,to,PART,True,True
100,100,100,100,NUM,False,False
megahertz,megahertz,megahertz,megahertz,NOUN,True,False
of,of,of,of,ADP,True,True
mid,mid,mid,mid,ADJ,True,False
-,-,-,-,NOUN,False,False
band,band,band,band,NOUN,True,False
spectrum,spectrum,spectrum,spectrum,NOUN,True,False
be,be,be,be,AUX,True,True
desperately,desperately,desperately,desperately,ADV,True,False
need,need,nee,nee,VERB,True,False
to,to,to,to,PART,True,True
enable,enable,enable,enable,VERB,True,False
high,high,high,high,ADJ,True,False
service,service,service,service,NOUN,True,False
tier,tier,tier,tier,NOUN,True,False
for,for,for,for,ADP,True,True
our,our,-PRON-,-pron-,DET,True,True
rural,rural,rural,rural,ADJ,True,False
customer,customer,customer,customer,NOUN,True,False
.,.,.,.,PUNCT,False,False
now,now,now,now,ADV,True,True
not,not,not,not,PART,True,True
only,only,only,only,ADV,True,True
do,do,do,do,AUX,True,True
everyone,everyone,everyone,everyone,PRON,True,True
in,in,in,in,ADP,True,True
the,the,the,the,DET,True,True
home,home,home,home,NOUN,True,False
have,have,have,have,AUX,True,True
three,three,three,three,NUM,True,True
device,device,device,device,NOUN,True,False
the,the,the,the,DET,True,True
home,home,home,home,NOUN,True,False
have,have,have,have,AUX,True,True
multiple,multiple,multiple,multiple,ADJ,True,False
device,device,device,device,NOUN,True,False
.,.,.,.,PUNCT,False,False
rural,rural,rural,rural,ADJ,True,False
customer,customer,customer,customer,NOUN,True,False
depend,depend,depend,depend,VERB,True,False
on,on,on,on,ADP,True,True
broadband,broadband,broadband,broadband,NOUN,True,False
more,more,more,more,ADJ,True,True
than,than,than,than,SCONJ,True,True
customer,customer,customer,customer,NOUN,True,False
in,in,in,in,ADP,True,True
major,major,major,major,ADJ,True,False
metro,metro,metro,metro,PROPN,True,False
city,city,city,city,NOUN,True,False
because,because,because,because,SCONJ,True,True
of,of,of,of,ADP,True,True
the,the,the,the,DET,True,True
lack,lack,lack,lack,NOUN,True,False
of,of,of,of,ADP,True,True
broadcast,broadcast,broadcast,broadcast,NOUN,True,False
channel,channel,channel,channel,NOUN,True,False
",",",",",",",",PUNCT,False,False
radio,radio,radio,radio,NOUN,True,False
and,and,and,and,CCONJ,True,True
cable,cable,cable,cable,NOUN,True,False
tv,tv,tv,tv,NOUN,True,False
.,.,.,.,PUNCT,False,False
content,content,content,content,NOUN,True,False
over,over,over,over,ADP,True,True
ip,ip,ip,ip,PROPN,True,False
for,for,for,for,ADP,True,True
them,them,-PRON-,-pron-,PRON,True,True
be,be,be,be,VERB,True,True
crucial,crucial,crucial,crucial,ADJ,True,False
for,for,for,for,ADP,True,True
rural,rural,rural,rural,PROPN,True,False
america,america,america,america,PROPN,True,False
as,as,as,as,ADV,True,True
well,well,well,well,ADV,True,True
as,as,as,as,SCONJ,True,True
the,the,the,the,DET,True,True
education,education,education,education,NOUN,True,False
of,of,of,of,ADP,True,True
our,our,-PRON-,-pron-,DET,True,True
child,child,child,child,NOUN,True,False
.,.,.,.,PUNCT,False,False
the,the,the,the,DET,True,True
additional,additional,additional,additional,ADJ,True,False
spectrum,spectrum,spectrum,spectrum,NOUN,True,False
be,be,be,be,AUX,True,True
need,need,need,need,NOUN,True,False
for,for,for,for,ADP,True,True
large,large,large,large,ADJ,True,False
service,service,service,service,NOUN,True,False
package,package,package,package,NOUN,True,False
",",",",",",",",PUNCT,False,False
reach,reach,reach,reach,VERB,True,False
customer,customer,customer,customer,NOUN,True,False
further,further,further,further,ADV,True,True
out,out,out,out,ADV,True,True
and,and,and,and,CCONJ,True,True
provide,provide,provide,provide,VERB,True,False
a,a,a,a,DET,True,True
well,well,well,well,ADJ,True,True
broadband,broadband,broadband,broadband,NOUN,True,False
experience,experience,experience,experience,NOUN,True,False
.,.,.,.,PUNCT,False,False
wireless,wireless,wireless,wireless,ADJ,True,False
service,service,service,service,NOUN,True,False
provider,provider,provider,provider,NOUN,True,False
can,can,can,can,VERB,True,True
utilize,utilize,utilize,utilize,VERB,True,False
this,this,this,this,DET,True,True
spectrum,spectrum,spectrum,spectrum,NOUN,True,False
now,now,now,now,ADV,True,True
and,and,and,and,CCONJ,True,True
equipment,equipment,equipment,equipment,NOUN,True,False
be,be,be,be,AUX,True,True
available,available,available,available,ADJ,True,False
",",",",",",",",PUNCT,False,False
this,this,this,this,DET,True,True
be,be,be,be,AUX,True,True
not,not,not,not,PART,True,True
only,only,only,only,ADV,True,True
good,good,good,good,ADJ,True,False
for,for,for,for,ADP,True,True
customer,customer,customer,customer,NOUN,True,False
but,but,but,but,CCONJ,True,True
for,for,for,for,ADP,True,True
the,the,the,the,DET,True,True
economy,economy,economy,economy,NOUN,True,False
as,as,as,as,SCONJ,True,True
we,we,-PRON-,-pron-,PRON,True,True
put,put,put,put,VERB,True,True
people,people,people,people,NOUN,True,False
to,to,to,to,PART,True,True
work,work,work,work,VERB,True,False
instal,instal,instal,instal,ADJ,True,False
gear,gear,gear,gear,NOUN,True,False
and,and,and,and,CCONJ,True,True
bring,bring,bring,bring,VERB,True,False
broadband,broadband,broadband,broadband,NOUN,True,False
to,to,to,to,ADP,True,True
the,the,the,the,DET,True,True
needy,needy,needy,needy,NOUN,True,False
.,.,.,.,PUNCT,False,False
t,t,t,t,PROPN,True,False
-,-,-,-,PUNCT,False,False
mobile,mobile,mobile,mobile,PROPN,True,False
and,and,and,and,CCONJ,True,True
ctia,ctia,ctia,ctia,PROPN,True,False
have,have,have,have,AUX,True,True
file,file,file,file,NOUN,True,False
request,request,request,request,NOUN,True,False
with,with,with,with,ADP,True,True
the,the,the,the,DET,True,True
fcc,fcc,fcc,fcc,PROPN,True,False
which,which,which,which,DET,True,True
",",",",",",",",PUNCT,False,False
if,if,if,if,SCONJ,True,True
adopt,adopt,adopt,adopt,PROPN,True,False
",",",",",",",",PUNCT,False,False
could,could,could,could,VERB,True,True
change,change,change,change,VERB,True,False
cbrs,cbrs,cbr,cbr,NOUN,True,False
dramatically,dramatically,dramatically,dramatically,ADV,True,False
.,.,.,.,PUNCT,False,False
t,t,t,t,NOUN,True,False
-,-,-,-,PUNCT,False,False
mobile,mobile,mobile,mobile,PROPN,True,False
have,have,have,have,AUX,True,True
ask,ask,ask,ask,VERB,True,False
the,the,the,the,DET,True,True
fcc,fcc,fcc,fcc,PROPN,True,False
to,to,to,to,PART,True,True
essentially,essentially,essentially,essentially,ADV,True,False
make,make,make,make,VERB,True,True
cbrs,cbrs,cbr,cbr,NOUN,True,False
pal,pal,pal,pal,ADJ,True,False
only,only,only,only,ADV,True,True
",",",",",",",",PUNCT,False,False
with,with,with,with,ADP,True,True
only,only,only,only,ADV,True,True
spectrum,spectrum,spectrum,spectrum,NOUN,True,False
not,not,not,not,PART,True,True
purchase,purchase,purchase,purchase,NOUN,True,False
as,as,as,as,SCONJ,True,True
pal,pal,pal,pal,NOUN,True,False
to,to,to,to,PART,True,True
be,be,be,be,AUX,True,True
gaa,gaa,gaa,gaa,NOUN,True,False
.,.,.,.,PUNCT,False,False
the,the,the,the,DET,True,True
likelihood,likelihood,likelihood,likelihood,NOUN,True,False
be,be,be,be,AUX,True,True
this,this,this,this,DET,True,True
will,will,will,will,VERB,True,True
limit,limit,limit,limit,VERB,True,False
wisp,wisp,wisp,wisp,ADP,True,False
access,access,access,access,NOUN,True,False
due,due,due,due,ADP,True,True
to,to,to,to,ADP,True,True
the,the,the,the,DET,True,True
cost,cost,cost,cost,NOUN,True,False
and,and,and,and,CCONJ,True,True
other,other,other,other,ADJ,True,True
factor,factor,factor,factor,NOUN,True,False
.,.,.,.,PUNCT,False,False
ctia,ctia,ctia,ctia,PROPN,True,False
have,have,have,have,AUX,True,True
ask,ask,ask,ask,VERB,True,False
the,the,the,the,DET,True,True
fcc,fcc,fcc,fcc,PROPN,True,False
to,to,to,to,PART,True,True
increase,increase,increase,increase,VERB,True,False
the,the,the,the,DET,True,True
term,term,term,term,NOUN,True,False
for,for,for,for,ADP,True,True
pal,pal,pal,pal,PROPN,True,False
's,'s,'s,'s,PART,False,True
to,to,to,to,ADP,True,True
as,as,as,as,ADV,True,True
much,much,much,much,ADJ,True,True
as,as,as,as,SCONJ,True,True
ten,ten,ten,ten,NUM,True,True
-,-,-,-,PUNCT,False,False
year,year,year,year,NOUN,True,False
with,with,with,with,ADP,True,True
possible,possible,possible,possible,ADJ,True,False
renewability,renewability,renewability,renewability,NOUN,True,False
and,and,and,and,CCONJ,True,True
to,to,to,to,PART,True,True
change,change,change,change,VERB,True,False
the,the,the,the,DET,True,True
way,way,way,way,NOUN,True,False
in,in,in,in,ADP,True,True
which,which,which,which,DET,True,True
the,the,the,the,DET,True,True
coverage,coverage,coverage,coverage,NOUN,True,False
region,region,region,region,NOUN,True,False
for,for,for,for,ADP,True,True
auction,auction,auction,auction,NOUN,True,False
be,be,be,be,AUX,True,True
determine,determine,determine,determine,NOUN,True,False
",",",",",",",",PUNCT,False,False
effectively,effectively,effectively,effectively,ADV,True,False
make,make,make,make,VERB,True,True
them,them,-PRON-,-pron-,PRON,True,True
many,many,many,many,ADJ,True,True
time,time,time,time,NOUN,True,False
large,large,large,large,ADJ,True,False
.,.,.,.,PUNCT,False,False
these,these,these,these,DET,True,True
thing,thing,thing,thing,NOUN,True,False
may,may,may,may,VERB,True,True
result,result,result,result,VERB,True,False
in,in,in,in,ADP,True,True
very,very,very,very,ADV,True,True
expensive,expensive,expensive,expensive,ADJ,True,False
and,and,and,and,CCONJ,True,True
possibly,possibly,possibly,possibly,ADV,True,False
exclusive,exclusive,exclusive,exclusive,ADJ,True,False
access,access,access,access,NOUN,True,False
to,to,to,to,ADP,True,True
pal,pal,pal,pal,NOUN,True,False
and,and,and,and,CCONJ,True,True
the,the,the,the,DET,True,True
possibility,possibility,possibility,possibility,NOUN,True,False
of,of,of,of,ADP,True,True
little,little,little,little,ADJ,True,False
or,or,or,or,CCONJ,True,True
no,no,no,no,DET,True,True
gaa,gaa,gaa,gaa,NOUN,True,False
availability,availability,availability,availability,NOUN,True,False
.,.,.,.,PUNCT,False,False
it,it,-PRON-,-pron-,PRON,True,True
will,will,will,will,VERB,True,True
likely,likely,likely,likely,ADV,True,False
also,also,also,also,ADV,True,True
push,push,push,push,VERB,True,False
out,out,out,out,ADP,True,True
the,the,the,the,DET,True,True
timeline,timeline,timeline,timeline,NOUN,True,False
for,for,for,for,ADP,True,True
availability,availability,availability,availability,NOUN,True,False
considerably,considerably,considerably,considerably,ADV,True,False
.,.,.,.,PUNCT,False,False
if,if,if,if,SCONJ,True,True
the,the,the,the,DET,True,True
fcc,fcc,fcc,fcc,PROPN,True,False
and,and,and,and,CCONJ,True,True
congress,congress,congress,congress,PROPN,True,False
have,have,have,have,AUX,True,True
intend,intend,intend,intend,NOUN,True,False
just,just,just,just,ADV,True,True
to,to,to,to,PART,True,True
auction,auction,auction,auction,VERB,True,False
the,the,the,the,DET,True,True
spectrum,spectrum,spectrum,spectrum,NOUN,True,False
as,as,as,as,SCONJ,True,True
another,another,another,another,DET,True,True
license,license,license,license,NOUN,True,False
band,band,band,band,NOUN,True,False
",",",",",",",",PUNCT,False,False
they,they,-PRON-,-pron-,PRON,True,True
could,could,could,could,VERB,True,True
have,have,have,have,AUX,True,True
do,do,do,do,AUX,True,True
so,so,so,so,ADV,True,True
easily,easily,easily,easily,ADV,True,False
.,.,.,.,PUNCT,False,False
they,they,-PRON-,-pron-,PRON,True,True
see,see,see,see,VERB,True,True
the,the,the,the,DET,True,True
need,need,need,need,NOUN,True,False
for,for,for,for,ADP,True,True
a,a,a,a,DET,True,True
flexible,flexible,flexible,flexible,ADJ,True,False
innovative,innovative,innovative,innovative,ADJ,True,False
approach,approach,approach,approach,NOUN,True,False
allow,allow,allow,allow,VERB,True,False
much,much,much,much,ADJ,True,True
wide,wide,wide,wide,ADJ,True,False
use,use,use,use,NOUN,True,False
and,and,and,and,CCONJ,True,True
accessibility,accessibility,accessibility,accessibility,NOUN,True,False
of,of,of,of,ADP,True,True
the,the,the,the,DET,True,True
cbrs,cbrs,cbr,cbr,NOUN,True,False
spectrum,spectrum,spectrum,spectrum,NOUN,True,False
.,.,.,.,PUNCT,False,False
we,we,-PRON-,-pron-,PRON,True,True
support,support,support,support,VERB,True,False
wispa,wispa,wispa,wispa,PROPN,True,False
's,'s,'s,'s,PART,False,True
position,position,position,position,NOUN,True,False
that,that,that,that,SCONJ,True,True
cbrs,cbrs,cbr,cbr,NOUN,True,False
should,should,should,should,VERB,True,True
be,be,be,be,AUX,True,True
maintain,maintain,maintain,maintain,VERB,True,False
a,a,a,a,DET,True,True
multi,multi,multi,multi,ADJ,True,False
-,-,-,-,ADJ,False,False
tier,tier,tier,tier,ADJ,True,False
accessible,accessible,accessible,accessible,ADJ,True,False
and,and,and,and,CCONJ,True,True
flexible,flexible,flexible,flexible,ADJ,True,False
resource,resource,resource,resource,NOUN,True,False
.,.,.,.,PUNCT,False,False
our,our,-PRON-,-pron-,DET,True,True
business,business,business,business,NOUN,True,False
will,will,will,will,VERB,True,True
provide,provide,provide,provide,VERB,True,False
excellent,excellent,excellent,excellent,ADJ,True,False
benefit,benefit,benefit,benefit,NOUN,True,False
to,to,to,to,ADP,True,True
the,the,the,the,DET,True,True
community,community,community,community,NOUN,True,False
residential,residential,residential,residential,ADJ,True,False
and,and,and,and,CCONJ,True,True
business,business,business,business,NOUN,True,False
through,through,through,through,ADP,True,True
the,the,the,the,DET,True,True
use,use,use,use,NOUN,True,False
of,of,of,of,ADP,True,True
this,this,this,this,DET,True,True
resource,resource,resource,resource,NOUN,True,False
without,without,without,without,ADP,True,True
the,the,the,the,DET,True,True
modification,modification,modification,modification,NOUN,True,False
suggest,suggest,suggest,suggest,VERB,True,False
by,by,by,by,ADP,True,True
t,t,t,t,NOUN,True,False
-,-,-,-,PUNCT,False,False
mobile,mobile,mobile,mobile,NOUN,True,False
and,and,and,and,CCONJ,True,True
ctia.wispa,ctia.wispa,ctia.wispa,ctia.wispa,PROPN,False,False
fight,fight,fight,fight,VERB,True,False
very,very,very,very,ADV,True,True
hard,hard,hard,hard,ADV,True,False
and,and,and,and,CCONJ,True,True
successfully,successfully,successfully,successfully,ADV,True,False
to,to,to,to,PART,True,True
urge,urge,urge,urge,VERB,True,False
the,the,the,the,DET,True,True
fcc,fcc,fcc,fcc,PROPN,True,False
to,to,to,to,PART,True,True
adopt,adopt,adopt,adopt,VERB,True,False
favorable,favorable,favorable,favorable,ADJ,True,False
rule,rule,rule,rule,NOUN,True,False
",",",",",",",",PUNCT,False,False
and,and,and,and,CCONJ,True,True
these,these,these,these,DET,True,True
two,two,two,two,NUM,True,True
proposal,proposal,proposal,proposal,NOUN,True,False
would,would,would,would,VERB,True,True
",",",",",",",",PUNCT,False,False
if,if,if,if,SCONJ,True,True
adopt,adopt,adopt,adopt,PROPN,True,False
",",",",",",",",PUNCT,False,False
severely,severely,severely,severely,ADV,True,False
limit,limit,limit,limit,VERB,True,False
the,the,the,the,DET,True,True
benefit,benefit,benefit,benefit,NOUN,True,False
that,that,that,that,DET,True,True
be,be,be,be,VERB,True,True
create,create,create,create,VERB,True,False
for,for,for,for,ADP,True,True
rural,rural,rural,rural,ADJ,True,False
broadband,broadband,broadband,broadband,NOUN,True,False
deployment,deployment,deployment,deployment,NOUN,True,False
among,among,among,among,ADP,True,True
other,other,other,other,ADJ,True,True
use,use,use,use,NOUN,True,False
case,case,case,case,NOUN,True,False
.,.,.,.,PUNCT,False,False
rapid,rapid,rapid,rapid,ADJ,True,False
systems,systems,system,system,NOUN,True,False
oppose,oppose,oppose,oppose,VERB,True,False
the,the,the,the,DET,True,True
ctia,ctia,ctia,ctia,NOUN,True,False
and,and,and,and,CCONJ,True,True
t,t,t,t,NOUN,True,False
-,-,-,-,PUNCT,False,False
mobile,mobile,mobile,mobile,NOUN,True,False
petition,petition,petition,petition,NOUN,True,False
.,.,.,.,PUNCT,False,False
