text,text_lower,lemma,lemma_lower,part_of_speech,is_alphabet,is_stopword
to,to,to,to,PART,True,True
whom,whom,whom,whom,PRON,True,True
it,it,-PRON-,-pron-,PRON,True,True
may,may,may,may,VERB,True,True
concernfor,concernfor,concernfor,concernfor,VERB,True,False
the,the,the,the,DET,True,True
last,last,last,last,ADJ,True,True
13,13,13,13,NUM,False,False
year,year,year,year,NOUN,True,False
",",",",",",",",PUNCT,False,False
reach4,reach4,reach4,reach4,NOUN,False,False
communication,communication,communication,communication,NOUN,True,False
have,have,have,have,AUX,True,True
be,be,be,be,AUX,True,True
provide,provide,provide,provide,VERB,True,False
fix,fix,fix,fix,NOUN,True,False
-,-,-,-,PUNCT,False,False
wireless,wireless,wireless,wireless,NOUN,True,False
broadband,broadband,broadband,broadband,NOUN,True,False
service,service,service,service,NOUN,True,False
to,to,to,to,ADP,True,True
rural,rural,rural,rural,ADJ,True,False
resident,resident,resident,resident,NOUN,True,False
in,in,in,in,ADP,True,True
acadia,acadia,acadia,acadia,PROPN,True,False
parish,parish,parish,parish,PROPN,True,False
and,and,and,and,CCONJ,True,True
surround,surround,surround,surround,VERB,True,False
area,area,area,area,NOUN,True,False
in,in,in,in,ADP,True,True
south,south,south,south,PROPN,True,False
louisiana,louisiana,louisiana,louisiana,PROPN,True,False
.,.,.,.,PUNCT,False,False
reach4,reach4,reach4,reach4,PROPN,False,False
communications,communications,communication,communication,NOUN,True,False
currently,currently,currently,currently,ADV,True,False
serve,serve,serve,serve,VERB,True,False
more,more,more,more,ADJ,True,True
than,than,than,than,SCONJ,True,True
"2,500","2,500","2,500","2,500",NUM,False,False
rural,rural,rural,rural,ADJ,True,False
customer,customer,customer,customer,NOUN,True,False
that,that,that,that,DET,True,True
do,do,do,do,AUX,True,True
not,not,not,not,PART,True,True
have,have,have,have,AUX,True,True
any,any,any,any,DET,True,True
other,other,other,other,ADJ,True,True
internet,internet,internet,internet,NOUN,True,False
alternative,alternative,alternative,alternative,NOUN,True,False
other,other,other,other,ADJ,True,True
than,than,than,than,SCONJ,True,True
satellite,satellite,satellite,satellite,NOUN,True,False
internet,internet,internet,internet,NOUN,True,False
access,access,access,access,NOUN,True,False
.,.,.,.,PUNCT,False,False
the,the,the,the,DET,True,True
area,area,area,area,NOUN,True,False
reach4,reach4,reach4,reach4,PROPN,False,False
communications,communications,communication,communication,NOUN,True,False
serve,serve,serve,serve,VERB,True,False
be,be,be,be,AUX,True,True
basically,basically,basically,basically,ADV,True,False
a,a,a,a,DET,True,True
farming,farming,farming,farming,NOUN,True,False
community,community,community,community,NOUN,True,False
with,with,with,with,ADP,True,True
rice,rice,rice,rice,NOUN,True,False
and,and,and,and,CCONJ,True,True
crawfish,crawfish,crawfish,crawfish,NOUN,True,False
be,be,be,be,AUX,True,True
the,the,the,the,DET,True,True
major,major,major,major,ADJ,True,False
crop,crop,crop,crop,NOUN,True,False
.,.,.,.,PUNCT,False,False
in,in,in,in,ADP,True,True
the,the,the,the,DET,True,True
last,last,last,last,ADJ,True,True
3,3,3,3,NUM,False,False
year,year,year,year,NOUN,True,False
",",",",",",",",PUNCT,False,False
reach4,reach4,reach4,reach4,NOUN,False,False
communication,communication,communication,communication,NOUN,True,False
have,have,have,have,AUX,True,True
invest,invest,invest,invest,VERB,True,False
heavily,heavily,heavily,heavily,ADV,True,False
in,in,in,in,ADP,True,True
3650,3650,3650,3650,NUM,False,False
-,-,-,-,PUNCT,False,False
3700mhz,3700mhz,3700mhz,3700mhz,NOUN,False,False
radio,radio,radio,radio,NOUN,True,False
equipment,equipment,equipment,equipment,NOUN,True,False
to,to,to,to,PART,True,True
upgrade,upgrade,upgrade,upgrade,VERB,True,False
legacy,legacy,legacy,legacy,NOUN,True,False
900mhz,900mhz,900mhz,900mhz,PROPN,False,False
",",",",",",",",PUNCT,False,False
2.4ghz,2.4ghz,2.4ghz,2.4ghz,NUM,False,False
",",",",",",",",PUNCT,False,False
and,and,and,and,CCONJ,True,True
5ghz,5ghz,5ghz,5ghz,NUM,False,False
equipment,equipment,equipment,equipment,NOUN,True,False
.,.,.,.,PUNCT,False,False
the,the,the,the,DET,True,True
3650,3650,3650,3650,NUM,False,False
-,-,-,-,PUNCT,False,False
3700mhz,3700mhz,3700mhz,3700mhz,NOUN,False,False
radio,radio,radio,radio,NOUN,True,False
equipment,equipment,equipment,equipment,NOUN,True,False
allow,allow,allow,allow,VERB,True,False
reach4,reach4,reach4,reach4,NOUN,False,False
communication,communication,communication,communication,NOUN,True,False
to,to,to,to,ADP,True,True
slowly,slowly,slowly,slowly,ADV,True,False
transition,transition,transition,transition,VERB,True,False
customer,customer,customer,customer,NOUN,True,False
from,from,from,from,ADP,True,True
one,one,one,one,NUM,True,True
technology,technology,technology,technology,NOUN,True,False
to,to,to,to,ADP,True,True
another,another,another,another,DET,True,True
and,and,and,and,CCONJ,True,True
offer,offer,offer,offer,VERB,True,False
fast,fast,fast,fast,ADJ,True,False
speed,speed,speed,speed,NOUN,True,False
.,.,.,.,PUNCT,False,False
because,because,because,because,SCONJ,True,True
of,of,of,of,ADP,True,True
the,the,the,the,DET,True,True
3650,3650,3650,3650,NUM,False,False
-,-,-,-,PUNCT,False,False
3700mhz,3700mhz,3700mhz,3700mhz,NOUN,False,False
band,band,band,band,NOUN,True,False
",",",",",",",",PUNCT,False,False
we,we,-PRON-,-pron-,PRON,True,True
can,can,can,can,VERB,True,True
now,now,now,now,ADV,True,True
offer,offer,offer,offer,VERB,True,False
speed,speed,speed,speed,NOUN,True,False
up,up,up,up,ADP,True,True
to,to,to,to,PART,True,True
12,12,12,12,NUM,False,False
mbps,mbps,mbps,mbps,PROPN,True,False
down,down,down,down,ADV,True,True
and,and,and,and,CCONJ,True,True
4,4,4,4,NUM,False,False
mbps,mbps,mbps,mbps,NOUN,True,False
up,up,up,up,ADP,True,True
on,on,on,on,ADP,True,True
our,our,-PRON-,-pron-,DET,True,True
fixed,fixed,fixed,fixed,ADJ,True,False
wireless,wireless,wireless,wireless,ADJ,True,False
broadband,broadband,broadband,broadband,NOUN,True,False
service,service,service,service,NOUN,True,False
.,.,.,.,PUNCT,False,False
reach4,reach4,reach4,reach4,PROPN,False,False
communications,communications,communication,communication,NOUN,True,False
be,be,be,be,AUX,True,True
eager,eager,eager,eager,ADJ,True,False
to,to,to,to,PART,True,True
access,access,access,access,VERB,True,False
additional,additional,additional,additional,ADJ,True,False
spectrum,spectrum,spectrum,spectrum,NOUN,True,False
in,in,in,in,ADP,True,True
the,the,the,the,DET,True,True
cbrs,cbrs,cbr,cbr,NOUN,True,False
band,band,band,band,NOUN,True,False
.,.,.,.,PUNCT,False,False
because,because,because,because,SCONJ,True,True
there,there,there,there,PRON,True,True
be,be,be,be,AUX,True,True
more,more,more,more,ADV,True,True
spectrum,spectrum,spectrum,spectrum,ADJ,True,False
",",",",",",",",PUNCT,False,False
we,we,-PRON-,-pron-,PRON,True,True
will,will,will,will,VERB,True,True
be,be,be,be,AUX,True,True
able,able,able,able,ADJ,True,False
to,to,to,to,PART,True,True
increase,increase,increase,increase,VERB,True,False
data,data,data,data,NOUN,True,False
capacity,capacity,capacity,capacity,NOUN,True,False
and,and,and,and,CCONJ,True,True
offer,offer,offer,offer,VERB,True,False
even,even,even,even,ADV,True,True
high,high,high,high,ADJ,True,False
speed,speed,speed,speed,NOUN,True,False
to,to,to,to,ADP,True,True
our,our,-PRON-,-pron-,DET,True,True
customer,customer,customer,customer,NOUN,True,False
.,.,.,.,PUNCT,False,False
this,this,this,this,DET,True,True
mean,mean,mean,mean,VERB,True,False
more,more,more,more,ADJ,True,True
investment,investment,investment,investment,NOUN,True,False
in,in,in,in,ADP,True,True
equipment,equipment,equipment,equipment,NOUN,True,False
and,and,and,and,CCONJ,True,True
the,the,the,the,DET,True,True
ability,ability,ability,ability,NOUN,True,False
to,to,to,to,PART,True,True
reach,reach,reach,reach,VERB,True,False
even,even,even,even,ADV,True,True
more,more,more,more,ADV,True,True
potential,potential,potential,potential,ADJ,True,False
customer,customer,customer,customer,NOUN,True,False
that,that,that,that,DET,True,True
still,still,still,still,ADV,True,True
do,do,do,do,AUX,True,True
not,not,not,not,PART,True,True
have,have,have,have,AUX,True,True
broadband,broadband,broadband,broadband,NOUN,True,False
speed,speed,speed,speed,NOUN,True,False
.,.,.,.,PUNCT,False,False
while,while,while,while,SCONJ,True,True
the,the,the,the,DET,True,True
3650,3650,3650,3650,NUM,False,False
-,-,-,-,PUNCT,False,False
3700mhz,3700mhz,3700mhz,3700mhz,NOUN,False,False
band,band,band,band,NOUN,True,False
have,have,have,have,AUX,True,True
be,be,be,be,VERB,True,True
extremely,extremely,extremely,extremely,ADV,True,False
beneficial,beneficial,beneficial,beneficial,ADJ,True,False
for,for,for,for,ADP,True,True
our,our,-PRON-,-pron-,DET,True,True
rural,rural,rural,rural,ADJ,True,False
customer,customer,customer,customer,NOUN,True,False
",",",",",",",",PUNCT,False,False
50mhz,50mhz,50mhz,50mhz,NOUN,False,False
of,of,of,of,ADP,True,True
spectrum,spectrum,spectrum,spectrum,PROPN,True,False
be,be,be,be,AUX,True,True
still,still,still,still,ADV,True,True
not,not,not,not,PART,True,True
enough,enough,enough,enough,ADJ,True,True
to,to,to,to,PART,True,True
meet,meet,meet,meet,VERB,True,False
the,the,the,the,DET,True,True
demand,demand,demand,demand,NOUN,True,False
.,.,.,.,PUNCT,False,False
all,all,all,all,DET,True,True
of,of,of,of,ADP,True,True
our,our,-PRON-,-pron-,DET,True,True
access,access,access,access,NOUN,True,False
point,point,point,point,NOUN,True,False
",",",",",",",",PUNCT,False,False
especially,especially,especially,especially,ADV,True,False
the,the,the,the,DET,True,True
3650,3650,3650,3650,NUM,False,False
-,-,-,-,SYM,False,False
3700mhz,3700mhz,3700mhz,3700mhz,NOUN,False,False
access,access,access,access,NOUN,True,False
point,point,point,point,NOUN,True,False
",",",",",",",",PUNCT,False,False
be,be,be,be,AUX,True,True
at,at,at,at,ADP,True,True
capacity,capacity,capacity,capacity,NOUN,True,False
and,and,and,and,CCONJ,True,True
it,it,-PRON-,-pron-,PRON,True,True
will,will,will,will,VERB,True,True
only,only,only,only,ADV,True,True
get,get,get,get,AUX,True,True
bad,bad,bad,bad,ADJ,True,False
.,.,.,.,PUNCT,False,False
reach4,reach4,reach4,reach4,PROPN,False,False
communications,communications,communication,communication,NOUN,True,False
need,need,need,need,VERB,True,False
more,more,more,more,ADJ,True,True
spectrum,spectrum,spectrum,spectrum,NOUN,True,False
.,.,.,.,PUNCT,False,False
reach4,reach4,reach4,reach4,PROPN,False,False
communication,communication,communication,communication,NOUN,True,False
absolutely,absolutely,absolutely,absolutely,ADV,True,False
and,and,and,and,CCONJ,True,True
unequivocally,unequivocally,unequivocally,unequivocally,ADV,True,False
oppose,oppose,oppose,oppose,VERB,True,False
the,the,the,the,DET,True,True
ctia,ctia,ctia,ctia,NOUN,True,False
and,and,and,and,CCONJ,True,True
t,t,t,t,NOUN,True,False
-,-,-,-,PUNCT,False,False
mobile,mobile,mobile,mobile,NOUN,True,False
petition,petition,petition,petition,NOUN,True,False
.,.,.,.,PUNCT,False,False
grant,grant,grant,grant,PROPN,True,False
ctias,ctias,ctias,ctias,PROPN,True,False
and,and,and,and,CCONJ,True,True
t,t,t,t,PROPN,True,False
-,-,-,-,PUNCT,False,False
mobiles,mobiles,mobile,mobile,NOUN,True,False
petition,petition,petition,petition,NOUN,True,False
will,will,will,will,VERB,True,True
effectively,effectively,effectively,effectively,ADV,True,False
shut,shut,shut,shut,VERB,True,False
us,us,-PRON-,-pron-,PRON,True,True
down,down,down,down,ADP,True,True
",",",",",",",",PUNCT,False,False
especially,especially,especially,especially,ADV,True,False
if,if,if,if,SCONJ,True,True
the,the,the,the,DET,True,True
3650,3650,3650,3650,NUM,False,False
-,-,-,-,PUNCT,False,False
3700mhz,3700mhz,3700mhz,3700mhz,NOUN,False,False
band,band,band,band,NOUN,True,False
be,be,be,be,AUX,True,True
auction,auction,auction,auction,NOUN,True,False
off,off,off,off,ADP,True,True
.,.,.,.,PUNCT,False,False
without,without,without,without,ADP,True,True
additional,additional,additional,additional,ADJ,True,False
spectrum,spectrum,spectrum,spectrum,NOUN,True,False
",",",",",",",",PUNCT,False,False
reach4,reach4,reach4,reach4,NOUN,False,False
communication,communication,communication,communication,NOUN,True,False
can,can,can,can,VERB,True,True
not,not,not,not,PART,True,True
extend,extend,extend,extend,VERB,True,False
its,its,-PRON-,-pron-,DET,True,True
network,network,network,network,NOUN,True,False
to,to,to,to,ADP,True,True
rural,rural,rural,rural,ADJ,True,False
louisiana,louisiana,louisiana,louisiana,PROPN,True,False
",",",",",",",",PUNCT,False,False
can,can,can,can,VERB,True,True
not,not,not,not,PART,True,True
add,add,add,add,VERB,True,False
more,more,more,more,ADJ,True,True
customer,customer,customer,customer,NOUN,True,False
",",",",",",",",PUNCT,False,False
and,and,and,and,CCONJ,True,True
can,can,can,can,VERB,True,True
not,not,not,not,PART,True,True
offer,offer,offer,offer,VERB,True,False
even,even,even,even,ADV,True,True
high,high,high,high,ADJ,True,False
speed,speed,speed,speed,NOUN,True,False
that,that,that,that,DET,True,True
customer,customer,customer,customer,NOUN,True,False
will,will,will,will,VERB,True,True
need,need,need,need,VERB,True,False
.,.,.,.,PUNCT,False,False
furthermore,furthermore,furthermore,furthermore,ADV,True,False
",",",",",",",",PUNCT,False,False
as,as,as,as,SCONJ,True,True
a,a,a,a,DET,True,True
local,local,local,local,ADJ,True,False
family,family,family,family,NOUN,True,False
-,-,-,-,PUNCT,False,False
own,own,own,own,ADJ,True,True
business,business,business,business,NOUN,True,False
",",",",",",",",PUNCT,False,False
reach4,reach4,reach4,reach4,NOUN,False,False
communications,communications,communication,communication,NOUN,True,False
do,do,do,do,AUX,True,True
not,not,not,not,PART,True,True
have,have,have,have,AUX,True,True
the,the,the,the,DET,True,True
mean,mean,mean,mean,NOUN,True,False
or,or,or,or,CCONJ,True,True
fund,fund,fund,fund,VERB,True,False
to,to,to,to,PART,True,True
bid,bid,bid,bid,VERB,True,False
on,on,on,on,ADP,True,True
partial,partial,partial,partial,ADJ,True,False
economic,economic,economic,economic,ADJ,True,False
areas,areas,area,area,NOUN,True,False
pea,pea,pea,pea,ADJ,True,False
to,to,to,to,PART,True,True
secure,secure,secure,secure,VERB,True,False
spectrum,spectrum,spectrum,spectrum,NOUN,True,False
.,.,.,.,PUNCT,False,False
should,should,should,should,VERB,True,True
the,the,the,the,DET,True,True
ctia,ctia,ctia,ctia,NOUN,True,False
and,and,and,and,CCONJ,True,True
t,t,t,t,NOUN,True,False
-,-,-,-,PUNCT,False,False
mobile,mobile,mobile,mobile,NOUN,True,False
petition,petition,petition,petition,NOUN,True,False
be,be,be,be,AUX,True,True
grant,grant,grant,grant,NOUN,True,False
",",",",",",",",PUNCT,False,False
the,the,the,the,DET,True,True
area,area,area,area,NOUN,True,False
reach4,reach4,reach4,reach4,PROPN,False,False
communication,communication,communication,communication,PROPN,True,False
serve,serve,serve,serve,VERB,True,False
",",",",",",",",PUNCT,False,False
acadia,acadia,acadia,acadia,PROPN,True,False
parish,parish,parish,parish,PROPN,True,False
",",",",",",",",PUNCT,False,False
as,as,as,as,ADV,True,True
well,well,well,well,ADV,True,True
as,as,as,as,SCONJ,True,True
all,all,all,all,DET,True,True
of,of,of,of,ADP,True,True
rural,rural,rural,rural,PROPN,True,False
america,america,america,america,PROPN,True,False
",",",",",",",",PUNCT,False,False
will,will,will,will,VERB,True,True
suffer,suffer,suffer,suffer,VERB,True,False
greatly,greatly,greatly,greatly,ADV,True,False
.,.,.,.,PUNCT,False,False
