text,text_lower,lemma,lemma_lower,part_of_speech,is_alphabet,is_stopword
to,to,to,to,PART,True,True
whom,whom,whom,whom,PRON,True,True
it,it,-PRON-,-pron-,PRON,True,True
may,may,may,may,VERB,True,True
concerni,concerni,concerni,concerni,VERB,True,False
be,be,be,be,AUX,True,True
write,write,write,write,VERB,True,False
on,on,on,on,ADP,True,True
behalf,behalf,behalf,behalf,NOUN,True,False
of,of,of,of,ADP,True,True
my,my,-PRON-,-pron-,DET,True,True
company,company,company,company,NOUN,True,False
",",",",",",",",PUNCT,False,False
alsat,alsat,alsat,alsat,PROPN,True,False
wireless,wireless,wireless,wireless,PROPN,True,False
regard,regard,regard,regard,VERB,True,False
the,the,the,the,DET,True,True
petition,petition,petition,petition,NOUN,True,False
file,file,file,file,NOUN,True,False
by,by,by,by,ADP,True,True
ctia,ctia,ctia,ctia,PROPN,True,False
and,and,and,and,CCONJ,True,True
t,t,t,t,PROPN,True,False
-,-,-,-,PUNCT,False,False
mobile,mobile,mobile,mobile,NOUN,True,False
regard,regard,regard,regard,NOUN,True,False
propose,propose,propose,propose,NOUN,True,False
change,change,change,change,NOUN,True,False
to,to,to,to,ADP,True,True
the,the,the,the,DET,True,True
cbrs,cbrs,cbr,cbr,NOUN,True,False
band,band,band,band,NOUN,True,False
.,.,.,.,PUNCT,False,False
we,we,-PRON-,-pron-,PRON,True,True
be,be,be,be,VERB,True,True
a,a,a,a,DET,True,True
wireless,wireless,wireless,wireless,ADJ,True,False
internet,internet,internet,internet,NOUN,True,False
service,service,service,service,NOUN,True,False
provider,provider,provider,provider,NOUN,True,False
wisp,wisp,wisp,wisp,ADP,True,False
base,base,base,base,NOUN,True,False
in,in,in,in,ADP,True,True
central,central,central,central,PROPN,True,False
missouri,missouri,missouri,missouri,PROPN,True,False
",",",",",",",",PUNCT,False,False
provide,provide,provide,provide,VERB,True,False
high,high,high,high,ADJ,True,False
speed,speed,speed,speed,NOUN,True,False
internet,internet,internet,internet,NOUN,True,False
service,service,service,service,NOUN,True,False
to,to,to,to,ADP,True,True
500,500,500,500,NUM,False,False
customer,customer,customer,customer,NOUN,True,False
in,in,in,in,ADP,True,True
our,our,-PRON-,-pron-,DET,True,True
service,service,service,service,NOUN,True,False
area,area,area,area,NOUN,True,False
.,.,.,.,PUNCT,False,False
our,our,-PRON-,-pron-,DET,True,True
coverage,coverage,coverage,coverage,NOUN,True,False
area,area,area,area,NOUN,True,False
be,be,be,be,AUX,True,True
primarily,primarily,primarily,primarily,ADV,True,False
rural,rural,rural,rural,ADJ,True,False
",",",",",",",",PUNCT,False,False
where,where,where,where,ADV,True,True
most,most,most,most,ADJ,True,True
of,of,of,of,ADP,True,True
our,our,-PRON-,-pron-,DET,True,True
customer,customer,customer,customer,NOUN,True,False
have,have,have,have,AUX,True,True
the,the,the,the,DET,True,True
choice,choice,choice,choice,NOUN,True,False
of,of,of,of,ADP,True,True
our,our,-PRON-,-pron-,DET,True,True
service,service,service,service,NOUN,True,False
",",",",",",",",PUNCT,False,False
mobile,mobile,mobile,mobile,NOUN,True,False
internet,internet,internet,internet,NOUN,True,False
service,service,service,service,NOUN,True,False
through,through,through,through,ADP,True,True
their,their,-PRON-,-pron-,DET,True,True
cell,cell,cell,cell,NOUN,True,False
phone,phone,phone,phone,NOUN,True,False
provider,provider,provider,provider,NOUN,True,False
",",",",",",",",PUNCT,False,False
or,or,or,or,CCONJ,True,True
satellite,satellite,satellite,satellite,NOUN,True,False
.,.,.,.,PUNCT,False,False
we,we,-PRON-,-pron-,PRON,True,True
have,have,have,have,AUX,True,True
service,service,service,service,NOUN,True,False
plan,plan,plan,plan,NOUN,True,False
range,range,range,range,NOUN,True,False
from,from,from,from,ADP,True,True
1.5,1.5,1.5,1.5,NUM,False,False
mbps,mbps,mbp,mbp,NOUN,True,False
to,to,to,to,ADP,True,True
10,10,10,10,NUM,False,False
mbps,mbps,mbps,mbps,PROPN,True,False
.,.,.,.,PUNCT,False,False
we,we,-PRON-,-pron-,PRON,True,True
recently,recently,recently,recently,ADV,True,False
begin,begin,begin,begin,VERB,True,False
invest,invest,invest,invest,VERB,True,False
in,in,in,in,ADP,True,True
advanced,advanced,advanced,advanced,ADJ,True,False
wireless,wireless,wireless,wireless,ADJ,True,False
equipment,equipment,equipment,equipment,NOUN,True,False
to,to,to,to,PART,True,True
increase,increase,increase,increase,VERB,True,False
our,our,-PRON-,-pron-,DET,True,True
exist,exist,exist,exist,ADJ,True,False
speed,speed,speed,speed,NOUN,True,False
package,package,package,package,NOUN,True,False
to,to,to,to,ADP,True,True
3,3,3,3,NUM,False,False
mbps,mbps,mbps,mbps,PROPN,True,False
to,to,to,to,ADP,True,True
25,25,25,25,NUM,False,False
mbps,mbps,mbps,mbps,PROPN,True,False
.,.,.,.,PUNCT,False,False
one,one,one,one,NUM,True,True
of,of,of,of,ADP,True,True
those,those,those,those,DET,True,True
technology,technology,technology,technology,NOUN,True,False
be,be,be,be,AUX,True,True
lte,lte,lte,lte,ADJ,True,False
",",",",",",",",PUNCT,False,False
use,use,use,use,VERB,True,False
the,the,the,the,DET,True,True
exist,exist,exist,exist,ADJ,True,False
3.650,3.650,3.650,3.650,NUM,False,False
-,-,-,-,SYM,False,False
3.700,3.700,3.700,3.700,NUM,False,False
mhz,mhz,mhz,mhz,NOUN,True,False
.,.,.,.,PUNCT,False,False
to,to,to,to,ADP,True,True
date,date,date,date,NOUN,True,False
",",",",",",",",PUNCT,False,False
we,we,-PRON-,-pron-,PRON,True,True
have,have,have,have,AUX,True,True
make,make,make,make,VERB,True,True
investment,investment,investment,investment,NOUN,True,False
in,in,in,in,ADP,True,True
equipment,equipment,equipment,equipment,NOUN,True,False
for,for,for,for,ADP,True,True
this,this,this,this,DET,True,True
band,band,band,band,NOUN,True,False
well,well,well,well,ADV,True,True
more,more,more,more,ADJ,True,True
than,than,than,than,SCONJ,True,True
"100,000","100,000","100,000","100,000",NUM,False,False
over,over,over,over,ADP,True,True
the,the,the,the,DET,True,True
past,past,past,past,ADJ,True,False
2,2,2,2,NUM,False,False
year,year,year,year,NOUN,True,False
",",",",",",",",PUNCT,False,False
with,with,with,with,ADP,True,True
plan,plan,plan,plan,NOUN,True,False
to,to,to,to,PART,True,True
invest,invest,invest,invest,VERB,True,False
at,at,at,at,ADP,True,True
least,least,least,least,ADJ,True,True
that,that,that,that,ADV,True,True
much,much,much,much,ADV,True,True
more,more,more,more,ADJ,True,True
in,in,in,in,ADP,True,True
the,the,the,the,DET,True,True
next,next,next,next,ADJ,True,True
12,12,12,12,NUM,False,False
-,-,-,-,SYM,False,False
18,18,18,18,NUM,False,False
month,month,month,month,NOUN,True,False
.,.,.,.,PUNCT,False,False
for,for,for,for,ADP,True,True
a,a,a,a,DET,True,True
company,company,company,company,NOUN,True,False
our,our,-PRON-,-pron-,DET,True,True
size,size,size,size,NOUN,True,False
",",",",",",",",PUNCT,False,False
this,this,this,this,DET,True,True
be,be,be,be,AUX,True,True
a,a,a,a,DET,True,True
very,very,very,very,ADV,True,True
substantial,substantial,substantial,substantial,ADJ,True,False
investment,investment,investment,investment,NOUN,True,False
.,.,.,.,PUNCT,False,False
the,the,the,the,DET,True,True
primary,primary,primary,primary,ADJ,True,False
reason,reason,reason,reason,NOUN,True,False
for,for,for,for,ADP,True,True
the,the,the,the,DET,True,True
investment,investment,investment,investment,NOUN,True,False
in,in,in,in,ADP,True,True
this,this,this,this,DET,True,True
technology,technology,technology,technology,NOUN,True,False
be,be,be,be,AUX,True,True
the,the,the,the,DET,True,True
introduction,introduction,introduction,introduction,NOUN,True,False
of,of,of,of,ADP,True,True
the,the,the,the,DET,True,True
cbrs,cbrs,cbr,cbr,NOUN,True,False
band,band,band,band,NOUN,True,False
.,.,.,.,PUNCT,False,False
the,the,the,the,DET,True,True
benefit,benefit,benefit,benefit,NOUN,True,False
of,of,of,of,ADP,True,True
have,have,have,have,AUX,True,True
an,an,an,an,DET,True,True
additional,additional,additional,additional,ADJ,True,False
100,100,100,100,NUM,False,False
mhz,mhz,mhz,mhz,NOUN,True,False
of,of,of,of,ADP,True,True
spectrum,spectrum,spectrum,spectrum,NOUN,True,False
for,for,for,for,ADP,True,True
our,our,-PRON-,-pron-,DET,True,True
lte,lte,lte,lte,NOUN,True,False
service,service,service,service,NOUN,True,False
be,be,be,be,AUX,True,True
huge,huge,huge,huge,ADJ,True,False
.,.,.,.,PUNCT,False,False
not,not,not,not,PART,True,True
only,only,only,only,ADV,True,True
will,will,will,will,VERB,True,True
it,it,-PRON-,-pron-,PRON,True,True
allow,allow,allow,allow,VERB,True,False
us,us,-PRON-,-pron-,PRON,True,True
to,to,to,to,PART,True,True
offer,offer,offer,offer,VERB,True,False
high,high,high,high,ADJ,True,False
speed,speed,speed,speed,NOUN,True,False
to,to,to,to,ADP,True,True
our,our,-PRON-,-pron-,DET,True,True
customer,customer,customer,customer,NOUN,True,False
",",",",",",",",PUNCT,False,False
it,it,-PRON-,-pron-,PRON,True,True
will,will,will,will,VERB,True,True
help,help,help,help,VERB,True,False
eliminate,eliminate,eliminate,eliminate,VERB,True,False
interference,interference,interference,interference,NOUN,True,False
and,and,and,and,CCONJ,True,True
will,will,will,will,VERB,True,True
allow,allow,allow,allow,VERB,True,False
us,us,-PRON-,-pron-,PRON,True,True
to,to,to,to,PART,True,True
deploy,deploy,deploy,deploy,VERB,True,False
the,the,the,the,DET,True,True
technology,technology,technology,technology,NOUN,True,False
in,in,in,in,ADP,True,True
more,more,more,more,ADJ,True,True
area,area,area,area,NOUN,True,False
.,.,.,.,PUNCT,False,False
the,the,the,the,DET,True,True
idea,idea,idea,idea,NOUN,True,False
of,of,of,of,ADP,True,True
the,the,the,the,DET,True,True
fcc,fcc,fcc,fcc,PROPN,True,False
entertain,entertain,entertain,entertain,VERB,True,False
the,the,the,the,DET,True,True
idea,idea,idea,idea,NOUN,True,False
of,of,of,of,ADP,True,True
make,make,make,make,VERB,True,True
change,change,change,change,NOUN,True,False
to,to,to,to,ADP,True,True
the,the,the,the,DET,True,True
cbrs,cbrs,cbr,cbr,NOUN,True,False
band,band,band,band,NOUN,True,False
at,at,at,at,ADP,True,True
this,this,this,this,DET,True,True
point,point,point,point,NOUN,True,False
be,be,be,be,AUX,True,True
very,very,very,very,ADV,True,True
upsetting,upsetting,upsetting,upsetting,ADJ,True,False
.,.,.,.,PUNCT,False,False
the,the,the,the,DET,True,True
fact,fact,fact,fact,NOUN,True,False
that,that,that,that,SCONJ,True,True
one,one,one,one,NUM,True,True
of,of,of,of,ADP,True,True
the,the,the,the,DET,True,True
petitioner,petitioner,petitioner,petitioner,NOUN,True,False
be,be,be,be,AUX,True,True
a,a,a,a,DET,True,True
major,major,major,major,ADJ,True,False
mobile,mobile,mobile,mobile,ADJ,True,False
carrier,carrier,carrier,carrier,NOUN,True,False
",",",",",",",",PUNCT,False,False
and,and,and,and,CCONJ,True,True
the,the,the,the,DET,True,True
other,other,other,other,ADJ,True,True
be,be,be,be,AUX,True,True
an,an,an,an,DET,True,True
association,association,association,association,NOUN,True,False
of,of,of,of,ADP,True,True
mobile,mobile,mobile,mobile,ADJ,True,False
carrier,carrier,carrier,carrier,NOUN,True,False
be,be,be,be,AUX,True,True
interesting,interesting,interesting,interesting,ADJ,True,False
",",",",",",",",PUNCT,False,False
since,since,since,since,SCONJ,True,True
these,these,these,these,DET,True,True
mobile,mobile,mobile,mobile,ADJ,True,False
carrier,carrier,carrier,carrier,NOUN,True,False
be,be,be,be,AUX,True,True
large,large,large,large,ADJ,True,False
company,company,company,company,NOUN,True,False
who,who,who,who,PRON,True,True
have,have,have,have,AUX,True,True
collectively,collectively,collectively,collectively,ADV,True,False
increase,increase,increase,increase,VERB,True,False
the,the,the,the,DET,True,True
cost,cost,cost,cost,NOUN,True,False
of,of,of,of,ADP,True,True
spectrum,spectrum,spectrum,spectrum,NOUN,True,False
to,to,to,to,ADP,True,True
the,the,the,the,DET,True,True
point,point,point,point,NOUN,True,False
that,that,that,that,SCONJ,True,True
only,only,only,only,ADV,True,True
large,large,large,large,ADJ,True,False
mobile,mobile,mobile,mobile,ADJ,True,False
carrier,carrier,carrier,carrier,NOUN,True,False
can,can,can,can,VERB,True,True
afford,afford,afford,afford,VERB,True,False
it,it,-PRON-,-pron-,PRON,True,True
",",",",",",",",PUNCT,False,False
price,price,price,price,NOUN,True,False
company,company,company,company,NOUN,True,False
like,like,like,like,SCONJ,True,False
ours,ours,-PRON-,-pron-,PRON,True,True
out,out,out,out,SCONJ,True,True
of,of,of,of,ADP,True,True
the,the,the,the,DET,True,True
market,market,market,market,NOUN,True,False
.,.,.,.,PUNCT,False,False
now,now,now,now,ADV,True,True
they,they,-PRON-,-pron-,PRON,True,True
want,want,want,want,VERB,True,False
to,to,to,to,PART,True,True
take,take,take,take,VERB,True,True
spectrum,spectrum,spectrum,spectrum,NOUN,True,False
that,that,that,that,DET,True,True
be,be,be,be,AUX,True,True
set,set,set,set,VERB,True,False
aside,aside,aside,aside,ADV,True,False
specifically,specifically,specifically,specifically,ADV,True,False
for,for,for,for,ADP,True,True
company,company,company,company,NOUN,True,False
like,like,like,like,SCONJ,True,False
our,our,-PRON-,-pron-,DET,True,True
to,to,to,to,PART,True,True
provide,provide,provide,provide,VERB,True,False
affordable,affordable,affordable,affordable,ADJ,True,False
internet,internet,internet,internet,NOUN,True,False
to,to,to,to,ADP,True,True
folk,folk,folk,folk,NOUN,True,False
in,in,in,in,ADP,True,True
rural,rural,rural,rural,ADJ,True,False
market,market,market,market,NOUN,True,False
that,that,that,that,SCONJ,True,True
the,the,the,the,DET,True,True
major,major,major,major,ADJ,True,False
carrier,carrier,carrier,carrier,NOUN,True,False
do,do,do,do,AUX,True,True
not,not,not,not,PART,True,True
want,want,want,want,VERB,True,False
to,to,to,to,PART,True,True
provide,provide,provide,provide,VERB,True,False
service,service,service,service,NOUN,True,False
to,to,to,to,ADP,True,True
unless,unless,unless,unless,SCONJ,True,True
they,they,-PRON-,-pron-,PRON,True,True
can,can,can,can,VERB,True,True
receive,receive,receive,receive,VERB,True,False
a,a,a,a,DET,True,True
government,government,government,government,NOUN,True,False
subsidy,subsidy,subsidy,subsidy,NOUN,True,False
to,to,to,to,PART,True,True
do,do,do,do,AUX,True,True
so,so,so,so,ADV,True,True
.,.,.,.,PUNCT,False,False
if,if,if,if,SCONJ,True,True
you,you,-PRON-,-pron-,PRON,True,True
allow,allow,allow,allow,VERB,True,False
them,them,-PRON-,-pron-,PRON,True,True
to,to,to,to,PART,True,True
succeed,succeed,succeed,succeed,VERB,True,False
",",",",",",",",PUNCT,False,False
you,you,-PRON-,-pron-,PRON,True,True
be,be,be,be,AUX,True,True
effectively,effectively,effectively,effectively,ADV,True,False
say,say,say,say,VERB,True,True
that,that,that,that,SCONJ,True,True
you,you,-PRON-,-pron-,PRON,True,True
do,do,do,do,AUX,True,True
not,not,not,not,PART,True,True
care,care,care,care,VERB,True,False
about,about,about,about,ADP,True,True
rural,rural,rural,rural,PROPN,True,False
america,america,america,america,PROPN,True,False
receive,receive,receive,receive,VERB,True,False
quality,quality,quality,quality,PROPN,True,False
internet,internet,internet,internet,NOUN,True,False
service,service,service,service,NOUN,True,False
",",",",",",",",PUNCT,False,False
because,because,because,because,SCONJ,True,True
without,without,without,without,ADP,True,True
this,this,this,this,DET,True,True
band,band,band,band,NOUN,True,False
",",",",",",",",PUNCT,False,False
it,it,-PRON-,-pron-,PRON,True,True
will,will,will,will,VERB,True,True
be,be,be,be,AUX,True,True
more,more,more,more,ADV,True,True
difficult,difficult,difficult,difficult,ADJ,True,False
to,to,to,to,PART,True,True
do,do,do,do,AUX,True,True
so,so,so,so,ADV,True,True
.,.,.,.,PUNCT,False,False
as,as,as,as,SCONJ,True,True
you,you,-PRON-,-pron-,PRON,True,True
can,can,can,can,VERB,True,True
probably,probably,probably,probably,ADV,True,False
tell,tell,tell,tell,VERB,True,False
",",",",",",",",PUNCT,False,False
we,we,-PRON-,-pron-,PRON,True,True
be,be,be,be,VERB,True,True
very,very,very,very,ADV,True,True
much,much,much,much,ADV,True,True
opposed,opposed,opposed,opposed,ADJ,True,False
to,to,to,to,ADP,True,True
both,both,both,both,DET,True,True
petition,petition,petition,petition,NOUN,True,False
.,.,.,.,PUNCT,False,False
i,i,i,i,PRON,True,True
be,be,be,be,VERB,True,True
very,very,very,very,ADV,True,True
sure,sure,sure,sure,ADJ,True,False
that,that,that,that,SCONJ,True,True
our,our,-PRON-,-pron-,DET,True,True
customer,customer,customer,customer,NOUN,True,False
would,would,would,would,VERB,True,True
agree,agree,agree,agree,VERB,True,False
",",",",",",",",PUNCT,False,False
know,know,know,know,VERB,True,False
how,how,how,how,ADV,True,True
adversely,adversely,adversely,adversely,ADV,True,False
these,these,these,these,DET,True,True
petition,petition,petition,petition,NOUN,True,False
would,would,would,would,VERB,True,True
affect,affect,affect,affect,VERB,True,False
them,them,-PRON-,-pron-,PRON,True,True
.,.,.,.,PUNCT,False,False
our,our,-PRON-,-pron-,DET,True,True
rural,rural,rural,rural,ADJ,True,False
customer,customer,customer,customer,NOUN,True,False
deserve,deserve,deserve,deserve,VERB,True,False
to,to,to,to,PART,True,True
have,have,have,have,AUX,True,True
the,the,the,the,DET,True,True
choice,choice,choice,choice,NOUN,True,False
of,of,of,of,ADP,True,True
provider,provider,provider,provider,NOUN,True,False
just,just,just,just,ADV,True,True
like,like,like,like,SCONJ,True,False
those,those,those,those,DET,True,True
in,in,in,in,ADP,True,True
large,large,large,large,ADJ,True,False
population,population,population,population,NOUN,True,False
area,area,area,area,NOUN,True,False
.,.,.,.,PUNCT,False,False
please,please,please,please,INTJ,True,True
allow,allow,allow,allow,VERB,True,False
us,us,-PRON-,-pron-,PRON,True,True
to,to,to,to,PART,True,True
continue,continue,continue,continue,VERB,True,False
to,to,to,to,PART,True,True
give,give,give,give,VERB,True,True
them,them,-PRON-,-pron-,PRON,True,True
that,that,that,that,DET,True,True
choice,choice,choice,choice,NOUN,True,False
by,by,by,by,ADP,True,True
say,say,say,say,VERB,True,True
no,no,no,no,INTJ,True,True
to,to,to,to,ADP,True,True
the,the,the,the,DET,True,True
change,change,change,change,NOUN,True,False
these,these,these,these,DET,True,True
petition,petition,petition,petition,NOUN,True,False
be,be,be,be,AUX,True,True
request,request,request,request,NOUN,True,False
.,.,.,.,PUNCT,False,False
