text,text_lower,lemma,lemma_lower,part_of_speech,is_alphabet,is_stopword
introductionls,introductionls,introductionls,introductionls,PROPN,True,False
telcom,telcom,telcom,telcom,PROPN,True,False
be,be,be,be,AUX,True,True
a,a,a,a,DET,True,True
worldwide,worldwide,worldwide,worldwide,ADJ,True,False
provider,provider,provider,provider,NOUN,True,False
of,of,of,of,ADP,True,True
integrated,integrated,integrated,integrated,ADJ,True,False
",",",",",",",",PUNCT,False,False
scalable,scalable,scalable,scalable,ADJ,True,False
",",",",",",",",PUNCT,False,False
and,and,and,and,CCONJ,True,True
automate,automate,automate,automate,VERB,True,False
system,system,system,system,NOUN,True,False
solution,solution,solution,solution,NOUN,True,False
and,and,and,and,CCONJ,True,True
strategic,strategic,strategic,strategic,ADJ,True,False
consulting,consulting,consulting,consulting,NOUN,True,False
service,service,service,service,NOUN,True,False
for,for,for,for,ADP,True,True
radio,radio,radio,radio,NOUN,True,False
spectrum,spectrum,spectrum,spectrum,NOUN,True,False
management,management,management,management,NOUN,True,False
and,and,and,and,CCONJ,True,True
radio,radio,radio,radio,NOUN,True,False
spectrum,spectrum,spectrum,spectrum,NOUN,True,False
monitoring,monitoring,monitoring,monitoring,NOUN,True,False
.,.,.,.,PUNCT,False,False
the,the,the,the,DET,True,True
system,system,system,system,NOUN,True,False
solution,solution,solution,solution,NOUN,True,False
comply,comply,comply,comply,NOUN,True,False
with,with,with,with,ADP,True,True
global,global,global,global,ADJ,True,False
itu,itu,itu,itu,NOUN,True,False
standard,standard,standard,standard,NOUN,True,False
and,and,and,and,CCONJ,True,True
integrate,integrate,integrate,integrate,VERB,True,False
regional,regional,regional,regional,ADJ,True,False
and,and,and,and,CCONJ,True,True
national,national,national,national,ADJ,True,False
coordination,coordination,coordination,coordination,NOUN,True,False
agreement,agreement,agreement,agreement,NOUN,True,False
.,.,.,.,PUNCT,False,False
ls,ls,ls,ls,PROPN,True,False
telcom,telcom,telcom,telcom,PROPN,True,False
be,be,be,be,VERB,True,True
an,an,an,an,DET,True,True
itu,itu,itu,itu,NOUN,True,False
member,member,member,member,NOUN,True,False
itu,itu,itu,itu,NOUN,True,False
-,-,-,-,PUNCT,False,False
r,r,r,r,PROPN,True,False
and,and,and,and,CCONJ,True,True
itu,itu,itu,itu,NOUN,True,False
-,-,-,-,PUNCT,False,False
d,d,d,d,PROPN,True,False
",",",",",",",",PUNCT,False,False
a,a,a,a,DET,True,True
white,white,white,white,PROPN,True,False
space,space,space,space,PROPN,True,False
database,database,database,database,NOUN,True,False
provider,provider,provider,provider,NOUN,True,False
certify,certify,certify,certify,PROPN,True,False
by,by,by,by,ADP,True,True
the,the,the,the,DET,True,True
fcc,fcc,fcc,fcc,PROPN,True,False
",",",",",",",",PUNCT,False,False
and,and,and,and,CCONJ,True,True
actively,actively,actively,actively,ADV,True,False
participate,participate,participate,participate,VERB,True,False
in,in,in,in,ADP,True,True
radio,radio,radio,radio,NOUN,True,False
communication,communication,communication,communication,NOUN,True,False
program,program,program,program,NOUN,True,False
with,with,with,with,ADP,True,True
prestigious,prestigious,prestigious,prestigious,ADJ,True,False
university,university,university,university,PROPN,True,False
and,and,and,and,CCONJ,True,True
research,research,research,research,PROPN,True,False
institute,institute,institute,institute,PROPN,True,False
around,around,around,around,ADP,True,True
the,the,the,the,DET,True,True
world,world,world,world,NOUN,True,False
.,.,.,.,PUNCT,False,False
regulatory,regulatory,regulatory,regulatory,ADJ,True,False
authoritiescommission,authoritiescommission,authoritiescommission,authoritiescommission,NOUN,True,False
",",",",",",",",PUNCT,False,False
defense,defense,defense,defense,NOUN,True,False
organization,organization,organization,organization,NOUN,True,False
",",",",",",",",PUNCT,False,False
and,and,and,and,CCONJ,True,True
network,network,network,network,NOUN,True,False
operator,operator,operator,operator,NOUN,True,False
in,in,in,in,ADP,True,True
more,more,more,more,ADJ,True,True
than,than,than,than,SCONJ,True,True
100,100,100,100,NUM,False,False
country,country,country,country,NOUN,True,False
rely,rely,rely,rely,VERB,True,False
on,on,on,on,ADP,True,True
the,the,the,the,DET,True,True
command,command,command,command,NOUN,True,False
capability,capability,capability,capability,NOUN,True,False
provide,provide,provide,provide,VERB,True,False
by,by,by,by,ADP,True,True
its,its,-PRON-,-pron-,DET,True,True
advanced,advanced,advanced,advanced,ADJ,True,False
system,system,system,system,NOUN,True,False
solution,solution,solution,solution,NOUN,True,False
and,and,and,and,CCONJ,True,True
its,its,-PRON-,-pron-,DET,True,True
internationally,internationally,internationally,internationally,ADV,True,False
recognize,recognize,recognize,recognize,VERB,True,False
consult,consult,consult,consult,ADJ,True,False
expertise,expertise,expertise,expertise,NOUN,True,False
in,in,in,in,ADP,True,True
all,all,all,all,DET,True,True
aspect,aspect,aspect,aspect,NOUN,True,False
of,of,of,of,ADP,True,True
the,the,the,the,DET,True,True
radio,radio,radio,radio,NOUN,True,False
spectrum,spectrum,spectrum,spectrum,NOUN,True,False
management,management,management,management,NOUN,True,False
and,and,and,and,CCONJ,True,True
monitoring,monitoring,monitoring,monitoring,NOUN,True,False
discipline,discipline,discipline,discipline,NOUN,True,False
.,.,.,.,PUNCT,False,False
industry,industry,industry,industry,PROPN,True,False
canada,canada,canada,canada,PROPN,True,False
",",",",",",",",PUNCT,False,False
a,a,a,a,DET,True,True
fcc,fcc,fcc,fcc,PROPN,True,False
peer,peer,peer,peer,NOUN,True,False
regulatory,regulatory,regulatory,regulatory,ADJ,True,False
authority,authority,authority,authority,NOUN,True,False
",",",",",",",",PUNCT,False,False
be,be,be,be,AUX,True,True
currently,currently,currently,currently,ADV,True,False
implement,implement,implement,implement,VERB,True,False
ls,ls,ls,ls,PROPN,True,False
telcom,telcom,telcom,telcom,PROPN,True,False
flagship,flagship,flagship,flagship,PROPN,True,False
product,product,product,product,NOUN,True,False
spectra,spectra,spectra,spectra,PROPN,True,False
enterprise,enterprise,enterprise,enterprise,NOUN,True,False
replace,replace,replace,replace,VERB,True,False
their,their,-PRON-,-pron-,DET,True,True
legacy,legacy,legacy,legacy,NOUN,True,False
system,system,system,system,NOUN,True,False
and,and,and,and,CCONJ,True,True
modernize,modernize,modernize,modernize,VERB,True,False
their,their,-PRON-,-pron-,DET,True,True
spectrum,spectrum,spectrum,spectrum,NOUN,True,False
management,management,management,management,NOUN,True,False
environment,environment,environment,environment,NOUN,True,False
to,to,to,to,PART,True,True
support,support,support,support,VERB,True,False
the,the,the,the,DET,True,True
spectrum,spectrum,spectrum,spectrum,PROPN,True,False
management,management,management,management,PROPN,True,False
lifecycle,lifecycle,lifecycle,lifecycle,PROPN,True,False
from,from,from,from,ADP,True,True
spectrum,spectrum,spectrum,spectrum,PROPN,True,False
planning,planning,planning,planning,NOUN,True,False
and,and,and,and,CCONJ,True,True
allocation,allocation,allocation,allocation,NOUN,True,False
",",",",",",",",PUNCT,False,False
technical,technical,technical,technical,ADJ,True,False
frequency,frequency,frequency,frequency,NOUN,True,False
and,and,and,and,CCONJ,True,True
interference,interference,interference,interference,NOUN,True,False
analysis,analysis,analysis,analysis,NOUN,True,False
",",",",",",",",PUNCT,False,False
licensing,licensing,licensing,licensing,NOUN,True,False
and,and,and,and,CCONJ,True,True
billing,billing,billing,billing,NOUN,True,False
to,to,to,to,ADP,True,True
national,national,national,national,ADJ,True,False
and,and,and,and,CCONJ,True,True
international,international,international,international,ADJ,True,False
coordination,coordination,coordination,coordination,NOUN,True,False
",",",",",",",",PUNCT,False,False
include,include,include,include,VERB,True,False
cross,cross,cross,cross,ADJ,True,False
-,-,-,-,ADJ,False,False
border,border,border,border,ADJ,True,False
coordination,coordination,coordination,coordination,NOUN,True,False
with,with,with,with,ADP,True,True
the,the,the,the,DET,True,True
relevant,relevant,relevant,relevant,ADJ,True,False
us,us,us,us,PROPN,True,True
government,government,government,government,NOUN,True,False
organization,organization,organization,organization,NOUN,True,False
.,.,.,.,PUNCT,False,False
radiosoft,radiosoft,radiosoft,radiosoft,PROPN,True,False
be,be,be,be,AUX,True,True
a,a,a,a,DET,True,True
developer,developer,developer,developer,NOUN,True,False
of,of,of,of,ADP,True,True
software,software,software,software,NOUN,True,False
and,and,and,and,CCONJ,True,True
database,database,database,database,NOUN,True,False
for,for,for,for,ADP,True,True
frequency,frequency,frequency,frequency,NOUN,True,False
coordination,coordination,coordination,coordination,NOUN,True,False
",",",",",",",",PUNCT,False,False
service,service,service,service,NOUN,True,False
and,and,and,and,CCONJ,True,True
interference,interference,interference,interference,NOUN,True,False
calculation,calculation,calculation,calculation,NOUN,True,False
and,and,and,and,CCONJ,True,True
tiaeia,tiaeia,tiaeia,tiaeia,NOUN,True,False
tsb-88,tsb-88,tsb-88,tsb-88,NOUN,False,False
compliance,compliance,compliance,compliance,NOUN,True,False
to,to,to,to,ADP,True,True
the,the,the,the,DET,True,True
commission,commission,commission,commission,NOUN,True,False
",",",",",",",",PUNCT,False,False
frequency,frequency,frequency,frequency,NOUN,True,False
advisory,advisory,advisory,advisory,ADJ,True,False
committees,committees,committee,committee,NOUN,True,False
fac,fac,fac,fac,VERB,True,False
",",",",",",",",PUNCT,False,False
the,the,the,the,DET,True,True
federal,federal,federal,federal,ADJ,True,False
government,government,government,government,NOUN,True,False
and,and,and,and,CCONJ,True,True
the,the,the,the,DET,True,True
general,general,general,general,ADJ,True,False
radio,radio,radio,radio,NOUN,True,False
user,user,user,user,NOUN,True,False
community,community,community,community,NOUN,True,False
for,for,for,for,ADP,True,True
both,both,both,both,DET,True,True
land,land,land,land,NOUN,True,False
mobile,mobile,mobile,mobile,NOUN,True,False
and,and,and,and,CCONJ,True,True
broadcast,broadcast,broadcast,broadcast,NOUN,True,False
user,user,user,user,NOUN,True,False
.,.,.,.,PUNCT,False,False
it,it,-PRON-,-pron-,PRON,True,True
be,be,be,be,AUX,True,True
also,also,also,also,ADV,True,True
",",",",",",",",PUNCT,False,False
by,by,by,by,ADP,True,True
contract,contract,contract,contract,NOUN,True,False
",",",",",",",",PUNCT,False,False
the,the,the,the,DET,True,True
retail,retail,retail,retail,ADJ,True,False
frequency,frequency,frequency,frequency,NOUN,True,False
coordinator,coordinator,coordinator,coordinator,NOUN,True,False
for,for,for,for,ADP,True,True
both,both,both,both,CCONJ,True,True
public,public,public,public,ADJ,True,False
safety,safety,safety,safety,NOUN,True,False
for,for,for,for,ADP,True,True
aashto,aashto,aashto,aashto,NOUN,True,False
and,and,and,and,CCONJ,True,True
business,business,business,business,NOUN,True,False
-,-,-,-,PUNCT,False,False
industrial,industrial,industrial,industrial,ADJ,True,False
for,for,for,for,ADP,True,True
aaa,aaa,aaa,aaa,NOUN,True,False
and,and,and,and,CCONJ,True,True
mrfac,mrfac,mrfac,mrfac,PROPN,True,False
applicant,applicant,applicant,applicant,NOUN,True,False
.,.,.,.,PUNCT,False,False
it,it,-PRON-,-pron-,PRON,True,True
be,be,be,be,AUX,True,True
an,an,an,an,DET,True,True
active,active,active,active,ADJ,True,False
participant,participant,participant,participant,NOUN,True,False
in,in,in,in,ADP,True,True
spectrum,spectrum,spectrum,spectrum,NOUN,True,False
policy,policy,policy,policy,NOUN,True,False
debate,debate,debate,debate,NOUN,True,False
",",",",",",",",PUNCT,False,False
and,and,and,and,CCONJ,True,True
have,have,have,have,AUX,True,True
comment,comment,comment,comment,NOUN,True,False
on,on,on,on,ADP,True,True
the,the,the,the,DET,True,True
record,record,record,record,ADJ,True,False
various,various,various,various,ADJ,True,True
dockets,dockets,docket,docket,NOUN,True,False
.,.,.,.,PUNCT,False,False
it,it,-PRON-,-pron-,PRON,True,True
be,be,be,be,VERB,True,True
both,both,both,both,CCONJ,True,True
a,a,a,a,DET,True,True
white,white,white,white,ADJ,True,False
space,space,space,space,NOUN,True,False
database,database,database,database,NOUN,True,False
provider,provider,provider,provider,NOUN,True,False
and,and,and,and,CCONJ,True,True
",",",",",",",",PUNCT,False,False
under,under,under,under,ADP,True,True
frequency,frequency,frequency,frequency,NOUN,True,False
finder,finder,finder,finder,NOUN,True,False
",",",",",",",",PUNCT,False,False
inc,inc,inc,inc,PROPN,True,False
.,.,.,.,PROPN,False,False
",",",",",",",",PUNCT,False,False
a,a,a,a,DET,True,True
registrar,registrar,registrar,registrar,NOUN,True,False
for,for,for,for,ADP,True,True
the,the,the,the,DET,True,True
70,70,70,70,NUM,False,False
-,-,-,-,SYM,False,False
80,80,80,80,NUM,False,False
-,-,-,-,SYM,False,False
90,90,90,90,NUM,False,False
ghz,ghz,ghz,ghz,PROPN,True,False
link,link,link,link,PROPN,True,False
service,service,service,service,PROPN,True,False
.,.,.,.,PUNCT,False,False
summaryin,summaryin,summaryin,summaryin,PROPN,True,False
gn,gn,gn,gn,PROPN,True,False
docket,docket,docket,docket,PROPN,True,False
no,no,no,no,INTJ,True,True
.,.,.,.,NOUN,False,False
12,12,12,12,NUM,False,False
-,-,-,-,SYM,False,False
354,354,354,354,NUM,False,False
",",",",",",",",PUNCT,False,False
the,the,the,the,DET,True,True
propose,propose,propose,propose,NOUN,True,False
method,method,method,method,NOUN,True,False
for,for,for,for,ADP,True,True
contour,contour,contour,contour,NOUN,True,False
calculation,calculation,calculation,calculation,NOUN,True,False
provide,provide,provide,provide,VERB,True,False
a,a,a,a,DET,True,True
general,general,general,general,ADJ,True,False
level,level,level,level,NOUN,True,False
of,of,of,of,ADP,True,True
accuracy,accuracy,accuracy,accuracy,NOUN,True,False
that,that,that,that,DET,True,True
may,may,may,may,VERB,True,True
impact,impact,impact,impact,VERB,True,False
the,the,the,the,DET,True,True
spectrum,spectrum,spectrum,spectrum,NOUN,True,False
efficiency,efficiency,efficiency,efficiency,NOUN,True,False
in,in,in,in,ADP,True,True
the,the,the,the,DET,True,True
3650,3650,3650,3650,NUM,False,False
-,-,-,-,PUNCT,False,False
3700mhz,3700mhz,3700mhz,3700mhz,NOUN,False,False
band,band,band,band,NOUN,True,False
.,.,.,.,PUNCT,False,False
alternate,alternate,alternate,alternate,ADJ,True,False
calculation,calculation,calculation,calculation,NOUN,True,False
method,method,method,method,NOUN,True,False
be,be,be,be,AUX,True,True
available,available,available,available,ADJ,True,False
that,that,that,that,DET,True,True
deliver,deliver,deliver,deliver,VERB,True,False
a,a,a,a,DET,True,True
more,more,more,more,ADV,True,True
precise,precise,precise,precise,ADJ,True,False
result,result,result,result,NOUN,True,False
through,through,through,through,ADP,True,True
optimize,optimize,optimize,optimize,NOUN,True,False
calculation,calculation,calculation,calculation,NOUN,True,False
and,and,and,and,CCONJ,True,True
more,more,more,more,ADJ,True,True
detailed,detailed,detailed,detailed,ADJ,True,False
data,data,data,data,NOUN,True,False
input,input,input,input,NOUN,True,False
.,.,.,.,PUNCT,False,False
ls,ls,ls,ls,PROPN,True,False
telcom,telcom,telcom,telcom,PROPN,True,False
recommend,recommend,recommend,recommend,VERB,True,False
the,the,the,the,DET,True,True
use,use,use,use,NOUN,True,False
of,of,of,of,ADP,True,True
calculation,calculation,calculation,calculation,NOUN,True,False
that,that,that,that,DET,True,True
produce,produce,produce,produce,VERB,True,False
the,the,the,the,DET,True,True
most,most,most,most,ADV,True,True
efficient,efficient,efficient,efficient,ADJ,True,False
use,use,use,use,NOUN,True,False
of,of,of,of,ADP,True,True
the,the,the,the,DET,True,True
spectrum,spectrum,spectrum,spectrum,NOUN,True,False
.,.,.,.,PUNCT,False,False
collection,collection,collection,collection,NOUN,True,False
of,of,of,of,ADP,True,True
the,the,the,the,DET,True,True
miss,miss,miss,miss,PROPN,True,False
key,key,key,key,PROPN,True,False
datum,datum,datum,datum,NOUN,True,False
point,point,point,point,NOUN,True,False
as,as,as,as,SCONJ,True,True
identify,identify,identify,identify,NOUN,True,False
in,in,in,in,ADP,True,True
the,the,the,the,DET,True,True
gn,gn,gn,gn,PROPN,True,False
docket,docket,docket,docket,NOUN,True,False
no,no,no,no,INTJ,True,True
.,.,.,.,NOUN,False,False
12,12,12,12,NUM,False,False
-,-,-,-,SYM,False,False
354,354,354,354,NUM,False,False
be,be,be,be,AUX,True,True
paramount,paramount,paramount,paramount,ADJ,True,False
for,for,for,for,ADP,True,True
the,the,the,the,DET,True,True
protect,protect,protect,protect,ADJ,True,False
contour,contour,contour,contour,NOUN,True,False
calculation,calculation,calculation,calculation,NOUN,True,False
.,.,.,.,PUNCT,False,False
the,the,the,the,DET,True,True
ability,ability,ability,ability,NOUN,True,False
to,to,to,to,PART,True,True
specifically,specifically,specifically,specifically,ADV,True,False
distinguish,distinguish,distinguish,distinguish,VERB,True,False
between,between,between,between,ADP,True,True
base,base,base,base,NOUN,True,False
station,station,station,station,NOUN,True,False
and,and,and,and,CCONJ,True,True
cpe,cpe,cpe,cpe,PROPN,True,False
use,use,use,use,NOUN,True,False
",",",",",",",",PUNCT,False,False
identify,identify,identify,identify,VERB,True,False
the,the,the,the,DET,True,True
center,center,center,center,ADJ,True,False
frequency,frequency,frequency,frequency,NOUN,True,False
of,of,of,of,ADP,True,True
operation,operation,operation,operation,NOUN,True,False
",",",",",",",",PUNCT,False,False
and,and,and,and,CCONJ,True,True
association,association,association,association,PROPN,True,False
of,of,of,of,ADP,True,True
unregistere,unregistere,unregistere,unregistere,PROPN,True,False
cpe,cpe,cpe,cpe,PROPN,True,False
with,with,with,with,ADP,True,True
a,a,a,a,DET,True,True
base,base,base,base,NOUN,True,False
station,station,station,station,NOUN,True,False
be,be,be,be,AUX,True,True
all,all,all,all,DET,True,True
key,key,key,key,ADJ,True,False
input,input,input,input,NOUN,True,False
that,that,that,that,DET,True,True
should,should,should,should,VERB,True,True
be,be,be,be,AUX,True,True
part,part,part,part,NOUN,True,True
of,of,of,of,ADP,True,True
the,the,the,the,DET,True,True
protect,protect,protect,protect,ADJ,True,False
contour,contour,contour,contour,NOUN,True,False
registration,registration,registration,registration,NOUN,True,False
process,process,process,process,NOUN,True,False
.,.,.,.,PUNCT,False,False
discussionthere,discussionthere,discussionthere,discussionthere,PROPN,True,False
be,be,be,be,AUX,True,True
two,two,two,two,NUM,True,True
type,type,type,type,NOUN,True,False
of,of,of,of,ADP,True,True
contour,contour,contour,contour,NOUN,True,False
calculation,calculation,calculation,calculation,NOUN,True,False
propose,propose,propose,propose,NOUN,True,False
point,point,point,point,NOUN,True,False
to,to,to,to,ADP,True,True
area,area,area,area,NOUN,True,False
and,and,and,and,CCONJ,True,True
point,point,point,point,NOUN,True,False
to,to,to,to,PART,True,True
point,point,point,point,VERB,True,False
.,.,.,.,PUNCT,False,False
the,the,the,the,DET,True,True
first,first,first,first,ADJ,True,True
type,type,type,type,NOUN,True,False
of,of,of,of,ADP,True,True
calculation,calculation,calculation,calculation,NOUN,True,False
be,be,be,be,AUX,True,True
a,a,a,a,DET,True,True
basic,basic,basic,basic,ADJ,True,False
point,point,point,point,NOUN,True,False
to,to,to,to,PART,True,True
area,area,area,area,NOUN,True,False
link,link,link,link,NOUN,True,False
i.e.,i.e.,i.e.,i.e.,X,False,False
a,a,a,a,DET,True,True
fix,fix,fix,fix,NOUN,True,False
base,base,base,base,NOUN,True,False
station,station,station,station,NOUN,True,False
and,and,and,and,CCONJ,True,True
a,a,a,a,DET,True,True
or,or,or,or,CCONJ,True,True
a,a,a,a,DET,True,True
set,set,set,set,NOUN,True,False
of,of,of,of,ADP,True,True
mobile,mobile,mobile,mobile,NOUN,True,False
within,within,within,within,ADP,True,True
a,a,a,a,DET,True,True
give,give,give,give,ADJ,True,True
area,area,area,area,NOUN,True,False
.,.,.,.,PUNCT,False,False
the,the,the,the,DET,True,True
fixed,fixed,fix,fix,VERB,True,False
station,station,station,station,NOUN,True,False
be,be,be,be,AUX,True,True
calculate,calculate,calculate,calculate,NOUN,True,False
by,by,by,by,ADP,True,True
predict,predict,predict,predict,VERB,True,False
the,the,the,the,DET,True,True
receive,receive,receive,receive,ADJ,True,False
power,power,power,power,NOUN,True,False
",",",",",",",",PUNCT,False,False
the,the,the,the,DET,True,True
area,area,area,area,NOUN,True,False
",",",",",",",",PUNCT,False,False
and,and,and,and,CCONJ,True,True
identification,identification,identification,identification,NOUN,True,False
of,of,of,of,ADP,True,True
all,all,all,all,DET,True,True
point,point,point,point,NOUN,True,False
above,above,above,above,ADP,True,True
the,the,the,the,DET,True,True
minimum,minimum,minimum,minimum,ADJ,True,False
receive,receive,receive,receive,ADJ,True,False
level,level,level,level,NOUN,True,False
of,of,of,of,ADP,True,True
the,the,the,the,DET,True,True
mobile,mobile,mobile,mobile,ADJ,True,False
receive,receive,receive,receive,ADJ,True,False
path,path,path,path,NOUN,True,False
.,.,.,.,PUNCT,False,False
the,the,the,the,DET,True,True
next,next,next,next,ADJ,True,True
step,step,step,step,NOUN,True,False
be,be,be,be,AUX,True,True
to,to,to,to,PART,True,True
verify,verify,verify,verify,VERB,True,False
point,point,point,point,NOUN,True,False
by,by,by,by,ADP,True,True
point,point,point,point,NOUN,True,False
within,within,within,within,ADP,True,True
that,that,that,that,DET,True,True
coverage,coverage,coverage,coverage,NOUN,True,False
area,area,area,area,NOUN,True,False
whether,whether,whether,whether,SCONJ,True,True
mobile,mobile,mobile,mobile,ADJ,True,False
transmit,transmit,transmit,transmit,NOUN,True,False
be,be,be,be,AUX,True,True
able,able,able,able,ADJ,True,False
to,to,to,to,PART,True,True
establish,establish,establish,establish,VERB,True,False
and,and,and,and,CCONJ,True,True
maintain,maintain,maintain,maintain,VERB,True,False
a,a,a,a,DET,True,True
connection,connection,connection,connection,NOUN,True,False
to,to,to,to,PART,True,True
fix,fix,fix,fix,VERB,True,False
receive,receive,receive,receive,VERB,True,False
location,location,location,location,NOUN,True,False
.,.,.,.,PUNCT,False,False
this,this,this,this,DET,True,True
be,be,be,be,AUX,True,True
identify,identify,identify,identify,VERB,True,False
as,as,as,as,SCONJ,True,True
the,the,the,the,DET,True,True
talk,talk,talk,talk,NOUN,True,False
-,-,-,-,PUNCT,False,False
back,back,back,back,NOUN,True,True
-,-,-,-,PUNCT,False,False
range,range,range,range,NOUN,True,False
.,.,.,.,PUNCT,False,False
this,this,this,this,DET,True,True
combined,combined,combined,combined,ADJ,True,False
result,result,result,result,NOUN,True,False
identify,identify,identify,identify,VERB,True,False
the,the,the,the,DET,True,True
area,area,area,area,NOUN,True,False
where,where,where,where,ADV,True,True
communication,communication,communication,communication,NOUN,True,False
be,be,be,be,AUX,True,True
possible,possible,possible,possible,ADJ,True,False
.,.,.,.,PUNCT,False,False
the,the,the,the,DET,True,True
second,second,second,second,ADJ,True,False
part,part,part,part,NOUN,True,True
of,of,of,of,ADP,True,True
the,the,the,the,DET,True,True
calculation,calculation,calculation,calculation,NOUN,True,False
relate,relate,relate,relate,VERB,True,False
to,to,to,to,ADP,True,True
the,the,the,the,DET,True,True
identification,identification,identification,identification,NOUN,True,False
of,of,of,of,ADP,True,True
interference,interference,interference,interference,NOUN,True,False
.,.,.,.,PUNCT,False,False
the,the,the,the,DET,True,True
propose,propose,propose,propose,NOUN,True,False
method,method,method,method,NOUN,True,False
achieve,achieve,achieve,achieve,VERB,True,False
their,their,-PRON-,-pron-,DET,True,True
result,result,result,result,NOUN,True,False
through,through,through,through,ADP,True,True
combine,combine,combine,combine,NOUN,True,False
overlap,overlap,overlap,overlap,NOUN,True,False
coverage,coverage,coverage,coverage,NOUN,True,False
result,result,result,result,NOUN,True,False
.,.,.,.,PUNCT,False,False
as,as,as,as,SCONJ,True,True
a,a,a,a,DET,True,True
more,more,more,more,ADV,True,True
precise,precise,precise,precise,ADJ,True,False
alternative,alternative,alternative,alternative,NOUN,True,False
",",",",",",",",PUNCT,False,False
ls,ls,ls,ls,PROPN,True,False
telcom,telcom,telcom,telcom,PROPN,True,False
recommend,recommend,recommend,recommend,VERB,True,False
that,that,that,that,SCONJ,True,True
the,the,the,the,DET,True,True
interference,interference,interference,interference,NOUN,True,False
calculation,calculation,calculation,calculation,NOUN,True,False
be,be,be,be,VERB,True,True
base,base,base,base,NOUN,True,False
on,on,on,on,ADP,True,True
combine,combine,combine,combine,VERB,True,False
the,the,the,the,DET,True,True
coverage,coverage,coverage,coverage,NOUN,True,False
area,area,area,area,NOUN,True,False
with,with,with,with,ADP,True,True
point,point,point,point,NOUN,True,False
of,of,of,of,ADP,True,True
a,a,a,a,DET,True,True
give,give,give,give,ADJ,True,True
density,density,density,density,NOUN,True,False
identify,identify,identify,identify,NOUN,True,False
point,point,point,point,NOUN,True,False
or,or,or,or,CCONJ,True,True
alternatively,alternatively,alternatively,alternatively,ADV,True,False
random,random,random,random,ADJ,True,False
point,point,point,point,NOUN,True,False
within,within,within,within,ADP,True,True
the,the,the,the,DET,True,True
coverage,coverage,coverage,coverage,NOUN,True,False
area,area,area,area,NOUN,True,False
.,.,.,.,PUNCT,False,False
this,this,this,this,DET,True,True
define,define,define,define,VERB,True,False
a,a,a,a,DET,True,True
point,point,point,point,NOUN,True,False
-,-,-,-,PUNCT,False,False
to,to,to,to,ADP,True,True
-,-,-,-,PUNCT,False,False
multipoint,multipoint,multipoint,multipoint,NOUN,True,False
system,system,system,system,NOUN,True,False
with,with,with,with,ADP,True,True
a,a,a,a,DET,True,True
fix,fix,fix,fix,NOUN,True,False
txrx,txrx,txrx,txrx,NOUN,True,False
as,as,as,as,SCONJ,True,True
before,before,before,before,ADP,True,True
and,and,and,and,CCONJ,True,True
a,a,a,a,DET,True,True
mobile,mobile,mobile,mobile,ADJ,True,False
rxtx,rxtx,rxtx,rxtx,NOUN,True,False
at,at,at,at,ADP,True,True
these,these,these,these,DET,True,True
set,set,set,set,NOUN,True,False
of,of,of,of,ADP,True,True
point,point,point,point,NOUN,True,False
.,.,.,.,PUNCT,False,False
the,the,the,the,DET,True,True
interference,interference,interference,interference,NOUN,True,False
check,check,check,check,NOUN,True,False
between,between,between,between,ADP,True,True
two,two,two,two,NUM,True,True
of,of,of,of,ADP,True,True
these,these,these,these,DET,True,True
system,system,system,system,NOUN,True,False
be,be,be,be,VERB,True,True
simple,simple,simple,simple,ADJ,True,False
the,the,the,the,DET,True,True
recommend,recommend,recommend,recommend,NOUN,True,False
method,method,method,method,NOUN,True,False
",",",",",",",",PUNCT,False,False
as,as,as,as,SCONJ,True,True
prove,prove,prove,prove,NOUN,True,False
in,in,in,in,ADP,True,True
commercially,commercially,commercially,commercially,ADV,True,False
available,available,available,available,ADJ,True,False
mobile,mobile,mobile,mobile,ADJ,True,False
interference,interference,interference,interference,NOUN,True,False
tool,tool,tool,tool,NOUN,True,False
",",",",",",",",PUNCT,False,False
provide,provide,provide,provide,VERB,True,False
a,a,a,a,DET,True,True
precise,precise,precise,precise,ADJ,True,False
prediction,prediction,prediction,prediction,NOUN,True,False
of,of,of,of,ADP,True,True
real,real,real,real,ADJ,True,False
ci,ci,ci,ci,NOUN,True,False
or,or,or,or,CCONJ,True,True
ti,ti,ti,ti,NOUN,True,False
for,for,for,for,ADP,True,True
each,each,each,each,DET,True,True
combination,combination,combination,combination,NOUN,True,False
of,of,of,of,ADP,True,True
point,point,point,point,NOUN,True,False
.,.,.,.,PUNCT,False,False
additionally,additionally,additionally,additionally,ADV,True,False
",",",",",",",",PUNCT,False,False
optimize,optimize,optimize,optimize,NOUN,True,False
model,model,model,model,NOUN,True,False
such,such,such,such,ADJ,True,True
as,as,as,as,SCONJ,True,True
itu452530,itu452530,itu452530,itu452530,PROPN,False,False
can,can,can,can,VERB,True,True
produce,produce,produce,produce,VERB,True,False
additional,additional,additional,additional,ADJ,True,False
accuracy,accuracy,accuracy,accuracy,NOUN,True,False
when,when,when,when,ADV,True,True
compare,compare,compare,compare,VERB,True,False
to,to,to,to,ADP,True,True
free,free,free,free,ADJ,True,False
space,space,space,space,NOUN,True,False
.,.,.,.,PUNCT,False,False
the,the,the,the,DET,True,True
second,second,second,second,ADJ,True,False
type,type,type,type,NOUN,True,False
of,of,of,of,ADP,True,True
calculation,calculation,calculation,calculation,NOUN,True,False
be,be,be,be,AUX,True,True
for,for,for,for,ADP,True,True
point,point,point,point,NOUN,True,False
to,to,to,to,PART,True,True
point,point,point,point,NOUN,True,False
link,link,link,link,NOUN,True,False
.,.,.,.,PUNCT,False,False
this,this,this,this,DET,True,True
calculation,calculation,calculation,calculation,NOUN,True,False
be,be,be,be,VERB,True,True
base,base,base,base,NOUN,True,False
on,on,on,on,ADP,True,True
the,the,the,the,DET,True,True
received,received,received,received,ADJ,True,False
power,power,power,power,NOUN,True,False
at,at,at,at,ADP,True,True
each,each,each,each,DET,True,True
location,location,location,location,NOUN,True,False
.,.,.,.,PUNCT,False,False
the,the,the,the,DET,True,True
propose,propose,propose,propose,NOUN,True,False
method,method,method,method,NOUN,True,False
complete,complete,complete,complete,ADJ,True,False
the,the,the,the,DET,True,True
calculation,calculation,calculation,calculation,NOUN,True,False
use,use,use,use,NOUN,True,False
combine,combine,combine,combine,NOUN,True,False
coverage,coverage,coverage,coverage,NOUN,True,False
area,area,area,area,NOUN,True,False
by,by,by,by,ADP,True,True
their,their,-PRON-,-pron-,DET,True,True
position,position,position,position,NOUN,True,False
.,.,.,.,PUNCT,False,False
ls,ls,ls,ls,PROPN,True,False
telcom,telcom,telcom,telcom,PROPN,True,False
propose,propose,propose,propose,VERB,True,False
that,that,that,that,SCONJ,True,True
more,more,more,more,ADV,True,True
precise,precise,precise,precise,ADJ,True,False
calculation,calculation,calculation,calculation,NOUN,True,False
can,can,can,can,VERB,True,True
be,be,be,be,AUX,True,True
achieve,achieve,achieve,achieve,VERB,True,False
by,by,by,by,ADP,True,True
use,use,use,use,VERB,True,False
the,the,the,the,DET,True,True
specific,specific,specific,specific,ADJ,True,False
datum,datum,datum,datum,NOUN,True,False
of,of,of,of,ADP,True,True
the,the,the,the,DET,True,True
well,well,well,well,ADV,True,True
-,-,-,-,PUNCT,False,False
know,know,know,know,VERB,True,False
register,register,register,register,NOUN,True,False
station,station,station,station,NOUN,True,False
end,end,end,end,NOUN,True,False
point,point,point,point,NOUN,True,False
of,of,of,of,ADP,True,True
the,the,the,the,DET,True,True
point,point,point,point,NOUN,True,False
to,to,to,to,PART,True,True
point,point,point,point,NOUN,True,False
link,link,link,link,NOUN,True,False
as,as,as,as,SCONJ,True,True
an,an,an,an,DET,True,True
alternative,alternative,alternative,alternative,NOUN,True,False
to,to,to,to,ADP,True,True
the,the,the,the,DET,True,True
use,use,use,use,NOUN,True,False
of,of,of,of,ADP,True,True
combined,combined,combine,combine,VERB,True,False
coverage,coverage,coverage,coverage,NOUN,True,False
area,area,area,area,NOUN,True,False
.,.,.,.,PUNCT,False,False
determination,determination,determination,determination,NOUN,True,False
of,of,of,of,ADP,True,True
the,the,the,the,DET,True,True
appropriate,appropriate,appropriate,appropriate,ADJ,True,False
protect,protect,protect,protect,ADJ,True,False
contour,contour,contour,contour,NOUN,True,False
will,will,will,will,VERB,True,True
rely,rely,rely,rely,VERB,True,False
heavily,heavily,heavily,heavily,ADV,True,False
on,on,on,on,ADP,True,True
the,the,the,the,DET,True,True
accuracy,accuracy,accuracy,accuracy,NOUN,True,False
of,of,of,of,ADP,True,True
the,the,the,the,DET,True,True
information,information,information,information,NOUN,True,False
collect,collect,collect,collect,VERB,True,False
as,as,as,as,SCONJ,True,True
input,input,input,input,NOUN,True,False
to,to,to,to,ADP,True,True
the,the,the,the,DET,True,True
calculation,calculation,calculation,calculation,NOUN,True,False
.,.,.,.,PUNCT,False,False
as,as,as,as,SCONJ,True,True
identify,identify,identify,identify,VERB,True,False
in,in,in,in,ADP,True,True
gn,gn,gn,gn,PROPN,True,False
docket,docket,docket,docket,PROPN,True,False
no,no,no,no,INTJ,True,True
.,.,.,.,NOUN,False,False
12,12,12,12,NUM,False,False
-,-,-,-,SYM,False,False
354,354,354,354,NUM,False,False
",",",",",",",",PUNCT,False,False
distinguish,distinguish,distinguish,distinguish,ADJ,True,False
between,between,between,between,ADP,True,True
base,base,base,base,NOUN,True,False
station,station,station,station,NOUN,True,False
and,and,and,and,CCONJ,True,True
cpe,cpe,cpe,cpe,PROPN,True,False
use,use,use,use,NOUN,True,False
",",",",",",",",PUNCT,False,False
identify,identify,identify,identify,VERB,True,False
the,the,the,the,DET,True,True
center,center,center,center,ADJ,True,False
frequency,frequency,frequency,frequency,NOUN,True,False
of,of,of,of,ADP,True,True
operation,operation,operation,operation,NOUN,True,False
",",",",",",",",PUNCT,False,False
and,and,and,and,CCONJ,True,True
association,association,association,association,PROPN,True,False
of,of,of,of,ADP,True,True
unregistere,unregistere,unregistere,unregistere,PROPN,True,False
cpe,cpe,cpe,cpe,PROPN,True,False
with,with,with,with,ADP,True,True
a,a,a,a,DET,True,True
base,base,base,base,NOUN,True,False
station,station,station,station,NOUN,True,False
be,be,be,be,AUX,True,True
necessary,necessary,necessary,necessary,ADJ,True,False
element,element,element,element,NOUN,True,False
to,to,to,to,PART,True,True
produce,produce,produce,produce,VERB,True,False
the,the,the,the,DET,True,True
most,most,most,most,ADV,True,True
precise,precise,precise,precise,ADJ,True,False
footprint,footprint,footprint,footprint,NOUN,True,False
of,of,of,of,ADP,True,True
the,the,the,the,DET,True,True
contour,contour,contour,contour,NOUN,True,False
.,.,.,.,PUNCT,False,False
ls,ls,ls,ls,PROPN,True,False
telcom,telcom,telcom,telcom,PROPN,True,False
agree,agree,agree,agree,VERB,True,False
that,that,that,that,SCONJ,True,True
the,the,the,the,DET,True,True
register,register,register,register,ADJ,True,False
user,user,user,user,NOUN,True,False
of,of,of,of,ADP,True,True
the,the,the,the,DET,True,True
protect,protect,protect,protect,ADJ,True,False
contour,contour,contour,contour,NOUN,True,False
should,should,should,should,VERB,True,True
be,be,be,be,AUX,True,True
require,require,require,require,VERB,True,False
to,to,to,to,PART,True,True
provide,provide,provide,provide,VERB,True,False
the,the,the,the,DET,True,True
identify,identify,identify,identify,NOUN,True,False
information,information,information,information,NOUN,True,False
through,through,through,through,ADP,True,True
a,a,a,a,DET,True,True
define,define,define,define,NOUN,True,False
process,process,process,process,NOUN,True,False
.,.,.,.,PUNCT,False,False
an,an,an,an,DET,True,True
online,online,online,online,ADJ,True,False
registration,registration,registration,registration,NOUN,True,False
portal,portal,portal,portal,NOUN,True,False
can,can,can,can,VERB,True,True
be,be,be,be,AUX,True,True
use,use,use,use,NOUN,True,False
to,to,to,to,PART,True,True
collect,collect,collect,collect,VERB,True,False
this,this,this,this,DET,True,True
information,information,information,information,NOUN,True,False
.,.,.,.,PUNCT,False,False
once,once,once,once,ADV,True,True
collect,collect,collect,collect,VERB,True,False
the,the,the,the,DET,True,True
datum,datum,datum,datum,NOUN,True,False
will,will,will,will,VERB,True,True
augment,augment,augment,augment,VERB,True,False
the,the,the,the,DET,True,True
exist,exist,exist,exist,NOUN,True,False
uls,uls,ul,ul,NOUN,True,False
information,information,information,information,NOUN,True,False
to,to,to,to,PART,True,True
determine,determine,determine,determine,VERB,True,False
the,the,the,the,DET,True,True
protected,protected,protected,protected,ADJ,True,False
contour,contour,contour,contour,NOUN,True,False
.,.,.,.,PUNCT,False,False
iv,iv,iv,iv,ADP,True,False
.,.,.,.,PUNCT,False,False
conclusionthere,conclusionthere,conclusionthere,conclusionthere,ADV,True,False
be,be,be,be,AUX,True,True
a,a,a,a,DET,True,True
number,number,number,number,NOUN,True,False
of,of,of,of,ADP,True,True
method,method,method,method,NOUN,True,False
that,that,that,that,DET,True,True
can,can,can,can,VERB,True,True
be,be,be,be,AUX,True,True
use,use,use,use,NOUN,True,False
for,for,for,for,ADP,True,True
calculate,calculate,calculate,calculate,NOUN,True,False
the,the,the,the,DET,True,True
contour,contour,contour,contour,NOUN,True,False
identify,identify,identify,identify,NOUN,True,False
in,in,in,in,ADP,True,True
gn,gn,gn,gn,PROPN,True,False
docket,docket,docket,docket,PROPN,True,False
no,no,no,no,INTJ,True,True
.,.,.,.,NOUN,False,False
12,12,12,12,NUM,False,False
-,-,-,-,SYM,False,False
354,354,354,354,NUM,False,False
.,.,.,.,PUNCT,False,False
these,these,these,these,DET,True,True
propose,propose,propose,propose,NOUN,True,False
method,method,method,method,NOUN,True,False
deliver,deliver,deliver,deliver,VERB,True,False
a,a,a,a,DET,True,True
level,level,level,level,NOUN,True,False
of,of,of,of,ADP,True,True
prediction,prediction,prediction,prediction,NOUN,True,False
accuracy,accuracy,accuracy,accuracy,NOUN,True,False
base,base,base,base,NOUN,True,False
on,on,on,on,ADP,True,True
the,the,the,the,DET,True,True
general,general,general,general,ADJ,True,False
data,data,data,data,NOUN,True,False
input,input,input,input,NOUN,True,False
and,and,and,and,CCONJ,True,True
method,method,method,method,NOUN,True,False
recommend,recommend,recommend,recommend,NOUN,True,False
.,.,.,.,PUNCT,False,False
as,as,as,as,SCONJ,True,True
the,the,the,the,DET,True,True
wireless,wireless,wireless,wireless,ADJ,True,False
industry,industry,industry,industry,NOUN,True,False
as,as,as,as,SCONJ,True,True
a,a,a,a,DET,True,True
whole,whole,whole,whole,ADJ,True,True
look,look,look,look,NOUN,True,False
to,to,to,to,PART,True,True
leverage,leverage,leverage,leverage,VERB,True,False
the,the,the,the,DET,True,True
most,most,most,most,ADV,True,True
efficient,efficient,efficient,efficient,ADJ,True,False
use,use,use,use,NOUN,True,False
of,of,of,of,ADP,True,True
spectrum,spectrum,spectrum,spectrum,NOUN,True,False
",",",",",",",",PUNCT,False,False
ls,ls,ls,ls,PROPN,True,False
telcom,telcom,telcom,telcom,PROPN,True,False
propose,propose,propose,propose,VERB,True,False
that,that,that,that,SCONJ,True,True
additional,additional,additional,additional,ADJ,True,False
precision,precision,precision,precision,NOUN,True,False
for,for,for,for,ADP,True,True
the,the,the,the,DET,True,True
contour,contour,contour,contour,NOUN,True,False
calculation,calculation,calculation,calculation,NOUN,True,False
can,can,can,can,VERB,True,True
be,be,be,be,AUX,True,True
achieve,achieve,achieve,achieve,VERB,True,False
by,by,by,by,ADP,True,True
leverage,leverage,leverage,leverage,NOUN,True,False
more,more,more,more,ADV,True,True
precise,precise,precise,precise,ADJ,True,False
input,input,input,input,NOUN,True,False
datum,datum,datum,datum,NOUN,True,False
that,that,that,that,DET,True,True
will,will,will,will,VERB,True,True
result,result,result,result,VERB,True,False
in,in,in,in,ADP,True,True
more,more,more,more,ADV,True,True
efficient,efficient,efficient,efficient,ADJ,True,False
use,use,use,use,NOUN,True,False
of,of,of,of,ADP,True,True
spectrum,spectrum,spectrum,spectrum,NOUN,True,False
.,.,.,.,PUNCT,False,False
ls,ls,ls,ls,PROPN,True,False
telcom,telcom,telcom,telcom,PROPN,True,False
agree,agree,agree,agree,VERB,True,False
with,with,with,with,ADP,True,True
the,the,the,the,DET,True,True
commission,commission,commission,commission,NOUN,True,False
that,that,that,that,SCONJ,True,True
the,the,the,the,DET,True,True
collection,collection,collection,collection,NOUN,True,False
of,of,of,of,ADP,True,True
miss,miss,miss,miss,PROPN,True,False
key,key,key,key,PROPN,True,False
datum,datum,datum,datum,PROPN,True,False
point,point,point,point,NOUN,True,False
identify,identify,identify,identify,NOUN,True,False
should,should,should,should,VERB,True,True
be,be,be,be,AUX,True,True
require,require,require,require,VERB,True,False
as,as,as,as,SCONJ,True,True
a,a,a,a,DET,True,True
step,step,step,step,NOUN,True,False
in,in,in,in,ADP,True,True
the,the,the,the,DET,True,True
define,define,define,define,NOUN,True,False
registration,registration,registration,registration,NOUN,True,False
process,process,process,process,NOUN,True,False
and,and,and,and,CCONJ,True,True
that,that,that,that,SCONJ,True,True
this,this,this,this,DET,True,True
data,data,data,data,NOUN,True,False
should,should,should,should,VERB,True,True
be,be,be,be,AUX,True,True
use,use,use,use,NOUN,True,False
as,as,as,as,SCONJ,True,True
part,part,part,part,NOUN,True,True
of,of,of,of,ADP,True,True
the,the,the,the,DET,True,True
process,process,process,process,NOUN,True,False
to,to,to,to,PART,True,True
determine,determine,determine,determine,VERB,True,False
the,the,the,the,DET,True,True
protected,protected,protected,protected,ADJ,True,False
contour,contour,contour,contour,NOUN,True,False
.,.,.,.,PUNCT,False,False
