text,text_lower,lemma,lemma_lower,part_of_speech,is_alphabet,is_stopword
dear,dear,dear,dear,PROPN,True,False
ms,ms,ms,ms,PROPN,True,False
.,.,.,.,PROPN,False,False
dortchthe,dortchthe,dortchthe,dortchthe,PROPN,True,False
undersigned,undersigned,undersigned,undersigned,ADJ,True,False
on,on,on,on,ADP,True,True
behalf,behalf,behalf,behalf,NOUN,True,False
of,of,of,of,ADP,True,True
the,the,the,the,DET,True,True
whitespace,whitespace,whitespace,whitespace,NOUN,True,False
alliance,alliance,alliance,alliance,NOUN,True,False
write,write,write,write,VERB,True,False
in,in,in,in,ADP,True,True
support,support,support,support,NOUN,True,False
of,of,of,of,ADP,True,True
the,the,the,the,DET,True,True
commissions,commissions,commission,commission,NOUN,True,False
adoption,adoption,adoption,adoption,NOUN,True,False
of,of,of,of,ADP,True,True
a,a,a,a,DET,True,True
three,three,three,three,NUM,True,True
-,-,-,-,PUNCT,False,False
tier,tier,tier,tier,NOUN,True,False
access,access,access,access,NOUN,True,False
system,system,system,system,NOUN,True,False
for,for,for,for,ADP,True,True
the,the,the,the,DET,True,True
3550,3550,3550,3550,NUM,False,False
-,-,-,-,SYM,False,False
3700,3700,3700,3700,NUM,False,False
mhz,mhz,mhz,mhz,PROPN,True,False
3.5,3.5,3.5,3.5,NUM,False,False
ghz,ghz,ghz,ghz,PROPN,True,False
band,band,band,band,NOUN,True,False
",",",",",",",",PUNCT,False,False
model,model,model,model,NOUN,True,False
on,on,on,on,ADP,True,True
the,the,the,the,DET,True,True
recommendation,recommendation,recommendation,recommendation,NOUN,True,False
of,of,of,of,ADP,True,True
the,the,the,the,DET,True,True
presidents,presidents,presidents,presidents,PROPN,True,False
council,council,council,council,PROPN,True,False
of,of,of,of,ADP,True,True
advisors,advisors,advisor,advisor,NOUN,True,False
on,on,on,on,ADP,True,True
science,science,science,science,NOUN,True,False
and,and,and,and,CCONJ,True,True
technology,technology,technology,technology,NOUN,True,False
.,.,.,.,PUNCT,False,False
this,this,this,this,DET,True,True
framework,framework,framework,framework,NOUN,True,False
enable,enable,enable,enable,VERB,True,False
incumbent,incumbent,incumbent,incumbent,ADJ,True,False
access,access,access,access,NOUN,True,False
",",",",",",",",PUNCT,False,False
priority,priority,priority,priority,NOUN,True,False
access,access,access,access,NOUN,True,False
pa,pa,pa,pa,PROPN,True,False
and,and,and,and,CCONJ,True,True
general,general,general,general,PROPN,True,False
authorized,authorized,authorized,authorized,ADJ,True,False
access,access,access,access,NOUN,True,False
gaa,gaa,gaa,gaa,NOUN,True,False
use,use,use,use,NOUN,True,False
and,and,and,and,CCONJ,True,True
permit,permit,permit,permit,VERB,True,False
spectrum,spectrum,spectrum,spectrum,NOUN,True,False
sharing,sharing,sharing,sharing,NOUN,True,False
among,among,among,among,ADP,True,True
both,both,both,both,DET,True,True
license,license,license,license,NOUN,True,False
and,and,and,and,CCONJ,True,True
gaa,gaa,gaa,gaa,NOUN,True,False
user,user,user,user,NOUN,True,False
while,while,while,while,SCONJ,True,True
protect,protect,protect,protect,ADJ,True,False
incumbent,incumbent,incumbent,incumbent,NOUN,True,False
.,.,.,.,PUNCT,False,False
implement,implement,implement,implement,VERB,True,False
rule,rule,rule,rule,NOUN,True,False
that,that,that,that,DET,True,True
embrace,embrace,embrace,embrace,VERB,True,False
the,the,the,the,DET,True,True
principle,principle,principle,principle,NOUN,True,False
describe,describe,describe,describe,VERB,True,False
below,below,below,below,ADV,True,True
",",",",",",",",PUNCT,False,False
within,within,within,within,ADP,True,True
the,the,the,the,DET,True,True
three,three,three,three,NUM,True,True
-,-,-,-,PUNCT,False,False
tier,tier,tier,tier,NOUN,True,False
framework,framework,framework,framework,NOUN,True,False
",",",",",",",",PUNCT,False,False
will,will,will,will,VERB,True,True
enable,enable,enable,enable,VERB,True,False
great,great,great,great,ADJ,True,False
access,access,access,access,NOUN,True,False
to,to,to,to,ADP,True,True
wireless,wireless,wireless,wireless,ADJ,True,False
communication,communication,communication,communication,NOUN,True,False
and,and,and,and,CCONJ,True,True
create,create,create,create,VERB,True,False
significant,significant,significant,significant,ADJ,True,False
commercial,commercial,commercial,commercial,NOUN,True,False
and,and,and,and,CCONJ,True,True
consumer,consumer,consumer,consumer,NOUN,True,False
benefit,benefit,benefit,benefit,NOUN,True,False
.,.,.,.,PUNCT,False,False
whitespace,whitespace,whitespace,whitespace,PROPN,True,False
alliance,alliance,alliance,alliance,PROPN,True,False
wsa,wsa,wsa,wsa,PROPN,True,False
respectfully,respectfully,respectfully,respectfully,ADV,True,False
submit,submit,submit,submit,VERB,True,False
its,its,-PRON-,-pron-,DET,True,True
comment,comment,comment,comment,NOUN,True,False
in,in,in,in,ADP,True,True
the,the,the,the,DET,True,True
above,above,above,above,ADJ,True,True
-,-,-,-,PUNCT,False,False
caption,caption,caption,caption,NOUN,True,False
proceeding,proceeding,proceeding,proceeding,NOUN,True,False
.,.,.,.,PUNCT,False,False
wsa,wsa,wsa,wsa,PROPN,True,False
commend,commend,commend,commend,VERB,True,False
the,the,the,the,DET,True,True
fcc,fcc,fcc,fcc,PROPN,True,False
for,for,for,for,ADP,True,True
its,its,-PRON-,-pron-,DET,True,True
roadmap,roadmap,roadmap,roadmap,PROPN,True,False
to,to,to,to,PART,True,True
make,make,make,make,VERB,True,True
the,the,the,the,DET,True,True
entirety,entirety,entirety,entirety,NOUN,True,False
of,of,of,of,ADP,True,True
the,the,the,the,DET,True,True
3.5,3.5,3.5,3.5,NUM,False,False
ghz,ghz,ghz,ghz,PROPN,True,False
band,band,band,band,NOUN,True,False
available,available,available,available,ADJ,True,False
for,for,for,for,ADP,True,True
the,the,the,the,DET,True,True
commercial,commercial,commercial,commercial,ADJ,True,False
use,use,use,use,NOUN,True,False
in,in,in,in,ADP,True,True
phase,phase,phase,phase,NOUN,True,False
.,.,.,.,PUNCT,False,False
wsa,wsa,wsa,wsa,PROPN,True,False
www.whitespacealliance.org,www.whitespacealliance.org,www.whitespacealliance.org,www.whitespacealliance.org,PROPN,False,False
be,be,be,be,AUX,True,True
a,a,a,a,DET,True,True
global,global,global,global,ADJ,True,False
organization,organization,organization,organization,NOUN,True,False
that,that,that,that,DET,True,True
promote,promote,promote,promote,VERB,True,False
the,the,the,the,DET,True,True
development,development,development,development,NOUN,True,False
",",",",",",",",PUNCT,False,False
deployment,deployment,deployment,deployment,NOUN,True,False
and,and,and,and,CCONJ,True,True
use,use,use,use,NOUN,True,False
of,of,of,of,ADP,True,True
product,product,product,product,NOUN,True,False
and,and,and,and,CCONJ,True,True
service,service,service,service,NOUN,True,False
that,that,that,that,DET,True,True
utilize,utilize,utilize,utilize,VERB,True,False
white,white,white,white,ADJ,True,False
space,space,space,space,NOUN,True,False
and,and,and,and,CCONJ,True,True
spectrum,spectrum,spectrum,spectrum,NOUN,True,False
sharing,sharing,share,share,VERB,True,False
technology,technology,technology,technology,NOUN,True,False
as,as,as,as,SCONJ,True,True
a,a,a,a,DET,True,True
means,means,means,means,NOUN,True,False
of,of,of,of,ADP,True,True
efficiently,efficiently,efficiently,efficiently,ADV,True,False
use,use,use,use,VERB,True,False
underutilize,underutilize,underutilize,underutilize,NOUN,True,False
spectrum,spectrum,spectrum,spectrum,NOUN,True,False
to,to,to,to,PART,True,True
provide,provide,provide,provide,VERB,True,False
advanced,advanced,advanced,advanced,ADJ,True,False
broadband,broadband,broadband,broadband,NOUN,True,False
capability,capability,capability,capability,NOUN,True,False
.,.,.,.,PUNCT,False,False
wsa,wsa,wsa,wsa,PROPN,True,False
promote,promote,promote,promote,VERB,True,False
the,the,the,the,DET,True,True
opportunistic,opportunistic,opportunistic,opportunistic,ADJ,True,False
use,use,use,use,NOUN,True,False
of,of,of,of,ADP,True,True
spectrum,spectrum,spectrum,spectrum,NOUN,True,False
which,which,which,which,DET,True,True
",",",",",",",",PUNCT,False,False
use,use,use,use,VERB,True,False
geo,geo,geo,geo,NOUN,True,False
-,-,-,-,PUNCT,False,False
location,location,location,location,NOUN,True,False
database,database,database,database,NOUN,True,False
or,or,or,or,CCONJ,True,True
together,together,together,together,ADV,True,True
with,with,with,with,ADP,True,True
sense,sense,sense,sense,NOUN,True,False
technology,technology,technology,technology,NOUN,True,False
and,and,and,and,CCONJ,True,True
beacon,beacon,beacon,beacon,NOUN,True,False
approach,approach,approach,approach,NOUN,True,False
",",",",",",",",PUNCT,False,False
that,that,that,that,DET,True,True
can,can,can,can,VERB,True,True
operate,operate,operate,operate,VERB,True,False
on,on,on,on,ADP,True,True
vacant,vacant,vacant,vacant,ADJ,True,False
",",",",",",",",PUNCT,False,False
unused,unused,unused,unused,ADJ,True,False
or,or,or,or,CCONJ,True,True
unassigned,unassigned,unassigned,unassigned,ADJ,True,False
frequency,frequency,frequency,frequency,NOUN,True,False
as,as,as,as,SCONJ,True,True
be,be,be,be,AUX,True,True
the,the,the,the,DET,True,True
case,case,case,case,NOUN,True,False
at,at,at,at,ADP,True,True
present,present,present,present,NOUN,True,False
in,in,in,in,ADP,True,True
the,the,the,the,DET,True,True
u.s,u.s,u.s,u.s,PROPN,False,False
.,.,.,.,PROPN,False,False
with,with,with,with,ADP,True,True
television,television,television,television,NOUN,True,False
white,white,white,white,ADJ,True,False
space,space,space,space,NOUN,True,False
",",",",",",",",PUNCT,False,False
as,as,as,as,ADV,True,True
well,well,well,well,ADV,True,True
as,as,as,as,SCONJ,True,True
on,on,on,on,ADP,True,True
frequency,frequency,frequency,frequency,NOUN,True,False
that,that,that,that,DET,True,True
may,may,may,may,VERB,True,True
be,be,be,be,AUX,True,True
allocate,allocate,allocate,allocate,VERB,True,False
for,for,for,for,ADP,True,True
share,share,share,share,NOUN,True,False
spectrum,spectrum,spectrum,spectrum,NOUN,True,False
use,use,use,use,NOUN,True,False
as,as,as,as,SCONJ,True,True
in,in,in,in,ADP,True,True
the,the,the,the,DET,True,True
3.5,3.5,3.5,3.5,NUM,False,False
ghz,ghz,ghz,ghz,PROPN,True,False
band,band,band,band,NOUN,True,False
.,.,.,.,PUNCT,False,False
whitespace,whitespace,whitespace,whitespace,PROPN,True,False
alliance,alliance,alliance,alliance,PROPN,True,False
have,have,have,have,AUX,True,True
endorse,endorse,endorse,endorse,VERB,True,False
the,the,the,the,DET,True,True
united,united,united,united,PROPN,True,False
states,states,states,states,PROPN,True,False
presidents,presidents,presidents,presidents,PROPN,True,False
council,council,council,council,PROPN,True,False
of,of,of,of,ADP,True,True
advisors,advisors,advisor,advisor,NOUN,True,False
on,on,on,on,ADP,True,True
science,science,science,science,NOUN,True,False
and,and,and,and,CCONJ,True,True
technology,technology,technology,technology,NOUN,True,False
pcast,pcast,pcast,pcast,NOUN,True,False
report,report,report,report,NOUN,True,False
promote,promote,promote,promote,VERB,True,False
spectrum,spectrum,spectrum,spectrum,NOUN,True,False
sharing,sharing,sharing,sharing,NOUN,True,False
and,and,and,and,CCONJ,True,True
more,more,more,more,ADV,True,True
efficient,efficient,efficient,efficient,ADJ,True,False
use,use,use,use,NOUN,True,False
of,of,of,of,ADP,True,True
spectrum,spectrum,spectrum,spectrum,NOUN,True,False
through,through,through,through,ADP,True,True
new,new,new,new,ADJ,True,False
cognitive,cognitive,cognitive,cognitive,ADJ,True,False
radio,radio,radio,radio,NOUN,True,False
technology,technology,technology,technology,NOUN,True,False
and,and,and,and,CCONJ,True,True
transceiver,transceiver,transceiver,transceiver,ADJ,True,False
standard,standard,standard,standard,NOUN,True,False
.,.,.,.,PUNCT,False,False
wsa,wsa,wsa,wsa,PROPN,True,False
be,be,be,be,AUX,True,True
develop,develop,develop,develop,VERB,True,False
technology,technology,technology,technology,NOUN,True,False
that,that,that,that,DET,True,True
allow,allow,allow,allow,VERB,True,False
spectrum,spectrum,spectrum,spectrum,NOUN,True,False
sharing,sharing,sharing,sharing,NOUN,True,False
between,between,between,between,ADP,True,True
various,various,various,various,ADJ,True,True
kind,kind,kind,kind,NOUN,True,False
of,of,of,of,ADP,True,True
system,system,system,system,NOUN,True,False
over,over,over,over,ADP,True,True
many,many,many,many,ADJ,True,True
band,band,band,band,NOUN,True,False
and,and,and,and,CCONJ,True,True
in,in,in,in,ADP,True,True
many,many,many,many,ADJ,True,True
different,different,different,different,ADJ,True,False
market,market,market,market,NOUN,True,False
.,.,.,.,PUNCT,False,False
wsa,wsa,wsa,wsa,PROPN,True,False
have,have,have,have,AUX,True,True
previously,previously,previously,previously,ADV,True,False
file,file,file,file,NOUN,True,False
comment,comment,comment,comment,NOUN,True,False
on,on,on,on,ADP,True,True
the,the,the,the,DET,True,True
fcc,fcc,fcc,fcc,PROPN,True,False
s,s,s,s,PROPN,True,False
3.5,3.5,3.5,3.5,NUM,False,False
ghz,ghz,ghz,ghz,PROPN,True,False
nprm,nprm,nprm,nprm,NOUN,True,False
as,as,as,as,ADV,True,True
well,well,well,well,ADV,True,True
asparticipate,asparticipate,asparticipate,asparticipate,NOUN,True,False
in,in,in,in,ADP,True,True
the,the,the,the,DET,True,True
workshop,workshop,workshop,workshop,NOUN,True,False
conduct,conduct,conduct,conduct,NOUN,True,False
on,on,on,on,ADP,True,True
january,january,january,january,PROPN,True,False
14,14,14,14,NUM,False,False
2014,2014,2014,2014,NUM,False,False
",",",",",",",",PUNCT,False,False
the,the,the,the,DET,True,True
link,link,link,link,NOUN,True,False
to,to,to,to,PART,True,True
which,which,which,which,DET,True,True
may,may,may,may,VERB,True,True
be,be,be,be,AUX,True,True
find,find,find,find,VERB,True,False
here45the,here45the,here45the,here45the,DET,False,False
whitespace,whitespace,whitespace,whitespace,NOUN,True,False
alliance,alliance,alliance,alliance,NOUN,True,False
would,would,would,would,VERB,True,True
like,like,like,like,VERB,True,False
to,to,to,to,PART,True,True
further,further,further,further,ADV,True,True
make,make,make,make,VERB,True,True
the,the,the,the,DET,True,True
follow,follow,follow,follow,NOUN,True,False
commentsexclusion,commentsexclusion,commentsexclusion,commentsexclusion,NOUN,True,False
zoneswsa,zoneswsa,zoneswsa,zoneswsa,PROPN,True,False
commend,commend,commend,commend,VERB,True,False
the,the,the,the,DET,True,True
fcc,fcc,fcc,fcc,PROPN,True,False
and,and,and,and,CCONJ,True,True
the,the,the,the,DET,True,True
ntia,ntia,ntia,ntia,NOUN,True,False
for,for,for,for,ADP,True,True
their,their,-PRON-,-pron-,DET,True,True
continue,continue,continue,continue,NOUN,True,False
effort,effort,effort,effort,NOUN,True,False
to,to,to,to,PART,True,True
reduce,reduce,reduce,reduce,VERB,True,False
the,the,the,the,DET,True,True
exclusion,exclusion,exclusion,exclusion,NOUN,True,False
zones,zones,zone,zone,NOUN,True,False
.,.,.,.,PUNCT,False,False
wsa,wsa,wsa,wsa,PROPN,True,False
understand,understand,understand,understand,VERB,True,False
that,that,that,that,SCONJ,True,True
the,the,the,the,DET,True,True
federal,federal,federal,federal,ADJ,True,False
services,services,service,service,NOUN,True,False
operate,operate,operate,operate,VERB,True,False
in,in,in,in,ADP,True,True
these,these,these,these,DET,True,True
band,band,band,band,NOUN,True,False
be,be,be,be,AUX,True,True
extremely,extremely,extremely,extremely,ADV,True,False
important,important,important,important,ADJ,True,False
and,and,and,and,CCONJ,True,True
appreciate,appreciate,appreciate,appreciate,VERB,True,False
the,the,the,the,DET,True,True
balance,balance,balance,balance,NOUN,True,False
act,act,act,act,NOUN,True,False
play,play,play,play,NOUN,True,False
by,by,by,by,ADP,True,True
the,the,the,the,DET,True,True
commission,commission,commission,commission,NOUN,True,False
to,to,to,to,PART,True,True
create,create,create,create,VERB,True,False
a,a,a,a,DET,True,True
commercial,commercial,commercial,commercial,ADJ,True,False
use,use,use,use,NOUN,True,False
case,case,case,case,NOUN,True,False
for,for,for,for,ADP,True,True
this,this,this,this,DET,True,True
spectrum,spectrum,spectrum,spectrum,NOUN,True,False
while,while,while,while,SCONJ,True,True
ensure,ensure,ensure,ensure,VERB,True,False
that,that,that,that,SCONJ,True,True
the,the,the,the,DET,True,True
federal,federal,federal,federal,ADJ,True,False
systems,systems,system,system,NOUN,True,False
can,can,can,can,VERB,True,True
operate,operate,operate,operate,VERB,True,False
without,without,without,without,ADP,True,True
interference,interference,interference,interference,NOUN,True,False
.,.,.,.,PUNCT,False,False
wsa,wsa,wsa,wsa,PROPN,True,False
urge,urge,urge,urge,VERB,True,False
the,the,the,the,DET,True,True
commission,commission,commission,commission,NOUN,True,False
that,that,that,that,SCONJ,True,True
any,any,any,any,DET,True,True
geographic,geographic,geographic,geographic,ADJ,True,False
exclusion,exclusion,exclusion,exclusion,NOUN,True,False
zone,zone,zone,zone,NOUN,True,False
should,should,should,should,VERB,True,True
be,be,be,be,AUX,True,True
base,base,base,base,NOUN,True,False
on,on,on,on,ADP,True,True
actual,actual,actual,actual,ADJ,True,False
deployment,deployment,deployment,deployment,NOUN,True,False
scenario,scenario,scenario,scenario,NOUN,True,False
and,and,and,and,CCONJ,True,True
size,size,size,size,NOUN,True,False
solely,solely,solely,solely,ADV,True,False
to,to,to,to,PART,True,True
protect,protect,protect,protect,VERB,True,False
incumbent,incumbent,incumbent,incumbent,ADJ,True,False
user,user,user,user,NOUN,True,False
.,.,.,.,PUNCT,False,False
the,the,the,the,DET,True,True
commission,commission,commission,commission,NOUN,True,False
should,should,should,should,VERB,True,True
minimize,minimize,minimize,minimize,VERB,True,False
exclusion,exclusion,exclusion,exclusion,NOUN,True,False
zone,zone,zone,zone,NOUN,True,False
for,for,for,for,ADP,True,True
incumbent,incumbent,incumbent,incumbent,NOUN,True,False
as,as,as,as,ADV,True,True
much,much,much,much,ADV,True,True
as,as,as,as,SCONJ,True,True
possible,possible,possible,possible,ADJ,True,False
",",",",",",",",PUNCT,False,False
byadopte,byadopte,byadopte,byadopte,VERB,True,False
requirement,requirement,requirement,requirement,NOUN,True,False
that,that,that,that,DET,True,True
be,be,be,be,VERB,True,True
base,base,base,base,NOUN,True,False
only,only,only,only,ADV,True,True
on,on,on,on,ADP,True,True
the,the,the,the,DET,True,True
interference,interference,interference,interference,NOUN,True,False
tolerance,tolerance,tolerance,tolerance,NOUN,True,False
of,of,of,of,ADP,True,True
incumbent,incumbent,incumbent,incumbent,ADJ,True,False
operation,operation,operation,operation,NOUN,True,False
and,and,and,and,CCONJ,True,True
not,not,not,not,PART,True,True
the,the,the,the,DET,True,True
tolerance,tolerance,tolerance,tolerance,NOUN,True,False
of,of,of,of,ADP,True,True
potential,potential,potential,potential,ADJ,True,False
new,new,new,new,ADJ,True,False
operation,operation,operation,operation,NOUN,True,False
.,.,.,.,PUNCT,False,False
while,while,while,while,SCONJ,True,True
incumbent,incumbent,incumbent,incumbent,NOUN,True,False
in,in,in,in,ADP,True,True
the,the,the,the,DET,True,True
3.5,3.5,3.5,3.5,NUM,False,False
ghz,ghz,ghz,ghz,PROPN,True,False
band,band,band,band,NOUN,True,False
have,have,have,have,AUX,True,True
a,a,a,a,DET,True,True
right,right,right,right,NOUN,True,False
to,to,to,to,ADP,True,True
reasonable,reasonable,reasonable,reasonable,ADJ,True,False
protection,protection,protection,protection,NOUN,True,False
from,from,from,from,ADP,True,True
harmful,harmful,harmful,harmful,ADJ,True,False
interference,interference,interference,interference,NOUN,True,False
",",",",",",",",PUNCT,False,False
provider,provider,provider,provider,NOUN,True,False
operate,operate,operate,operate,VERB,True,False
under,under,under,under,ADP,True,True
the,the,the,the,DET,True,True
new,new,new,new,ADJ,True,False
rule,rule,rule,rule,NOUN,True,False
should,should,should,should,VERB,True,True
be,be,be,be,AUX,True,True
allow,allow,allow,allow,VERB,True,False
consistent,consistent,consistent,consistent,ADJ,True,False
with,with,with,with,ADP,True,True
their,their,-PRON-,-pron-,DET,True,True
own,own,own,own,ADJ,True,True
business,business,business,business,NOUN,True,False
plan,plan,plan,plan,NOUN,True,False
to,to,to,to,PART,True,True
operate,operate,operate,operate,VERB,True,False
in,in,in,in,ADP,True,True
environment,environment,environment,environment,NOUN,True,False
where,where,where,where,ADV,True,True
they,they,-PRON-,-pron-,PRON,True,True
may,may,may,may,VERB,True,True
encounter,encounter,encounter,encounter,VERB,True,False
interference,interference,interference,interference,NOUN,True,False
.,.,.,.,PUNCT,False,False
this,this,this,this,DET,True,True
approach,approach,approach,approach,NOUN,True,False
conform,conform,conform,conform,VERB,True,False
to,to,to,to,ADP,True,True
the,the,the,the,DET,True,True
general,general,general,general,ADJ,True,False
",",",",",",",",PUNCT,False,False
highly,highly,highly,highly,ADV,True,False
successful,successful,successful,successful,ADJ,True,False
principle,principle,principle,principle,NOUN,True,False
that,that,that,that,SCONJ,True,True
secondary,secondary,secondary,secondary,ADJ,True,False
user,user,user,user,NOUN,True,False
be,be,be,be,AUX,True,True
not,not,not,not,PART,True,True
entitle,entitle,entitle,entitle,ADJ,True,False
to,to,to,to,ADP,True,True
interference,interference,interference,interference,NOUN,True,False
protection,protection,protection,protection,NOUN,True,False
from,from,from,from,ADP,True,True
user,user,user,user,NOUN,True,False
with,with,with,with,ADP,True,True
high,high,high,high,ADJ,True,False
priority,priority,priority,priority,NOUN,True,False
right,right,right,right,ADV,True,False
and,and,and,and,CCONJ,True,True
therefore,therefore,therefore,therefore,ADV,True,True
must,must,must,must,VERB,True,True
adjust,adjust,adjust,adjust,VERB,True,False
to,to,to,to,ADP,True,True
the,the,the,the,DET,True,True
interference,interference,interference,interference,NOUN,True,False
environment,environment,environment,environment,NOUN,True,False
as,as,as,as,SCONJ,True,True
they,they,-PRON-,-pron-,PRON,True,True
find,find,find,find,VERB,True,False
it,it,-PRON-,-pron-,PRON,True,True
.,.,.,.,PUNCT,False,False
environment,environment,environment,environment,NOUN,True,False
sense,sense,sense,sense,PROPN,True,False
capabilitywsa,capabilitywsa,capabilitywsa,capabilitywsa,PROPN,True,False
commend,commend,commend,commend,VERB,True,False
the,the,the,the,DET,True,True
fcc,fcc,fcc,fcc,PROPN,True,False
for,for,for,for,ADP,True,True
allow,allow,allow,allow,VERB,True,False
the,the,the,the,DET,True,True
environment,environment,environment,environment,NOUN,True,False
sensing,sensing,sense,sense,VERB,True,False
capability,capability,capability,capability,NOUN,True,False
esc,esc,esc,esc,PROPN,True,False
to,to,to,to,PART,True,True
enable,enable,enable,enable,VERB,True,False
the,the,the,the,DET,True,True
cbrs,cbrs,cbr,cbr,NOUN,True,False
devices,devices,device,device,NOUN,True,False
cbsd,cbsd,cbsd,cbsd,ADV,True,False
to,to,to,to,PART,True,True
operate,operate,operate,operate,VERB,True,False
within,within,within,within,ADP,True,True
the,the,the,the,DET,True,True
exclusion,exclusion,exclusion,exclusion,NOUN,True,False
zones,zones,zone,zone,NOUN,True,False
.,.,.,.,PUNCT,False,False
wsa,wsa,wsa,wsa,PROPN,True,False
company,company,company,company,NOUN,True,False
have,have,have,have,AUX,True,True
all,all,all,all,DET,True,True
the,the,the,the,DET,True,True
know,know,know,know,NOUN,True,False
-,-,-,-,PUNCT,False,False
how,how,how,how,ADV,True,True
need,need,need,need,VERB,True,False
to,to,to,to,PART,True,True
implement,implement,implement,implement,VERB,True,False
esc,esc,esc,esc,NOUN,True,False
devices,devices,device,device,NOUN,True,False
that,that,that,that,DET,True,True
may,may,may,may,VERB,True,True
provide,provide,provide,provide,VERB,True,False
sense,sense,sense,sense,NOUN,True,False
information,information,information,information,NOUN,True,False
to,to,to,to,ADP,True,True
the,the,the,the,DET,True,True
spectrum,spectrum,spectrum,spectrum,PROPN,True,False
access,access,access,access,NOUN,True,False
system,system,system,system,NOUN,True,False
sas,sas,sas,sas,PROPN,True,False
on,on,on,on,ADP,True,True
the,the,the,the,DET,True,True
presence,presence,presence,presence,NOUN,True,False
of,of,of,of,ADP,True,True
the,the,the,the,DET,True,True
incumbents,incumbents,incumbent,incumbent,NOUN,True,False
.,.,.,.,PUNCT,False,False
wsa,wsa,wsa,wsa,PROPN,True,False
company,company,company,company,NOUN,True,False
have,have,have,have,AUX,True,True
start,start,start,start,VERB,True,False
work,work,work,work,NOUN,True,False
to,to,to,to,PART,True,True
create,create,create,create,VERB,True,False
a,a,a,a,DET,True,True
standard,standard,standard,standard,NOUN,True,False
on,on,on,on,ADP,True,True
spectrum,spectrum,spectrum,spectrum,NOUN,True,False
characterization,characterization,characterization,characterization,NOUN,True,False
and,and,and,and,CCONJ,True,True
occupancy,occupancy,occupancy,occupancy,NOUN,True,False
sensing,sensing,sensing,sensing,NOUN,True,False
scos,scos,scos,scos,NOUN,True,False
for,for,for,for,ADP,True,True
esc,esc,esc,esc,NOUN,True,False
devices,devices,device,device,NOUN,True,False
within,within,within,within,ADP,True,True
the,the,the,the,DET,True,True
ieee,ieee,ieee,ieee,PROPN,True,False
802.22,802.22,802.22,802.22,PROPN,False,False
working,working,working,working,NOUN,True,False
group,group,group,group,NOUN,True,False
under,under,under,under,ADP,True,True
the,the,the,the,DET,True,True
project,project,project,project,NOUN,True,False
ieee,ieee,ieee,ieee,PROPN,True,False
p802.22.3.6wsa,p802.22.3.6wsa,p802.22.3.6wsa,p802.22.3.6wsa,NOUN,False,False
encourage,encourage,encourage,encourage,VERB,True,False
the,the,the,the,DET,True,True
govt,govt,govt,govt,NOUN,True,False
.,.,.,.,PUNCT,False,False
to,to,to,to,PART,True,True
participate,participate,participate,participate,VERB,True,False
in,in,in,in,ADP,True,True
this,this,this,this,DET,True,True
standards,standards,standard,standard,NOUN,True,False
development,development,development,development,NOUN,True,False
process,process,process,process,NOUN,True,False
to,to,to,to,PART,True,True
create,create,create,create,VERB,True,False
an,an,an,an,DET,True,True
interoperable,interoperable,interoperable,interoperable,ADJ,True,False
specification,specification,specification,specification,NOUN,True,False
that,that,that,that,DET,True,True
be,be,be,be,AUX,True,True
acceptable,acceptable,acceptable,acceptable,ADJ,True,False
to,to,to,to,ADP,True,True
both,both,both,both,DET,True,True
",",",",",",",",PUNCT,False,False
the,the,the,the,DET,True,True
government,government,government,government,NOUN,True,False
as,as,as,as,ADV,True,True
well,well,well,well,ADV,True,True
as,as,as,as,SCONJ,True,True
the,the,the,the,DET,True,True
industry,industry,industry,industry,NOUN,True,False
.,.,.,.,PUNCT,False,False
beacon,beacon,beacon,beacon,NOUN,True,False
approaches,approaches,approach,approach,VERB,True,False
to,to,to,to,ADP,True,True
spectrum,spectrum,spectrum,spectrum,PROPN,True,False
sharingwsa,sharingwsa,sharingwsa,sharingwsa,PROPN,True,False
believe,believe,believe,believe,VERB,True,False
that,that,that,that,SCONJ,True,True
the,the,the,the,DET,True,True
fcc,fcc,fcc,fcc,PROPN,True,False
should,should,should,should,VERB,True,True
not,not,not,not,PART,True,True
ignore,ignore,ignore,ignore,VERB,True,False
another,another,another,another,DET,True,True
readily,readily,readily,readily,ADV,True,False
available,available,available,available,ADJ,True,False
mechanism,mechanism,mechanism,mechanism,NOUN,True,False
for,for,for,for,ADP,True,True
spectrum,spectrum,spectrum,spectrum,NOUN,True,False
sharing,sharing,sharing,sharing,NOUN,True,False
",",",",",",",",PUNCT,False,False
namely,namely,namely,namely,ADV,True,True
the,the,the,the,DET,True,True
wireless,wireless,wireless,wireless,ADJ,True,False
beacon,beacon,beacon,beacon,NOUN,True,False
.,.,.,.,PUNCT,False,False
7the,7the,7the,7the,DET,False,False
fcc,fcc,fcc,fcc,PROPN,True,False
should,should,should,should,VERB,True,True
consider,consider,consider,consider,VERB,True,False
beacon,beacon,beacon,beacon,NOUN,True,False
as,as,as,as,SCONJ,True,True
an,an,an,an,DET,True,True
optional,optional,optional,optional,ADJ,True,False
method,method,method,method,NOUN,True,False
",",",",",",",",PUNCT,False,False
to,to,to,to,PART,True,True
be,be,be,be,AUX,True,True
use,use,use,use,NOUN,True,False
in,in,in,in,ADP,True,True
conjunction,conjunction,conjunction,conjunction,NOUN,True,False
with,with,with,with,ADP,True,True
a,a,a,a,DET,True,True
spectrum,spectrum,spectrum,spectrum,NOUN,True,False
access,access,access,access,NOUN,True,False
system,system,system,system,NOUN,True,False
sas,sas,sas,sas,PROPN,True,False
to,to,to,to,PART,True,True
enable,enable,enable,enable,VERB,True,False
spectrum,spectrum,spectrum,spectrum,NOUN,True,False
sharing,sharing,sharing,sharing,NOUN,True,False
",",",",",",",",PUNCT,False,False
for,for,for,for,ADP,True,True
ensure,ensure,ensure,ensure,VERB,True,False
reasonable,reasonable,reasonable,reasonable,ADJ,True,False
incumbent,incumbent,incumbent,incumbent,ADJ,True,False
protection,protection,protection,protection,NOUN,True,False
while,while,while,while,SCONJ,True,True
shrink,shrink,shrink,shrink,VERB,True,False
the,the,the,the,DET,True,True
propose,propose,propose,propose,NOUN,True,False
exclusion,exclusion,exclusion,exclusion,NOUN,True,False
zone,zone,zone,zone,NOUN,True,False
.,.,.,.,PUNCT,False,False
wsa,wsa,wsa,wsa,PROPN,True,False
member,member,member,member,NOUN,True,False
be,be,be,be,AUX,True,True
currently,currently,currently,currently,ADV,True,False
develop,develop,develop,develop,VERB,True,False
an,an,an,an,DET,True,True
interoperability,interoperability,interoperability,interoperability,NOUN,True,False
standard,standard,standard,standard,NOUN,True,False
for,for,for,for,ADP,True,True
the,the,the,the,DET,True,True
advanced,advanced,advanced,advanced,ADJ,True,False
beaconing,beaconing,beaconing,beaconing,NOUN,True,False
system,system,system,system,NOUN,True,False
under,under,under,under,ADP,True,True
the,the,the,the,DET,True,True
ieee,ieee,ieee,ieee,PROPN,True,False
802.22.18,802.22.18,802.22.18,802.22.18,NUM,False,False
revision,revision,revision,revision,NOUN,True,False
project,project,project,project,NOUN,True,False
for,for,for,for,ADP,True,True
spectrum,spectrum,spectrum,spectrum,NOUN,True,False
sharing,sharing,sharing,sharing,NOUN,True,False
in,in,in,in,ADP,True,True
the,the,the,the,DET,True,True
3.5,3.5,3.5,3.5,NUM,False,False
ghz,ghz,ghz,ghz,PROPN,True,False
band,band,band,band,NOUN,True,False
.,.,.,.,PUNCT,False,False
wsa,wsa,wsa,wsa,PROPN,True,False
would,would,would,would,VERB,True,True
welcome,welcome,welcome,welcome,VERB,True,False
the,the,the,the,DET,True,True
participation,participation,participation,participation,NOUN,True,False
of,of,of,of,ADP,True,True
the,the,the,the,DET,True,True
government,government,government,government,NOUN,True,False
team,team,team,team,NOUN,True,False
to,to,to,to,PART,True,True
create,create,create,create,VERB,True,False
such,such,such,such,DET,True,True
an,an,an,an,DET,True,True
interoperable,interoperable,interoperable,interoperable,ADJ,True,False
standard,standard,standard,standard,NOUN,True,False
that,that,that,that,DET,True,True
would,would,would,would,VERB,True,True
meet,meet,meet,meet,VERB,True,False
the,the,the,the,DET,True,True
requirement,requirement,requirement,requirement,NOUN,True,False
of,of,of,of,ADP,True,True
the,the,the,the,DET,True,True
fcc,fcc,fcc,fcc,PROPN,True,False
and,and,and,and,CCONJ,True,True
the,the,the,the,DET,True,True
ntia.there,ntia.there,ntia.there,ntia.there,PROPN,False,False
be,be,be,be,AUX,True,True
several,several,several,several,ADJ,True,True
advantage,advantage,advantage,advantage,NOUN,True,False
of,of,of,of,ADP,True,True
use,use,use,use,VERB,True,False
a,a,a,a,DET,True,True
beaconing,beaconing,beaconing,beaconing,NOUN,True,False
approach,approach,approach,approach,NOUN,True,False
.,.,.,.,PUNCT,False,False
these,these,these,these,DET,True,True
advantage,advantage,advantage,advantage,NOUN,True,False
may,may,may,may,VERB,True,True
be,be,be,be,AUX,True,True
list,list,list,list,NOUN,True,False
as,as,as,as,SCONJ,True,True
followsthe,followsthe,followsthe,followsthe,PROPN,True,False
advanced,advanced,advanced,advanced,ADJ,True,False
beacon,beacon,beacon,beacon,NOUN,True,False
system,system,system,system,NOUN,True,False
may,may,may,may,VERB,True,True
operate,operate,operate,operate,VERB,True,False
outside,outside,outside,outside,ADP,True,False
the,the,the,the,DET,True,True
frequency,frequency,frequency,frequency,NOUN,True,False
bands,bands,band,band,NOUN,True,False
of,of,of,of,ADP,True,True
the,the,the,the,DET,True,True
federal,federal,federal,federal,ADJ,True,False
systems,systems,system,system,NOUN,True,False
of,of,of,of,ADP,True,True
the,the,the,the,DET,True,True
incumbent,incumbent,incumbent,incumbent,ADJ,True,False
users,users,user,user,NOUN,True,False
.,.,.,.,PUNCT,False,False
for,for,for,for,ADP,True,True
example,example,example,example,NOUN,True,False
",",",",",",",",PUNCT,False,False
high,high,high,high,ADJ,True,False
frequency,frequency,frequency,frequency,NOUN,True,False
hf,hf,hf,hf,NOUN,True,False
",",",",",",",",PUNCT,False,False
very,very,very,very,ADV,True,True
high,high,high,high,ADJ,True,False
frequency,frequency,frequency,frequency,NOUN,True,False
vhf,vhf,vhf,vhf,NOUN,True,False
or,or,or,or,CCONJ,True,True
ultra,ultra,ultra,ultra,ADJ,True,False
high,high,high,high,ADJ,True,False
frequency,frequency,frequency,frequency,NOUN,True,False
uhf,uhf,uhf,uhf,NOUN,True,False
bands,bands,band,band,NOUN,True,False
may,may,may,may,VERB,True,True
be,be,be,be,AUX,True,True
use,use,use,use,NOUN,True,False
where,where,where,where,ADV,True,True
the,the,the,the,DET,True,True
propagation,propagation,propagation,propagation,NOUN,True,False
of,of,of,of,ADP,True,True
a,a,a,a,DET,True,True
beacon,beacon,beacon,beacon,NOUN,True,False
signal,signal,signal,signal,NOUN,True,False
be,be,be,be,AUX,True,True
likely,likely,likely,likely,ADJ,True,False
to,to,to,to,PART,True,True
be,be,be,be,AUX,True,True
favorable,favorable,favorable,favorable,ADJ,True,False
to,to,to,to,PART,True,True
cover,cover,cover,cover,VERB,True,False
the,the,the,the,DET,True,True
require,require,require,require,ADJ,True,False
distance,distance,distance,distance,NOUN,True,False
that,that,that,that,DET,True,True
may,may,may,may,VERB,True,True
exceed,exceed,exceed,exceed,VERB,True,False
the,the,the,the,DET,True,True
exclusion,exclusion,exclusion,exclusion,NOUN,True,False
zone,zone,zone,zone,NOUN,True,False
.,.,.,.,PUNCT,False,False
hence,hence,hence,hence,ADV,True,True
datum,datum,datum,datum,VERB,True,False
storage,storage,storage,storage,NOUN,True,False
or,or,or,or,CCONJ,True,True
disclosure,disclosure,disclosure,disclosure,NOUN,True,False
issue,issue,issue,issue,NOUN,True,False
be,be,be,be,AUX,True,True
considerably,considerably,considerably,considerably,ADV,True,False
reduce,reduce,reduce,reduce,VERB,True,False
.,.,.,.,PUNCT,False,False
the,the,the,the,DET,True,True
advanced,advanced,advanced,advanced,ADJ,True,False
beacon,beacon,beacon,beacon,NOUN,True,False
signal,signal,signal,signal,NOUN,True,False
detection,detection,detection,detection,NOUN,True,False
be,be,be,be,AUX,True,True
likely,likely,likely,likely,ADJ,True,False
to,to,to,to,PART,True,True
be,be,be,be,AUX,True,True
more,more,more,more,ADV,True,True
reliable,reliable,reliable,reliable,ADJ,True,False
due,due,due,due,ADP,True,True
to,to,to,to,ADP,True,True
pre,pre,pre,pre,ADJ,True,False
-,-,-,-,ADJ,False,False
define,define,define,define,VERB,True,False
signal,signal,signal,signal,NOUN,True,False
structure,structure,structure,structure,NOUN,True,False
that,that,that,that,DET,True,True
may,may,may,may,VERB,True,True
be,be,be,be,AUX,True,True
detect,detect,detect,detect,ADJ,True,False
even,even,even,even,ADV,True,True
at,at,at,at,ADP,True,True
negative,negative,negative,negative,ADJ,True,False
signal,signal,signal,signal,NOUN,True,False
to,to,to,to,PART,True,True
noise,noise,noise,noise,NOUN,True,False
ratios,ratios,ratio,ratio,VERB,True,False
snrsauthentication,snrsauthentication,snrsauthentication,snrsauthentication,NOUN,True,False
features,features,feature,feature,NOUN,True,False
may,may,may,may,VERB,True,True
be,be,be,be,AUX,True,True
embed,embed,embe,embe,VERB,True,False
inside,inside,inside,inside,ADP,True,False
the,the,the,the,DET,True,True
beacon,beacon,beacon,beacon,NOUN,True,False
signature,signature,signature,signature,NOUN,True,False
which,which,which,which,DET,True,True
will,will,will,will,VERB,True,True
enhance,enhance,enhance,enhance,VERB,True,False
security,security,security,security,NOUN,True,False
of,of,of,of,ADP,True,True
the,the,the,the,DET,True,True
systemthe,systemthe,systemthe,systemthe,ADV,True,False
advanced,advanced,advanced,advanced,ADJ,True,False
beacon,beacon,beacon,beacon,NOUN,True,False
system,system,system,system,NOUN,True,False
could,could,could,could,VERB,True,True
be,be,be,be,AUX,True,True
make,make,make,make,VERB,True,True
scalable,scalable,scalable,scalable,ADJ,True,False
to,to,to,to,PART,True,True
accommodate,accommodate,accommodate,accommodate,VERB,True,False
multiple,multiple,multiple,multiple,ADJ,True,False
incumbent,incumbent,incumbent,incumbent,ADJ,True,False
systems,systems,system,system,NOUN,True,False
operate,operate,operate,operate,VERB,True,False
in,in,in,in,ADP,True,True
the,the,the,the,DET,True,True
same,same,same,same,ADJ,True,True
area,area,area,area,NOUN,True,False
.,.,.,.,PUNCT,False,False
in,in,in,in,ADP,True,True
addition,addition,addition,addition,NOUN,True,False
",",",",",",",",PUNCT,False,False
the,the,the,the,DET,True,True
beacon,beacon,beacon,beacon,NOUN,True,False
transmission,transmission,transmission,transmission,NOUN,True,False
will,will,will,will,VERB,True,True
be,be,be,be,AUX,True,True
under,under,under,under,ADP,True,True
complete,complete,complete,complete,ADJ,True,False
control,control,control,control,NOUN,True,False
of,of,of,of,ADP,True,True
the,the,the,the,DET,True,True
government,government,government,government,NOUN,True,False
where,where,where,where,ADV,True,True
it,it,-PRON-,-pron-,PRON,True,True
can,can,can,can,VERB,True,True
be,be,be,be,AUX,True,True
proactive,proactive,proactive,proactive,ADJ,True,False
",",",",",",",",PUNCT,False,False
and,and,and,and,CCONJ,True,True
turn,turn,turn,turn,VERB,True,False
off,off,off,off,ADP,True,True
the,the,the,the,DET,True,True
beacon,beacon,beacon,beacon,NOUN,True,False
when,when,when,when,ADV,True,True
need,need,need,need,VERB,True,False
.,.,.,.,PUNCT,False,False
adoption,adoption,adoption,adoption,NOUN,True,False
of,of,of,of,ADP,True,True
a,a,a,a,DET,True,True
three,three,three,three,NUM,True,True
tier,tier,tier,tier,NOUN,True,False
system,system,system,system,NOUN,True,False
and,and,and,and,CCONJ,True,True
use,use,use,use,VERB,True,False
it,it,-PRON-,-pron-,PRON,True,True
or,or,or,or,CCONJ,True,True
share,share,share,share,VERB,True,False
itapproachwsa,itapproachwsa,itapproachwsa,itapproachwsa,ADV,True,False
be,be,be,be,AUX,True,True
pleased,pleased,pleased,pleased,ADJ,True,False
with,with,with,with,ADP,True,True
fcc,fcc,fcc,fcc,PROPN,True,False
s,s,s,s,PROPN,True,False
decision,decision,decision,decision,NOUN,True,False
to,to,to,to,PART,True,True
adopt,adopt,adopt,adopt,VERB,True,False
the,the,the,the,DET,True,True
three,three,three,three,NUM,True,True
tier,tier,tier,tier,NOUN,True,False
system,system,system,system,NOUN,True,False
from,from,from,from,ADP,True,True
the,the,the,the,DET,True,True
start,start,start,start,NOUN,True,False
.,.,.,.,PUNCT,False,False
wsa,wsa,wsa,wsa,PROPN,True,False
have,have,have,have,AUX,True,True
continue,continue,continue,continue,VERB,True,False
to,to,to,to,PART,True,True
promote,promote,promote,promote,VERB,True,False
great,great,great,great,ADJ,True,False
spectrum,spectrum,spectrum,spectrum,NOUN,True,False
efficiency,efficiency,efficiency,efficiency,NOUN,True,False
in,in,in,in,ADP,True,True
all,all,all,all,DET,True,True
its,its,-PRON-,-pron-,DET,True,True
previous,previous,previous,previous,ADJ,True,False
comment,comment,comment,comment,NOUN,True,False
to,to,to,to,ADP,True,True
the,the,the,the,DET,True,True
fcc,fcc,fcc,fcc,PROPN,True,False
.,.,.,.,PUNCT,False,False
wsa,wsa,wsa,wsa,PROPN,True,False
welcome,welcome,welcome,welcome,PROPN,True,False
fcc,fcc,fcc,fcc,PROPN,True,False
s,s,s,s,PART,True,False
decision,decision,decision,decision,NOUN,True,False
of,of,of,of,ADP,True,True
allow,allow,allow,allow,VERB,True,False
the,the,the,the,DET,True,True
general,general,general,general,ADJ,True,False
authorized,authorized,authorize,authorize,VERB,True,False
access,access,access,access,NOUN,True,False
gaa,gaa,gaa,gaa,NOUN,True,False
cbsds,cbsds,cbsds,cbsds,NOUN,True,False
to,to,to,to,PART,True,True
operate,operate,operate,operate,VERB,True,False
in,in,in,in,ADP,True,True
frequency,frequency,frequency,frequency,NOUN,True,False
band,band,band,band,NOUN,True,False
and,and,and,and,CCONJ,True,True
at,at,at,at,ADP,True,True
location,location,location,location,NOUN,True,False
where,where,where,where,ADV,True,True
the,the,the,the,DET,True,True
priority,priority,priority,priority,NOUN,True,False
access,access,access,access,NOUN,True,False
licenses,licenses,license,license,VERB,True,False
pal,pal,pal,pal,ADJ,True,False
device,device,device,device,NOUN,True,False
have,have,have,have,AUX,True,True
not,not,not,not,PART,True,True
deploy,deploy,deploy,deploy,VERB,True,False
.,.,.,.,PUNCT,False,False
give,give,give,give,VERB,True,True
the,the,the,the,DET,True,True
nation,nation,nation,nation,NOUN,True,False
grow,grow,grow,grow,VERB,True,False
demand,demand,demand,demand,NOUN,True,False
for,for,for,for,ADP,True,True
wireless,wireless,wireless,wireless,ADJ,True,False
bandwidth,bandwidth,bandwidth,bandwidth,NOUN,True,False
",",",",",",",",PUNCT,False,False
wsa,wsa,wsa,wsa,VERB,True,False
be,be,be,be,AUX,True,True
pleased,pleased,pleased,pleased,ADJ,True,False
with,with,with,with,ADP,True,True
the,the,the,the,DET,True,True
commission,commission,commission,commission,NOUN,True,False
decision,decision,decision,decision,NOUN,True,False
to,to,to,to,PART,True,True
move,move,move,move,VERB,True,True
forward,forward,forward,forward,ADV,True,False
with,with,with,with,ADP,True,True
a,a,a,a,DET,True,True
three,three,three,three,NUM,True,True
-,-,-,-,PUNCT,False,False
tier,tier,tier,tier,NOUN,True,False
system,system,system,system,NOUN,True,False
from,from,from,from,ADP,True,True
the,the,the,the,DET,True,True
start,start,start,start,NOUN,True,False
.,.,.,.,PUNCT,False,False
immediate,immediate,immediate,immediate,ADJ,True,False
adoption,adoption,adoption,adoption,NOUN,True,False
of,of,of,of,ADP,True,True
a,a,a,a,DET,True,True
three,three,three,three,NUM,True,True
-,-,-,-,PUNCT,False,False
tier,tier,tier,tier,NOUN,True,False
framework,framework,framework,framework,NOUN,True,False
for,for,for,for,ADP,True,True
access,access,access,access,NOUN,True,False
the,the,the,the,DET,True,True
3550,3550,3550,3550,NUM,False,False
-,-,-,-,SYM,False,False
3700,3700,3700,3700,NUM,False,False
mhz,mhz,mhz,mhz,PROPN,True,False
band,band,band,band,NOUN,True,False
will,will,will,will,VERB,True,True
benefit,benefit,benefit,benefit,VERB,True,False
the,the,the,the,DET,True,True
economy,economy,economy,economy,NOUN,True,False
by,by,by,by,ADP,True,True
enable,enable,enable,enable,VERB,True,False
more,more,more,more,ADJ,True,True
intensive,intensive,intensive,intensive,ADJ,True,False
use,use,use,use,NOUN,True,False
of,of,of,of,ADP,True,True
the,the,the,the,DET,True,True
band,band,band,band,NOUN,True,False
",",",",",",",",PUNCT,False,False
by,by,by,by,ADP,True,True
promote,promote,promote,promote,VERB,True,False
additional,additional,additional,additional,ADJ,True,False
rural,rural,rural,rural,ADJ,True,False
broadband,broadband,broadband,broadband,NOUN,True,False
deployment,deployment,deployment,deployment,NOUN,True,False
",",",",",",",",PUNCT,False,False
and,and,and,and,CCONJ,True,True
by,by,by,by,ADP,True,True
lower,lower,low,low,ADJ,True,False
entry,entry,entry,entry,NOUN,True,False
barrier,barrier,barrier,barrier,NOUN,True,False
for,for,for,for,ADP,True,True
a,a,a,a,DET,True,True
diverse,diverse,diverse,diverse,ADJ,True,False
range,range,range,range,NOUN,True,False
of,of,of,of,ADP,True,True
user,user,user,user,NOUN,True,False
and,and,and,and,CCONJ,True,True
innovative,innovative,innovative,innovative,ADJ,True,False
use,use,use,use,NOUN,True,False
.,.,.,.,PUNCT,False,False
the,the,the,the,DET,True,True
spectrum,spectrum,spectrum,spectrum,PROPN,True,False
access,access,access,access,PROPN,True,False
system,system,system,system,NOUN,True,False
sas,sas,sas,sas,PROPN,True,False
technology,technology,technology,technology,NOUN,True,False
be,be,be,be,AUX,True,True
capable,capable,capable,capable,ADJ,True,False
ofimplemente,ofimplemente,ofimplemente,ofimplemente,ADP,True,False
the,the,the,the,DET,True,True
three,three,three,three,NUM,True,True
-,-,-,-,PUNCT,False,False
tier,tier,tier,tier,NOUN,True,False
system,system,system,system,NOUN,True,False
",",",",",",",",PUNCT,False,False
and,and,and,and,CCONJ,True,True
the,the,the,the,DET,True,True
approach,approach,approach,approach,NOUN,True,False
require,require,require,require,VERB,True,False
to,to,to,to,PART,True,True
protect,protect,protect,protect,VERB,True,False
first,first,first,first,ADJ,True,True
-,-,-,-,PUNCT,False,False
tier,tier,tier,tier,NOUN,True,False
incumbent,incumbent,incumbent,incumbent,NOUN,True,False
can,can,can,can,VERB,True,True
be,be,be,be,AUX,True,True
apply,apply,apply,apply,VERB,True,False
equally,equally,equally,equally,ADV,True,False
effectively,effectively,effectively,effectively,ADV,True,False
to,to,to,to,ADP,True,True
secondary,secondary,secondary,secondary,ADJ,True,False
user,user,user,user,NOUN,True,False
protection,protection,protection,protection,NOUN,True,False
.,.,.,.,PUNCT,False,False
wsa,wsa,wsa,wsa,PROPN,True,False
welcome,welcome,welcome,welcome,PROPN,True,False
fccs,fccs,fccs,fccs,ADJ,True,False
decision,decision,decision,decision,NOUN,True,False
to,to,to,to,PART,True,True
include,include,include,include,VERB,True,False
the,the,the,the,DET,True,True
3650,3650,3650,3650,NUM,False,False
-,-,-,-,SYM,False,False
3700,3700,3700,3700,NUM,False,False
mhz,mhz,mhz,mhz,PROPN,True,False
band,band,band,band,NOUN,True,False
as,as,as,as,ADV,True,True
well,well,well,well,ADV,True,True
as,as,as,as,SCONJ,True,True
the,the,the,the,DET,True,True
3550,3550,3550,3550,NUM,False,False
-,-,-,-,SYM,False,False
3650,3650,3650,3650,NUM,False,False
mhz,mhz,mhz,mhz,PROPN,True,False
band,band,band,band,NOUN,True,False
.,.,.,.,PUNCT,False,False
as,as,as,as,SCONJ,True,True
the,the,the,the,DET,True,True
commission,commission,commission,commission,NOUN,True,False
have,have,have,have,AUX,True,True
suggest,suggest,suggest,suggest,VERB,True,False
",",",",",",",",PUNCT,False,False
there,there,there,there,PRON,True,True
will,will,will,will,VERB,True,True
be,be,be,be,AUX,True,True
long,long,long,long,ADJ,True,False
term,term,term,term,NOUN,True,False
gain,gain,gain,gain,NOUN,True,False
and,and,and,and,CCONJ,True,True
significant,significant,significant,significant,ADJ,True,False
public,public,public,public,ADJ,True,False
interest,interest,interest,interest,NOUN,True,False
benefit,benefit,benefit,benefit,NOUN,True,False
to,to,to,to,PART,True,True
extend,extend,extend,extend,VERB,True,False
the,the,the,the,DET,True,True
rule,rule,rule,rule,NOUN,True,False
propose,propose,propose,propose,NOUN,True,False
here,here,here,here,ADV,True,True
to,to,to,to,ADP,True,True
the,the,the,the,DET,True,True
3650,3650,3650,3650,NUM,False,False
-,-,-,-,SYM,False,False
3700,3700,3700,3700,NUM,False,False
mhz,mhz,mhz,mhz,PROPN,True,False
band,band,band,band,NOUN,True,False
",",",",",",",",PUNCT,False,False
both,both,both,both,CCONJ,True,True
in,in,in,in,ADP,True,True
term,term,term,term,NOUN,True,False
of,of,of,of,ADP,True,True
term,term,term,term,NOUN,True,False
of,of,of,of,ADP,True,True
spectrum,spectrum,spectrum,spectrum,NOUN,True,False
efficiency,efficiency,efficiency,efficiency,NOUN,True,False
and,and,and,and,CCONJ,True,True
availability,availability,availability,availability,NOUN,True,False
",",",",",",",",PUNCT,False,False
and,and,and,and,CCONJ,True,True
economy,economy,economy,economy,NOUN,True,False
of,of,of,of,ADP,True,True
scale,scale,scale,scale,NOUN,True,False
for,for,for,for,ADP,True,True
equipment,equipment,equipment,equipment,NOUN,True,False
across,across,across,across,ADP,True,True
the,the,the,the,DET,True,True
full,full,full,full,ADJ,True,True
150,150,150,150,NUM,False,False
megahertz,megahertz,megahertz,megahertz,NOUN,True,False
.,.,.,.,PUNCT,False,False
moreover,moreover,moreover,moreover,ADV,True,True
",",",",",",",",PUNCT,False,False
co,co,co,co,NOUN,True,False
-,-,-,-,NOUN,False,False
existence,existence,existence,existence,NOUN,True,False
with,with,with,with,ADP,True,True
legacy,legacy,legacy,legacy,PROPN,True,False
wireless,wireless,wireless,wireless,PROPN,True,False
internet,internet,internet,internet,NOUN,True,False
service,service,service,service,NOUN,True,False
provider,provider,provider,provider,NOUN,True,False
wisp,wisp,wisp,wisp,ADP,True,False
operation,operation,operation,operation,NOUN,True,False
will,will,will,will,VERB,True,True
be,be,be,be,AUX,True,True
feasible,feasible,feasible,feasible,ADJ,True,False
",",",",",",",",PUNCT,False,False
especially,especially,especially,especially,ADV,True,False
give,give,give,give,VERB,True,True
that,that,that,that,SCONJ,True,True
most,most,most,most,ADJ,True,True
new,new,new,new,ADJ,True,False
deployment,deployment,deployment,deployment,NOUN,True,False
in,in,in,in,ADP,True,True
this,this,this,this,DET,True,True
band,band,band,band,NOUN,True,False
will,will,will,will,VERB,True,True
to,to,to,to,PART,True,True
be,be,be,be,AUX,True,True
low,low,low,low,ADJ,True,False
-,-,-,-,PUNCT,False,False
power,power,power,power,NOUN,True,False
",",",",",",",",PUNCT,False,False
small,small,small,small,ADJ,True,False
cell,cell,cell,cell,NOUN,True,False
operation,operation,operation,operation,NOUN,True,False
.,.,.,.,PUNCT,False,False
to,to,to,to,ADP,True,True
the,the,the,the,DET,True,True
extent,extent,extent,extent,NOUN,True,False
necessary,necessary,necessary,necessary,ADJ,True,False
",",",",",",",",PUNCT,False,False
a,a,a,a,DET,True,True
database,database,database,database,NOUN,True,False
can,can,can,can,VERB,True,True
accommodate,accommodate,accommodate,accommodate,VERB,True,False
any,any,any,any,DET,True,True
mandated,mandated,mandated,mandated,ADJ,True,False
protection,protection,protection,protection,NOUN,True,False
of,of,of,of,ADP,True,True
grandfathere,grandfathere,grandfathere,grandfathere,NOUN,True,False
wisps,wisps,wisp,wisp,NOUN,True,False
just,just,just,just,ADV,True,True
as,as,as,as,SCONJ,True,True
it,it,-PRON-,-pron-,PRON,True,True
accommodate,accommodate,accommodate,accommodate,VERB,True,False
permanent,permanent,permanent,permanent,ADJ,True,False
incumbent,incumbent,incumbent,incumbent,NOUN,True,False
.,.,.,.,PUNCT,False,False
we,we,-PRON-,-pron-,PRON,True,True
support,support,support,support,VERB,True,False
the,the,the,the,DET,True,True
commissions,commissions,commission,commission,NOUN,True,False
proposal,proposal,proposal,proposal,NOUN,True,False
to,to,to,to,PART,True,True
set,set,set,set,VERB,True,False
aside,aside,aside,aside,ADP,True,False
a,a,a,a,DET,True,True
substantial,substantial,substantial,substantial,ADJ,True,False
portion,portion,portion,portion,NOUN,True,False
of,of,of,of,ADP,True,True
the,the,the,the,DET,True,True
band,band,band,band,NOUN,True,False
for,for,for,for,ADP,True,True
gaa,gaa,gaa,gaa,NOUN,True,False
use,use,use,use,NOUN,True,False
on,on,on,on,ADP,True,True
a,a,a,a,DET,True,True
nationwide,nationwide,nationwide,nationwide,ADJ,True,False
basis,basis,basis,basis,NOUN,True,False
.,.,.,.,PUNCT,False,False
allow,allow,allow,allow,VERB,True,False
a,a,a,a,DET,True,True
balance,balance,balance,balance,NOUN,True,False
of,of,of,of,ADP,True,True
license,license,license,license,NOUN,True,False
and,and,and,and,CCONJ,True,True
gaa,gaa,gaa,gaa,NOUN,True,False
access,access,access,access,NOUN,True,False
will,will,will,will,VERB,True,True
both,both,both,both,DET,True,True
",",",",",",",",PUNCT,False,False
enable,enable,enable,enable,VERB,True,False
significant,significant,significant,significant,ADJ,True,False
investment,investment,investment,investment,NOUN,True,False
in,in,in,in,ADP,True,True
small,small,small,small,ADJ,True,False
cell,cell,cell,cell,NOUN,True,False
network,network,network,network,NOUN,True,False
and,and,and,and,CCONJ,True,True
encourage,encourage,encourage,encourage,VERB,True,False
the,the,the,the,DET,True,True
wireless,wireless,wireless,wireless,ADJ,True,False
broadband,broadband,broadband,broadband,NOUN,True,False
innovation,innovation,innovation,innovation,NOUN,True,False
enable,enable,enable,enable,VERB,True,False
as,as,as,as,SCONJ,True,True
a,a,a,a,DET,True,True
result,result,result,result,NOUN,True,False
of,of,of,of,ADP,True,True
unlicensed,unlicensed,unlicensed,unlicensed,ADJ,True,False
access,access,access,access,NOUN,True,False
.,.,.,.,PUNCT,False,False
we,we,-PRON-,-pron-,PRON,True,True
also,also,also,also,ADV,True,True
agree,agree,agree,agree,VERB,True,False
that,that,that,that,SCONJ,True,True
all,all,all,all,DET,True,True
certify,certify,certify,certify,ADJ,True,False
device,device,device,device,NOUN,True,False
should,should,should,should,VERB,True,True
operate,operate,operate,operate,VERB,True,False
across,across,across,across,ADP,True,True
the,the,the,the,DET,True,True
entire,entire,entire,entire,ADJ,True,False
band,band,band,band,NOUN,True,False
and,and,and,and,CCONJ,True,True
that,that,that,that,SCONJ,True,True
the,the,the,the,DET,True,True
sas,sas,sas,sas,PROPN,True,False
should,should,should,should,VERB,True,True
be,be,be,be,AUX,True,True
permit,permit,permit,permit,ADJ,True,False
to,to,to,to,PART,True,True
dynamically,dynamically,dynamically,dynamically,ADV,True,False
assign,assign,assign,assign,VERB,True,False
channel,channel,channel,channel,NOUN,True,False
to,to,to,to,ADP,True,True
pal,pal,pal,pal,PROPN,True,False
and,and,and,and,CCONJ,True,True
gaa,gaa,gaa,gaa,NOUN,True,False
user,user,user,user,NOUN,True,False
.,.,.,.,PUNCT,False,False
such,such,such,such,DET,True,True
an,an,an,an,DET,True,True
approach,approach,approach,approach,NOUN,True,False
will,will,will,will,VERB,True,True
support,support,support,support,VERB,True,False
economy,economy,economy,economy,NOUN,True,False
of,of,of,of,ADP,True,True
scale,scale,scale,scale,NOUN,True,False
for,for,for,for,ADP,True,True
device,device,device,device,NOUN,True,False
and,and,and,and,CCONJ,True,True
will,will,will,will,VERB,True,True
ensure,ensure,ensure,ensure,VERB,True,False
that,that,that,that,DET,True,True
device,device,device,device,NOUN,True,False
operate,operate,operate,operate,VERB,True,False
on,on,on,on,ADP,True,True
pa,pa,pa,pa,PROPN,True,False
spectrum,spectrum,spectrum,spectrum,PROPN,True,False
do,do,do,do,AUX,True,True
not,not,not,not,PART,True,True
get,get,get,get,AUX,True,True
strand,strand,strand,strand,ADJ,True,False
if,if,if,if,SCONJ,True,True
the,the,the,the,DET,True,True
licensee,licensee,licensee,licensee,NOUN,True,False
fail,fail,fail,fail,VERB,True,False
to,to,to,to,PART,True,True
renew,renew,renew,renew,VERB,True,False
its,its,-PRON-,-pron-,DET,True,True
priority,priority,priority,priority,NOUN,True,False
access,access,access,access,NOUN,True,False
right,right,right,right,NOUN,True,False
.,.,.,.,PUNCT,False,False
wsa,wsa,wsa,wsa,PROPN,True,False
welcome,welcome,welcome,welcome,VERB,True,False
the,the,the,the,DET,True,True
commission,commission,commission,commission,NOUN,True,False
s,s,s,s,PART,True,False
decision,decision,decision,decision,NOUN,True,False
to,to,to,to,PART,True,True
enable,enable,enable,enable,VERB,True,False
gaa,gaa,gaa,gaa,NOUN,True,False
use,use,use,use,NOUN,True,False
of,of,of,of,ADP,True,True
unused,unused,unused,unused,ADJ,True,False
spectrum,spectrum,spectrum,spectrum,NOUN,True,False
across,across,across,across,ADP,True,True
the,the,the,the,DET,True,True
entire,entire,entire,entire,ADJ,True,False
band,band,band,band,NOUN,True,False
.,.,.,.,PUNCT,False,False
priority,priority,priority,priority,NOUN,True,False
access,access,access,access,NOUN,True,False
licensees,licensees,licensee,licensee,NOUN,True,False
should,should,should,should,VERB,True,True
be,be,be,be,AUX,True,True
entitle,entitle,entitle,entitle,ADJ,True,False
to,to,to,to,ADP,True,True
protection,protection,protection,protection,NOUN,True,False
fromgaa,fromgaa,fromgaa,fromgaa,PROPN,True,False
user,user,user,user,NOUN,True,False
in,in,in,in,ADP,True,True
the,the,the,the,DET,True,True
area,area,area,area,NOUN,True,False
where,where,where,where,ADV,True,True
they,they,-PRON-,-pron-,PRON,True,True
be,be,be,be,VERB,True,True
offer,offer,offer,offer,VERB,True,False
service,service,service,service,NOUN,True,False
or,or,or,or,CCONJ,True,True
prepare,prepare,prepare,prepare,VERB,True,False
to,to,to,to,PART,True,True
deploy,deploy,deploy,deploy,VERB,True,False
service,service,service,service,NOUN,True,False
",",",",",",",",PUNCT,False,False
but,but,but,but,CCONJ,True,True
if,if,if,if,SCONJ,True,True
the,the,the,the,DET,True,True
pal,pal,pal,pal,ADJ,True,False
licensee,licensee,licensee,licensee,PROPN,True,False
offer,offer,offer,offer,PROPN,True,False
service,service,service,service,NOUN,True,False
only,only,only,only,ADV,True,True
in,in,in,in,ADP,True,True
a,a,a,a,DET,True,True
portion,portion,portion,portion,NOUN,True,False
of,of,of,of,ADP,True,True
the,the,the,the,DET,True,True
licensed,licensed,licensed,licensed,ADJ,True,False
area,area,area,area,NOUN,True,False
",",",",",",",",PUNCT,False,False
then,then,then,then,ADV,True,True
the,the,the,the,DET,True,True
remain,remain,remain,remain,NOUN,True,False
area,area,area,area,NOUN,True,False
should,should,should,should,VERB,True,True
be,be,be,be,AUX,True,True
open,open,open,open,ADJ,True,False
for,for,for,for,ADP,True,True
share,share,share,share,NOUN,True,False
use,use,use,use,NOUN,True,False
by,by,by,by,ADP,True,True
gaa,gaa,gaa,gaa,NOUN,True,False
user,user,user,user,NOUN,True,False
on,on,on,on,ADP,True,True
a,a,a,a,DET,True,True
non,non,non,non,ADJ,True,False
-,-,-,-,ADJ,False,False
interfering,interfering,interfering,interfering,ADJ,True,False
basis,basis,basis,basis,NOUN,True,False
.,.,.,.,PUNCT,False,False
adopt,adopt,adopt,adopt,VERB,True,False
this,this,this,this,DET,True,True
approach,approach,approach,approach,NOUN,True,False
will,will,will,will,VERB,True,True
be,be,be,be,AUX,True,True
particularly,particularly,particularly,particularly,ADV,True,False
important,important,important,important,ADJ,True,False
if,if,if,if,SCONJ,True,True
the,the,the,the,DET,True,True
commission,commission,commission,commission,NOUN,True,False
elect,elect,elect,elect,NOUN,True,False
to,to,to,to,PART,True,True
assign,assign,assign,assign,VERB,True,False
pal,pal,pal,pal,ADJ,True,False
license,license,license,license,NOUN,True,False
on,on,on,on,ADP,True,True
a,a,a,a,DET,True,True
census,census,census,census,NOUN,True,False
-,-,-,-,PUNCT,False,False
tract,tract,tract,tract,NOUN,True,False
basis,basis,basis,basis,NOUN,True,False
census,census,census,census,NOUN,True,False
tract,tract,tract,tract,NOUN,True,False
can,can,can,can,VERB,True,True
be,be,be,be,AUX,True,True
geographically,geographically,geographically,geographically,ADV,True,False
large,large,large,large,ADJ,True,False
while,while,while,while,SCONJ,True,True
licensed,licensed,licensed,licensed,ADJ,True,False
small,small,small,small,ADJ,True,False
cell,cell,cell,cell,NOUN,True,False
deployment,deployment,deployment,deployment,NOUN,True,False
may,may,may,may,VERB,True,True
be,be,be,be,AUX,True,True
geographically,geographically,geographically,geographically,ADV,True,False
limit,limit,limit,limit,NOUN,True,False
within,within,within,within,ADP,True,True
a,a,a,a,DET,True,True
tract,tract,tract,tract,NOUN,True,False
.,.,.,.,PUNCT,False,False
in,in,in,in,ADP,True,True
order,order,order,order,NOUN,True,False
to,to,to,to,PART,True,True
maximize,maximize,maximize,maximize,VERB,True,False
spectrum,spectrum,spectrum,spectrum,NOUN,True,False
utilization,utilization,utilization,utilization,NOUN,True,False
",",",",",",",",PUNCT,False,False
the,the,the,the,DET,True,True
commission,commission,commission,commission,NOUN,True,False
should,should,should,should,VERB,True,True
require,require,require,require,VERB,True,False
sharing,sharing,sharing,sharing,NOUN,True,False
of,of,of,of,ADP,True,True
spectrum,spectrum,spectrum,spectrum,NOUN,True,False
that,that,that,that,DET,True,True
remain,remain,remain,remain,VERB,True,False
unused,unused,unused,unused,ADJ,True,False
.,.,.,.,PUNCT,False,False
fcc,fcc,fcc,fcc,PROPN,True,False
model,model,model,model,NOUN,True,False
of,of,of,of,ADP,True,True
select,select,select,select,ADJ,True,False
one,one,one,one,NUM,True,True
less,less,less,less,ADJ,True,True
licensee,licensee,licensee,licensee,NOUN,True,False
from,from,from,from,ADP,True,True
the,the,the,the,DET,True,True
number,number,number,number,NOUN,True,False
of,of,of,of,ADP,True,True
pal,pal,pal,pal,NOUN,True,False
seeker,seeker,seeker,seeker,NOUN,True,False
be,be,be,be,AUX,True,True
a,a,a,a,DET,True,True
good,good,good,good,NOUN,True,False
.,.,.,.,PUNCT,False,False
however,however,however,however,ADV,True,True
",",",",",",",",PUNCT,False,False
this,this,this,this,DET,True,True
should,should,should,should,VERB,True,True
not,not,not,not,PART,True,True
result,result,result,result,VERB,True,False
in,in,in,in,ADP,True,True
reduction,reduction,reduction,reduction,NOUN,True,False
of,of,of,of,ADP,True,True
the,the,the,the,DET,True,True
competition,competition,competition,competition,NOUN,True,False
by,by,by,by,ADP,True,True
redistribution,redistribution,redistribution,redistribution,NOUN,True,False
of,of,of,of,ADP,True,True
the,the,the,the,DET,True,True
same,same,same,same,ADJ,True,True
amount,amount,amount,amount,NOUN,True,True
of,of,of,of,ADP,True,True
spectrum,spectrum,spectrum,spectrum,NOUN,True,False
amongst,amongst,amongst,amongst,ADP,True,True
few,few,few,few,ADJ,True,True
licenseesthe,licenseesthe,licenseesthe,licenseesthe,PROPN,True,False
commission,commission,commission,commission,PROPN,True,False
should,should,should,should,VERB,True,True
not,not,not,not,PART,True,True
require,require,require,require,VERB,True,False
every,every,every,every,DET,True,True
end,end,end,end,NOUN,True,False
-,-,-,-,PUNCT,False,False
user,user,user,user,NOUN,True,False
device,device,device,device,NOUN,True,False
to,to,to,to,PART,True,True
register,register,register,register,VERB,True,False
with,with,with,with,ADP,True,True
an,an,an,an,DET,True,True
sas,sas,sas,sas,PROPN,True,False
",",",",",",",",PUNCT,False,False
provide,provide,provide,provide,VERB,True,False
that,that,that,that,SCONJ,True,True
an,an,an,an,DET,True,True
access,access,access,access,NOUN,True,False
point,point,point,point,NOUN,True,False
or,or,or,or,CCONJ,True,True
a,a,a,a,DET,True,True
network,network,network,network,NOUN,True,False
manager,manager,manager,manager,NOUN,True,False
act,act,act,act,PROPN,True,False
as,as,as,as,SCONJ,True,True
a,a,a,a,DET,True,True
proxy,proxy,proxy,proxy,NOUN,True,False
and,and,and,and,CCONJ,True,True
prescribe,prescribe,prescribe,prescribe,VERB,True,False
the,the,the,the,DET,True,True
zone,zone,zone,zone,NOUN,True,False
of,of,of,of,ADP,True,True
operation,operation,operation,operation,NOUN,True,False
of,of,of,of,ADP,True,True
the,the,the,the,DET,True,True
end,end,end,end,NOUN,True,False
-,-,-,-,PUNCT,False,False
user,user,user,user,NOUN,True,False
equipment,equipment,equipment,equipment,NOUN,True,False
and,and,and,and,CCONJ,True,True
that,that,that,that,SCONJ,True,True
access,access,access,access,NOUN,True,False
point,point,point,point,NOUN,True,False
be,be,be,be,AUX,True,True
itself,itself,-PRON-,-pron-,PRON,True,True
register,register,register,register,VERB,True,False
with,with,with,with,ADP,True,True
an,an,an,an,DET,True,True
sas,sas,sas,sas,PROPN,True,False
in,in,in,in,ADP,True,True
compliance,compliance,compliance,compliance,NOUN,True,False
with,with,with,with,ADP,True,True
the,the,the,the,DET,True,True
relevant,relevant,relevant,relevant,ADJ,True,False
rule,rule,rule,rule,NOUN,True,False
.,.,.,.,PUNCT,False,False
require,require,require,require,VERB,True,False
all,all,all,all,DET,True,True
end,end,end,end,NOUN,True,False
-,-,-,-,PUNCT,False,False
user,user,user,user,NOUN,True,False
device,device,device,device,NOUN,True,False
to,to,to,to,PART,True,True
register,register,register,register,VERB,True,False
with,with,with,with,ADP,True,True
the,the,the,the,DET,True,True
sas,sas,sas,sas,PROPN,True,False
have,have,have,have,AUX,True,True
the,the,the,the,DET,True,True
potential,potential,potential,potential,NOUN,True,False
to,to,to,to,PART,True,True
cause,cause,cause,cause,VERB,True,False
significant,significant,significant,significant,ADJ,True,False
increase,increase,increase,increase,NOUN,True,False
in,in,in,in,ADP,True,True
the,the,the,the,DET,True,True
cost,cost,cost,cost,NOUN,True,False
of,of,of,of,ADP,True,True
consumer,consumer,consumer,consumer,NOUN,True,False
equipment,equipment,equipment,equipment,NOUN,True,False
.,.,.,.,PUNCT,False,False
conclusionprivate,conclusionprivate,conclusionprivate,conclusionprivate,PROPN,True,False
sector,sector,sector,sector,NOUN,True,False
access,access,access,access,NOUN,True,False
to,to,to,to,ADP,True,True
the,the,the,the,DET,True,True
3.5,3.5,3.5,3.5,NUM,False,False
ghz,ghz,ghz,ghz,PROPN,True,False
band,band,band,band,NOUN,True,False
and,and,and,and,CCONJ,True,True
the,the,the,the,DET,True,True
initiation,initiation,initiation,initiation,NOUN,True,False
of,of,of,of,ADP,True,True
the,the,the,the,DET,True,True
citizens,citizens,citizen,citizen,NOUN,True,False
broadband,broadband,broadband,broadband,PROPN,True,False
service,service,service,service,NOUN,True,False
hold,hold,hold,hold,VERB,True,False
great,great,great,great,ADJ,True,False
potential,potential,potential,potential,NOUN,True,False
for,for,for,for,ADP,True,True
successful,successful,successful,successful,ADJ,True,False
spectrum,spectrum,spectrum,spectrum,NOUN,True,False
sharing,sharing,sharing,sharing,NOUN,True,False
that,that,that,that,DET,True,True
meet,meet,meet,meet,VERB,True,False
the,the,the,the,DET,True,True
demand,demand,demand,demand,NOUN,True,False
of,of,of,of,ADP,True,True
wireless,wireless,wireless,wireless,ADJ,True,False
broadband,broadband,broadband,broadband,NOUN,True,False
user,user,user,user,NOUN,True,False
.,.,.,.,PUNCT,False,False
we,we,-PRON-,-pron-,PRON,True,True
commend,commend,commend,commend,VERB,True,False
the,the,the,the,DET,True,True
fcc,fcc,fcc,fcc,PROPN,True,False
and,and,and,and,CCONJ,True,True
the,the,the,the,DET,True,True
ntia,ntia,ntia,ntia,NOUN,True,False
for,for,for,for,ADP,True,True
their,their,-PRON-,-pron-,DET,True,True
path,path,path,path,NOUN,True,False
break,break,break,break,NOUN,True,False
regulation,regulation,regulation,regulation,NOUN,True,False
to,to,to,to,PART,True,True
create,create,create,create,VERB,True,False
the,the,the,the,DET,True,True
cbrs,cbrs,cbr,cbr,NOUN,True,False
use,use,use,use,VERB,True,False
spectrum,spectrum,spectrum,spectrum,NOUN,True,False
sharing,sharing,share,share,VERB,True,False
technology,technology,technology,technology,NOUN,True,False
innovations,innovations,innovation,innovation,NOUN,True,False
.,.,.,.,PUNCT,False,False
we,we,-PRON-,-pron-,PRON,True,True
be,be,be,be,VERB,True,True
happy,happy,happy,happy,ADJ,True,False
to,to,to,to,PART,True,True
continuallywork,continuallywork,continuallywork,continuallywork,VERB,True,False
with,with,with,with,ADP,True,True
the,the,the,the,DET,True,True
fcc,fcc,fcc,fcc,PROPN,True,False
to,to,to,to,PART,True,True
optimize,optimize,optimize,optimize,VERB,True,False
the,the,the,the,DET,True,True
cbrs,cbrs,cbr,cbr,NOUN,True,False
rules,rules,rule,rule,NOUN,True,False
and,and,and,and,CCONJ,True,True
provide,provide,provide,provide,VERB,True,False
any,any,any,any,DET,True,True
technology,technology,technology,technology,NOUN,True,False
know,know,know,know,NOUN,True,False
-,-,-,-,PUNCT,False,False
how,how,how,how,NOUN,True,True
to,to,to,to,PART,True,True
betterutilize,betterutilize,betterutilize,betterutilize,VERB,True,False
this,this,this,this,DET,True,True
spectrum,spectrum,spectrum,spectrum,NOUN,True,False
while,while,while,while,SCONJ,True,True
not,not,not,not,PART,True,True
interfere,interfere,interfere,interfere,VERB,True,False
with,with,with,with,ADP,True,True
the,the,the,the,DET,True,True
incumbent,incumbent,incumbent,incumbent,ADJ,True,False
user,user,user,user,NOUN,True,False
.,.,.,.,PUNCT,False,False
