text,text_lower,lemma,lemma_lower,part_of_speech,is_alphabet,is_stopword
ctia,ctia,ctia,ctia,VERB,True,False
the,the,the,the,DET,True,True
wireless,wireless,wireless,wireless,PROPN,True,False
association,association,association,association,PROPN,True,False
ctia,ctia,ctia,ctia,NOUN,True,False
submit,submit,submit,submit,VERB,True,False
these,these,these,these,DET,True,True
comment,comment,comment,comment,NOUN,True,False
in,in,in,in,ADP,True,True
response,response,response,response,NOUN,True,False
to,to,to,to,ADP,True,True
the,the,the,the,DET,True,True
second,second,second,second,ADJ,True,False
further,further,further,further,ADJ,True,True
notice,notice,notice,notice,NOUN,True,False
of,of,of,of,ADP,True,True
propose,propose,propose,propose,NOUN,True,False
rulemaking,rulemaking,rulemaking,rulemaking,NOUN,True,False
in,in,in,in,ADP,True,True
this,this,this,this,DET,True,True
proceeding,proceeding,proceeding,proceeding,NOUN,True,False
",",",",",",",",PUNCT,False,False
which,which,which,which,DET,True,True
seek,seek,seek,seek,VERB,True,False
to,to,to,to,PART,True,True
optimize,optimize,optimize,optimize,VERB,True,False
the,the,the,the,DET,True,True
rule,rule,rule,rule,NOUN,True,False
for,for,for,for,ADP,True,True
the,the,the,the,DET,True,True
new,new,new,new,ADJ,True,False
citizens,citizens,citizen,citizen,NOUN,True,False
broadband,broadband,broadband,broadband,NOUN,True,False
radio,radio,radio,radio,NOUN,True,False
service,service,service,service,NOUN,True,False
cbrs,cbrs,cbr,cbr,NOUN,True,False
in,in,in,in,ADP,True,True
the,the,the,the,DET,True,True
3.5,3.5,3.5,3.5,NUM,False,False
ghz,ghz,ghz,ghz,PROPN,True,False
band,band,band,band,NOUN,True,False
.,.,.,.,PUNCT,False,False
as,as,as,as,SCONJ,True,True
the,the,the,the,DET,True,True
commission,commission,commission,commission,NOUN,True,False
explore,explore,explore,explore,VERB,True,False
how,how,how,how,ADV,True,True
to,to,to,to,PART,True,True
allow,allow,allow,allow,VERB,True,False
general,general,general,general,ADJ,True,False
authorized,authorized,authorized,authorized,ADJ,True,False
access,access,access,access,NOUN,True,False
gaa,gaa,gaa,gaa,NOUN,True,False
user,user,user,user,NOUN,True,False
some,some,some,some,DET,True,True
degree,degree,degree,degree,NOUN,True,False
of,of,of,of,ADP,True,True
opportunistic,opportunistic,opportunistic,opportunistic,ADJ,True,False
access,access,access,access,NOUN,True,False
to,to,to,to,ADP,True,True
unused,unused,unused,unused,ADJ,True,False
priority,priority,priority,priority,NOUN,True,False
access,access,access,access,NOUN,True,False
channel,channel,channel,channel,NOUN,True,False
",",",",",",",",PUNCT,False,False
it,it,-PRON-,-pron-,PRON,True,True
should,should,should,should,VERB,True,True
adhere,adhere,adhere,adhere,VERB,True,False
to,to,to,to,ADP,True,True
its,its,-PRON-,-pron-,DET,True,True
conclusion,conclusion,conclusion,conclusion,NOUN,True,False
in,in,in,in,ADP,True,True
the,the,the,the,DET,True,True
report,report,report,report,NOUN,True,False
order,order,order,order,NOUN,True,False
that,that,that,that,SCONJ,True,True
priority,priority,priority,priority,NOUN,True,False
access,access,access,access,NOUN,True,False
licensees,licensees,licensee,licensee,NOUN,True,False
will,will,will,will,VERB,True,True
always,always,always,always,ADV,True,True
have,have,have,have,AUX,True,True
the,the,the,the,DET,True,True
right,right,right,right,NOUN,True,False
to,to,to,to,PART,True,True
use,use,use,use,VERB,True,False
the,the,the,the,DET,True,True
full,full,full,full,ADJ,True,True
10,10,10,10,NUM,False,False
megahertz,megahertz,megahertz,megahertz,PROPN,True,False
channel,channel,channel,channel,NOUN,True,False
bandwidth,bandwidth,bandwidth,bandwidth,NOUN,True,False
within,within,within,within,ADP,True,True
their,their,-PRON-,-pron-,DET,True,True
license,license,license,license,NOUN,True,False
area,area,area,area,NOUN,True,False
during,during,during,during,ADP,True,True
their,their,-PRON-,-pron-,DET,True,True
license,license,license,license,NOUN,True,False
term,term,term,term,NOUN,True,False
.,.,.,.,PUNCT,False,False
with,with,with,with,ADP,True,True
this,this,this,this,DET,True,True
commitment,commitment,commitment,commitment,NOUN,True,False
in,in,in,in,ADP,True,True
mind,mind,mind,mind,NOUN,True,False
",",",",",",",",PUNCT,False,False
the,the,the,the,DET,True,True
commission,commission,commission,commission,NOUN,True,False
should,should,should,should,VERB,True,True
adopt,adopt,adopt,adopt,VERB,True,False
a,a,a,a,DET,True,True
definition,definition,definition,definition,NOUN,True,False
of,of,of,of,ADP,True,True
use,use,use,use,NOUN,True,False
that,that,that,that,DET,True,True
leave,leave,leave,leave,VERB,True,False
no,no,no,no,DET,True,True
doubt,doubt,doubt,doubt,NOUN,True,False
as,as,as,as,SCONJ,True,True
to,to,to,to,ADP,True,True
the,the,the,the,DET,True,True
right,right,right,right,NOUN,True,False
of,of,of,of,ADP,True,True
priority,priority,priority,priority,NOUN,True,False
access,access,access,access,NOUN,True,False
licensees,licensees,licensee,licensee,NOUN,True,False
and,and,and,and,CCONJ,True,True
the,the,the,the,DET,True,True
obligation,obligation,obligation,obligation,NOUN,True,False
of,of,of,of,ADP,True,True
gaa,gaa,gaa,gaa,NOUN,True,False
user,user,user,user,NOUN,True,False
.,.,.,.,PUNCT,False,False
in,in,in,in,ADP,True,True
particular,particular,particular,particular,ADJ,True,False
",",",",",",",",PUNCT,False,False
the,the,the,the,DET,True,True
commission,commission,commission,commission,NOUN,True,False
shouldensure,shouldensure,shouldensure,shouldensure,VERB,True,False
that,that,that,that,SCONJ,True,True
priority,priority,priority,priority,NOUN,True,False
access,access,access,access,NOUN,True,False
licensees,licensees,licensee,licensee,NOUN,True,False
have,have,have,have,AUX,True,True
the,the,the,the,DET,True,True
right,right,right,right,NOUN,True,False
to,to,to,to,PART,True,True
gain,gain,gain,gain,VERB,True,False
exclusive,exclusive,exclusive,exclusive,ADJ,True,False
access,access,access,access,NOUN,True,False
to,to,to,to,ADP,True,True
their,their,-PRON-,-pron-,DET,True,True
licensed,licensed,licensed,licensed,ADJ,True,False
spectrum,spectrum,spectrum,spectrum,NOUN,True,False
upon,upon,upon,upon,SCONJ,True,True
notification,notification,notification,notification,NOUN,True,False
of,of,of,of,ADP,True,True
their,their,-PRON-,-pron-,DET,True,True
intent,intent,intent,intent,NOUN,True,False
to,to,to,to,PART,True,True
use,use,use,use,VERB,True,False
the,the,the,the,DET,True,True
spectrum,spectrum,spectrum,spectrum,NOUN,True,False
",",",",",",",",PUNCT,False,False
include,include,include,include,VERB,True,False
engage,engage,engage,engage,NOUN,True,False
in,in,in,in,ADP,True,True
pre,pre,pre,pre,ADJ,True,False
-,-,-,-,ADJ,False,False
deployment,deployment,deployment,deployment,ADJ,True,False
testingadminister,testingadminister,testingadminister,testingadminister,NOUN,True,False
this,this,this,this,DET,True,True
clear,clear,clear,clear,ADV,True,False
-,-,-,-,PUNCT,False,False
cut,cut,cut,cut,VERB,True,False
set,set,set,set,NOUN,True,False
of,of,of,of,ADP,True,True
right,right,right,right,NOUN,True,False
by,by,by,by,ADP,True,True
tie,tie,tie,tie,VERB,True,False
the,the,the,the,DET,True,True
definition,definition,definition,definition,NOUN,True,False
of,of,of,of,ADP,True,True
use,use,use,use,NOUN,True,False
to,to,to,to,ADP,True,True
the,the,the,the,DET,True,True
priority,priority,priority,priority,NOUN,True,False
access,access,access,access,NOUN,True,False
licensees,licensees,licensee,licensee,NOUN,True,False
initial,initial,initial,initial,ADJ,True,False
transmission,transmission,transmission,transmission,NOUN,True,False
on,on,on,on,ADP,True,True
the,the,the,the,DET,True,True
spectrum,spectrum,spectrum,spectrum,NOUN,True,False
andenable,andenable,andenable,andenable,ADJ,True,False
secondary,secondary,secondary,secondary,ADJ,True,False
market,market,market,market,NOUN,True,False
opportunity,opportunity,opportunity,opportunity,NOUN,True,False
for,for,for,for,ADP,True,True
priority,priority,priority,priority,NOUN,True,False
access,access,access,access,NOUN,True,False
license,license,license,license,NOUN,True,False
pal,pal,pal,pal,PROPN,True,False
spectrum,spectrum,spectrum,spectrum,NOUN,True,False
",",",",",",",",PUNCT,False,False
leave,leave,leave,leave,VERB,True,False
to,to,to,to,ADP,True,True
the,the,the,the,DET,True,True
marketplace,marketplace,marketplace,marketplace,NOUN,True,False
decision,decision,decision,decision,NOUN,True,False
regard,regard,regard,regard,NOUN,True,False
assignment,assignment,assignment,assignment,NOUN,True,False
",",",",",",",",PUNCT,False,False
transfer,transfer,transfer,transfer,NOUN,True,False
",",",",",",",",PUNCT,False,False
or,or,or,or,CCONJ,True,True
lease,lease,lease,lease,NOUN,True,False
of,of,of,of,ADP,True,True
pal,pal,pal,pal,PROPN,True,False
spectrum,spectrum,spectrum,spectrum,PROPN,True,False
.,.,.,.,PUNCT,False,False
throughout,throughout,throughout,throughout,ADP,True,True
this,this,this,this,DET,True,True
proceeding,proceeding,proceeding,proceeding,NOUN,True,False
",",",",",",",",PUNCT,False,False
ctia,ctia,ctia,ctia,PROPN,True,False
have,have,have,have,AUX,True,True
demonstrate,demonstrate,demonstrate,demonstrate,VERB,True,False
its,its,-PRON-,-pron-,DET,True,True
firm,firm,firm,firm,ADJ,True,False
support,support,support,support,NOUN,True,False
for,for,for,for,ADP,True,True
the,the,the,the,DET,True,True
3.5,3.5,3.5,3.5,NUM,False,False
ghzband,ghzband,ghzband,ghzband,NOUN,True,False
as,as,as,as,SCONJ,True,True
an,an,an,an,DET,True,True
important,important,important,important,ADJ,True,False
opportunity,opportunity,opportunity,opportunity,NOUN,True,False
for,for,for,for,ADP,True,True
small,small,small,small,ADJ,True,False
cell,cell,cell,cell,NOUN,True,False
deployment,deployment,deployment,deployment,NOUN,True,False
that,that,that,that,DET,True,True
can,can,can,can,VERB,True,True
help,help,help,help,VERB,True,False
address,address,address,address,VERB,True,False
the,the,the,the,DET,True,True
expand,expand,expand,expand,ADJ,True,False
demand,demand,demand,demand,NOUN,True,False
for,for,for,for,ADP,True,True
mobile,mobile,mobile,mobile,PROPN,True,False
broadband,broadband,broadband,broadband,PROPN,True,False
.,.,.,.,PUNCT,False,False
to,to,to,to,PART,True,True
achieve,achieve,achieve,achieve,VERB,True,False
this,this,this,this,DET,True,True
",",",",",",",",PUNCT,False,False
the,the,the,the,DET,True,True
fcc,fcc,fcc,fcc,PROPN,True,False
need,need,need,need,VERB,True,False
to,to,to,to,PART,True,True
carefully,carefully,carefully,carefully,ADV,True,False
balance,balance,balance,balance,VERB,True,False
policy,policy,policy,policy,NOUN,True,False
that,that,that,that,DET,True,True
will,will,will,will,VERB,True,True
foster,foster,foster,foster,VERB,True,False
investment,investment,investment,investment,NOUN,True,False
with,with,with,with,ADP,True,True
the,the,the,the,DET,True,True
introduction,introduction,introduction,introduction,NOUN,True,False
of,of,of,of,ADP,True,True
a,a,a,a,DET,True,True
novel,novel,novel,novel,ADJ,True,False
sharing,sharing,sharing,sharing,NOUN,True,False
regime,regime,regime,regime,NOUN,True,False
.,.,.,.,PUNCT,False,False
while,while,while,while,SCONJ,True,True
the,the,the,the,DET,True,True
commission,commission,commission,commission,NOUN,True,False
have,have,have,have,AUX,True,True
be,be,be,be,VERB,True,True
clear,clear,clear,clear,ADJ,True,False
that,that,that,that,SCONJ,True,True
interested,interested,interested,interested,ADJ,True,False
applicant,applicant,applicant,applicant,NOUN,True,False
may,may,may,may,VERB,True,True
apply,apply,apply,apply,VERB,True,False
for,for,for,for,ADP,True,True
pal,pal,pal,pal,NOUN,True,False
to,to,to,to,PART,True,True
ensure,ensure,ensure,ensure,VERB,True,False
access,access,access,access,NOUN,True,False
to,to,to,to,ADP,True,True
exclusive,exclusive,exclusive,exclusive,ADJ,True,False
usage,usage,usage,usage,NOUN,True,False
right,right,right,right,NOUN,True,False
",",",",",",",",PUNCT,False,False
its,its,-PRON-,-pron-,DET,True,True
definition,definition,definition,definition,NOUN,True,False
of,of,of,of,ADP,True,True
use,use,use,use,NOUN,True,False
should,should,should,should,VERB,True,True
provide,provide,provide,provide,VERB,True,False
certainty,certainty,certainty,certainty,NOUN,True,False
with,with,with,with,ADP,True,True
respect,respect,respect,respect,NOUN,True,False
to,to,to,to,ADP,True,True
those,those,those,those,DET,True,True
right,right,right,right,ADJ,True,False
and,and,and,and,CCONJ,True,True
avoid,avoid,avoid,avoid,VERB,True,False
put,put,put,put,VERB,True,True
this,this,this,this,DET,True,True
opportunity,opportunity,opportunity,opportunity,NOUN,True,False
at,at,at,at,ADP,True,True
risk,risk,risk,risk,NOUN,True,False
.,.,.,.,PUNCT,False,False
ctia,ctia,ctia,ctia,PROPN,True,False
be,be,be,be,AUX,True,True
eager,eager,eager,eager,ADJ,True,False
to,to,to,to,PART,True,True
work,work,work,work,VERB,True,False
with,with,with,with,ADP,True,True
the,the,the,the,DET,True,True
commission,commission,commission,commission,NOUN,True,False
to,to,to,to,PART,True,True
ensure,ensure,ensure,ensure,VERB,True,False
that,that,that,that,SCONJ,True,True
new,new,new,new,ADJ,True,False
rule,rule,rule,rule,NOUN,True,False
give,give,give,give,VERB,True,True
the,the,the,the,DET,True,True
3.5,3.5,3.5,3.5,NUM,False,False
ghz,ghz,ghz,ghz,PROPN,True,False
band,band,band,band,NOUN,True,False
and,and,and,and,CCONJ,True,True
the,the,the,the,DET,True,True
cbrs,cbrs,cbr,cbr,NOUN,True,False
the,the,the,the,DET,True,True
good,good,good,good,ADJ,True,False
opportunity,opportunity,opportunity,opportunity,NOUN,True,False
for,for,for,for,ADP,True,True
success,success,success,success,NOUN,True,False
.,.,.,.,PUNCT,False,False
the,the,the,the,DET,True,True
rule,rule,rule,rule,NOUN,True,False
should,should,should,should,VERB,True,True
ensure,ensure,ensure,ensure,VERB,True,False
that,that,that,that,SCONJ,True,True
priority,priority,priority,priority,NOUN,True,False
access,access,access,access,NOUN,True,False
licensee,licensee,licensee,licensee,NOUN,True,False
have,have,have,have,AUX,True,True
full,full,full,full,ADJ,True,True
right,right,right,right,NOUN,True,False
to,to,to,to,PART,True,True
use,use,use,use,VERB,True,False
their,their,-PRON-,-pron-,DET,True,True
spectrum,spectrum,spectrum,spectrum,NOUN,True,False
",",",",",",",",PUNCT,False,False
begin,begin,begin,begin,VERB,True,False
with,with,with,with,ADP,True,True
initial,initial,initial,initial,ADJ,True,False
transmissions,transmissions,transmission,transmission,NOUN,True,False
",",",",",",",",PUNCT,False,False
to,to,to,to,PART,True,True
deliver,deliver,deliver,deliver,VERB,True,False
on,on,on,on,ADP,True,True
their,their,-PRON-,-pron-,DET,True,True
investment.cbr,investment.cbr,investment.cbr,investment.cbr,NOUN,False,False
",",",",",",",",PUNCT,False,False
with,with,with,with,ADP,True,True
its,its,-PRON-,-pron-,DET,True,True
three,three,three,three,NUM,True,True
-,-,-,-,PUNCT,False,False
tiere,tiere,tiere,tiere,NOUN,True,False
sharing,sharing,share,share,VERB,True,False
framework,framework,framework,framework,NOUN,True,False
and,and,and,and,CCONJ,True,True
its,its,-PRON-,-pron-,DET,True,True
reliance,reliance,reliance,reliance,NOUN,True,False
on,on,on,on,ADP,True,True
a,a,a,a,DET,True,True
database,database,database,database,NOUN,True,False
-,-,-,-,PUNCT,False,False
drive,drive,drive,drive,NOUN,True,False
",",",",",",",",PUNCT,False,False
spectrum,spectrum,spectrum,spectrum,NOUN,True,False
access,access,access,access,NOUN,True,False
system,system,system,system,NOUN,True,False
sas,sas,sas,sas,PROPN,True,False
",",",",",",",",PUNCT,False,False
be,be,be,be,AUX,True,True
sufficiently,sufficiently,sufficiently,sufficiently,ADV,True,False
complex,complex,complex,complex,ADJ,True,False
that,that,that,that,SCONJ,True,True
the,the,the,the,DET,True,True
commission,commission,commission,commission,NOUN,True,False
should,should,should,should,VERB,True,True
set,set,set,set,VERB,True,False
clear,clear,clear,clear,ADV,True,False
-,-,-,-,PUNCT,False,False
cut,cut,cut,cut,VERB,True,False
rule,rule,rule,rule,NOUN,True,False
for,for,for,for,ADP,True,True
a,a,a,a,DET,True,True
priority,priority,priority,priority,NOUN,True,False
access,access,access,access,NOUN,True,False
licensees,licensees,licensee,licensee,NOUN,True,False
exercise,exercise,exercise,exercise,NOUN,True,False
of,of,of,of,ADP,True,True
its,its,-PRON-,-pron-,DET,True,True
usage,usage,usage,usage,NOUN,True,False
right,right,right,right,NOUN,True,False
as,as,as,as,SCONJ,True,True
a,a,a,a,DET,True,True
license,license,license,license,NOUN,True,False
holder,holder,holder,holder,NOUN,True,False
.,.,.,.,PUNCT,False,False
in,in,in,in,ADP,True,True
contrast,contrast,contrast,contrast,NOUN,True,False
to,to,to,to,ADP,True,True
traditional,traditional,traditional,traditional,ADJ,True,False
spectrum,spectrum,spectrum,spectrum,PROPN,True,False
right,right,right,right,ADJ,True,False
associate,associate,associate,associate,NOUN,True,False
with,with,with,with,ADP,True,True
auction,auction,auction,auction,NOUN,True,False
license,license,license,license,NOUN,True,False
",",",",",",",",PUNCT,False,False
the,the,the,the,DET,True,True
cbrs,cbrs,cbr,cbr,NOUN,True,False
rule,rule,rule,rule,VERB,True,False
allow,allow,allow,allow,VERB,True,False
third,third,third,third,ADJ,True,True
-,-,-,-,PUNCT,False,False
party,party,party,party,NOUN,True,False
gaa,gaa,gaa,gaa,NOUN,True,False
user,user,user,user,NOUN,True,False
to,to,to,to,PART,True,True
operate,operate,operate,operate,VERB,True,False
on,on,on,on,ADP,True,True
a,a,a,a,DET,True,True
priority,priority,priority,priority,NOUN,True,False
access,access,access,access,NOUN,True,False
licensees,licensees,licensee,licensee,NOUN,True,False
spectrum,spectrum,spectrum,spectrum,NOUN,True,False
until,until,until,until,ADP,True,True
the,the,the,the,DET,True,True
spectrum,spectrum,spectrum,spectrum,NOUN,True,False
be,be,be,be,AUX,True,True
in,in,in,in,ADP,True,True
use,use,use,use,NOUN,True,False
by,by,by,by,ADP,True,True
the,the,the,the,DET,True,True
priority,priority,priority,priority,NOUN,True,False
access,access,access,access,NOUN,True,False
licensee,licensee,licensee,licensee,NOUN,True,False
.,.,.,.,PUNCT,False,False
this,this,this,this,DET,True,True
share,share,share,share,NOUN,True,False
-,-,-,-,PUNCT,False,False
it,it,-PRON-,-pron-,PRON,True,True
-,-,-,-,PUNCT,False,False
until,until,until,until,ADP,True,True
-,-,-,-,PUNCT,False,False
you,you,-PRON-,-pron-,PRON,True,True
-,-,-,-,PUNCT,False,False
use,use,use,use,NOUN,True,False
-,-,-,-,PUNCT,False,False
it,it,-PRON-,-pron-,PRON,True,True
framework,framework,framework,framework,VERB,True,False
willenable,willenable,willenable,willenable,ADJ,True,False
gaa,gaa,gaa,gaa,NOUN,True,False
operation,operation,operation,operation,NOUN,True,False
across,across,across,across,ADP,True,True
an,an,an,an,DET,True,True
expand,expand,expand,expand,NOUN,True,False
3.5,3.5,3.5,3.5,NUM,False,False
ghz,ghz,ghz,ghz,PROPN,True,False
band,band,band,band,NOUN,True,False
.,.,.,.,PUNCT,False,False
once,once,once,once,SCONJ,True,True
the,the,the,the,DET,True,True
priority,priority,priority,priority,NOUN,True,False
access,access,access,access,NOUN,True,False
licensee,licensee,licensee,licensee,NOUN,True,False
choose,choose,choose,choose,VERB,True,False
to,to,to,to,PART,True,True
put,put,put,put,VERB,True,True
its,its,-PRON-,-pron-,DET,True,True
spectrum,spectrum,spectrum,spectrum,NOUN,True,False
to,to,to,to,PART,True,True
use,use,use,use,VERB,True,False
",",",",",",",",PUNCT,False,False
however,however,however,however,ADV,True,True
",",",",",",",",PUNCT,False,False
the,the,the,the,DET,True,True
spectrum,spectrum,spectrum,spectrum,NOUN,True,False
must,must,must,must,VERB,True,True
immediately,immediately,immediately,immediately,ADV,True,False
be,be,be,be,AUX,True,True
clear,clear,clear,clear,ADJ,True,False
of,of,of,of,ADP,True,True
gaa,gaa,gaa,gaa,NOUN,True,False
use,use,use,use,NOUN,True,False
.,.,.,.,PUNCT,False,False
priority,priority,priority,priority,NOUN,True,False
access,access,access,access,NOUN,True,False
licensees,licensees,licensee,licensee,NOUN,True,False
make,make,make,make,VERB,True,True
an,an,an,an,DET,True,True
investment,investment,investment,investment,NOUN,True,False
at,at,at,at,ADP,True,True
auction,auction,auction,auction,NOUN,True,False
",",",",",",",",PUNCT,False,False
and,and,and,and,CCONJ,True,True
opportunistic,opportunistic,opportunistic,opportunistic,ADJ,True,False
access,access,access,access,NOUN,True,False
to,to,to,to,ADP,True,True
that,that,that,that,DET,True,True
spectrum,spectrum,spectrum,spectrum,NOUN,True,False
after,after,after,after,ADP,True,True
the,the,the,the,DET,True,True
licensee,licensee,licensee,licensee,NOUN,True,False
register,register,register,register,VERB,True,False
use,use,use,use,NOUN,True,False
would,would,would,would,VERB,True,True
infringe,infringe,infringe,infringe,VERB,True,False
on,on,on,on,ADP,True,True
the,the,the,the,DET,True,True
right,right,right,right,NOUN,True,False
of,of,of,of,ADP,True,True
the,the,the,the,DET,True,True
priority,priority,priority,priority,NOUN,True,False
access,access,access,access,NOUN,True,False
licensee,licensee,licensee,licensee,NOUN,True,False
to,to,to,to,ADP,True,True
exclusive,exclusive,exclusive,exclusive,ADJ,True,False
use,use,use,use,NOUN,True,False
and,and,and,and,CCONJ,True,True
an,an,an,an,DET,True,True
interference,interference,interference,interference,NOUN,True,False
-,-,-,-,PUNCT,False,False
free,free,free,free,ADJ,True,False
environment,environment,environment,environment,NOUN,True,False
.,.,.,.,PUNCT,False,False
as,as,as,as,SCONJ,True,True
discuss,discuss,discuss,discuss,ADV,True,False
below,below,below,below,ADV,True,True
",",",",",",",",PUNCT,False,False
a,a,a,a,DET,True,True
licensee,licensee,licensee,licensee,NOUN,True,False
use,use,use,use,NOUN,True,False
must,must,must,must,VERB,True,True
be,be,be,be,AUX,True,True
readily,readily,readily,readily,ADV,True,False
understand,understand,understand,understand,VERB,True,False
by,by,by,by,ADP,True,True
all,all,all,all,DET,True,True
stakeholder,stakeholder,stakeholder,stakeholder,NOUN,True,False
",",",",",",",",PUNCT,False,False
be,be,be,be,AUX,True,True
easily,easily,easily,easily,ADV,True,False
administrable,administrable,administrable,administrable,ADJ,True,False
",",",",",",",",PUNCT,False,False
and,and,and,and,CCONJ,True,True
ensure,ensure,ensure,ensure,VERB,True,False
that,that,that,that,SCONJ,True,True
priority,priority,priority,priority,NOUN,True,False
access,access,access,access,NOUN,True,False
licensees,licensees,licensee,licensee,NOUN,True,False
may,may,may,may,VERB,True,True
gain,gain,gain,gain,VERB,True,False
exclusive,exclusive,exclusive,exclusive,ADJ,True,False
access,access,access,access,NOUN,True,False
to,to,to,to,ADP,True,True
their,their,-PRON-,-pron-,DET,True,True
license,license,license,license,NOUN,True,False
spectrum,spectrum,spectrum,spectrum,NOUN,True,False
when,when,when,when,ADV,True,True
they,they,-PRON-,-pron-,PRON,True,True
give,give,give,give,VERB,True,True
notice,notice,notice,notice,NOUN,True,False
that,that,that,that,SCONJ,True,True
they,they,-PRON-,-pron-,PRON,True,True
intend,intend,intend,intend,VERB,True,False
to,to,to,to,PART,True,True
initiate,initiate,initiate,initiate,VERB,True,False
use,use,use,use,NOUN,True,False
of,of,of,of,ADP,True,True
it,it,-PRON-,-pron-,PRON,True,True
.,.,.,.,PUNCT,False,False
the,the,the,the,DET,True,True
commission,commission,commission,commission,NOUN,True,False
",",",",",",",",PUNCT,False,False
therefore,therefore,therefore,therefore,ADV,True,True
",",",",",",",",PUNCT,False,False
should,should,should,should,VERB,True,True
adopt,adopt,adopt,adopt,VERB,True,False
a,a,a,a,DET,True,True
use,use,use,use,NOUN,True,False
standard,standard,standard,standard,NOUN,True,False
that,that,that,that,DET,True,True
allow,allow,allow,allow,VERB,True,False
a,a,a,a,DET,True,True
priority,priority,priority,priority,NOUN,True,False
access,access,access,access,NOUN,True,False
licensee,licensee,licensee,licensee,VERB,True,False
the,the,the,the,DET,True,True
full,full,full,full,ADJ,True,True
flexibility,flexibility,flexibility,flexibility,NOUN,True,False
to,to,to,to,PART,True,True
determine,determine,determine,determine,VERB,True,False
and,and,and,and,CCONJ,True,True
declare,declare,declare,declare,VERB,True,False
via,via,via,via,ADP,True,True
notice,notice,notice,notice,NOUN,True,False
its,its,-PRON-,-pron-,DET,True,True
intent,intent,intent,intent,NOUN,True,False
to,to,to,to,PART,True,True
initiate,initiate,initiate,initiate,VERB,True,False
transmission,transmission,transmission,transmission,NOUN,True,False
on,on,on,on,ADP,True,True
a,a,a,a,DET,True,True
particular,particular,particular,particular,ADJ,True,False
license,license,license,license,NOUN,True,False
.,.,.,.,PUNCT,False,False
this,this,this,this,DET,True,True
notification,notification,notification,notification,NOUN,True,False
",",",",",",",",PUNCT,False,False
in,in,in,in,ADP,True,True
turn,turn,turn,turn,NOUN,True,False
",",",",",",",",PUNCT,False,False
must,must,must,must,VERB,True,True
require,require,require,require,VERB,True,False
gaa,gaa,gaa,gaa,NOUN,True,False
user,user,user,user,NOUN,True,False
to,to,to,to,PART,True,True
vacate,vacate,vacate,vacate,VERB,True,False
the,the,the,the,DET,True,True
spectrum,spectrum,spectrum,spectrum,PROPN,True,False
associate,associate,associate,associate,NOUN,True,False
with,with,with,with,ADP,True,True
that,that,that,that,DET,True,True
particular,particular,particular,particular,ADJ,True,False
pal.once,pal.once,pal.once,pal.once,PROPN,False,False
a,a,a,a,DET,True,True
priority,priority,priority,priority,NOUN,True,False
access,access,access,access,NOUN,True,False
licensee,licensee,licensee,licensee,NOUN,True,False
provide,provide,provide,provide,VERB,True,False
notification,notification,notification,notification,NOUN,True,False
that,that,that,that,SCONJ,True,True
it,it,-PRON-,-pron-,PRON,True,True
will,will,will,will,VERB,True,True
initiate,initiate,initiate,initiate,VERB,True,False
transmission,transmission,transmission,transmission,NOUN,True,False
on,on,on,on,ADP,True,True
its,its,-PRON-,-pron-,DET,True,True
pal,pal,pal,pal,ADJ,True,False
frequencies,frequencies,frequency,frequency,NOUN,True,False
",",",",",",",",PUNCT,False,False
gaa,gaa,gaa,gaa,NOUN,True,False
operation,operation,operation,operation,NOUN,True,False
should,should,should,should,VERB,True,True
be,be,be,be,AUX,True,True
exclude,exclude,exclude,exclude,ADJ,True,False
.,.,.,.,PUNCT,False,False
the,the,the,the,DET,True,True
unique,unique,unique,unique,ADJ,True,False
nature,nature,nature,nature,NOUN,True,False
of,of,of,of,ADP,True,True
the,the,the,the,DET,True,True
3.5,3.5,3.5,3.5,NUM,False,False
ghz,ghz,ghz,ghz,PROPN,True,False
cbrs,cbrs,cbr,cbr,NOUN,True,False
service,service,service,service,NOUN,True,False
underscore,underscore,underscore,underscore,VERB,True,False
the,the,the,the,DET,True,True
importance,importance,importance,importance,NOUN,True,False
of,of,of,of,ADP,True,True
exclusive,exclusive,exclusive,exclusive,ADJ,True,False
-,-,-,-,PUNCT,False,False
use,use,use,use,NOUN,True,False
pal,pal,pal,pal,NOUN,True,False
.,.,.,.,PUNCT,False,False
deployment,deployment,deployment,deployment,NOUN,True,False
of,of,of,of,ADP,True,True
3.5,3.5,3.5,3.5,NUM,False,False
ghz,ghz,ghz,ghz,PROPN,True,False
spectrum,spectrum,spectrum,spectrum,NOUN,True,False
offer,offer,offer,offer,NOUN,True,False
much,much,much,much,ADJ,True,True
promise,promise,promise,promise,NOUN,True,False
for,for,for,for,ADP,True,True
small,small,small,small,ADJ,True,False
cell,cell,cell,cell,NOUN,True,False
deployment,deployment,deployment,deployment,NOUN,True,False
and,and,and,and,CCONJ,True,True
much,much,much,much,ADJ,True,True
complexity,complexity,complexity,complexity,NOUN,True,False
as,as,as,as,ADV,True,True
well,well,well,well,ADV,True,True
.,.,.,.,PUNCT,False,False
mobile,mobile,mobile,mobile,ADJ,True,False
broadband,broadband,broadband,broadband,PROPN,True,False
provider,provider,provider,provider,NOUN,True,False
have,have,have,have,AUX,True,True
view,view,view,view,VERB,True,False
the,the,the,the,DET,True,True
band,band,band,band,NOUN,True,False
as,as,as,as,SCONJ,True,True
an,an,an,an,DET,True,True
opportunity,opportunity,opportunity,opportunity,NOUN,True,False
to,to,to,to,PART,True,True
introduce,introduce,introduce,introduce,VERB,True,False
new,new,new,new,ADJ,True,False
spectrum,spectrum,spectrum,spectrum,NOUN,True,False
capacity,capacity,capacity,capacity,NOUN,True,False
into,into,into,into,ADP,True,True
wide,wide,wide,wide,ADJ,True,False
-,-,-,-,PUNCT,False,False
area,area,area,area,NOUN,True,False
mobile,mobile,mobile,mobile,ADJ,True,False
network,network,network,network,NOUN,True,False
strive,strive,strive,strive,VERB,True,False
to,to,to,to,PART,True,True
keep,keep,keep,keep,VERB,True,True
up,up,up,up,ADP,True,True
with,with,with,with,ADP,True,True
skyrocket,skyrocket,skyrocket,skyrocket,NOUN,True,False
mobile,mobile,mobile,mobile,NOUN,True,False
traffic,traffic,traffic,traffic,NOUN,True,False
demand,demand,demand,demand,NOUN,True,False
.,.,.,.,PUNCT,False,False
but,but,but,but,CCONJ,True,True
do,do,do,do,AUX,True,True
so,so,so,so,ADV,True,True
involve,involve,involve,involve,VERB,True,False
novel,novel,novel,novel,ADJ,True,False
deployment,deployment,deployment,deployment,NOUN,True,False
of,of,of,of,ADP,True,True
heterogeneous,heterogeneous,heterogeneous,heterogeneous,ADJ,True,False
network,network,network,network,NOUN,True,False
hetnets,hetnets,hetnet,hetnet,NOUN,True,False
use,use,use,use,VERB,True,False
the,the,the,the,DET,True,True
high,high,high,high,ADJ,True,False
frequency,frequency,frequency,frequency,NOUN,True,False
band,band,band,band,NOUN,True,False
many,many,many,many,ADJ,True,True
mobile,mobile,mobile,mobile,ADJ,True,False
broadband,broadband,broadband,broadband,NOUN,True,False
provider,provider,provider,provider,NOUN,True,False
willhave,willhave,willhave,willhave,PROPN,True,False
deploy,deploy,deploy,deploy,NOUN,True,False
in,in,in,in,ADP,True,True
their,their,-PRON-,-pron-,DET,True,True
network,network,network,network,NOUN,True,False
",",",",",",",",PUNCT,False,False
with,with,with,with,ADP,True,True
new,new,new,new,ADJ,True,False
small,small,small,small,ADJ,True,False
cell,cell,cell,cell,NOUN,True,False
size,size,size,size,NOUN,True,False
area,area,area,area,NOUN,True,False
",",",",",",",",PUNCT,False,False
and,and,and,and,CCONJ,True,True
with,with,with,with,ADP,True,True
more,more,more,more,ADV,True,True
complex,complex,complex,complex,ADJ,True,False
deployment,deployment,deployment,deployment,NOUN,True,False
.,.,.,.,PUNCT,False,False
interference,interference,interference,interference,NOUN,True,False
-,-,-,-,PUNCT,False,False
free,free,free,free,ADJ,True,False
testing,testing,testing,testing,NOUN,True,False
in,in,in,in,ADP,True,True
localized,localized,localized,localized,ADJ,True,False
environment,environment,environment,environment,NOUN,True,False
will,will,will,will,VERB,True,True
thus,thus,thus,thus,ADV,True,True
be,be,be,be,AUX,True,True
essential,essential,essential,essential,ADJ,True,False
.,.,.,.,PUNCT,False,False
a,a,a,a,DET,True,True
provider,provider,provider,provider,NOUN,True,False
that,that,that,that,DET,True,True
choose,choose,choose,choose,VERB,True,False
to,to,to,to,PART,True,True
acquire,acquire,acquire,acquire,VERB,True,False
a,a,a,a,DET,True,True
pal,pal,pal,pal,NOUN,True,False
",",",",",",",",PUNCT,False,False
rather,rather,rather,rather,ADV,True,True
than,than,than,than,SCONJ,True,True
operate,operate,operate,operate,VERB,True,False
as,as,as,as,SCONJ,True,True
a,a,a,a,DET,True,True
gaa,gaa,gaa,gaa,NOUN,True,False
user,user,user,user,NOUN,True,False
",",",",",",",",PUNCT,False,False
will,will,will,will,VERB,True,True
most,most,most,most,ADV,True,True
likely,likely,likely,likely,ADV,True,False
be,be,be,be,AUX,True,True
do,do,do,do,AUX,True,True
so,so,so,so,ADV,True,True
[,[,[,[,PUNCT,False,False
i]n,i]n,i]n,i]n,PROPN,False,False
area,area,area,area,NOUN,True,False
where,where,where,where,ADV,True,True
genuine,genuine,genuine,genuine,ADJ,True,False
local,local,local,local,ADJ,True,False
scarcity,scarcity,scarcity,scarcity,NOUN,True,False
exist,exist,exist,exist,VERB,True,False
",",",",",",",",PUNCT,False,False
and,and,and,and,CCONJ,True,True
in,in,in,in,ADP,True,True
such,such,such,such,ADJ,True,True
circumstance,circumstance,circumstance,circumstance,NOUN,True,False
",",",",",",",",PUNCT,False,False
the,the,the,the,DET,True,True
commission,commission,commission,commission,NOUN,True,False
correctly,correctly,correctly,correctly,ADV,True,False
recognize,recognize,recognize,recognize,VERB,True,False
that,that,that,that,SCONJ,True,True
operator,operator,operator,operator,NOUN,True,False
may,may,may,may,VERB,True,True
acquire,acquire,acquire,acquire,VERB,True,False
pal,pal,pal,pal,NOUN,True,False
to,to,to,to,PART,True,True
ensure,ensure,ensure,ensure,VERB,True,False
access,access,access,access,NOUN,True,False
to,to,to,to,ADP,True,True
exclusive,exclusive,exclusive,exclusive,ADJ,True,False
usage,usage,usage,usage,NOUN,True,False
right,right,right,right,ADJ,True,False
.,.,.,.,PUNCT,False,False
accordingly,accordingly,accordingly,accordingly,ADV,True,False
",",",",",",",",PUNCT,False,False
the,the,the,the,DET,True,True
commission,commission,commission,commission,NOUN,True,False
must,must,must,must,VERB,True,True
remain,remain,remain,remain,VERB,True,False
focused,focused,focused,focused,ADJ,True,False
on,on,on,on,ADP,True,True
ensure,ensure,ensure,ensure,VERB,True,False
a,a,a,a,DET,True,True
stable,stable,stable,stable,ADJ,True,False
regulatory,regulatory,regulatory,regulatory,ADJ,True,False
environment,environment,environment,environment,NOUN,True,False
for,for,for,for,ADP,True,True
pal,pal,pal,pal,NOUN,True,False
in,in,in,in,ADP,True,True
the,the,the,the,DET,True,True
3.5,3.5,3.5,3.5,NUM,False,False
ghz,ghz,ghz,ghz,PROPN,True,False
band,band,band,band,NOUN,True,False
.,.,.,.,PUNCT,False,False
a,a,a,a,DET,True,True
priority,priority,priority,priority,NOUN,True,False
access,access,access,access,NOUN,True,False
licensees,licensees,licensee,licensee,NOUN,True,False
initial,initial,initial,initial,ADJ,True,False
transmission,transmission,transmission,transmission,NOUN,True,False
",",",",",",",",PUNCT,False,False
include,include,include,include,VERB,True,False
pre,pre,pre,pre,ADJ,True,False
-,-,-,-,ADJ,False,False
deployment,deployment,deployment,deployment,ADJ,True,False
testing,testing,testing,testing,NOUN,True,False
",",",",",",",",PUNCT,False,False
should,should,should,should,VERB,True,True
be,be,be,be,AUX,True,True
deem,deem,deem,deem,VERB,True,False
use,use,use,use,NOUN,True,False
of,of,of,of,ADP,True,True
the,the,the,the,DET,True,True
spectrum,spectrum,spectrum,spectrum,NOUN,True,False
.,.,.,.,PUNCT,False,False
effective,effective,effective,effective,ADJ,True,False
pre,pre,pre,pre,ADJ,True,False
-,-,-,-,ADJ,False,False
deployment,deployment,deployment,deployment,ADJ,True,False
network,network,network,network,NOUN,True,False
testing,testing,testing,testing,NOUN,True,False
require,require,require,require,VERB,True,False
an,an,an,an,DET,True,True
interference,interference,interference,interference,NOUN,True,False
-,-,-,-,PUNCT,False,False
free,free,free,free,ADJ,True,False
environment,environment,environment,environment,NOUN,True,False
.,.,.,.,PUNCT,False,False
this,this,this,this,DET,True,True
be,be,be,be,AUX,True,True
true,true,true,true,ADJ,True,False
both,both,both,both,CCONJ,True,True
as,as,as,as,SCONJ,True,True
a,a,a,a,DET,True,True
general,general,general,general,ADJ,True,False
matter,matter,matter,matter,NOUN,True,False
and,and,and,and,CCONJ,True,True
in,in,in,in,ADP,True,True
light,light,light,light,NOUN,True,False
of,of,of,of,ADP,True,True
the,the,the,the,DET,True,True
unique,unique,unique,unique,ADJ,True,False
and,and,and,and,CCONJ,True,True
highly,highly,highly,highly,ADV,True,False
complex,complex,complex,complex,ADJ,True,False
spectrum,spectrum,spectrum,spectrum,NOUN,True,False
sharing,sharing,sharing,sharing,NOUN,True,False
environment,environment,environment,environment,NOUN,True,False
contemplate,contemplate,contemplate,contemplate,VERB,True,False
for,for,for,for,ADP,True,True
the,the,the,the,DET,True,True
3.5,3.5,3.5,3.5,NUM,False,False
ghz,ghz,ghz,ghz,PROPN,True,False
band,band,band,band,NOUN,True,False
.,.,.,.,PUNCT,False,False
to,to,to,to,PART,True,True
avoid,avoid,avoid,avoid,VERB,True,False
the,the,the,the,DET,True,True
potential,potential,potential,potential,NOUN,True,False
for,for,for,for,ADP,True,True
interference,interference,interference,interference,NOUN,True,False
to,to,to,to,ADP,True,True
pal,pal,pal,pal,ADJ,True,False
operation,operation,operation,operation,NOUN,True,False
due,due,due,due,ADP,True,True
to,to,to,to,ADP,True,True
opportunistic,opportunistic,opportunistic,opportunistic,ADJ,True,False
use,use,use,use,NOUN,True,False
by,by,by,by,ADP,True,True
gaa,gaa,gaa,gaa,NOUN,True,False
user,user,user,user,NOUN,True,False
",",",",",",",",PUNCT,False,False
the,the,the,the,DET,True,True
commission,commission,commission,commission,NOUN,True,False
should,should,should,should,VERB,True,True
adopt,adopt,adopt,adopt,VERB,True,False
a,a,a,a,DET,True,True
definition,definition,definition,definition,NOUN,True,False
of,of,of,of,ADP,True,True
use,use,use,use,NOUN,True,False
that,that,that,that,DET,True,True
require,require,require,require,VERB,True,False
gaa,gaa,gaa,gaa,NOUN,True,False
operation,operation,operation,operation,NOUN,True,False
to,to,to,to,PART,True,True
cease,cease,cease,cease,VERB,True,False
on,on,on,on,ADP,True,True
the,the,the,the,DET,True,True
relevant,relevant,relevant,relevant,ADJ,True,False
pal,pal,pal,pal,ADJ,True,False
spectrum,spectrum,spectrum,spectrum,NOUN,True,False
when,when,when,when,ADV,True,True
a,a,a,a,DET,True,True
priority,priority,priority,priority,NOUN,True,False
access,access,access,access,NOUN,True,False
licensee,licensee,licensee,licensee,NOUN,True,False
provide,provide,provide,provide,VERB,True,False
notice,notice,notice,notice,NOUN,True,False
that,that,that,that,SCONJ,True,True
it,it,-PRON-,-pron-,PRON,True,True
intend,intend,intend,intend,VERB,True,False
to,to,to,to,PART,True,True
transmit,transmit,transmit,transmit,VERB,True,False
on,on,on,on,ADP,True,True
its,its,-PRON-,-pron-,DET,True,True
licensed,licensed,licensed,licensed,ADJ,True,False
spectrum,spectrum,spectrum,spectrum,NOUN,True,False
.,.,.,.,PUNCT,False,False
in,in,in,in,ADP,True,True
particular,particular,particular,particular,ADJ,True,False
",",",",",",",",PUNCT,False,False
the,the,the,the,DET,True,True
commission,commission,commission,commission,NOUN,True,False
can,can,can,can,VERB,True,True
facilitate,facilitate,facilitate,facilitate,VERB,True,False
network,network,network,network,NOUN,True,False
deployment,deployment,deployment,deployment,NOUN,True,False
in,in,in,in,ADP,True,True
the,the,the,the,DET,True,True
3.5,3.5,3.5,3.5,NUM,False,False
ghz,ghz,ghz,ghz,PROPN,True,False
band,band,band,band,NOUN,True,False
by,by,by,by,ADP,True,True
define,define,define,define,PROPN,True,False
use,use,use,use,NOUN,True,False
to,to,to,to,PART,True,True
mean,mean,mean,mean,VERB,True,False
when,when,when,when,ADV,True,True
a,a,a,a,DET,True,True
priority,priority,priority,priority,NOUN,True,False
access,access,access,access,NOUN,True,False
licensee,licensee,licensee,licensee,NOUN,True,False
provide,provide,provide,provide,VERB,True,False
notification,notification,notification,notification,NOUN,True,False
that,that,that,that,SCONJ,True,True
it,it,-PRON-,-pron-,PRON,True,True
intend,intend,intend,intend,VERB,True,False
to,to,to,to,PART,True,True
transmit,transmit,transmit,transmit,VERB,True,False
on,on,on,on,ADP,True,True
its,its,-PRON-,-pron-,DET,True,True
pal,pal,pal,pal,NOUN,True,False
spectrum,spectrum,spectrum,spectrum,NOUN,True,False
",",",",",",",",PUNCT,False,False
include,include,include,include,VERB,True,False
for,for,for,for,ADP,True,True
pre,pre,pre,pre,ADJ,True,False
-,-,-,-,ADJ,False,False
deployment,deployment,deployment,deployment,ADJ,True,False
testing,testing,testing,testing,NOUN,True,False
.,.,.,.,PUNCT,False,False
prior,prior,prior,prior,ADV,True,False
to,to,to,to,PART,True,True
launch,launch,launch,launch,VERB,True,False
commercial,commercial,commercial,commercial,ADJ,True,False
operation,operation,operation,operation,NOUN,True,False
",",",",",",",",PUNCT,False,False
carrier,carrier,carrier,carrier,NOUN,True,False
must,must,must,must,VERB,True,True
be,be,be,be,AUX,True,True
able,able,able,able,ADJ,True,False
to,to,to,to,PART,True,True
collect,collect,collect,collect,VERB,True,False
measurement,measurement,measurement,measurement,NOUN,True,False
datum,datum,datum,datum,NOUN,True,False
to,to,to,to,PART,True,True
calibrate,calibrate,calibrate,calibrate,VERB,True,False
their,their,-PRON-,-pron-,DET,True,True
propagation,propagation,propagation,propagation,NOUN,True,False
model,model,model,model,NOUN,True,False
and,and,and,and,CCONJ,True,True
to,to,to,to,PART,True,True
test,test,test,test,VERB,True,False
network,network,network,network,NOUN,True,False
configuration,configuration,configuration,configuration,NOUN,True,False
",",",",",",",",PUNCT,False,False
include,include,include,include,VERB,True,False
in,in,in,in,ADP,True,True
response,response,response,response,NOUN,True,False
to,to,to,to,ADP,True,True
impairment,impairment,impairment,impairment,NOUN,True,False
from,from,from,from,ADP,True,True
incumbent,incumbent,incumbent,incumbent,ADJ,True,False
access,access,access,access,NOUN,True,False
station,station,station,station,NOUN,True,False
.,.,.,.,PUNCT,False,False
this,this,this,this,DET,True,True
testing,testing,testing,testing,NOUN,True,False
will,will,will,will,VERB,True,True
need,need,need,need,VERB,True,False
to,to,to,to,PART,True,True
be,be,be,be,AUX,True,True
channel,channel,channel,channel,NOUN,True,False
-,-,-,-,PUNCT,False,False
specific,specific,specific,specific,ADJ,True,False
and,and,and,and,CCONJ,True,True
thus,thus,thus,thus,ADV,True,True
gaa,gaa,gaa,gaa,NOUN,True,False
user,user,user,user,NOUN,True,False
must,must,must,must,VERB,True,True
be,be,be,be,AUX,True,True
clear,clear,clear,clear,ADJ,True,False
by,by,by,by,ADP,True,True
this,this,this,this,DET,True,True
time,time,time,time,NOUN,True,False
.,.,.,.,PUNCT,False,False
the,the,the,the,DET,True,True
commission,commission,commission,commission,NOUN,True,False
should,should,should,should,VERB,True,True
refrain,refrain,refrain,refrain,VERB,True,False
from,from,from,from,ADP,True,True
pursue,pursue,pursue,pursue,NOUN,True,False
proposal,proposal,proposal,proposal,NOUN,True,False
that,that,that,that,DET,True,True
would,would,would,would,VERB,True,True
subject,subject,subject,subject,VERB,True,False
pal,pal,pal,pal,ADJ,True,False
licensee,licensee,licensee,licensee,NOUN,True,False
to,to,to,to,ADP,True,True
unworkable,unworkable,unworkable,unworkable,ADJ,True,False
uncertainty,uncertainty,uncertainty,uncertainty,NOUN,True,False
.,.,.,.,PUNCT,False,False
the,the,the,the,DET,True,True
notification,notification,notification,notification,NOUN,True,False
regime,regime,regime,regime,NOUN,True,False
describe,describe,describe,describe,VERB,True,False
above,above,above,above,ADV,True,True
will,will,will,will,VERB,True,True
provide,provide,provide,provide,VERB,True,False
the,the,the,the,DET,True,True
commission,commission,commission,commission,NOUN,True,False
",",",",",",",",PUNCT,False,False
sas,sas,sas,sas,PROPN,True,False
",",",",",",",",PUNCT,False,False
and,and,and,and,CCONJ,True,True
stakeholder,stakeholder,stakeholder,stakeholder,VERB,True,False
with,with,with,with,ADP,True,True
a,a,a,a,DET,True,True
clear,clear,clear,clear,ADV,True,False
-,-,-,-,PUNCT,False,False
cut,cut,cut,cut,VERB,True,False
rule,rule,rule,rule,NOUN,True,False
for,for,for,for,ADP,True,True
define,define,define,define,NOUN,True,False
use,use,use,use,NOUN,True,False
.,.,.,.,PUNCT,False,False
the,the,the,the,DET,True,True
second,second,second,second,ADJ,True,False
fnprm,fnprm,fnprm,fnprm,NOUN,True,False
",",",",",",",",PUNCT,False,False
however,however,however,however,ADV,True,True
",",",",",",",",PUNCT,False,False
propose,propose,propose,propose,VERB,True,False
several,several,several,several,ADJ,True,True
option,option,option,option,NOUN,True,False
that,that,that,that,DET,True,True
would,would,would,would,VERB,True,True
lead,lead,lead,lead,VERB,True,False
to,to,to,to,ADP,True,True
confusion,confusion,confusion,confusion,NOUN,True,False
and,and,and,and,CCONJ,True,True
undermine,undermine,undermine,undermine,VERB,True,False
the,the,the,the,DET,True,True
commissions,commissions,commission,commission,NOUN,True,False
objective,objective,objective,objective,NOUN,True,False
for,for,for,for,ADP,True,True
the,the,the,the,DET,True,True
3.5,3.5,3.5,3.5,NUM,False,False
ghz,ghz,ghz,ghz,PROPN,True,False
band,band,band,band,NOUN,True,False
and,and,and,and,CCONJ,True,True
pal,pal,pal,pal,ADJ,True,False
licensing,licensing,licensing,licensing,NOUN,True,False
.,.,.,.,PUNCT,False,False
engineering,engineering,engineering,engineering,NOUN,True,False
definition,definition,definition,definition,NOUN,True,False
.,.,.,.,PUNCT,False,False
the,the,the,the,DET,True,True
commission,commission,commission,commission,NOUN,True,False
correctly,correctly,correctly,correctly,ADV,True,False
conclude,conclude,conclude,conclude,VERB,True,False
that,that,that,that,SCONJ,True,True
",",",",",",",",PUNCT,False,False
pals,pals,pal,pal,NOUN,True,False
should,should,should,should,VERB,True,True
be,be,be,be,AUX,True,True
available,available,available,available,ADJ,True,False
for,for,for,for,ADP,True,True
application,application,application,application,NOUN,True,False
that,that,that,that,DET,True,True
require,require,require,require,VERB,True,False
great,great,great,great,ADJ,True,False
certainty,certainty,certainty,certainty,NOUN,True,False
as,as,as,as,SCONJ,True,True
to,to,to,to,ADP,True,True
interference,interference,interference,interference,NOUN,True,False
protection,protection,protection,protection,NOUN,True,False
because,because,because,because,SCONJ,True,True
they,they,-PRON-,-pron-,PRON,True,True
would,would,would,would,VERB,True,True
suffer,suffer,suffer,suffer,VERB,True,False
in,in,in,in,ADP,True,True
a,a,a,a,DET,True,True
congested,congested,congested,congested,ADJ,True,False
use,use,use,use,NOUN,True,False
environment,environment,environment,environment,NOUN,True,False
.,.,.,.,PUNCT,False,False
by,by,by,by,ADP,True,True
contrast,contrast,contrast,contrast,NOUN,True,False
",",",",",",",",PUNCT,False,False
a,a,a,a,DET,True,True
definition,definition,definition,definition,NOUN,True,False
of,of,of,of,ADP,True,True
use,use,use,use,NOUN,True,False
define,define,define,define,NOUN,True,False
by,by,by,by,ADP,True,True
real,real,real,real,ADJ,True,False
-,-,-,-,PUNCT,False,False
time,time,time,time,NOUN,True,False
opportunistic,opportunistic,opportunistic,opportunistic,ADJ,True,False
access,access,access,access,NOUN,True,False
base,base,base,base,NOUN,True,False
in,in,in,in,ADP,True,True
engineering,engineering,engineering,engineering,NOUN,True,False
concept,concept,concept,concept,NOUN,True,False
undermine,undermine,undermine,undermine,VERB,True,False
the,the,the,the,DET,True,True
certainty,certainty,certainty,certainty,NOUN,True,False
and,and,and,and,CCONJ,True,True
transparency,transparency,transparency,transparency,NOUN,True,False
necessary,necessary,necessary,necessary,ADJ,True,False
for,for,for,for,ADP,True,True
provider,provider,provider,provider,NOUN,True,False
to,to,to,to,PART,True,True
participate,participate,participate,participate,VERB,True,False
at,at,at,at,ADP,True,True
auction,auction,auction,auction,NOUN,True,False
",",",",",",",",PUNCT,False,False
invest,invest,invest,invest,VERB,True,False
in,in,in,in,ADP,True,True
pals,pals,pal,pal,NOUN,True,False
",",",",",",",",PUNCT,False,False
and,and,and,and,CCONJ,True,True
deploy,deploy,deploy,deploy,VERB,True,False
their,their,-PRON-,-pron-,DET,True,True
network,network,network,network,NOUN,True,False
.,.,.,.,PUNCT,False,False
in,in,in,in,ADP,True,True
order,order,order,order,NOUN,True,False
for,for,for,for,ADP,True,True
party,party,party,party,NOUN,True,False
to,to,to,to,PART,True,True
invest,invest,invest,invest,VERB,True,False
in,in,in,in,ADP,True,True
pals,pals,pal,pal,NOUN,True,False
",",",",",",",",PUNCT,False,False
certainty,certainty,certainty,certainty,NOUN,True,False
and,and,and,and,CCONJ,True,True
transparency,transparency,transparency,transparency,NOUN,True,False
be,be,be,be,AUX,True,True
crucial,crucial,crucial,crucial,ADJ,True,False
.,.,.,.,PUNCT,False,False
pal,pal,pal,pal,ADJ,True,False
right,right,right,right,NOUN,True,False
should,should,should,should,VERB,True,True
not,not,not,not,PART,True,True
be,be,be,be,AUX,True,True
subject,subject,subject,subject,ADJ,True,False
to,to,to,to,ADP,True,True
operational,operational,operational,operational,ADJ,True,False
uncertainty,uncertainty,uncertainty,uncertainty,NOUN,True,False
by,by,by,by,ADP,True,True
engineering,engineering,engineering,engineering,NOUN,True,False
solution,solution,solution,solution,NOUN,True,False
that,that,that,that,DET,True,True
will,will,will,will,VERB,True,True
undermine,undermine,undermine,undermine,VERB,True,False
those,those,those,those,DET,True,True
right,right,right,right,ADJ,True,False
and,and,and,and,CCONJ,True,True
the,the,the,the,DET,True,True
benefit,benefit,benefit,benefit,NOUN,True,False
that,that,that,that,DET,True,True
the,the,the,the,DET,True,True
3.5,3.5,3.5,3.5,NUM,False,False
ghz,ghz,ghz,ghz,PROPN,True,False
band,band,band,band,NOUN,True,False
have,have,have,have,AUX,True,True
to,to,to,to,PART,True,True
offer,offer,offer,offer,VERB,True,False
.,.,.,.,PUNCT,False,False
for,for,for,for,ADP,True,True
example,example,example,example,NOUN,True,False
",",",",",",",",PUNCT,False,False
federated,federated,federated,federated,PROPN,True,False
wireless,wireless,wireless,wireless,NOUN,True,False
have,have,have,have,AUX,True,True
propose,propose,propose,propose,NOUN,True,False
that,that,that,that,SCONJ,True,True
a,a,a,a,DET,True,True
sas,sas,sas,sas,PROPN,True,False
use,use,use,use,NOUN,True,False
spectrum,spectrum,spectrum,spectrum,PROPN,True,False
sense,sense,sense,sense,NOUN,True,False
datum,datum,datum,datum,NOUN,True,False
to,to,to,to,PART,True,True
determine,determine,determine,determine,VERB,True,False
region,region,region,region,NOUN,True,False
where,where,where,where,ADV,True,True
no,no,no,no,DET,True,True
pal,pal,pal,pal,ADJ,True,False
device,device,device,device,NOUN,True,False
be,be,be,be,AUX,True,True
actively,actively,actively,actively,ADV,True,False
use,use,use,use,VERB,True,False
the,the,the,the,DET,True,True
spectrum,spectrum,spectrum,spectrum,NOUN,True,False
",",",",",",",",PUNCT,False,False
and,and,and,and,CCONJ,True,True
that,that,that,that,SCONJ,True,True
those,those,those,those,DET,True,True
region,region,region,region,NOUN,True,False
be,be,be,be,AUX,True,True
make,make,make,make,VERB,True,True
available,available,available,available,ADJ,True,False
for,for,for,for,ADP,True,True
gaa,gaa,gaa,gaa,NOUN,True,False
use,use,use,use,NOUN,True,False
.,.,.,.,PUNCT,False,False
if,if,if,if,SCONJ,True,True
sense,sense,sense,sense,NOUN,True,False
data,data,datum,datum,NOUN,True,False
change,change,change,change,NOUN,True,False
or,or,or,or,CCONJ,True,True
if,if,if,if,SCONJ,True,True
a,a,a,a,DET,True,True
pal,pal,pal,pal,ADJ,True,False
device,device,device,device,NOUN,True,False
report,report,report,report,NOUN,True,False
interference,interference,interference,interference,NOUN,True,False
",",",",",",",",PUNCT,False,False
then,then,then,then,ADV,True,True
the,the,the,the,DET,True,True
sas,sas,sas,sas,PROPN,True,False
would,would,would,would,VERB,True,True
reassign,reassign,reassign,reassign,VERB,True,False
the,the,the,the,DET,True,True
gaa,gaa,gaa,gaa,NOUN,True,False
device,device,device,device,NOUN,True,False
to,to,to,to,ADP,True,True
other,other,other,other,ADJ,True,True
frequency,frequency,frequency,frequency,NOUN,True,False
but,but,but,but,CCONJ,True,True
only,only,only,only,ADV,True,True
until,until,until,until,ADP,True,True
no,no,no,no,DET,True,True
pal,pal,pal,pal,NOUN,True,False
spectrum,spectrum,spectrum,spectrum,NOUN,True,False
usage,usage,usage,usage,NOUN,True,False
be,be,be,be,AUX,True,True
detect,detect,detect,detect,ADJ,True,False
in,in,in,in,ADP,True,True
which,which,which,which,DET,True,True
case,case,case,case,NOUN,True,False
gaa,gaa,gaa,gaa,NOUN,True,False
use,use,use,use,NOUN,True,False
would,would,would,would,VERB,True,True
again,again,again,again,ADV,True,True
be,be,be,be,AUX,True,True
permit,permit,permit,permit,NOUN,True,False
.,.,.,.,PUNCT,False,False
this,this,this,this,DET,True,True
proposal,proposal,proposal,proposal,NOUN,True,False
undermine,undermine,undermine,undermine,VERB,True,False
the,the,the,the,DET,True,True
exclusive,exclusive,exclusive,exclusive,ADJ,True,False
usage,usage,usage,usage,NOUN,True,False
right,right,right,right,NOUN,True,False
that,that,that,that,DET,True,True
be,be,be,be,AUX,True,True
the,the,the,the,DET,True,True
hallmark,hallmark,hallmark,hallmark,NOUN,True,False
of,of,of,of,ADP,True,True
pal,pal,pal,pal,PROPN,True,False
.,.,.,.,PUNCT,False,False
first,first,first,first,ADV,True,True
",",",",",",",",PUNCT,False,False
itpermit,itpermit,itpermit,itpermit,PROPN,True,False
third,third,third,third,ADJ,True,True
-,-,-,-,PUNCT,False,False
party,party,party,party,NOUN,True,False
operation,operation,operation,operation,NOUN,True,False
in,in,in,in,ADP,True,True
pals,pals,pal,pal,NOUN,True,False
that,that,that,that,SCONJ,True,True
after,after,after,after,ADP,True,True
initial,initial,initial,initial,ADJ,True,False
transmission,transmission,transmission,transmission,NOUN,True,False
.,.,.,.,PUNCT,False,False
second,second,second,second,ADV,True,False
",",",",",",",",PUNCT,False,False
it,it,-PRON-,-pron-,PRON,True,True
condone,condone,condone,condone,ADJ,True,False
interference,interference,interference,interference,NOUN,True,False
to,to,to,to,ADP,True,True
pal,pal,pal,pal,ADJ,True,False
device,device,device,device,NOUN,True,False
that,that,that,that,DET,True,True
will,will,will,will,VERB,True,True
not,not,not,not,PART,True,True
be,be,be,be,AUX,True,True
correct,correct,correct,correct,ADJ,True,False
until,until,until,until,ADP,True,True
after,after,after,after,ADP,True,True
a,a,a,a,DET,True,True
pal,pal,pal,pal,ADJ,True,False
device,device,device,device,NOUN,True,False
report,report,report,report,NOUN,True,False
interference,interference,interference,interference,NOUN,True,False
",",",",",",",",PUNCT,False,False
which,which,which,which,DET,True,True
be,be,be,be,AUX,True,True
plainly,plainly,plainly,plainly,ADV,True,False
inconsistent,inconsistent,inconsistent,inconsistent,ADJ,True,False
with,with,with,with,ADP,True,True
the,the,the,the,DET,True,True
certainty,certainty,certainty,certainty,NOUN,True,False
of,of,of,of,ADP,True,True
protection,protection,protection,protection,NOUN,True,False
against,against,against,against,ADP,True,True
interference,interference,interference,interference,NOUN,True,False
to,to,to,to,PART,True,True
which,which,which,which,DET,True,True
priority,priority,priority,priority,NOUN,True,False
access,access,access,access,NOUN,True,False
licensees,licensees,licensee,licensee,NOUN,True,False
be,be,be,be,VERB,True,True
entitle,entitle,entitle,entitle,ADJ,True,False
and,and,and,and,CCONJ,True,True
for,for,for,for,ADP,True,True
which,which,which,which,DET,True,True
they,they,-PRON-,-pron-,PRON,True,True
will,will,will,will,VERB,True,True
have,have,have,have,AUX,True,True
pay,pay,pay,pay,NOUN,True,False
at,at,at,at,ADP,True,True
auction,auction,auction,auction,NOUN,True,False
.,.,.,.,PUNCT,False,False
if,if,if,if,SCONJ,True,True
gaa,gaa,gaa,gaa,NOUN,True,False
device,device,device,device,NOUN,True,False
be,be,be,be,AUX,True,True
permit,permit,permit,permit,VERB,True,False
to,to,to,to,PART,True,True
continue,continue,continue,continue,VERB,True,False
to,to,to,to,PART,True,True
operate,operate,operate,operate,VERB,True,False
in,in,in,in,ADP,True,True
pal,pal,pal,pal,ADJ,True,False
spectrum,spectrum,spectrum,spectrum,NOUN,True,False
until,until,until,until,ADP,True,True
after,after,after,after,ADP,True,True
they,they,-PRON-,-pron-,PRON,True,True
be,be,be,be,VERB,True,True
detect,detect,detect,detect,ADJ,True,False
",",",",",",",",PUNCT,False,False
priority,priority,priority,priority,NOUN,True,False
access,access,access,access,NOUN,True,False
licensees,licensees,licensee,licensee,NOUN,True,False
may,may,may,may,VERB,True,True
need,need,need,need,VERB,True,False
to,to,to,to,ADP,True,True
over,over,over,over,ADV,True,True
-,-,-,-,PUNCT,False,False
engineer,engineer,engineer,engineer,VERB,True,False
their,their,-PRON-,-pron-,DET,True,True
system,system,system,system,NOUN,True,False
to,to,to,to,PART,True,True
guard,guard,guard,guard,VERB,True,False
against,against,against,against,ADP,True,True
interference,interference,interference,interference,NOUN,True,False
",",",",",",",",PUNCT,False,False
which,which,which,which,DET,True,True
be,be,be,be,VERB,True,True
neither,neither,neither,neither,CCONJ,True,True
necessary,necessary,necessary,necessary,ADJ,True,False
nor,nor,nor,nor,CCONJ,True,True
appropriate,appropriate,appropriate,appropriate,ADJ,True,False
for,for,for,for,ADP,True,True
exclusive,exclusive,exclusive,exclusive,ADJ,True,False
-,-,-,-,PUNCT,False,False
use,use,use,use,NOUN,True,False
auction,auction,auction,auction,NOUN,True,False
license,license,license,license,NOUN,True,False
.,.,.,.,PUNCT,False,False
similarly,similarly,similarly,similarly,ADV,True,False
",",",",",",",",PUNCT,False,False
google,google,google,google,PROPN,True,False
have,have,have,have,AUX,True,True
propose,propose,propose,propose,NOUN,True,False
protect,protect,protect,protect,VERB,True,False
only,only,only,only,ADJ,True,True
priority,priority,priority,priority,NOUN,True,False
access,access,access,access,NOUN,True,False
user,user,user,user,NOUN,True,False
protection,protection,protection,protection,NOUN,True,False
area,area,area,area,NOUN,True,False
",",",",",",",",PUNCT,False,False
which,which,which,which,DET,True,True
would,would,would,would,VERB,True,True
be,be,be,be,AUX,True,True
determine,determine,determine,determine,VERB,True,False
base,base,base,base,NOUN,True,False
on,on,on,on,ADP,True,True
a,a,a,a,DET,True,True
pal,pal,pal,pal,ADJ,True,False
device,device,device,device,NOUN,True,False
location,location,location,location,NOUN,True,False
and,and,and,and,CCONJ,True,True
technical,technical,technical,technical,ADJ,True,False
characteristic,characteristic,characteristic,characteristic,NOUN,True,False
.,.,.,.,PUNCT,False,False
again,again,again,again,ADV,True,True
",",",",",",",",PUNCT,False,False
an,an,an,an,DET,True,True
approach,approach,approach,approach,NOUN,True,False
like,like,like,like,SCONJ,True,False
this,this,this,this,DET,True,True
with,with,with,with,ADP,True,True
real,real,real,real,ADJ,True,False
-,-,-,-,PUNCT,False,False
time,time,time,time,NOUN,True,False
opportunistic,opportunistic,opportunistic,opportunistic,ADJ,True,False
gaa,gaa,gaa,gaa,NOUN,True,False
access,access,access,access,NOUN,True,False
to,to,to,to,ADP,True,True
pal,pal,pal,pal,PROPN,True,False
spectrum,spectrum,spectrum,spectrum,PROPN,True,False
would,would,would,would,VERB,True,True
permit,permit,permit,permit,VERB,True,False
third,third,third,third,ADJ,True,True
-,-,-,-,PUNCT,False,False
party,party,party,party,NOUN,True,False
operation,operation,operation,operation,NOUN,True,False
in,in,in,in,ADP,True,True
pal,pal,pal,pal,NOUN,True,False
after,after,after,after,ADP,True,True
initial,initial,initial,initial,ADJ,True,False
transmission,transmission,transmission,transmission,NOUN,True,False
and,and,and,and,CCONJ,True,True
would,would,would,would,VERB,True,True
risk,risk,risk,risk,VERB,True,False
interference,interference,interference,interference,NOUN,True,False
to,to,to,to,ADP,True,True
pal,pal,pal,pal,ADJ,True,False
device,device,device,device,NOUN,True,False
.,.,.,.,PUNCT,False,False
pal,pal,pal,pal,PROPN,True,False
holder,holder,holder,holder,PROPN,True,False
",",",",",",",",PUNCT,False,False
however,however,however,however,ADV,True,True
",",",",",",",",PUNCT,False,False
will,will,will,will,VERB,True,True
purchase,purchase,purchase,purchase,VERB,True,False
right,right,right,right,NOUN,True,False
to,to,to,to,PART,True,True
use,use,use,use,VERB,True,False
all,all,all,all,DET,True,True
of,of,of,of,ADP,True,True
the,the,the,the,DET,True,True
spectrum,spectrum,spectrum,spectrum,NOUN,True,False
in,in,in,in,ADP,True,True
their,their,-PRON-,-pron-,DET,True,True
licensed,licensed,licensed,licensed,ADJ,True,False
area,area,area,area,NOUN,True,False
without,without,without,without,ADP,True,True
impingement,impingement,impingement,impingement,NOUN,True,False
",",",",",",",",PUNCT,False,False
not,not,not,not,PART,True,True
just,just,just,just,ADV,True,True
in,in,in,in,ADP,True,True
certain,certain,certain,certain,ADJ,True,False
protection,protection,protection,protection,NOUN,True,False
area,area,area,area,NOUN,True,False
.,.,.,.,PUNCT,False,False
this,this,this,this,DET,True,True
approach,approach,approach,approach,NOUN,True,False
be,be,be,be,AUX,True,True
therefore,therefore,therefore,therefore,ADV,True,True
rife,rife,rife,rife,ADJ,True,False
with,with,with,with,ADP,True,True
uncertainty,uncertainty,uncertainty,uncertainty,NOUN,True,False
and,and,and,and,CCONJ,True,True
be,be,be,be,AUX,True,True
untenable,untenable,untenable,untenable,ADJ,True,False
.,.,.,.,PUNCT,False,False
instead,instead,instead,instead,ADV,True,False
",",",",",",",",PUNCT,False,False
by,by,by,by,ADP,True,True
adopt,adopt,adopt,adopt,VERB,True,False
a,a,a,a,DET,True,True
framework,framework,framework,framework,NOUN,True,False
where,where,where,where,ADV,True,True
notice,notice,notice,notice,NOUN,True,False
of,of,of,of,ADP,True,True
commencement,commencement,commencement,commencement,NOUN,True,False
of,of,of,of,ADP,True,True
operation,operation,operation,operation,NOUN,True,False
in,in,in,in,ADP,True,True
any,any,any,any,DET,True,True
part,part,part,part,NOUN,True,True
of,of,of,of,ADP,True,True
a,a,a,a,DET,True,True
licensed,licensed,licensed,licensed,ADJ,True,False
census,census,census,census,NOUN,True,False
tract,tract,tract,tract,NOUN,True,False
trigger,trigger,trigger,trigger,VERB,True,False
the,the,the,the,DET,True,True
cessation,cessation,cessation,cessation,NOUN,True,False
of,of,of,of,ADP,True,True
gaa,gaa,gaa,gaa,NOUN,True,False
operation,operation,operation,operation,NOUN,True,False
throughout,throughout,throughout,throughout,ADP,True,True
a,a,a,a,DET,True,True
census,census,census,census,NOUN,True,False
tract,tract,tract,tract,NOUN,True,False
already,already,already,already,ADV,True,True
a,a,a,a,DET,True,True
small,small,small,small,ADJ,True,False
area,area,area,area,NOUN,True,False
to,to,to,to,PART,True,True
begin,begin,begin,begin,VERB,True,False
with,with,with,with,ADP,True,True
the,the,the,the,DET,True,True
commission,commission,commission,commission,NOUN,True,False
will,will,will,will,VERB,True,True
ensure,ensure,ensure,ensure,VERB,True,False
an,an,an,an,DET,True,True
interference,interference,interference,interference,NOUN,True,False
-,-,-,-,PUNCT,False,False
free,free,free,free,ADJ,True,False
environment,environment,environment,environment,NOUN,True,False
and,and,and,and,CCONJ,True,True
relieve,relieve,relieve,relieve,NOUN,True,False
licensee,licensee,licensee,licensee,NOUN,True,False
of,of,of,of,ADP,True,True
burden,burden,burden,burden,NOUN,True,False
and,and,and,and,CCONJ,True,True
uncertainty,uncertainty,uncertainty,uncertainty,NOUN,True,False
that,that,that,that,DET,True,True
be,be,be,be,AUX,True,True
fundamentally,fundamentally,fundamentally,fundamentally,ADV,True,False
inconsistent,inconsistent,inconsistent,inconsistent,ADJ,True,False
with,with,with,with,ADP,True,True
the,the,the,the,DET,True,True
exclusive,exclusive,exclusive,exclusive,ADJ,True,False
usage,usage,usage,usage,NOUN,True,False
license,license,license,license,NOUN,True,False
spectrum,spectrum,spectrum,spectrum,NOUN,True,False
right,right,right,right,ADV,True,False
that,that,that,that,SCONJ,True,True
they,they,-PRON-,-pron-,PRON,True,True
will,will,will,will,VERB,True,True
be,be,be,be,AUX,True,True
pay,pay,pay,pay,NOUN,True,False
for,for,for,for,ADP,True,True
at,at,at,at,ADP,True,True
auction,auction,auction,auction,NOUN,True,False
.,.,.,.,PUNCT,False,False
the,the,the,the,DET,True,True
proposal,proposal,proposal,proposal,NOUN,True,False
by,by,by,by,ADP,True,True
microsoft,microsoft,microsoft,microsoft,PROPN,True,False
be,be,be,be,AUX,True,True
equally,equally,equally,equally,ADV,True,False
problematic,problematic,problematic,problematic,ADJ,True,False
.,.,.,.,PUNCT,False,False
microsoft,microsoft,microsoft,microsoft,PROPN,True,False
have,have,have,have,AUX,True,True
recommend,recommend,recommend,recommend,NOUN,True,False
that,that,that,that,DET,True,True
opportunistic,opportunistic,opportunistic,opportunistic,ADJ,True,False
gaa,gaa,gaa,gaa,NOUN,True,False
use,use,use,use,NOUN,True,False
on,on,on,on,ADP,True,True
pal,pal,pal,pal,ADJ,True,False
spectrum,spectrum,spectrum,spectrum,NOUN,True,False
be,be,be,be,AUX,True,True
permit,permit,permit,permit,NOUN,True,False
until,until,until,until,ADP,True,True
a,a,a,a,DET,True,True
priority,priority,priority,priority,NOUN,True,False
access,access,access,access,NOUN,True,False
licensee,licensee,licensee,licensee,NOUN,True,False
request,request,request,request,VERB,True,False
a,a,a,a,DET,True,True
channel,channel,channel,channel,NOUN,True,False
assignment,assignment,assignment,assignment,NOUN,True,False
from,from,from,from,ADP,True,True
a,a,a,a,DET,True,True
sas,sas,sas,sas,NOUN,True,False
",",",",",",",",PUNCT,False,False
but,but,but,but,CCONJ,True,True
as,as,as,as,SCONJ,True,True
above,above,above,above,ADV,True,True
",",",",",",",",PUNCT,False,False
this,this,this,this,DET,True,True
approach,approach,approach,approach,NOUN,True,False
would,would,would,would,VERB,True,True
be,be,be,be,AUX,True,True
inconsistent,inconsistent,inconsistent,inconsistent,ADJ,True,False
with,with,with,with,ADP,True,True
the,the,the,the,DET,True,True
exclusive,exclusive,exclusive,exclusive,ADJ,True,False
usage,usage,usage,usage,NOUN,True,False
right,right,right,right,ADJ,True,False
pal,pal,pal,pal,ADJ,True,False
holder,holder,holder,holder,NOUN,True,False
will,will,will,will,VERB,True,True
have,have,have,have,AUX,True,True
pay,pay,pay,pay,NOUN,True,False
for,for,for,for,ADP,True,True
at,at,at,at,ADP,True,True
auction,auction,auction,auction,NOUN,True,False
and,and,and,and,CCONJ,True,True
would,would,would,would,VERB,True,True
undermine,undermine,undermine,undermine,VERB,True,False
investment,investment,investment,investment,NOUN,True,False
and,and,and,and,CCONJ,True,True
innovation,innovation,innovation,innovation,NOUN,True,False
in,in,in,in,ADP,True,True
the,the,the,the,DET,True,True
band,band,band,band,NOUN,True,False
.,.,.,.,PUNCT,False,False
instead,instead,instead,instead,ADV,True,False
",",",",",",",",PUNCT,False,False
priority,priority,priority,priority,NOUN,True,False
access,access,access,access,NOUN,True,False
licensees,licensees,licensee,licensee,NOUN,True,False
would,would,would,would,VERB,True,True
have,have,have,have,AUX,True,True
to,to,to,to,PART,True,True
wait,wait,wait,wait,VERB,True,False
to,to,to,to,PART,True,True
re,re,re,re,VERB,True,True
-,-,-,-,VERB,False,False
acquire,acquire,acquire,acquire,VERB,True,False
their,their,-PRON-,-pron-,DET,True,True
license,license,license,license,NOUN,True,False
spectrum,spectrum,spectrum,spectrum,NOUN,True,False
until,until,until,until,ADP,True,True
after,after,after,after,ADP,True,True
a,a,a,a,DET,True,True
gaa,gaa,gaa,gaa,NOUN,True,False
user,user,user,user,NOUN,True,False
be,be,be,be,AUX,True,True
move,move,move,move,VERB,True,True
off,off,off,off,ADP,True,True
of,of,of,of,ADP,True,True
the,the,the,the,DET,True,True
pal,pal,pal,pal,PROPN,True,False
channel,channel,channel,channel,PROPN,True,False
.,.,.,.,PUNCT,False,False
indeed,indeed,indeed,indeed,ADV,True,True
",",",",",",",",PUNCT,False,False
any,any,any,any,DET,True,True
such,such,such,such,ADJ,True,True
approach,approach,approach,approach,NOUN,True,False
would,would,would,would,VERB,True,True
largely,largely,largely,largely,ADV,True,False
eliminate,eliminate,eliminate,eliminate,VERB,True,False
the,the,the,the,DET,True,True
benefit,benefit,benefit,benefit,NOUN,True,False
of,of,of,of,ADP,True,True
pay,pay,pay,pay,NOUN,True,False
for,for,for,for,ADP,True,True
a,a,a,a,DET,True,True
pal,pal,pal,pal,NOUN,True,False
at,at,at,at,ADP,True,True
auction,auction,auction,auction,NOUN,True,False
rather,rather,rather,rather,ADV,True,True
than,than,than,than,SCONJ,True,True
simply,simply,simply,simply,ADV,True,False
await,await,await,await,VERB,True,False
use,use,use,use,NOUN,True,False
of,of,of,of,ADP,True,True
a,a,a,a,DET,True,True
gaa,gaa,gaa,gaa,NOUN,True,False
channel,channel,channel,channel,NOUN,True,False
.,.,.,.,PUNCT,False,False
also,also,also,also,ADV,True,True
troubling,troubling,troubling,troubling,PROPN,True,False
be,be,be,be,AUX,True,True
the,the,the,the,DET,True,True
speculative,speculative,speculative,speculative,ADJ,True,False
assertion,assertion,assertion,assertion,NOUN,True,False
that,that,that,that,SCONJ,True,True
priority,priority,priority,priority,NOUN,True,False
access,access,access,access,NOUN,True,False
licensees,licensees,licensee,licensee,NOUN,True,False
may,may,may,may,VERB,True,True
have,have,have,have,AUX,True,True
the,the,the,the,DET,True,True
ability,ability,ability,ability,NOUN,True,False
to,to,to,to,PART,True,True
warehouse,warehouse,warehouse,warehouse,VERB,True,False
spectrum,spectrum,spectrum,spectrum,NOUN,True,False
.,.,.,.,PUNCT,False,False
this,this,this,this,DET,True,True
concern,concern,concern,concern,NOUN,True,False
make,make,make,make,VERB,True,True
little,little,little,little,ADJ,True,False
sense,sense,sense,sense,NOUN,True,False
on,on,on,on,ADP,True,True
multiple,multiple,multiple,multiple,ADJ,True,False
front,front,front,front,NOUN,True,True
.,.,.,.,PUNCT,False,False
first,first,first,first,ADV,True,True
",",",",",",",",PUNCT,False,False
priority,priority,priority,priority,NOUN,True,False
access,access,access,access,NOUN,True,False
licensees,licensees,licensee,licensee,NOUN,True,False
will,will,will,will,VERB,True,True
acquire,acquire,acquire,acquire,VERB,True,False
their,their,-PRON-,-pron-,DET,True,True
license,license,license,license,NOUN,True,False
at,at,at,at,ADP,True,True
auction,auction,auction,auction,NOUN,True,False
",",",",",",",",PUNCT,False,False
and,and,and,and,CCONJ,True,True
this,this,this,this,DET,True,True
investment,investment,investment,investment,NOUN,True,False
provide,provide,provide,provide,VERB,True,False
a,a,a,a,DET,True,True
strong,strong,strong,strong,ADJ,True,False
market,market,market,market,NOUN,True,False
-,-,-,-,PUNCT,False,False
base,base,base,base,NOUN,True,False
incentive,incentive,incentive,incentive,NOUN,True,False
to,to,to,to,PART,True,True
put,put,put,put,VERB,True,True
the,the,the,the,DET,True,True
spectrum,spectrum,spectrum,spectrum,NOUN,True,False
to,to,to,to,PART,True,True
use,use,use,use,VERB,True,False
.,.,.,.,PUNCT,False,False
second,second,second,second,ADV,True,False
",",",",",",",",PUNCT,False,False
no,no,no,no,DET,True,True
entity,entity,entity,entity,NOUN,True,False
could,could,could,could,VERB,True,True
successfully,successfully,successfully,successfully,ADV,True,False
restrict,restrict,restrict,restrict,VERB,True,False
access,access,access,access,NOUN,True,False
to,to,to,to,ADP,True,True
the,the,the,the,DET,True,True
3.5,3.5,3.5,3.5,NUM,False,False
ghz,ghz,ghz,ghz,PROPN,True,False
band,band,band,band,NOUN,True,False
give,give,give,give,VERB,True,True
widespread,widespread,widespread,widespread,ADJ,True,False
gaa,gaa,gaa,gaa,NOUN,True,False
right,right,right,right,NOUN,True,False
to,to,to,to,PART,True,True
operate,operate,operate,operate,VERB,True,False
in,in,in,in,ADP,True,True
the,the,the,the,DET,True,True
band,band,band,band,NOUN,True,False
.,.,.,.,PUNCT,False,False
the,the,the,the,DET,True,True
commission,commission,commission,commission,PROPN,True,False
have,have,have,have,AUX,True,True
dedicate,dedicate,dedicate,dedicate,ADJ,True,False
significant,significant,significant,significant,ADJ,True,False
3.5,3.5,3.5,3.5,NUM,False,False
ghz,ghz,ghz,ghz,NOUN,True,False
spectrum,spectrum,spectrum,spectrum,NOUN,True,False
for,for,for,for,ADP,True,True
gaa,gaa,gaa,gaa,NOUN,True,False
use,use,use,use,NOUN,True,False
",",",",",",",",PUNCT,False,False
and,and,and,and,CCONJ,True,True
no,no,no,no,DET,True,True
single,single,single,single,ADJ,True,False
entity,entity,entity,entity,NOUN,True,False
can,can,can,can,VERB,True,True
hold,hold,hold,hold,VERB,True,False
more,more,more,more,ADJ,True,True
than,than,than,than,SCONJ,True,True
four,four,four,four,NUM,True,True
pal,pal,pal,pal,ADJ,True,False
license,license,license,license,NOUN,True,False
in,in,in,in,ADP,True,True
any,any,any,any,DET,True,True
census,census,census,census,NOUN,True,False
tract,tract,tract,tract,NOUN,True,False
.,.,.,.,PUNCT,False,False
and,and,and,and,CCONJ,True,True
finally,finally,finally,finally,ADV,True,False
",",",",",",",",PUNCT,False,False
limited,limited,limited,limited,ADJ,True,False
license,license,license,license,NOUN,True,False
term,term,term,term,NOUN,True,False
discourage,discourage,discourage,discourage,NOUN,True,False
warehousing,warehousing,warehousing,warehousing,NOUN,True,False
.,.,.,.,PUNCT,False,False
pals,pals,pal,pal,NOUN,True,False
be,be,be,be,VERB,True,True
only,only,only,only,ADV,True,True
issue,issue,issue,issue,NOUN,True,False
for,for,for,for,ADP,True,True
three,three,three,three,NUM,True,True
-,-,-,-,PUNCT,False,False
year,year,year,year,NOUN,True,False
",",",",",",",",PUNCT,False,False
nonrenewable,nonrenewable,nonrenewable,nonrenewable,ADJ,True,False
term,term,term,term,NOUN,True,False
",",",",",",",",PUNCT,False,False
in,in,in,in,ADP,True,True
small,small,small,small,ADJ,True,False
census,census,census,census,NOUN,True,False
tract,tract,tract,tract,NOUN,True,False
license,license,license,license,NOUN,True,False
area,area,area,area,NOUN,True,False
",",",",",",",",PUNCT,False,False
and,and,and,and,CCONJ,True,True
so,so,so,so,ADV,True,True
the,the,the,the,DET,True,True
fcc,fcc,fcc,fcc,PROPN,True,False
will,will,will,will,VERB,True,True
periodically,periodically,periodically,periodically,ADV,True,False
open,open,open,open,VERB,True,False
application,application,application,application,NOUN,True,False
window,window,window,window,NOUN,True,False
for,for,for,for,ADP,True,True
newpals,newpals,newpal,newpal,NOUN,True,False
that,that,that,that,DET,True,True
take,take,take,take,VERB,True,True
effect,effect,effect,effect,NOUN,True,False
upon,upon,upon,upon,SCONJ,True,True
expiration,expiration,expiration,expiration,NOUN,True,False
of,of,of,of,ADP,True,True
previously,previously,previously,previously,ADV,True,False
assign,assign,assign,assign,ADJ,True,False
pal,pal,pal,pal,NOUN,True,False
.,.,.,.,PUNCT,False,False
as,as,as,as,SCONJ,True,True
the,the,the,the,DET,True,True
commission,commission,commission,commission,NOUN,True,False
observe,observe,observe,observe,VERB,True,False
",",",",",",",",PUNCT,False,False
[,[,[,[,PUNCT,False,False
b]y,b]y,b]y,b]y,NOUN,False,False
ensure,ensure,ensure,ensure,VERB,True,False
widespread,widespread,widespread,widespread,ADJ,True,False
gaa,gaa,gaa,gaa,NOUN,True,False
use,use,use,use,NOUN,True,False
of,of,of,of,ADP,True,True
any,any,any,any,DET,True,True
spectrum,spectrum,spectrum,spectrum,NOUN,True,False
for,for,for,for,ADP,True,True
which,which,which,which,DET,True,True
we,we,-PRON-,-pron-,PRON,True,True
have,have,have,have,AUX,True,True
not,not,not,not,PART,True,True
receive,receive,receive,receive,VERB,True,False
mutually,mutually,mutually,mutually,ADV,True,False
exclusive,exclusive,exclusive,exclusive,ADJ,True,False
pal,pal,pal,pal,ADJ,True,False
application,application,application,application,NOUN,True,False
",",",",",",",",PUNCT,False,False
we,we,-PRON-,-pron-,PRON,True,True
ensure,ensure,ensure,ensure,VERB,True,False
that,that,that,that,SCONJ,True,True
the,the,the,the,DET,True,True
spectrum,spectrum,spectrum,spectrum,NOUN,True,False
will,will,will,will,VERB,True,True
be,be,be,be,AUX,True,True
put,put,put,put,VERB,True,True
to,to,to,to,ADP,True,True
a,a,a,a,DET,True,True
use,use,use,use,NOUN,True,False
for,for,for,for,ADP,True,True
which,which,which,which,DET,True,True
we,we,-PRON-,-pron-,PRON,True,True
have,have,have,have,AUX,True,True
identify,identify,identify,identify,VERB,True,False
a,a,a,a,DET,True,True
clear,clear,clear,clear,ADJ,True,False
public,public,public,public,ADJ,True,False
interest,interest,interest,interest,NOUN,True,False
need,need,need,need,NOUN,True,False
.,.,.,.,PUNCT,False,False
economic,economic,economic,economic,ADJ,True,False
definition,definition,definition,definition,NOUN,True,False
.,.,.,.,PUNCT,False,False
ctia,ctia,ctia,ctia,PROPN,True,False
agree,agree,agree,agree,VERB,True,False
there,there,there,there,PRON,True,True
be,be,be,be,AUX,True,True
merit,merit,merit,merit,NOUN,True,False
in,in,in,in,ADP,True,True
define,define,define,define,NOUN,True,False
use,use,use,use,NOUN,True,False
from,from,from,from,ADP,True,True
an,an,an,an,DET,True,True
economic,economic,economic,economic,ADJ,True,False
view,view,view,view,NOUN,True,False
namely,namely,namely,namely,ADV,True,True
that,that,that,that,SCONJ,True,True
pal,pal,pal,pal,ADJ,True,False
licensee,licensee,licensee,licensee,NOUN,True,False
[,[,[,[,PUNCT,False,False
],],],],PUNCT,False,False
acquire,acquire,acquire,acquire,VERB,True,False
the,the,the,the,DET,True,True
right,right,right,right,NOUN,True,False
to,to,to,to,PART,True,True
exclude,exclude,exclude,exclude,VERB,True,False
gaa,gaa,gaa,gaa,NOUN,True,False
access,access,access,access,NOUN,True,False
.,.,.,.,PUNCT,False,False
but,but,but,but,CCONJ,True,True
the,the,the,the,DET,True,True
commissions,commissions,commission,commission,NOUN,True,False
traditional,traditional,traditional,traditional,ADJ,True,False
auction,auction,auction,auction,NOUN,True,False
scheme,scheme,scheme,scheme,NOUN,True,False
do,do,do,do,AUX,True,True
just,just,just,just,ADV,True,True
that,that,that,that,DET,True,True
",",",",",",",",PUNCT,False,False
and,and,and,and,CCONJ,True,True
the,the,the,the,DET,True,True
propose,propose,propose,propose,NOUN,True,False
two,two,two,two,NUM,True,True
-,-,-,-,PUNCT,False,False
payment,payment,payment,payment,NOUN,True,False
system,system,system,system,NOUN,True,False
likely,likely,likely,likely,ADJ,True,False
would,would,would,would,VERB,True,True
have,have,have,have,AUX,True,True
unintended,unintended,unintended,unintended,ADJ,True,False
consequence,consequence,consequence,consequence,NOUN,True,False
that,that,that,that,DET,True,True
may,may,may,may,VERB,True,True
discourage,discourage,discourage,discourage,VERB,True,False
the,the,the,the,DET,True,True
efficient,efficient,efficient,efficient,ADJ,True,False
and,and,and,and,CCONJ,True,True
intensive,intensive,intensive,intensive,ADJ,True,False
use,use,use,use,NOUN,True,False
of,of,of,of,ADP,True,True
spectrum,spectrum,spectrum,spectrum,NOUN,True,False
.,.,.,.,PUNCT,False,False
when,when,when,when,ADV,True,True
the,the,the,the,DET,True,True
commission,commission,commission,commission,NOUN,True,False
discontinue,discontinue,discontinue,discontinue,VERB,True,False
the,the,the,the,DET,True,True
use,use,use,use,NOUN,True,False
of,of,of,of,ADP,True,True
installment,installment,installment,installment,ADJ,True,False
payment,payment,payment,payment,NOUN,True,False
fifteen,fifteen,fifteen,fifteen,NUM,True,True
year,year,year,year,NOUN,True,False
ago,ago,ago,ago,ADV,True,False
",",",",",",",",PUNCT,False,False
it,it,-PRON-,-pron-,PRON,True,True
find,find,find,find,VERB,True,False
that,that,that,that,SCONJ,True,True
require,require,require,require,VERB,True,False
licensee,licensee,licensee,licensee,NOUN,True,False
to,to,to,to,PART,True,True
pay,pay,pay,pay,VERB,True,False
for,for,for,for,ADP,True,True
their,their,-PRON-,-pron-,DET,True,True
license,license,license,license,NOUN,True,False
as,as,as,as,SCONJ,True,True
a,a,a,a,DET,True,True
condition,condition,condition,condition,NOUN,True,False
of,of,of,of,ADP,True,True
receipt,receipt,receipt,receipt,NOUN,True,False
of,of,of,of,ADP,True,True
the,the,the,the,DET,True,True
license,license,license,license,NOUN,True,False
ensure,ensure,ensure,ensure,VERB,True,False
great,great,great,great,ADJ,True,False
financial,financial,financial,financial,ADJ,True,False
accountability,accountability,accountability,accountability,NOUN,True,False
from,from,from,from,ADP,True,True
applicant,applicant,applicant,applicant,NOUN,True,False
.,.,.,.,PUNCT,False,False
experience,experience,experience,experience,NOUN,True,False
have,have,have,have,AUX,True,True
validate,validate,validate,validate,NOUN,True,False
that,that,that,that,DET,True,True
finding,finding,finding,finding,NOUN,True,False
.,.,.,.,PUNCT,False,False
by,by,by,by,ADP,True,True
contrast,contrast,contrast,contrast,NOUN,True,False
",",",",",",",",PUNCT,False,False
resurrect,resurrect,resurrect,resurrect,VERB,True,False
an,an,an,an,DET,True,True
installment,installment,installment,installment,ADJ,True,False
payment,payment,payment,payment,NOUN,True,False
structure,structure,structure,structure,NOUN,True,False
threaten,threaten,threaten,threaten,VERB,True,False
to,to,to,to,PART,True,True
reproduce,reproduce,reproduce,reproduce,VERB,True,False
the,the,the,the,DET,True,True
harm,harm,harm,harm,NOUN,True,False
that,that,that,that,DET,True,True
the,the,the,the,DET,True,True
commission,commission,commission,commission,NOUN,True,False
have,have,have,have,AUX,True,True
previously,previously,previously,previously,ADV,True,False
identify,identify,identify,identify,VERB,True,False
.,.,.,.,PUNCT,False,False
moreover,moreover,moreover,moreover,ADV,True,True
",",",",",",",",PUNCT,False,False
it,it,-PRON-,-pron-,PRON,True,True
be,be,be,be,AUX,True,True
unclear,unclear,unclear,unclear,ADJ,True,False
whether,whether,whether,whether,SCONJ,True,True
the,the,the,the,DET,True,True
installment,installment,installment,installment,ADJ,True,False
payment,payment,payment,payment,NOUN,True,False
proposal,proposal,proposal,proposal,NOUN,True,False
would,would,would,would,VERB,True,True
address,address,address,address,VERB,True,False
the,the,the,the,DET,True,True
concern,concern,concern,concern,NOUN,True,False
the,the,the,the,DET,True,True
commission,commission,commission,commission,NOUN,True,False
seek,seek,seek,seek,VERB,True,False
to,to,to,to,PART,True,True
avoid,avoid,avoid,avoid,VERB,True,False
.,.,.,.,PUNCT,False,False
in,in,in,in,ADP,True,True
particular,particular,particular,particular,ADJ,True,False
",",",",",",",",PUNCT,False,False
under,under,under,under,ADP,True,True
the,the,the,the,DET,True,True
two,two,two,two,NUM,True,True
-,-,-,-,PUNCT,False,False
payment,payment,payment,payment,NOUN,True,False
structure,structure,structure,structure,NOUN,True,False
",",",",",",",",PUNCT,False,False
a,a,a,a,DET,True,True
win,win,win,win,NOUN,True,False
bidder,bidder,bidder,bidder,NOUN,True,False
could,could,could,could,VERB,True,True
acquire,acquire,acquire,acquire,VERB,True,False
license,license,license,license,NOUN,True,False
by,by,by,by,ADP,True,True
pay,pay,pay,pay,NOUN,True,False
one,one,one,one,NUM,True,True
-,-,-,-,PUNCT,False,False
half,half,half,half,NOUN,True,False
of,of,of,of,ADP,True,True
the,the,the,the,DET,True,True
win,win,win,win,NOUN,True,False
bid,bid,bid,bid,NOUN,True,False
.,.,.,.,PUNCT,False,False
other,other,other,other,ADJ,True,True
",",",",",",",",PUNCT,False,False
fully,fully,fully,fully,ADV,True,False
motivated,motivated,motivate,motivate,VERB,True,False
compete,compete,compete,compete,NOUN,True,False
bidder,bidder,bidder,bidder,NOUN,True,False
would,would,would,would,VERB,True,True
thus,thus,thus,thus,ADV,True,True
be,be,be,be,AUX,True,True
prevent,prevent,prevent,prevent,NOUN,True,False
from,from,from,from,ADP,True,True
acquire,acquire,acquire,acquire,NOUN,True,False
pal,pal,pal,pal,PROPN,True,False
and,and,and,and,CCONJ,True,True
put,put,put,put,VERB,True,True
the,the,the,the,DET,True,True
spectrum,spectrum,spectrum,spectrum,NOUN,True,False
to,to,to,to,PART,True,True
use,use,use,use,VERB,True,False
",",",",",",",",PUNCT,False,False
thus,thus,thus,thus,ADV,True,True
delay,delay,delay,delay,PROPN,True,False
service,service,service,service,NOUN,True,False
to,to,to,to,ADP,True,True
the,the,the,the,DET,True,True
public,public,public,public,NOUN,True,False
while,while,while,while,NOUN,True,True
also,also,also,also,ADV,True,True
deprive,deprive,deprive,deprive,VERB,True,False
taxpayer,taxpayer,taxpayer,taxpayer,NOUN,True,False
of,of,of,of,ADP,True,True
a,a,a,a,DET,True,True
fair,fair,fair,fair,ADJ,True,False
portion,portion,portion,portion,NOUN,True,False
of,of,of,of,ADP,True,True
the,the,the,the,DET,True,True
value,value,value,value,NOUN,True,False
of,of,of,of,ADP,True,True
the,the,the,the,DET,True,True
spectrum,spectrum,spectrum,spectrum,PROPN,True,False
resource,resource,resource,resource,NOUN,True,False
.,.,.,.,PUNCT,False,False
the,the,the,the,DET,True,True
two,two,two,two,NUM,True,True
-,-,-,-,PUNCT,False,False
payment,payment,payment,payment,NOUN,True,False
proposal,proposal,proposal,proposal,NOUN,True,False
could,could,could,could,VERB,True,True
thus,thus,thus,thus,ADV,True,True
create,create,create,create,VERB,True,False
unintended,unintended,unintended,unintended,ADJ,True,False
consequence,consequence,consequence,consequence,NOUN,True,False
that,that,that,that,SCONJ,True,True
the,the,the,the,DET,True,True
traditional,traditional,traditional,traditional,ADJ,True,False
single,single,single,single,ADJ,True,False
-,-,-,-,PUNCT,False,False
payment,payment,payment,payment,NOUN,True,False
auction,auction,auction,auction,NOUN,True,False
licensing,licensing,licensing,licensing,NOUN,True,False
approach,approach,approach,approach,NOUN,True,False
avoid,avoid,avoid,avoid,NOUN,True,False
.,.,.,.,PUNCT,False,False
in,in,in,in,ADP,True,True
the,the,the,the,DET,True,True
final,final,final,final,ADJ,True,False
analysis,analysis,analysis,analysis,NOUN,True,False
",",",",",",",",PUNCT,False,False
the,the,the,the,DET,True,True
vagary,vagary,vagary,vagary,NOUN,True,False
of,of,of,of,ADP,True,True
the,the,the,the,DET,True,True
propose,propose,propose,propose,NOUN,True,False
engineering,engineering,engineering,engineering,NOUN,True,False
and,and,and,and,CCONJ,True,True
economic,economic,economic,economic,ADJ,True,False
definition,definition,definition,definition,NOUN,True,False
would,would,would,would,VERB,True,True
needlessly,needlessly,needlessly,needlessly,ADV,True,False
inject,inject,inject,inject,VERB,True,False
uncertainty,uncertainty,uncertainty,uncertainty,NOUN,True,False
into,into,into,into,ADP,True,True
the,the,the,the,DET,True,True
pal,pal,pal,pal,ADJ,True,False
marketplace,marketplace,marketplace,marketplace,NOUN,True,False
",",",",",",",",PUNCT,False,False
thereby,thereby,thereby,thereby,ADV,True,True
burden,burden,burden,burden,PROPN,True,False
and,and,and,and,CCONJ,True,True
delay,delay,delay,delay,VERB,True,False
efficient,efficient,efficient,efficient,ADJ,True,False
use,use,use,use,NOUN,True,False
of,of,of,of,ADP,True,True
the,the,the,the,DET,True,True
3.5,3.5,3.5,3.5,NUM,False,False
ghz,ghz,ghz,ghz,PROPN,True,False
band,band,band,band,NOUN,True,False
.,.,.,.,PUNCT,False,False
the,the,the,the,DET,True,True
commission,commission,commission,commission,PROPN,True,False
need,need,need,need,VERB,True,False
not,not,not,not,PART,True,True
and,and,and,and,CCONJ,True,True
should,should,should,should,VERB,True,True
not,not,not,not,PART,True,True
go,go,go,go,VERB,True,True
down,down,down,down,ADV,True,True
either,either,either,either,DET,True,True
path,path,path,path,NOUN,True,False
.,.,.,.,PUNCT,False,False
the,the,the,the,DET,True,True
rule,rule,rule,rule,NOUN,True,False
should,should,should,should,VERB,True,True
allow,allow,allow,allow,VERB,True,False
for,for,for,for,ADP,True,True
pal,pal,pal,pal,ADJ,True,False
secondary,secondary,secondary,secondary,ADJ,True,False
market,market,market,market,NOUN,True,False
opportunity,opportunity,opportunity,opportunity,NOUN,True,False
",",",",",",",",PUNCT,False,False
although,although,although,although,SCONJ,True,True
splintered,splintered,splintered,splintered,ADJ,True,False
census,census,census,census,NOUN,True,False
tract,tract,tract,tract,NOUN,True,False
licensing,licensing,licensing,licensing,NOUN,True,False
may,may,may,may,VERB,True,True
make,make,make,make,VERB,True,True
partitioning,partitioning,partitioning,partitioning,NOUN,True,False
and,and,and,and,CCONJ,True,True
disaggregation,disaggregation,disaggregation,disaggregation,NOUN,True,False
difficultctia,difficultctia,difficultctia,difficultctia,NOUN,True,False
agree,agree,agree,agree,VERB,True,False
that,that,that,that,SCONJ,True,True
the,the,the,the,DET,True,True
commission,commission,commission,commission,NOUN,True,False
should,should,should,should,VERB,True,True
adopt,adopt,adopt,adopt,VERB,True,False
rule,rule,rule,rule,VERB,True,False
that,that,that,that,DET,True,True
will,will,will,will,VERB,True,True
enable,enable,enable,enable,VERB,True,False
secondary,secondary,secondary,secondary,ADJ,True,False
marketopportunitie,marketopportunitie,marketopportunitie,marketopportunitie,NOUN,True,False
for,for,for,for,ADP,True,True
pal,pal,pal,pal,PROPN,True,False
spectrum,spectrum,spectrum,spectrum,PROPN,True,False
.,.,.,.,PUNCT,False,False
license,license,license,license,NOUN,True,False
spectrum,spectrum,spectrum,spectrum,PROPN,True,False
be,be,be,be,AUX,True,True
a,a,a,a,DET,True,True
valuable,valuable,valuable,valuable,ADJ,True,False
resource,resource,resource,resource,NOUN,True,False
and,and,and,and,CCONJ,True,True
the,the,the,the,DET,True,True
commissions,commissions,commission,commission,NOUN,True,False
rule,rule,rule,rule,NOUN,True,False
should,should,should,should,VERB,True,True
allow,allow,allow,allow,VERB,True,False
pal,pal,pal,pal,ADJ,True,False
spectrum,spectrum,spectrum,spectrum,NOUN,True,False
to,to,to,to,PART,True,True
flow,flow,flow,flow,VERB,True,False
to,to,to,to,ADP,True,True
its,its,-PRON-,-pron-,DET,True,True
high,high,high,high,ADJ,True,False
and,and,and,and,CCONJ,True,True
good,good,good,good,ADJ,True,False
use,use,use,use,NOUN,True,False
.,.,.,.,PUNCT,False,False
thus,thus,thus,thus,ADV,True,True
",",",",",",",",PUNCT,False,False
the,the,the,the,DET,True,True
marketplace,marketplace,marketplace,marketplace,NOUN,True,False
should,should,should,should,VERB,True,True
determine,determine,determine,determine,VERB,True,False
the,the,the,the,DET,True,True
extent,extent,extent,extent,NOUN,True,False
to,to,to,to,PART,True,True
which,which,which,which,DET,True,True
pal,pal,pal,pal,NOUN,True,False
spectrum,spectrum,spectrum,spectrum,NOUN,True,False
be,be,be,be,AUX,True,True
assign,assign,assign,assign,PROPN,True,False
",",",",",",",",PUNCT,False,False
transfer,transfer,transfer,transfer,NOUN,True,False
",",",",",",",",PUNCT,False,False
lease,lease,lease,lease,NOUN,True,False
",",",",",",",",PUNCT,False,False
partition,partition,partition,partition,NOUN,True,False
or,or,or,or,CCONJ,True,True
disaggregate,disaggregate,disaggregate,disaggregate,NOUN,True,False
.,.,.,.,PUNCT,False,False
while,while,while,while,SCONJ,True,True
the,the,the,the,DET,True,True
commission,commission,commission,commission,NOUN,True,False
should,should,should,should,VERB,True,True
not,not,not,not,PART,True,True
restrict,restrict,restrict,restrict,VERB,True,False
the,the,the,the,DET,True,True
secondary,secondary,secondary,secondary,ADJ,True,False
market,market,market,market,NOUN,True,False
rule,rule,rule,rule,NOUN,True,False
from,from,from,from,ADP,True,True
apply,apply,apply,apply,NOUN,True,False
in,in,in,in,ADP,True,True
the,the,the,the,DET,True,True
3.5,3.5,3.5,3.5,NUM,False,False
ghz,ghz,ghz,ghz,PROPN,True,False
band,band,band,band,NOUN,True,False
",",",",",",",",PUNCT,False,False
ctia,ctia,ctia,ctia,PROPN,True,False
note,note,note,note,VERB,True,False
that,that,that,that,SCONJ,True,True
the,the,the,the,DET,True,True
commissions,commissions,commission,commission,NOUN,True,False
decision,decision,decision,decision,NOUN,True,False
to,to,to,to,PART,True,True
license,license,license,license,VERB,True,False
pal,pal,pal,pal,NOUN,True,False
on,on,on,on,ADP,True,True
a,a,a,a,DET,True,True
census,census,census,census,NOUN,True,False
tract,tract,tract,tract,NOUN,True,False
basis,basis,basis,basis,NOUN,True,False
with,with,with,with,ADP,True,True
"74,000","74,000","74,000","74,000",NUM,False,False
separate,separate,separate,separate,ADJ,True,False
market,market,market,market,NOUN,True,False
area,area,area,area,NOUN,True,False
likely,likely,likely,likely,ADV,True,False
will,will,will,will,VERB,True,True
make,make,make,make,VERB,True,True
pal,pal,pal,pal,ADJ,True,False
license,license,license,license,NOUN,True,False
less,less,less,less,ADV,True,True
efficient,efficient,efficient,efficient,ADJ,True,False
and,and,and,and,CCONJ,True,True
network,network,network,network,NOUN,True,False
deployment,deployment,deployment,deployment,NOUN,True,False
far,far,far,far,ADV,True,False
more,more,more,more,ADV,True,True
complicated,complicated,complicated,complicated,ADJ,True,False
.,.,.,.,PUNCT,False,False
the,the,the,the,DET,True,True
already,already,already,already,ADV,True,True
splinter,splinter,splinter,splinter,NOUN,True,False
nature,nature,nature,nature,NOUN,True,False
of,of,of,of,ADP,True,True
census,census,census,census,PROPN,True,False
tract,tract,tract,tract,PROPN,True,False
area,area,area,area,NOUN,True,False
licensing,licensing,licensing,licensing,NOUN,True,False
raise,raise,raise,raise,VERB,True,False
question,question,question,question,NOUN,True,False
about,about,about,about,ADP,True,True
the,the,the,the,DET,True,True
utility,utility,utility,utility,NOUN,True,False
of,of,of,of,ADP,True,True
further,further,further,further,ADJ,True,True
partitioning,partitioning,partitioning,partitioning,NOUN,True,False
and,and,and,and,CCONJ,True,True
disaggregation,disaggregation,disaggregation,disaggregation,NOUN,True,False
",",",",",",",",PUNCT,False,False
particularly,particularly,particularly,particularly,ADV,True,False
within,within,within,within,ADP,True,True
the,the,the,the,DET,True,True
context,context,context,context,NOUN,True,False
of,of,of,of,ADP,True,True
a,a,a,a,DET,True,True
pal,pal,pal,pal,NOUN,True,False
nonrenewable,nonrenewable,nonrenewable,nonrenewable,ADJ,True,False
",",",",",",",",PUNCT,False,False
three,three,three,three,NUM,True,True
-,-,-,-,PUNCT,False,False
year,year,year,year,NOUN,True,False
term,term,term,term,NOUN,True,False
.,.,.,.,PUNCT,False,False
however,however,however,however,ADV,True,True
",",",",",",",",PUNCT,False,False
to,to,to,to,ADP,True,True
the,the,the,the,DET,True,True
extent,extent,extent,extent,NOUN,True,False
provider,provider,provider,provider,NOUN,True,False
find,find,find,find,VERB,True,False
value,value,value,value,NOUN,True,False
in,in,in,in,ADP,True,True
these,these,these,these,DET,True,True
option,option,option,option,NOUN,True,False
",",",",",",",",PUNCT,False,False
they,they,-PRON-,-pron-,PRON,True,True
should,should,should,should,VERB,True,True
be,be,be,be,AUX,True,True
permit,permit,permit,permit,ADJ,True,False
to,to,to,to,PART,True,True
make,make,make,make,VERB,True,True
partitioning,partitioning,partitioning,partitioning,NOUN,True,False
and,and,and,and,CCONJ,True,True
disaggregation,disaggregation,disaggregation,disaggregation,NOUN,True,False
request,request,request,request,NOUN,True,False
.,.,.,.,PUNCT,False,False
conclusionfor,conclusionfor,conclusionfor,conclusionfor,VERB,True,False
the,the,the,the,DET,True,True
reason,reason,reason,reason,NOUN,True,False
discuss,discuss,discuss,discuss,VERB,True,False
above,above,above,above,ADV,True,True
",",",",",",",",PUNCT,False,False
the,the,the,the,DET,True,True
commission,commission,commission,commission,NOUN,True,False
should,should,should,should,VERB,True,True
adopt,adopt,adopt,adopt,VERB,True,False
a,a,a,a,DET,True,True
definition,definition,definition,definition,NOUN,True,False
of,of,of,of,ADP,True,True
use,use,use,use,NOUN,True,False
that,that,that,that,DET,True,True
allow,allow,allow,allow,VERB,True,False
priority,priority,priority,priority,NOUN,True,False
access,access,access,access,NOUN,True,False
licensees,licensees,licensee,licensee,NOUN,True,False
to,to,to,to,PART,True,True
declare,declare,declare,declare,VERB,True,False
via,via,via,via,ADP,True,True
notice,notice,notice,notice,NOUN,True,False
their,their,-PRON-,-pron-,DET,True,True
intent,intent,intent,intent,NOUN,True,False
to,to,to,to,PART,True,True
initiate,initiate,initiate,initiate,VERB,True,False
transmission,transmission,transmission,transmission,NOUN,True,False
on,on,on,on,ADP,True,True
their,their,-PRON-,-pron-,DET,True,True
license,license,license,license,NOUN,True,False
",",",",",",",",PUNCT,False,False
and,and,and,and,CCONJ,True,True
gaa,gaa,gaa,gaa,VERB,True,False
use,use,use,use,NOUN,True,False
on,on,on,on,ADP,True,True
that,that,that,that,DET,True,True
spectrum,spectrum,spectrum,spectrum,NOUN,True,False
should,should,should,should,VERB,True,True
be,be,be,be,AUX,True,True
prohibit,prohibit,prohibit,prohibit,NOUN,True,False
thereafter,thereafter,thereafter,thereafter,ADV,True,True
.,.,.,.,PUNCT,False,False
the,the,the,the,DET,True,True
commission,commission,commission,commission,NOUN,True,False
should,should,should,should,VERB,True,True
also,also,also,also,ADV,True,True
adopt,adopt,adopt,adopt,VERB,True,False
rule,rule,rule,rule,NOUN,True,False
that,that,that,that,DET,True,True
enable,enable,enable,enable,VERB,True,False
secondary,secondary,secondary,secondary,ADJ,True,False
market,market,market,market,NOUN,True,False
opportunity,opportunity,opportunity,opportunity,NOUN,True,False
for,for,for,for,ADP,True,True
pal,pal,pal,pal,PROPN,True,False
spectrum,spectrum,spectrum,spectrum,NOUN,True,False
.,.,.,.,PUNCT,False,False
by,by,by,by,ADP,True,True
take,take,take,take,VERB,True,True
these,these,these,these,DET,True,True
step,step,step,step,NOUN,True,False
",",",",",",",",PUNCT,False,False
the,the,the,the,DET,True,True
commission,commission,commission,commission,NOUN,True,False
will,will,will,will,VERB,True,True
further,further,further,further,ADV,True,True
promote,promote,promote,promote,VERB,True,False
meaningful,meaningful,meaningful,meaningful,ADJ,True,False
investment,investment,investment,investment,NOUN,True,False
in,in,in,in,ADP,True,True
and,and,and,and,CCONJ,True,True
utilization,utilization,utilization,utilization,NOUN,True,False
of,of,of,of,ADP,True,True
the,the,the,the,DET,True,True
3.5,3.5,3.5,3.5,NUM,False,False
ghz,ghz,ghz,ghz,PROPN,True,False
band,band,band,band,NOUN,True,False
.,.,.,.,PUNCT,False,False
