text,text_lower,lemma,lemma_lower,part_of_speech,is_alphabet,is_stopword
executive,executive,executive,executive,ADJ,True,False
summarythe,summarythe,summarythe,summarythe,DET,True,False
3.5,3.5,3.5,3.5,NUM,False,False
ghz,ghz,ghz,ghz,PROPN,True,False
band,band,band,band,NOUN,True,False
could,could,could,could,VERB,True,True
provide,provide,provide,provide,VERB,True,False
an,an,an,an,DET,True,True
opportunity,opportunity,opportunity,opportunity,NOUN,True,False
to,to,to,to,PART,True,True
allow,allow,allow,allow,VERB,True,False
several,several,several,several,ADJ,True,True
potentially,potentially,potentially,potentially,ADV,True,False
valuable,valuable,valuable,valuable,ADJ,True,False
form,form,form,form,NOUN,True,False
of,of,of,of,ADP,True,True
spectrum,spectrum,spectrum,spectrum,NOUN,True,False
sharing,sharing,sharing,sharing,NOUN,True,False
to,to,to,to,PART,True,True
exist,exist,exist,exist,VERB,True,False
and,and,and,and,CCONJ,True,True
flourish,flourish,flourish,flourish,VERB,True,False
for,for,for,for,ADP,True,True
the,the,the,the,DET,True,True
first,first,first,first,ADJ,True,True
time,time,time,time,NOUN,True,False
.,.,.,.,PUNCT,False,False
one,one,one,one,NUM,True,True
important,important,important,important,ADJ,True,False
example,example,example,example,NOUN,True,False
be,be,be,be,AUX,True,True
the,the,the,the,DET,True,True
realtime,realtime,realtime,realtime,ADJ,True,False
market,market,market,market,NOUN,True,False
for,for,for,for,ADP,True,True
spectrum,spectrum,spectrum,spectrum,NOUN,True,False
with,with,with,with,ADP,True,True
guarantee,guarantee,guarantee,guarantee,NOUN,True,False
protection,protection,protection,protection,NOUN,True,False
from,from,from,from,ADP,True,True
harmful,harmful,harmful,harmful,ADJ,True,False
interference,interference,interference,interference,NOUN,True,False
.,.,.,.,PUNCT,False,False
however,however,however,however,ADV,True,True
",",",",",",",",PUNCT,False,False
the,the,the,the,DET,True,True
fcc,fcc,fcc,fcc,PROPN,True,False
should,should,should,should,VERB,True,True
take,take,take,take,VERB,True,True
additional,additional,additional,additional,ADJ,True,False
step,step,step,step,NOUN,True,False
to,to,to,to,PART,True,True
pave,pave,pave,pave,VERB,True,False
the,the,the,the,DET,True,True
way,way,way,way,NOUN,True,False
for,for,for,for,ADP,True,True
this,this,this,this,DET,True,True
spectrumsharing,spectrumsharing,spectrumsharing,spectrumsharing,ADJ,True,False
approach,approach,approach,approach,NOUN,True,False
",",",",",",",",PUNCT,False,False
include,include,include,include,VERB,True,False
i,i,i,i,PRON,True,True
apply,apply,apply,apply,VERB,True,False
secondary,secondary,secondary,secondary,ADJ,True,False
market,market,market,market,NOUN,True,False
rule,rule,rule,rule,NOUN,True,False
to,to,to,to,ADP,True,True
priority,priority,priority,priority,NOUN,True,False
access,access,access,access,NOUN,True,False
license,license,license,license,NOUN,True,False
pal,pal,pal,pal,NOUN,True,False
in,in,in,in,ADP,True,True
the,the,the,the,DET,True,True
3.5,3.5,3.5,3.5,NUM,False,False
ghz,ghz,ghz,ghz,PROPN,True,False
band,band,band,band,NOUN,True,False
",",",",",",",",PUNCT,False,False
ii,ii,ii,ii,PROPN,True,False
allow,allow,allow,allow,VERB,True,False
pal,pal,pal,pal,PROPN,True,False
to,to,to,to,PART,True,True
be,be,be,be,AUX,True,True
subdivide,subdivide,subdivide,subdivide,NOUN,True,False
in,in,in,in,ADP,True,True
a,a,a,a,DET,True,True
variety,variety,variety,variety,NOUN,True,False
of,of,of,of,ADP,True,True
way,way,way,way,NOUN,True,False
",",",",",",",",PUNCT,False,False
iii,iii,iii,iii,NUM,True,False
minimize,minimize,minimize,minimize,NOUN,True,False
transaction,transaction,transaction,transaction,NOUN,True,False
cost,cost,cost,cost,NOUN,True,False
when,when,when,when,ADV,True,True
pal,pal,pal,pal,PROPN,True,False
be,be,be,be,VERB,True,True
lease,lease,lease,lease,NOUN,True,False
",",",",",",",",PUNCT,False,False
iv,iv,iv,iv,PROPN,True,False
grant,grant,grant,grant,VERB,True,False
pal,pal,pal,pal,NOUN,True,False
in,in,in,in,ADP,True,True
every,every,every,every,DET,True,True
market,market,market,market,NOUN,True,False
where,where,where,where,ADV,True,True
there,there,there,there,PRON,True,True
be,be,be,be,VERB,True,True
at,at,at,at,ADV,True,True
least,least,least,least,ADV,True,True
one,one,one,one,NUM,True,True
bidder,bidder,bidder,bidder,NOUN,True,False
",",",",",",",",PUNCT,False,False
and,and,and,and,CCONJ,True,True
v,v,v,v,X,True,False
make,make,make,make,VERB,True,True
spectrum,spectrum,spectrum,spectrum,NOUN,True,False
cover,cover,cover,cover,NOUN,True,False
by,by,by,by,ADP,True,True
a,a,a,a,DET,True,True
pal,pal,pal,pal,NOUN,True,False
available,available,available,available,ADJ,True,False
for,for,for,for,ADP,True,True
general,general,general,general,ADJ,True,False
authorized,authorized,authorized,authorized,ADJ,True,False
access,access,access,access,NOUN,True,False
gaa,gaa,gaa,gaa,NOUN,True,False
when,when,when,when,ADV,True,True
that,that,that,that,DET,True,True
spectrum,spectrum,spectrum,spectrum,NOUN,True,False
be,be,be,be,AUX,True,True
not,not,not,not,PART,True,True
be,be,be,be,AUX,True,True
use,use,use,use,NOUN,True,False
by,by,by,by,ADP,True,True
the,the,the,the,DET,True,True
pal,pal,pal,pal,PROPN,True,False
holder.1,holder.1,holder.1,holder.1,INTJ,False,False
.,.,.,.,PUNCT,False,False
the,the,the,the,DET,True,True
opportunity,opportunity,opportunity,opportunity,NOUN,True,False
a,a,a,a,DET,True,True
realtime,realtime,realtime,realtime,ADJ,True,False
market,market,market,market,NOUN,True,False
for,for,for,for,ADP,True,True
spectrum,spectrum,spectrum,spectrum,NOUN,True,False
access,access,access,access,NOUN,True,False
with,with,with,with,ADP,True,True
guaranteesthe,guaranteesthe,guaranteesthe,guaranteesthe,DET,True,False
3.5,3.5,3.5,3.5,NUM,False,False
ghz,ghz,ghz,ghz,PROPN,True,False
band,band,band,band,NOUN,True,False
could,could,could,could,VERB,True,True
provide,provide,provide,provide,VERB,True,False
an,an,an,an,DET,True,True
opportunity,opportunity,opportunity,opportunity,NOUN,True,False
to,to,to,to,PART,True,True
allow,allow,allow,allow,VERB,True,False
several,several,several,several,ADJ,True,True
potentially,potentially,potentially,potentially,ADV,True,False
valuable,valuable,valuable,valuable,ADJ,True,False
form,form,form,form,NOUN,True,False
of,of,of,of,ADP,True,True
spectrum,spectrum,spectrum,spectrum,NOUN,True,False
sharing,sharing,sharing,sharing,NOUN,True,False
to,to,to,to,PART,True,True
exist,exist,exist,exist,VERB,True,False
and,and,and,and,CCONJ,True,True
flourish,flourish,flourish,flourish,VERB,True,False
for,for,for,for,ADP,True,True
the,the,the,the,DET,True,True
first,first,first,first,ADJ,True,True
time,time,time,time,NOUN,True,False
.,.,.,.,PUNCT,False,False
while,while,while,while,SCONJ,True,True
some,some,some,some,DET,True,True
of,of,of,of,ADP,True,True
those,those,those,those,DET,True,True
form,form,form,form,NOUN,True,False
of,of,of,of,ADP,True,True
spectrumsharing,spectrumsharing,spectrumsharing,spectrumsharing,NOUN,True,False
would,would,would,would,VERB,True,True
clearly,clearly,clearly,clearly,ADV,True,False
be,be,be,be,AUX,True,True
allow,allow,allow,allow,VERB,True,False
under,under,under,under,ADP,True,True
the,the,the,the,DET,True,True
late,late,late,late,ADJ,True,False
rule,rule,rule,rule,NOUN,True,False
[,[,[,[,PUNCT,False,False
1,1,1,1,NUM,False,False
],],],],PUNCT,False,False
",",",",",",",",PUNCT,False,False
other,other,other,other,ADJ,True,True
form,form,form,form,NOUN,True,False
require,require,require,require,VERB,True,False
change,change,change,change,NOUN,True,False
in,in,in,in,ADP,True,True
or,or,or,or,CCONJ,True,True
clarification,clarification,clarification,clarification,NOUN,True,False
to,to,to,to,ADP,True,True
those,those,those,those,DET,True,True
rule,rule,rule,rule,NOUN,True,False
.,.,.,.,PUNCT,False,False
in,in,in,in,ADP,True,True
particular,particular,particular,particular,ADJ,True,False
",",",",",",",",PUNCT,False,False
i,i,i,i,PRON,True,True
urge,urge,urge,urge,VERB,True,False
the,the,the,the,DET,True,True
fcc,fcc,fcc,fcc,PROPN,True,False
to,to,to,to,PART,True,True
allow,allow,allow,allow,VERB,True,False
efficient,efficient,efficient,efficient,ADJ,True,False
realtime,realtime,realtime,realtime,ADJ,True,False
secondary,secondary,secondary,secondary,ADJ,True,False
market,market,market,market,NOUN,True,False
in,in,in,in,ADP,True,True
access,access,access,access,NOUN,True,False
to,to,to,to,ADP,True,True
spectrum,spectrum,spectrum,spectrum,NOUN,True,False
with,with,with,with,ADP,True,True
guarantee,guarantee,guarantee,guarantee,NOUN,True,False
",",",",",",",",PUNCT,False,False
and,and,and,and,CCONJ,True,True
i,i,i,i,PRON,True,True
propose,propose,propose,propose,VERB,True,False
several,several,several,several,ADJ,True,True
refinement,refinement,refinement,refinement,NOUN,True,False
in,in,in,in,ADP,True,True
the,the,the,the,DET,True,True
regulation,regulation,regulation,regulation,NOUN,True,False
to,to,to,to,PART,True,True
make,make,make,make,VERB,True,True
this,this,this,this,DET,True,True
possible,possible,possible,possible,ADJ,True,False
.,.,.,.,PUNCT,False,False
different,different,different,different,ADJ,True,False
sharing,sharing,sharing,sharing,NOUN,True,False
approach,approach,approach,approach,NOUN,True,False
serve,serve,serve,serve,VERB,True,False
different,different,different,different,ADJ,True,False
purpose,purpose,purpose,purpose,NOUN,True,False
.,.,.,.,PUNCT,False,False
traditional,traditional,traditional,traditional,ADJ,True,False
licensing,licensing,licensing,licensing,NOUN,True,False
provide,provide,provide,provide,VERB,True,False
guarantee,guarantee,guarantee,guarantee,NOUN,True,False
protection,protection,protection,protection,NOUN,True,False
against,against,against,against,ADP,True,True
harmful,harmful,harmful,harmful,ADJ,True,False
interference,interference,interference,interference,NOUN,True,False
for,for,for,for,ADP,True,True
those,those,those,those,DET,True,True
application,application,application,application,NOUN,True,False
that,that,that,that,DET,True,True
need,need,need,need,VERB,True,False
guarantee,guarantee,guarantee,guarantee,NOUN,True,False
",",",",",",",",PUNCT,False,False
but,but,but,but,CCONJ,True,True
it,it,-PRON-,-pron-,PRON,True,True
cause,cause,cause,cause,VERB,True,False
spectrum,spectrum,spectrum,spectrum,NOUN,True,False
to,to,to,to,PART,True,True
sit,sit,sit,sit,VERB,True,False
idle,idle,idle,idle,NOUN,True,False
when,when,when,when,ADV,True,True
the,the,the,the,DET,True,True
licenseholder,licenseholder,licenseholder,licenseholder,NOUN,True,False
do,do,do,do,AUX,True,True
not,not,not,not,PART,True,True
need,need,need,need,VERB,True,False
access,access,access,access,NOUN,True,False
",",",",",",",",PUNCT,False,False
so,so,so,so,CCONJ,True,True
the,the,the,the,DET,True,True
approach,approach,approach,approach,NOUN,True,False
be,be,be,be,AUX,True,True
perfect,perfect,perfect,perfect,ADJ,True,False
for,for,for,for,ADP,True,True
some,some,some,some,DET,True,True
use,use,use,use,NOUN,True,False
and,and,and,and,CCONJ,True,True
highly,highly,highly,highly,ADV,True,False
inefficient,inefficient,inefficient,inefficient,ADJ,True,False
for,for,for,for,ADP,True,True
other,other,other,other,ADJ,True,True
.,.,.,.,PUNCT,False,False
unlicense,unlicense,unlicense,unlicense,PROPN,True,False
spectrum,spectrum,spectrum,spectrum,PROPN,True,False
need,need,nee,nee,VERB,True,False
never,never,never,never,ADV,True,True
sit,sit,sit,sit,VERB,True,False
idle,idle,idle,idle,ADJ,True,False
if,if,if,if,SCONJ,True,True
there,there,there,there,PRON,True,True
be,be,be,be,AUX,True,True
device,device,device,device,NOUN,True,False
that,that,that,that,DET,True,True
wish,wish,wish,wish,VERB,True,False
to,to,to,to,PART,True,True
use,use,use,use,VERB,True,False
it,it,-PRON-,-pron-,PRON,True,True
",",",",",",",",PUNCT,False,False
but,but,but,but,CCONJ,True,True
absolute,absolute,absolute,absolute,ADJ,True,False
quality,quality,quality,quality,NOUN,True,False
of,of,of,of,ADP,True,True
service,service,service,service,NOUN,True,False
guarantee,guarantee,guarantee,guarantee,NOUN,True,False
be,be,be,be,AUX,True,True
not,not,not,not,PART,True,True
possible,possible,possible,possible,ADJ,True,False
over,over,over,over,ADP,True,True
unlicensed,unlicensed,unlicensed,unlicensed,ADJ,True,False
spectrum,spectrum,spectrum,spectrum,NOUN,True,False
",",",",",",",",PUNCT,False,False
so,so,so,so,CCONJ,True,True
the,the,the,the,DET,True,True
approach,approach,approach,approach,NOUN,True,False
be,be,be,be,AUX,True,True
perfect,perfect,perfect,perfect,ADJ,True,False
for,for,for,for,ADP,True,True
some,some,some,some,DET,True,True
use,use,use,use,NOUN,True,False
and,and,and,and,CCONJ,True,True
unacceptable,unacceptable,unacceptable,unacceptable,ADJ,True,False
for,for,for,for,ADP,True,True
other,other,other,other,ADJ,True,True
[,[,[,[,PUNCT,False,False
2].i,2].i,2].i,2].i,NUM,False,False
have,have,have,have,AUX,True,True
long,long,long,long,ADJ,True,False
argue,argue,argue,argue,NOUN,True,False
that,that,that,that,SCONJ,True,True
we,we,-PRON-,-pron-,PRON,True,True
also,also,also,also,ADV,True,True
need,need,need,need,VERB,True,False
spectrum,spectrum,spectrum,spectrum,NOUN,True,False
in,in,in,in,ADP,True,True
which,which,which,which,DET,True,True
multiple,multiple,multiple,multiple,ADJ,True,False
independent,independent,independent,independent,ADJ,True,False
system,system,system,system,NOUN,True,False
can,can,can,can,VERB,True,True
share,share,share,share,VERB,True,False
spectrum,spectrum,spectrum,spectrum,NOUN,True,False
",",",",",",",",PUNCT,False,False
but,but,but,but,CCONJ,True,True
each,each,each,each,DET,True,True
system,system,system,system,NOUN,True,False
can,can,can,can,VERB,True,True
get,get,get,get,AUX,True,True
guarantee,guarantee,guarantee,guarantee,NOUN,True,False
protection,protection,protection,protection,NOUN,True,False
from,from,from,from,ADP,True,True
interference,interference,interference,interference,NOUN,True,False
during,during,during,during,ADP,True,True
those,those,those,those,DET,True,True
sporadic,sporadic,sporadic,sporadic,ADJ,True,False
period,period,period,period,NOUN,True,False
when,when,when,when,ADV,True,True
a,a,a,a,DET,True,True
guarantee,guarantee,guarantee,guarantee,NOUN,True,False
be,be,be,be,AUX,True,True
need,need,nee,nee,VERB,True,False
.,.,.,.,PUNCT,False,False
this,this,this,this,DET,True,True
can,can,can,can,VERB,True,True
be,be,be,be,AUX,True,True
achieve,achieve,achieve,achieve,VERB,True,False
through,through,through,through,ADP,True,True
some,some,some,some,DET,True,True
form,form,form,form,NOUN,True,False
of,of,of,of,ADP,True,True
coordination,coordination,coordination,coordination,NOUN,True,False
[,[,[,[,PUNCT,False,False
3,3,3,3,NUM,False,False
],],],],PUNCT,False,False
.,.,.,.,PUNCT,False,False
for,for,for,for,ADP,True,True
example,example,example,example,NOUN,True,False
",",",",",",",",PUNCT,False,False
we,we,-PRON-,-pron-,PRON,True,True
show,show,show,show,VERB,True,True
that,that,that,that,SCONJ,True,True
great,great,great,great,ADJ,True,False
gain,gain,gain,gain,NOUN,True,False
in,in,in,in,ADP,True,True
spectrum,spectrum,spectrum,spectrum,NOUN,True,False
efficiency,efficiency,efficiency,efficiency,NOUN,True,False
and,and,and,and,CCONJ,True,True
cost,cost,cost,cost,NOUN,True,False
be,be,be,be,AUX,True,True
possible,possible,possible,possible,ADJ,True,False
if,if,if,if,SCONJ,True,True
spectrum,spectrum,spectrum,spectrum,NOUN,True,False
be,be,be,be,AUX,True,True
share,share,share,share,NOUN,True,False
by,by,by,by,ADP,True,True
four,four,four,four,NUM,True,True
independent,independent,independent,independent,ADJ,True,False
cellular,cellular,cellular,cellular,ADJ,True,False
operator,operator,operator,operator,NOUN,True,False
[,[,[,[,PUNCT,False,False
4,4,4,4,NUM,False,False
",",",",",",",",PUNCT,False,False
5,5,5,5,NUM,False,False
],],],],PUNCT,False,False
.,.,.,.,PUNCT,False,False
when,when,when,when,ADV,True,True
no,no,no,no,DET,True,True
spectrum,spectrum,spectrum,spectrum,NOUN,True,False
resource,resource,resource,resource,NOUN,True,False
be,be,be,be,VERB,True,True
share,share,share,share,NOUN,True,False
",",",",",",",",PUNCT,False,False
there,there,there,there,PRON,True,True
will,will,will,will,VERB,True,True
be,be,be,be,AUX,True,True
moment,moment,moment,moment,NOUN,True,False
when,when,when,when,ADV,True,True
operator,operator,operator,operator,NOUN,True,False
a,a,a,a,DET,True,True
do,do,do,do,AUX,True,True
not,not,not,not,PART,True,True
have,have,have,have,AUX,True,True
enough,enough,enough,enough,ADJ,True,True
spectrum,spectrum,spectrum,spectrum,NOUN,True,False
to,to,to,to,PART,True,True
serve,serve,serve,serve,VERB,True,False
all,all,all,all,DET,True,True
of,of,of,of,ADP,True,True
its,its,-PRON-,-pron-,DET,True,True
active,active,active,active,ADJ,True,False
customer,customer,customer,customer,NOUN,True,False
well,well,well,well,ADV,True,True
and,and,and,and,CCONJ,True,True
operator,operator,operator,operator,NOUN,True,False
b,b,b,b,PROPN,True,False
do,do,do,do,AUX,True,True
not,not,not,not,PART,True,True
need,need,need,need,VERB,True,False
all,all,all,all,DET,True,True
of,of,of,of,ADP,True,True
its,its,-PRON-,-pron-,DET,True,True
spectrum,spectrum,spectrum,spectrum,NOUN,True,False
.,.,.,.,PUNCT,False,False
at,at,at,at,ADP,True,True
other,other,other,other,ADJ,True,True
time,time,time,time,NOUN,True,False
",",",",",",",",PUNCT,False,False
it,it,-PRON-,-pron-,PRON,True,True
may,may,may,may,VERB,True,True
be,be,be,be,AUX,True,True
operator,operator,operator,operator,NOUN,True,False
b,b,b,b,PROPN,True,False
that,that,that,that,DET,True,True
need,need,need,need,VERB,True,False
more,more,more,more,ADV,True,True
spectrum,spectrum,spectrum,spectrum,NOUN,True,False
",",",",",",",",PUNCT,False,False
and,and,and,and,CCONJ,True,True
operator,operator,operator,operator,NOUN,True,False
a,a,a,a,DET,True,True
that,that,that,that,DET,True,True
have,have,have,have,AUX,True,True
spectrum,spectrum,spectrum,spectrum,NOUN,True,False
to,to,to,to,PART,True,True
spare,spare,spare,spare,VERB,True,False
.,.,.,.,PUNCT,False,False
when,when,when,when,ADV,True,True
some,some,some,some,DET,True,True
spectrum,spectrum,spectrum,spectrum,NOUN,True,False
be,be,be,be,VERB,True,True
available,available,available,available,ADJ,True,False
to,to,to,to,ADP,True,True
multiple,multiple,multiple,multiple,ADJ,True,False
operator,operator,operator,operator,NOUN,True,False
as,as,as,as,SCONJ,True,True
need,need,need,need,NOUN,True,False
",",",",",",",",PUNCT,False,False
and,and,and,and,CCONJ,True,True
there,there,there,there,PRON,True,True
be,be,be,be,AUX,True,True
some,some,some,some,DET,True,True
mechanism,mechanism,mechanism,mechanism,NOUN,True,False
to,to,to,to,PART,True,True
ensure,ensure,ensure,ensure,VERB,True,False
that,that,that,that,SCONJ,True,True
only,only,only,only,ADV,True,True
one,one,one,one,NUM,True,True
will,will,will,will,VERB,True,True
use,use,use,use,VERB,True,False
the,the,the,the,DET,True,True
spectrum,spectrum,spectrum,spectrum,NOUN,True,False
at,at,at,at,ADP,True,True
a,a,a,a,DET,True,True
time,time,time,time,NOUN,True,False
",",",",",",",",PUNCT,False,False
they,they,-PRON-,-pron-,PRON,True,True
can,can,can,can,VERB,True,True
all,all,all,all,ADV,True,True
provide,provide,provide,provide,VERB,True,False
well,well,well,well,ADJ,True,True
service,service,service,service,NOUN,True,False
in,in,in,in,ADP,True,True
less,less,less,less,ADJ,True,True
spectrum,spectrum,spectrum,spectrum,NOUN,True,False
.,.,.,.,PUNCT,False,False
alternatively,alternatively,alternatively,alternatively,ADV,True,False
",",",",",",",",PUNCT,False,False
spectrum,spectrum,spectrum,spectrum,NOUN,True,False
could,could,could,could,VERB,True,True
be,be,be,be,AUX,True,True
make,make,make,make,VERB,True,True
available,available,available,available,ADJ,True,False
for,for,for,for,ADP,True,True
a,a,a,a,DET,True,True
wide,wide,wide,wide,ADJ,True,False
range,range,range,range,NOUN,True,False
of,of,of,of,ADP,True,True
use,use,use,use,NOUN,True,False
in,in,in,in,ADP,True,True
a,a,a,a,DET,True,True
realtime,realtime,realtime,realtime,ADJ,True,False
secondary,secondary,secondary,secondary,ADJ,True,False
market,market,market,market,NOUN,True,False
as,as,as,as,SCONJ,True,True
propose,propose,propose,propose,NOUN,True,False
in,in,in,in,ADP,True,True
[,[,[,[,PUNCT,False,False
6,6,6,6,NUM,False,False
],],],],PUNCT,False,False
",",",",",",",",PUNCT,False,False
wherein,wherein,wherein,wherein,ADV,True,True
secondary,secondary,secondary,secondary,ADJ,True,False
user,user,user,user,NOUN,True,False
can,can,can,can,VERB,True,True
request,request,request,request,VERB,True,False
spectrum,spectrum,spectrum,spectrum,NOUN,True,False
at,at,at,at,ADP,True,True
any,any,any,any,DET,True,True
time,time,time,time,NOUN,True,False
.,.,.,.,PUNCT,False,False
the,the,the,the,DET,True,True
spectrumholder,spectrumholder,spectrumholder,spectrumholder,NOUN,True,False
will,will,will,will,VERB,True,True
either,either,either,either,CCONJ,True,True
accept,accept,accept,accept,VERB,True,False
the,the,the,the,DET,True,True
request,request,request,request,NOUN,True,False
",",",",",",",",PUNCT,False,False
make,make,make,make,VERB,True,True
the,the,the,the,DET,True,True
spectrum,spectrum,spectrum,spectrum,NOUN,True,False
available,available,available,available,ADJ,True,False
and,and,and,and,CCONJ,True,True
guarantee,guarantee,guarantee,guarantee,VERB,True,False
protection,protection,protection,protection,NOUN,True,False
from,from,from,from,ADP,True,True
harmful,harmful,harmful,harmful,ADJ,True,False
interference,interference,interference,interference,NOUN,True,False
for,for,for,for,ADP,True,True
as,as,as,as,ADV,True,True
long,long,long,long,ADV,True,False
as,as,as,as,SCONJ,True,True
the,the,the,the,DET,True,True
requester,requester,requester,requester,NOUN,True,False
wish,wish,wish,wish,NOUN,True,False
",",",",",",",",PUNCT,False,False
or,or,or,or,CCONJ,True,True
it,it,-PRON-,-pron-,PRON,True,True
will,will,will,will,VERB,True,True
deny,deny,deny,deny,VERB,True,False
the,the,the,the,DET,True,True
request,request,request,request,NOUN,True,False
",",",",",",",",PUNCT,False,False
perhaps,perhaps,perhaps,perhaps,ADV,True,True
cause,cause,cause,cause,VERB,True,False
the,the,the,the,DET,True,True
requester,requester,requester,requester,NOUN,True,False
to,to,to,to,PART,True,True
seek,seek,seek,seek,VERB,True,False
spectrum,spectrum,spectrum,spectrum,NOUN,True,False
from,from,from,from,ADP,True,True
another,another,another,another,DET,True,True
spectrumholder,spectrumholder,spectrumholder,spectrumholder,NOUN,True,False
.,.,.,.,PUNCT,False,False
scheme,scheme,scheme,scheme,NOUN,True,False
like,like,like,like,SCONJ,True,False
this,this,this,this,DET,True,True
require,require,require,require,VERB,True,False
the,the,the,the,DET,True,True
existence,existence,existence,existence,NOUN,True,False
of,of,of,of,ADP,True,True
some,some,some,some,DET,True,True
centralized,centralized,centralized,centralized,ADJ,True,False
entity,entity,entity,entity,NOUN,True,False
that,that,that,that,DET,True,True
be,be,be,be,VERB,True,True
able,able,able,able,ADJ,True,False
to,to,to,to,PART,True,True
communicate,communicate,communicate,communicate,VERB,True,False
with,with,with,with,ADP,True,True
all,all,all,all,DET,True,True
secondary,secondary,secondary,secondary,ADJ,True,False
spectrum,spectrum,spectrum,spectrum,NOUN,True,False
user,user,user,user,NOUN,True,False
so,so,so,so,SCONJ,True,True
it,it,-PRON-,-pron-,PRON,True,True
can,can,can,can,VERB,True,True
accept,accept,accept,accept,VERB,True,False
and,and,and,and,CCONJ,True,True
respond,respond,respond,respond,VERB,True,False
to,to,to,to,PART,True,True
request,request,request,request,NOUN,True,False
.,.,.,.,PUNCT,False,False
before,before,before,before,ADP,True,True
the,the,the,the,DET,True,True
idea,idea,idea,idea,NOUN,True,False
of,of,of,of,ADP,True,True
spectrum,spectrum,spectrum,spectrum,PROPN,True,False
access,access,access,access,PROPN,True,False
systems,systems,systems,systems,PROPN,True,False
sass,sass,sass,sass,NOUN,True,False
emerge,emerge,emerge,emerge,NOUN,True,False
",",",",",",",",PUNCT,False,False
i,i,i,i,PRON,True,True
suggest,suggest,suggest,suggest,VERB,True,False
[,[,[,[,PUNCT,False,False
6,6,6,6,NUM,False,False
],],],],PUNCT,False,False
that,that,that,that,SCONJ,True,True
cellular,cellular,cellular,cellular,ADJ,True,False
carrier,carrier,carrier,carrier,NOUN,True,False
be,be,be,be,AUX,True,True
wellpositione,wellpositione,wellpositione,wellpositione,NOUN,True,False
to,to,to,to,PART,True,True
play,play,play,play,VERB,True,False
this,this,this,this,DET,True,True
function,function,function,function,NOUN,True,False
",",",",",",",",PUNCT,False,False
because,because,because,because,SCONJ,True,True
cellular,cellular,cellular,cellular,ADJ,True,False
system,system,system,system,NOUN,True,False
be,be,be,be,AUX,True,True
easily,easily,easily,easily,ADV,True,False
reachable,reachable,reachable,reachable,ADJ,True,False
throughout,throughout,throughout,throughout,ADP,True,True
their,their,-PRON-,-pron-,DET,True,True
service,service,service,service,NOUN,True,False
area,area,area,area,NOUN,True,False
.,.,.,.,PUNCT,False,False
however,however,however,however,ADV,True,True
",",",",",",",",PUNCT,False,False
a,a,a,a,DET,True,True
sas,sas,sas,sas,PROPN,True,False
of,of,of,of,ADP,True,True
the,the,the,the,DET,True,True
kind,kind,kind,kind,NOUN,True,False
already,already,already,already,ADV,True,True
anticipate,anticipate,anticipate,anticipate,ADJ,True,False
for,for,for,for,ADP,True,True
3.5,3.5,3.5,3.5,NUM,False,False
ghz,ghz,ghz,ghz,NOUN,True,False
could,could,could,could,VERB,True,True
also,also,also,also,ADV,True,True
provide,provide,provide,provide,VERB,True,False
this,this,this,this,DET,True,True
function,function,function,function,NOUN,True,False
.,.,.,.,PUNCT,False,False
thus,thus,thus,thus,ADV,True,True
",",",",",",",",PUNCT,False,False
by,by,by,by,ADP,True,True
create,create,create,create,VERB,True,False
priority,priority,priority,priority,NOUN,True,False
access,access,access,access,NOUN,True,False
license,license,license,license,NOUN,True,False
pal,pal,pal,pal,NOUN,True,False
for,for,for,for,ADP,True,True
spectrum,spectrum,spectrum,spectrum,PROPN,True,False
access,access,access,access,NOUN,True,False
",",",",",",",",PUNCT,False,False
by,by,by,by,ADP,True,True
make,make,make,make,VERB,True,True
the,the,the,the,DET,True,True
spectrum,spectrum,spectrum,spectrum,NOUN,True,False
usable,usable,usable,usable,ADJ,True,False
for,for,for,for,ADP,True,True
other,other,other,other,ADJ,True,True
purpose,purpose,purpose,purpose,NOUN,True,False
i.e.,i.e.,i.e.,i.e.,X,False,False
general,general,general,general,ADJ,True,False
authorized,authorized,authorized,authorized,ADJ,True,False
access,access,access,access,NOUN,True,False
",",",",",",",",PUNCT,False,False
or,or,or,or,CCONJ,True,True
gaa,gaa,gaa,gaa,NOUN,True,False
when,when,when,when,ADV,True,True
not,not,not,not,PART,True,True
use,use,use,use,NOUN,True,False
by,by,by,by,ADP,True,True
the,the,the,the,DET,True,True
palholder,palholder,palholder,palholder,NOUN,True,False
",",",",",",",",PUNCT,False,False
and,and,and,and,CCONJ,True,True
by,by,by,by,ADP,True,True
establish,establish,establish,establish,VERB,True,False
the,the,the,the,DET,True,True
sas,sas,sas,sas,PROPN,True,False
to,to,to,to,PART,True,True
govern,govern,govern,govern,VERB,True,False
spectrum,spectrum,spectrum,spectrum,NOUN,True,False
access,access,access,access,NOUN,True,False
",",",",",",",",PUNCT,False,False
the,the,the,the,DET,True,True
rule,rule,rule,rule,NOUN,True,False
for,for,for,for,ADP,True,True
3.5,3.5,3.5,3.5,NUM,False,False
ghz,ghz,ghz,ghz,NOUN,True,False
provide,provide,provide,provide,VERB,True,False
an,an,an,an,DET,True,True
unprecedented,unprecedented,unprecedented,unprecedented,ADJ,True,False
opportunity,opportunity,opportunity,opportunity,NOUN,True,False
to,to,to,to,PART,True,True
try,try,try,try,VERB,True,False
realtime,realtime,realtime,realtime,ADJ,True,False
secondary,secondary,secondary,secondary,ADJ,True,False
market,market,market,market,NOUN,True,False
for,for,for,for,ADP,True,True
spectrum,spectrum,spectrum,spectrum,NOUN,True,False
.,.,.,.,PUNCT,False,False
however,however,however,however,ADV,True,True
",",",",",",",",PUNCT,False,False
to,to,to,to,PART,True,True
realize,realize,realize,realize,VERB,True,False
this,this,this,this,DET,True,True
opportunity,opportunity,opportunity,opportunity,NOUN,True,False
",",",",",",",",PUNCT,False,False
the,the,the,the,DET,True,True
follow,follow,follow,follow,ADJ,True,False
refinement,refinement,refinement,refinement,NOUN,True,False
in,in,in,in,ADP,True,True
the,the,the,the,DET,True,True
propose,propose,propose,propose,NOUN,True,False
rule,rule,rule,rule,NOUN,True,False
be,be,be,be,AUX,True,True
needed2,needed2,needed2,needed2,NOUN,False,False
.,.,.,.,PUNCT,False,False
secondary,secondary,secondary,secondary,ADJ,True,False
market,market,market,market,NOUN,True,False
rule,rule,rule,rule,NOUN,True,False
should,should,should,should,VERB,True,True
apply,apply,apply,apply,VERB,True,False
to,to,to,to,ADP,True,True
pals,pals,pal,pal,NOUN,True,False
.,.,.,.,PUNCT,False,False
a,a,a,a,DET,True,True
secondary,secondary,secondary,secondary,ADJ,True,False
market,market,market,market,NOUN,True,False
for,for,for,for,ADP,True,True
pal,pal,pal,pal,PROPN,True,False
would,would,would,would,VERB,True,True
help,help,help,help,VERB,True,False
to,to,to,to,PART,True,True
ensure,ensure,ensure,ensure,VERB,True,False
that,that,that,that,SCONJ,True,True
each,each,each,each,DET,True,True
pal,pal,pal,pal,NOUN,True,False
go,go,go,go,VERB,True,True
to,to,to,to,ADP,True,True
whomever,whomever,whomever,whomever,NOUN,True,False
value,value,value,value,VERB,True,False
it,it,-PRON-,-pron-,PRON,True,True
the,the,the,the,DET,True,True
most,most,most,most,ADV,True,True
.,.,.,.,PUNCT,False,False
as,as,as,as,ADV,True,True
long,long,long,long,ADV,True,False
as,as,as,as,SCONJ,True,True
the,the,the,the,DET,True,True
same,same,same,same,ADJ,True,True
technical,technical,technical,technical,ADJ,True,False
rule,rule,rule,rule,NOUN,True,False
apply,apply,apply,apply,VERB,True,False
after,after,after,after,ADP,True,True
a,a,a,a,DET,True,True
pal,pal,pal,pal,ADJ,True,False
change,change,change,change,NOUN,True,False
hand,hand,hand,hand,NOUN,True,False
",",",",",",",",PUNCT,False,False
other,other,other,other,ADJ,True,True
spectrum,spectrum,spectrum,spectrum,NOUN,True,False
user,user,user,user,NOUN,True,False
should,should,should,should,VERB,True,True
not,not,not,not,PART,True,True
be,be,be,be,AUX,True,True
adversely,adversely,adversely,adversely,ADV,True,False
affect,affect,affect,affect,VERB,True,False
by,by,by,by,ADP,True,True
a,a,a,a,DET,True,True
secondary,secondary,secondary,secondary,ADJ,True,False
market,market,market,market,NOUN,True,False
for,for,for,for,ADP,True,True
pal,pal,pal,pal,PROPN,True,False
.,.,.,.,PUNCT,False,False
fcc,fcc,fcc,fcc,PROPN,True,False
rule,rule,rule,rule,NOUN,True,False
should,should,should,should,VERB,True,True
allow,allow,allow,allow,VERB,True,False
pal,pal,pal,pal,NOUN,True,False
to,to,to,to,PART,True,True
be,be,be,be,AUX,True,True
subdivide,subdivide,subdivide,subdivide,NOUN,True,False
by,by,by,by,ADP,True,True
area,area,area,area,NOUN,True,False
",",",",",",",",PUNCT,False,False
frequency,frequency,frequency,frequency,NOUN,True,False
",",",",",",",",PUNCT,False,False
time,time,time,time,NOUN,True,False
",",",",",",",",PUNCT,False,False
and,and,and,and,CCONJ,True,True
other,other,other,other,ADJ,True,True
factor,factor,factor,factor,NOUN,True,False
.,.,.,.,PUNCT,False,False
the,the,the,the,DET,True,True
fcc,fcc,fcc,fcc,PROPN,True,False
have,have,have,have,AUX,True,True
decide,decide,decide,decide,VERB,True,False
to,to,to,to,PART,True,True
make,make,make,make,VERB,True,True
3.5,3.5,3.5,3.5,NUM,False,False
ghz,ghz,ghz,ghz,NOUN,True,False
spectrum,spectrum,spectrum,spectrum,NOUN,True,False
available,available,available,available,ADJ,True,False
in,in,in,in,ADP,True,True
censustractthreeyear10mhz,censustractthreeyear10mhz,censustractthreeyear10mhz,censustractthreeyear10mhz,PROPN,False,False
block,block,block,block,NOUN,True,False
.,.,.,.,PUNCT,False,False
some,some,some,some,DET,True,True
spectrum,spectrum,spectrum,spectrum,PROPN,True,False
user,user,user,user,NOUN,True,False
will,will,will,will,VERB,True,True
not,not,not,not,PART,True,True
need,need,need,need,VERB,True,False
that,that,that,that,DET,True,True
entire,entire,entire,entire,ADJ,True,False
block,block,block,block,NOUN,True,False
",",",",",",",",PUNCT,False,False
and,and,and,and,CCONJ,True,True
thus,thus,thus,thus,ADV,True,True
much,much,much,much,ADJ,True,True
of,of,of,of,ADP,True,True
the,the,the,the,DET,True,True
efficiency,efficiency,efficiency,efficiency,NOUN,True,False
gain,gain,gain,gain,NOUN,True,False
from,from,from,from,ADP,True,True
a,a,a,a,DET,True,True
secondary,secondary,secondary,secondary,ADJ,True,False
market,market,market,market,NOUN,True,False
for,for,for,for,ADP,True,True
spectrum,spectrum,spectrum,spectrum,PROPN,True,False
may,may,may,may,VERB,True,True
come,come,come,come,VERB,True,False
from,from,from,from,ADP,True,True
empower,empower,empower,empower,NOUN,True,False
a,a,a,a,DET,True,True
palholder,palholder,palholder,palholder,NOUN,True,False
to,to,to,to,PART,True,True
allow,allow,allow,allow,VERB,True,False
multiple,multiple,multiple,multiple,ADJ,True,False
system,system,system,system,NOUN,True,False
to,to,to,to,PART,True,True
share,share,share,share,VERB,True,False
the,the,the,the,DET,True,True
same,same,same,same,ADJ,True,True
spectrum,spectrum,spectrum,spectrum,NOUN,True,False
block,block,block,block,NOUN,True,False
in,in,in,in,ADP,True,True
way,way,way,way,NOUN,True,False
that,that,that,that,DET,True,True
protect,protect,protect,protect,VERB,True,False
all,all,all,all,DET,True,True
party,party,party,party,NOUN,True,False
from,from,from,from,ADP,True,True
harmful,harmful,harmful,harmful,ADJ,True,False
interference,interference,interference,interference,NOUN,True,False
.,.,.,.,PUNCT,False,False
for,for,for,for,ADP,True,True
this,this,this,this,DET,True,True
",",",",",",",",PUNCT,False,False
a,a,a,a,DET,True,True
palholder,palholder,palholder,palholder,NOUN,True,False
should,should,should,should,VERB,True,True
have,have,have,have,AUX,True,True
the,the,the,the,DET,True,True
right,right,right,right,NOUN,True,False
to,to,to,to,PART,True,True
subdivide,subdivide,subdivide,subdivide,VERB,True,False
the,the,the,the,DET,True,True
pal,pal,pal,pal,NOUN,True,False
.,.,.,.,PUNCT,False,False
this,this,this,this,DET,True,True
include,include,include,include,VERB,True,False
partition,partition,partition,partition,NOUN,True,False
by,by,by,by,ADP,True,True
area,area,area,area,NOUN,True,False
",",",",",",",",PUNCT,False,False
disaggregate,disaggregate,disaggregate,disaggregate,VERB,True,False
by,by,by,by,ADP,True,True
frequency,frequency,frequency,frequency,NOUN,True,False
",",",",",",",",PUNCT,False,False
and,and,and,and,CCONJ,True,True
other,other,other,other,ADJ,True,True
method,method,method,method,NOUN,True,False
of,of,of,of,ADP,True,True
subdivision,subdivision,subdivision,subdivision,NOUN,True,False
as,as,as,as,ADV,True,True
well,well,well,well,ADV,True,True
.,.,.,.,PUNCT,False,False
this,this,this,this,DET,True,True
require,require,require,require,VERB,True,False
a,a,a,a,DET,True,True
change,change,change,change,NOUN,True,False
in,in,in,in,ADP,True,True
direction,direction,direction,direction,NOUN,True,False
",",",",",",",",PUNCT,False,False
because,because,because,because,SCONJ,True,True
accord,accord,accord,accord,NOUN,True,False
to,to,to,to,ADP,True,True
the,the,the,the,DET,True,True
fcc,fcc,fcc,fcc,PROPN,True,False
report,report,report,report,NOUN,True,False
and,and,and,and,CCONJ,True,True
order,order,order,order,NOUN,True,False
paragraph,paragraph,paragraph,paragraph,NOUN,True,False
434,434,434,434,NUM,False,False
",",",",",",",",PUNCT,False,False
[,[,[,[,PUNCT,False,False
1,1,1,1,NUM,False,False
],],],],PUNCT,False,False
",",",",",",",",PUNCT,False,False
regard,regard,regard,regard,NOUN,True,False
partitioning,partitioning,partitioning,partitioning,NOUN,True,False
and,and,and,and,CCONJ,True,True
disaggregation,disaggregation,disaggregation,disaggregation,NOUN,True,False
",",",",",",",",PUNCT,False,False
our,our,-PRON-,-pron-,DET,True,True
initial,initial,initial,initial,ADJ,True,False
view,view,view,view,NOUN,True,False
be,be,be,be,AUX,True,True
to,to,to,to,PART,True,True
prohibit,prohibit,prohibit,prohibit,VERB,True,False
such,such,such,such,ADJ,True,True
further,further,further,further,ADJ,True,True
segmentation,segmentation,segmentation,segmentation,NOUN,True,False
of,of,of,of,ADP,True,True
pal,pal,pal,pal,NOUN,True,False
give,give,give,give,VERB,True,True
their,their,-PRON-,-pron-,DET,True,True
relatively,relatively,relatively,relatively,ADV,True,False
small,small,small,small,ADJ,True,False
size,size,size,size,NOUN,True,False
census,census,census,census,NOUN,True,False
tract,tract,tract,tract,NOUN,True,False
and,and,and,and,CCONJ,True,True
limited,limited,limited,limited,ADJ,True,False
duration,duration,duration,duration,NOUN,True,False
three,three,three,three,NUM,True,True
year,year,year,year,NOUN,True,False
.,.,.,.,PUNCT,False,False
it,it,-PRON-,-pron-,PRON,True,True
be,be,be,be,AUX,True,True
not,not,not,not,PART,True,True
true,true,true,true,ADJ,True,False
that,that,that,that,SCONJ,True,True
all,all,all,all,DET,True,True
census,census,census,census,NOUN,True,False
tract,tract,tract,tract,NOUN,True,False
be,be,be,be,AUX,True,True
small,small,small,small,ADJ,True,False
.,.,.,.,PUNCT,False,False
tract,tract,tract,tract,NOUN,True,False
vary,vary,vary,vary,VERB,True,False
in,in,in,in,ADP,True,True
size,size,size,size,NOUN,True,False
by,by,by,by,ADP,True,True
many,many,many,many,ADJ,True,True
order,order,order,order,NOUN,True,False
of,of,of,of,ADP,True,True
magnitude,magnitude,magnitude,magnitude,NOUN,True,False
",",",",",",",",PUNCT,False,False
and,and,and,and,CCONJ,True,True
more,more,more,more,ADJ,True,True
than,than,than,than,SCONJ,True,True
450,450,450,450,NUM,False,False
u.s,u.s,u.s,u.s,PROPN,False,False
.,.,.,.,PROPN,False,False
census,census,census,census,NOUN,True,False
tract,tract,tract,tract,NOUN,True,False
be,be,be,be,AUX,True,True
large,large,large,large,ADJ,True,False
than,than,than,than,SCONJ,True,True
1000,1000,1000,1000,NUM,False,False
square,square,square,square,ADJ,True,False
mile,mile,mile,mile,NOUN,True,False
[,[,[,[,PUNCT,False,False
7,7,7,7,NUM,False,False
],],],],PUNCT,False,False
.,.,.,.,PUNCT,False,False
there,there,there,there,PRON,True,True
be,be,be,be,AUX,True,True
certainly,certainly,certainly,certainly,ADV,True,False
case,case,case,case,NOUN,True,False
where,where,where,where,ADV,True,True
two,two,two,two,NUM,True,True
independent,independent,independent,independent,ADJ,True,False
wireless,wireless,wireless,wireless,NOUN,True,False
system,system,system,system,NOUN,True,False
can,can,can,can,VERB,True,True
operate,operate,operate,operate,VERB,True,False
within,within,within,within,ADP,True,True
the,the,the,the,DET,True,True
same,same,same,same,ADJ,True,True
1000,1000,1000,1000,NUM,False,False
square,square,square,square,ADJ,True,False
mile,mile,mile,mile,NOUN,True,False
with,with,with,with,ADP,True,True
no,no,no,no,DET,True,True
risk,risk,risk,risk,NOUN,True,False
of,of,of,of,ADP,True,True
harmful,harmful,harmful,harmful,ADJ,True,False
interference,interference,interference,interference,NOUN,True,False
.,.,.,.,PUNCT,False,False
we,we,-PRON-,-pron-,PRON,True,True
should,should,should,should,VERB,True,True
also,also,also,also,ADV,True,True
not,not,not,not,PART,True,True
think,think,think,think,VERB,True,False
of,of,of,of,ADP,True,True
three,three,three,three,NUM,True,True
year,year,year,year,NOUN,True,False
as,as,as,as,SCONJ,True,True
small,small,small,small,ADJ,True,False
.,.,.,.,PUNCT,False,False
there,there,there,there,PRON,True,True
could,could,could,could,VERB,True,True
easily,easily,easily,easily,ADV,True,False
be,be,be,be,AUX,True,True
festival,festival,festival,festival,NOUN,True,False
organizer,organizer,organizer,organizer,NOUN,True,False
that,that,that,that,DET,True,True
want,want,want,want,VERB,True,False
guarantee,guarantee,guarantee,guarantee,NOUN,True,False
access,access,access,access,NOUN,True,False
to,to,to,to,ADP,True,True
spectrum,spectrum,spectrum,spectrum,NOUN,True,False
for,for,for,for,ADP,True,True
a,a,a,a,DET,True,True
few,few,few,few,ADJ,True,True
day,day,day,day,NOUN,True,False
",",",",",",",",PUNCT,False,False
or,or,or,or,CCONJ,True,True
mobile,mobile,mobile,mobile,ADJ,True,False
news,news,news,news,NOUN,True,False
crew,crew,crew,crew,NOUN,True,False
that,that,that,that,DET,True,True
want,want,want,want,VERB,True,False
guarantee,guarantee,guarantee,guarantee,NOUN,True,False
access,access,access,access,NOUN,True,False
for,for,for,for,ADP,True,True
a,a,a,a,DET,True,True
few,few,few,few,ADJ,True,True
minute,minute,minute,minute,NOUN,True,False
.,.,.,.,PUNCT,False,False
spectrum,spectrum,spectrum,spectrum,PROPN,True,False
can,can,can,can,VERB,True,True
similarly,similarly,similarly,similarly,ADV,True,False
be,be,be,be,AUX,True,True
divide,divide,divide,divide,NOUN,True,False
by,by,by,by,ADP,True,True
frequency,frequency,frequency,frequency,NOUN,True,False
range,range,range,range,NOUN,True,False
",",",",",",",",PUNCT,False,False
as,as,as,as,SCONJ,True,True
not,not,not,not,PART,True,True
everyone,everyone,everyone,everyone,PRON,True,True
will,will,will,will,VERB,True,True
need,need,need,need,VERB,True,False
the,the,the,the,DET,True,True
full,full,full,full,ADJ,True,True
10,10,10,10,NUM,False,False
mhz,mhz,mhz,mhz,NOUN,True,False
.,.,.,.,PUNCT,False,False
moreover,moreover,moreover,moreover,ADV,True,True
",",",",",",",",PUNCT,False,False
it,it,-PRON-,-pron-,PRON,True,True
be,be,be,be,AUX,True,True
not,not,not,not,PART,True,True
always,always,always,always,ADV,True,True
necessary,necessary,necessary,necessary,ADJ,True,False
to,to,to,to,PART,True,True
subdivide,subdivide,subdivide,subdivide,VERB,True,False
spectrum,spectrum,spectrum,spectrum,NOUN,True,False
into,into,into,into,ADP,True,True
entirely,entirely,entirely,entirely,ADV,True,False
separate,separate,separate,separate,ADJ,True,False
piece,piece,piece,piece,NOUN,True,False
in,in,in,in,ADP,True,True
order,order,order,order,NOUN,True,False
to,to,to,to,PART,True,True
guarantee,guarantee,guarantee,guarantee,VERB,True,False
that,that,that,that,SCONJ,True,True
all,all,all,all,DET,True,True
party,party,party,party,NOUN,True,False
with,with,with,with,ADP,True,True
access,access,access,access,NOUN,True,False
be,be,be,be,AUX,True,True
protect,protect,protect,protect,ADJ,True,False
from,from,from,from,ADP,True,True
harmful,harmful,harmful,harmful,ADJ,True,False
interference,interference,interference,interference,NOUN,True,False
.,.,.,.,PUNCT,False,False
there,there,there,there,PRON,True,True
be,be,be,be,AUX,True,True
many,many,many,many,ADJ,True,True
way,way,way,way,NOUN,True,False
to,to,to,to,PART,True,True
provide,provide,provide,provide,VERB,True,False
grayspace,grayspace,grayspace,grayspace,NOUN,True,False
sharing,sharing,sharing,sharing,NOUN,True,False
[,[,[,[,PUNCT,False,False
8,8,8,8,NUM,False,False
.,.,.,.,PUNCT,False,False
9,9,9,9,NUM,False,False
],],],],PUNCT,False,False
",",",",",",",",PUNCT,False,False
where,where,where,where,ADV,True,True
system,system,system,system,NOUN,True,False
operate,operate,operate,operate,VERB,True,False
in,in,in,in,ADP,True,True
the,the,the,the,DET,True,True
same,same,same,same,ADJ,True,True
area,area,area,area,NOUN,True,False
",",",",",",",",PUNCT,False,False
in,in,in,in,ADP,True,True
the,the,the,the,DET,True,True
same,same,same,same,ADJ,True,True
frequency,frequency,frequency,frequency,NOUN,True,False
band,band,band,band,NOUN,True,False
",",",",",",",",PUNCT,False,False
and,and,and,and,CCONJ,True,True
at,at,at,at,ADP,True,True
the,the,the,the,DET,True,True
same,same,same,same,ADJ,True,True
time,time,time,time,NOUN,True,False
",",",",",",",",PUNCT,False,False
but,but,but,but,CCONJ,True,True
use,use,use,use,VERB,True,False
some,some,some,some,DET,True,True
technical,technical,technical,technical,ADJ,True,False
approach,approach,approach,approach,NOUN,True,False
to,to,to,to,PART,True,True
prevent,prevent,prevent,prevent,VERB,True,False
harmful,harmful,harmful,harmful,ADJ,True,False
interference,interference,interference,interference,NOUN,True,False
.,.,.,.,PUNCT,False,False
grayspace,grayspace,grayspace,grayspace,NOUN,True,False
sharing,sharing,sharing,sharing,NOUN,True,False
require,require,require,require,VERB,True,False
a,a,a,a,DET,True,True
great,great,great,great,ADJ,True,False
level,level,level,level,NOUN,True,False
of,of,of,of,ADP,True,True
technical,technical,technical,technical,ADJ,True,False
coordination,coordination,coordination,coordination,NOUN,True,False
[,[,[,[,PUNCT,False,False
8,8,8,8,NUM,False,False
],],],],PUNCT,False,False
",",",",",",",",PUNCT,False,False
but,but,but,but,CCONJ,True,True
if,if,if,if,SCONJ,True,True
the,the,the,the,DET,True,True
palholder,palholder,palholder,palholder,NOUN,True,False
choose,choose,choose,choose,VERB,True,False
to,to,to,to,PART,True,True
provide,provide,provide,provide,VERB,True,False
that,that,that,that,SCONJ,True,True
coordination,coordination,coordination,coordination,NOUN,True,False
when,when,when,when,ADV,True,True
lease,lease,lease,lease,VERB,True,False
its,its,-PRON-,-pron-,DET,True,True
pal,pal,pal,pal,NOUN,True,False
to,to,to,to,ADP,True,True
multiple,multiple,multiple,multiple,ADJ,True,False
entity,entity,entity,entity,NOUN,True,False
",",",",",",",",PUNCT,False,False
then,then,then,then,ADV,True,True
there,there,there,there,PRON,True,True
be,be,be,be,AUX,True,True
no,no,no,no,DET,True,True
reason,reason,reason,reason,NOUN,True,False
for,for,for,for,ADP,True,True
the,the,the,the,DET,True,True
fcc,fcc,fcc,fcc,PROPN,True,False
to,to,to,to,PART,True,True
prohibit,prohibit,prohibit,prohibit,VERB,True,False
the,the,the,the,DET,True,True
practice,practice,practice,practice,NOUN,True,False
as,as,as,as,ADV,True,True
long,long,long,long,ADV,True,False
as,as,as,as,SCONJ,True,True
all,all,all,all,DET,True,True
party,party,party,party,NOUN,True,False
obey,obey,obey,obey,VERB,True,False
the,the,the,the,DET,True,True
technical,technical,technical,technical,ADJ,True,False
and,and,and,and,CCONJ,True,True
nontechnical,nontechnical,nontechnical,nontechnical,ADJ,True,False
rule,rule,rule,rule,NOUN,True,False
associate,associate,associate,associate,NOUN,True,False
with,with,with,with,ADP,True,True
that,that,that,that,DET,True,True
pal.4,pal.4,pal.4,pal.4,NOUN,False,False
.,.,.,.,PUNCT,False,False
the,the,the,the,DET,True,True
fcc,fcc,fcc,fcc,PROPN,True,False
should,should,should,should,VERB,True,True
keep,keep,keep,keep,VERB,True,True
transaction,transaction,transaction,transaction,NOUN,True,False
cost,cost,cost,cost,NOUN,True,False
of,of,of,of,ADP,True,True
a,a,a,a,DET,True,True
secondary,secondary,secondary,secondary,ADJ,True,False
market,market,market,market,NOUN,True,False
for,for,for,for,ADP,True,True
pals,pals,pal,pal,NOUN,True,False
loweven,loweven,loweven,loweven,VERB,True,False
if,if,if,if,SCONJ,True,True
not,not,not,not,PART,True,True
expressly,expressly,expressly,expressly,ADV,True,False
prohibit,prohibit,prohibit,prohibit,VERB,True,False
",",",",",",",",PUNCT,False,False
it,it,-PRON-,-pron-,PRON,True,True
would,would,would,would,VERB,True,True
only,only,only,only,ADV,True,True
be,be,be,be,AUX,True,True
practical,practical,practical,practical,ADJ,True,False
to,to,to,to,PART,True,True
lease,lease,lease,lease,VERB,True,False
pal,pal,pal,pal,NOUN,True,False
for,for,for,for,ADP,True,True
duration,duration,duration,duration,NOUN,True,False
much,much,much,much,ADV,True,True
small,small,small,small,ADJ,True,False
than,than,than,than,SCONJ,True,True
a,a,a,a,DET,True,True
year,year,year,year,NOUN,True,False
andor,andor,andor,andor,PROPN,True,False
area,area,area,area,NOUN,True,False
much,much,much,much,ADV,True,True
small,small,small,small,ADJ,True,False
than,than,than,than,SCONJ,True,True
a,a,a,a,DET,True,True
census,census,census,census,NOUN,True,False
tract,tract,tract,tract,NOUN,True,False
if,if,if,if,SCONJ,True,True
transaction,transaction,transaction,transaction,NOUN,True,False
cost,cost,cost,cost,NOUN,True,False
be,be,be,be,AUX,True,True
very,very,very,very,ADV,True,True
small,small,small,small,ADJ,True,False
in,in,in,in,ADP,True,True
such,such,such,such,ADJ,True,True
case,case,case,case,NOUN,True,False
.,.,.,.,PUNCT,False,False
the,the,the,the,DET,True,True
fcc,fcc,fcc,fcc,PROPN,True,False
can,can,can,can,VERB,True,True
help,help,help,help,VERB,True,False
by,by,by,by,ADP,True,True
make,make,make,make,VERB,True,True
sure,sure,sure,sure,ADJ,True,False
that,that,that,that,SCONJ,True,True
palholder,palholder,palholder,palholder,NOUN,True,False
be,be,be,be,AUX,True,True
not,not,not,not,PART,True,True
require,require,require,require,ADJ,True,False
to,to,to,to,PART,True,True
seek,seek,seek,seek,VERB,True,False
permission,permission,permission,permission,NOUN,True,False
before,before,before,before,ADP,True,True
lease,lease,lease,lease,VERB,True,False
a,a,a,a,DET,True,True
pal,pal,pal,pal,NOUN,True,False
.,.,.,.,PUNCT,False,False
if,if,if,if,SCONJ,True,True
lessee,lessee,lessee,lessee,NOUN,True,False
require,require,require,require,VERB,True,False
some,some,some,some,DET,True,True
form,form,form,form,NOUN,True,False
of,of,of,of,ADP,True,True
authorization,authorization,authorization,authorization,NOUN,True,False
",",",",",",",",PUNCT,False,False
then,then,then,then,ADV,True,True
they,they,-PRON-,-pron-,PRON,True,True
should,should,should,should,VERB,True,True
be,be,be,be,AUX,True,True
preauthorize,preauthorize,preauthorize,preauthorize,ADJ,True,False
once,once,once,once,ADV,True,True
for,for,for,for,ADP,True,True
anextended,anextended,anextended,anextended,ADJ,True,False
period,period,period,period,NOUN,True,False
",",",",",",",",PUNCT,False,False
such,such,such,such,ADJ,True,True
as,as,as,as,SCONJ,True,True
a,a,a,a,DET,True,True
year,year,year,year,NOUN,True,False
",",",",",",",",PUNCT,False,False
so,so,so,so,CCONJ,True,True
there,there,there,there,PRON,True,True
be,be,be,be,AUX,True,True
no,no,no,no,DET,True,True
need,need,need,need,NOUN,True,False
to,to,to,to,PART,True,True
do,do,do,do,AUX,True,True
so,so,so,so,ADV,True,True
with,with,with,with,ADP,True,True
every,every,every,every,DET,True,True
transaction,transaction,transaction,transaction,NOUN,True,False
.,.,.,.,PUNCT,False,False
moreover,moreover,moreover,moreover,ADV,True,True
",",",",",",",",PUNCT,False,False
to,to,to,to,ADP,True,True
the,the,the,the,DET,True,True
extent,extent,extent,extent,NOUN,True,False
that,that,that,that,SCONJ,True,True
the,the,the,the,DET,True,True
fcc,fcc,fcc,fcc,PROPN,True,False
require,require,require,require,VERB,True,False
notification,notification,notification,notification,NOUN,True,False
of,of,of,of,ADP,True,True
transaction,transaction,transaction,transaction,NOUN,True,False
after,after,after,after,ADP,True,True
the,the,the,the,DET,True,True
fact,fact,fact,fact,NOUN,True,False
",",",",",",",",PUNCT,False,False
palholder,palholder,palholder,palholder,NOUN,True,False
should,should,should,should,VERB,True,True
be,be,be,be,AUX,True,True
allow,allow,allow,allow,VERB,True,False
to,to,to,to,PART,True,True
combine,combine,combine,combine,VERB,True,False
many,many,many,many,ADJ,True,True
notification,notification,notification,notification,NOUN,True,False
in,in,in,in,ADP,True,True
a,a,a,a,DET,True,True
single,single,single,single,ADJ,True,False
report,report,report,report,NOUN,True,False
",",",",",",",",PUNCT,False,False
perhaps,perhaps,perhaps,perhaps,ADV,True,True
in,in,in,in,ADP,True,True
a,a,a,a,DET,True,True
summary,summary,summary,summary,NOUN,True,False
of,of,of,of,ADP,True,True
the,the,the,the,DET,True,True
month,month,month,month,NOUN,True,False
transaction,transaction,transaction,transaction,NOUN,True,False
that,that,that,that,DET,True,True
can,can,can,can,VERB,True,True
easily,easily,easily,easily,ADV,True,False
be,be,be,be,AUX,True,True
uploaded,uploaded,uploaded,uploaded,ADJ,True,False
to,to,to,to,ADP,True,True
an,an,an,an,DET,True,True
fcc,fcc,fcc,fcc,PROPN,True,False
site,site,site,site,NOUN,True,False
and,and,and,and,CCONJ,True,True
that,that,that,that,DET,True,True
consist,consist,consist,consist,VERB,True,False
mostly,mostly,mostly,mostly,ADV,True,True
of,of,of,of,ADP,True,True
datum,datum,datum,datum,NOUN,True,False
that,that,that,that,DET,True,True
be,be,be,be,VERB,True,True
capture,capture,capture,capture,NOUN,True,False
automatically,automatically,automatically,automatically,ADV,True,False
during,during,during,during,ADP,True,True
normal,normal,normal,normal,ADJ,True,False
operation,operation,operation,operation,NOUN,True,False
.,.,.,.,PUNCT,False,False
the,the,the,the,DET,True,True
fcc,fcc,fcc,fcc,PROPN,True,False
should,should,should,should,VERB,True,True
grant,grant,grant,grant,VERB,True,False
pal,pal,pal,pal,NOUN,True,False
in,in,in,in,ADP,True,True
every,every,every,every,DET,True,True
market,market,market,market,NOUN,True,False
where,where,where,where,ADV,True,True
there,there,there,there,PRON,True,True
be,be,be,be,AUX,True,True
demand,demand,demand,demand,NOUN,True,False
",",",",",",",",PUNCT,False,False
even,even,even,even,ADV,True,True
if,if,if,if,SCONJ,True,True
there,there,there,there,PRON,True,True
be,be,be,be,AUX,True,True
only,only,only,only,ADV,True,True
one,one,one,one,NUM,True,True
bidder,bidder,bidder,bidder,NOUN,True,False
.,.,.,.,PUNCT,False,False
the,the,the,the,DET,True,True
pal,pal,pal,pal,ADJ,True,False
approach,approach,approach,approach,NOUN,True,False
be,be,be,be,AUX,True,True
most,most,most,most,ADV,True,True
likely,likely,likely,likely,ADJ,True,False
to,to,to,to,PART,True,True
provide,provide,provide,provide,VERB,True,False
value,value,value,value,NOUN,True,False
if,if,if,if,SCONJ,True,True
pal,pal,pal,pal,NOUN,True,False
be,be,be,be,AUX,True,True
available,available,available,available,ADJ,True,False
everywhere,everywhere,everywhere,everywhere,ADV,True,True
in,in,in,in,ADP,True,True
the,the,the,the,DET,True,True
us,us,us,us,PROPN,True,True
.,.,.,.,PUNCT,False,False
unfortunately,unfortunately,unfortunately,unfortunately,ADV,True,False
",",",",",",",",PUNCT,False,False
that,that,that,that,DET,True,True
may,may,may,may,VERB,True,True
not,not,not,not,PART,True,True
be,be,be,be,AUX,True,True
possible,possible,possible,possible,ADJ,True,False
under,under,under,under,ADP,True,True
the,the,the,the,DET,True,True
most,most,most,most,ADV,True,True
recently,recently,recently,recently,ADV,True,False
propose,propose,propose,propose,NOUN,True,False
rule,rule,rule,rule,NOUN,True,False
",",",",",",",",PUNCT,False,False
which,which,which,which,DET,True,True
state,state,state,state,NOUN,True,False
that,that,that,that,SCONJ,True,True
when,when,when,when,ADV,True,True
there,there,there,there,PRON,True,True
be,be,be,be,AUX,True,True
only,only,only,only,ADV,True,True
one,one,one,one,NUM,True,True
applicant,applicant,applicant,applicant,NOUN,True,False
for,for,for,for,ADP,True,True
one,one,one,one,NUM,True,True
or,or,or,or,CCONJ,True,True
more,more,more,more,ADJ,True,True
pal,pal,pal,pal,NOUN,True,False
in,in,in,in,ADP,True,True
a,a,a,a,DET,True,True
give,give,give,give,ADJ,True,True
census,census,census,census,NOUN,True,False
tract,tract,tract,tract,NOUN,True,False
",",",",",",",",PUNCT,False,False
we,we,-PRON-,-pron-,PRON,True,True
will,will,will,will,VERB,True,True
neither,neither,neither,neither,CCONJ,True,True
proceed,proceed,proceed,proceed,VERB,True,False
to,to,to,to,ADP,True,True
an,an,an,an,DET,True,True
auction,auction,auction,auction,NOUN,True,False
nor,nor,nor,nor,CCONJ,True,True
assign,assign,assign,assign,VERB,True,False
any,any,any,any,DET,True,True
pal,pal,pal,pal,NOUN,True,False
for,for,for,for,ADP,True,True
that,that,that,that,DET,True,True
license,license,license,license,NOUN,True,False
area,area,area,area,NOUN,True,False
paragraph,paragraph,paragraph,paragraph,PROPN,True,False
134,134,134,134,NUM,False,False
",",",",",",",",PUNCT,False,False
[,[,[,[,PUNCT,False,False
1,1,1,1,NUM,False,False
],],],],PUNCT,False,False
.,.,.,.,PUNCT,False,False
this,this,this,this,DET,True,True
make,make,make,make,VERB,True,True
no,no,no,no,DET,True,True
sense,sense,sense,sense,NOUN,True,False
.,.,.,.,PUNCT,False,False
perhaps,perhaps,perhaps,perhaps,ADV,True,True
there,there,there,there,PRON,True,True
be,be,be,be,AUX,True,True
one,one,one,one,NUM,True,True
cellular,cellular,cellular,cellular,ADJ,True,False
provider,provider,provider,provider,NOUN,True,False
serve,serve,serve,serve,VERB,True,False
that,that,that,that,SCONJ,True,True
tract,tract,tract,tract,NOUN,True,False
",",",",",",",",PUNCT,False,False
and,and,and,and,CCONJ,True,True
it,it,-PRON-,-pron-,PRON,True,True
could,could,could,could,VERB,True,True
serve,serve,serve,serve,VERB,True,False
its,its,-PRON-,-pron-,DET,True,True
customer,customer,customer,customer,NOUN,True,False
well,well,well,well,ADV,True,True
if,if,if,if,SCONJ,True,True
it,it,-PRON-,-pron-,PRON,True,True
have,have,have,have,AUX,True,True
a,a,a,a,DET,True,True
pal,pal,pal,pal,NOUN,True,False
or,or,or,or,CCONJ,True,True
two,two,two,two,NUM,True,True
",",",",",",",",PUNCT,False,False
while,while,while,while,SCONJ,True,True
leave,leave,leave,leave,VERB,True,False
the,the,the,the,DET,True,True
rest,rest,rest,rest,NOUN,True,False
for,for,for,for,ADP,True,True
gaa,gaa,gaa,gaa,NOUN,True,False
.,.,.,.,PUNCT,False,False
if,if,if,if,SCONJ,True,True
there,there,there,there,PRON,True,True
be,be,be,be,AUX,True,True
benefit,benefit,benefit,benefit,NOUN,True,False
to,to,to,to,ADP,True,True
pals,pals,pal,pal,NOUN,True,False
",",",",",",",",PUNCT,False,False
then,then,then,then,ADV,True,True
why,why,why,why,ADV,True,True
should,should,should,should,VERB,True,True
any,any,any,any,DET,True,True
region,region,region,region,NOUN,True,False
be,be,be,be,AUX,True,True
deny,deny,deny,deny,VERB,True,False
that,that,that,that,DET,True,True
benefit,benefit,benefit,benefit,NOUN,True,False
just,just,just,just,ADV,True,True
because,because,because,because,SCONJ,True,True
there,there,there,there,PRON,True,True
be,be,be,be,AUX,True,True
only,only,only,only,ADV,True,True
one,one,one,one,NUM,True,True
bidder,bidder,bidder,bidder,NOUN,True,False
it,it,-PRON-,-pron-,PRON,True,True
be,be,be,be,AUX,True,True
like,like,like,like,INTJ,True,False
say,say,say,say,VERB,True,True
that,that,that,that,SCONJ,True,True
because,because,because,because,SCONJ,True,True
we,we,-PRON-,-pron-,PRON,True,True
prefer,prefer,prefer,prefer,VERB,True,False
competition,competition,competition,competition,NOUN,True,False
among,among,among,among,ADP,True,True
provider,provider,provider,provider,NOUN,True,False
of,of,of,of,ADP,True,True
broadband,broadband,broadband,broadband,NOUN,True,False
service,service,service,service,PROPN,True,False
",",",",",",",",PUNCT,False,False
the,the,the,the,DET,True,True
fcc,fcc,fcc,fcc,PROPN,True,False
should,should,should,should,VERB,True,True
make,make,make,make,VERB,True,True
sure,sure,sure,sure,ADJ,True,False
no,no,no,no,DET,True,True
one,one,one,one,NOUN,True,True
can,can,can,can,VERB,True,True
bring,bring,bring,bring,VERB,True,False
broadband,broadband,broadband,broadband,NOUN,True,False
to,to,to,to,ADP,True,True
an,an,an,an,DET,True,True
unserved,unserved,unserved,unserved,ADJ,True,False
geographic,geographic,geographic,geographic,ADJ,True,False
area,area,area,area,NOUN,True,False
unless,unless,unless,unless,SCONJ,True,True
a,a,a,a,DET,True,True
competitor,competitor,competitor,competitor,NOUN,True,False
be,be,be,be,AUX,True,True
willing,willing,willing,willing,ADJ,True,False
to,to,to,to,PART,True,True
do,do,do,do,AUX,True,True
the,the,the,the,DET,True,True
same,same,same,same,ADJ,True,True
.,.,.,.,PUNCT,False,False
the,the,the,the,DET,True,True
communications,communications,communications,communications,PROPN,True,False
act,act,act,act,NOUN,True,False
authorize,authorize,authorize,authorize,VERB,True,False
the,the,the,the,DET,True,True
fcc,fcc,fcc,fcc,PROPN,True,False
to,to,to,to,PART,True,True
use,use,use,use,VERB,True,False
auction,auction,auction,auction,NOUN,True,False
when,when,when,when,ADV,True,True
mutually,mutually,mutually,mutually,ADV,True,False
exclusive,exclusive,exclusive,exclusive,ADJ,True,False
application,application,application,application,NOUN,True,False
be,be,be,be,AUX,True,True
accept,accept,accept,accept,ADJ,True,False
for,for,for,for,ADP,True,True
any,any,any,any,DET,True,True
initial,initial,initial,initial,ADJ,True,False
license,license,license,license,NOUN,True,False
.,.,.,.,PUNCT,False,False
paragraph,paragraph,paragraph,paragraph,PROPN,True,False
130,130,130,130,NUM,False,False
",",",",",",",",PUNCT,False,False
[,[,[,[,PUNCT,False,False
1,1,1,1,X,False,False
],],],],PUNCT,False,False
if,if,if,if,SCONJ,True,True
k,k,k,k,NOUN,True,False
application,application,application,application,NOUN,True,False
be,be,be,be,VERB,True,True
receive,receive,receive,receive,ADJ,True,False
for,for,for,for,ADP,True,True
pal,pal,pal,pal,NOUN,True,False
",",",",",",",",PUNCT,False,False
and,and,and,and,CCONJ,True,True
the,the,the,the,DET,True,True
fcc,fcc,fcc,fcc,PROPN,True,False
choose,choose,choose,choose,VERB,True,False
to,to,to,to,PART,True,True
issue,issue,issue,issue,VERB,True,False
k1,k1,k1,k1,NOUN,False,False
license,license,license,license,NOUN,True,False
",",",",",",",",PUNCT,False,False
then,then,then,then,ADV,True,True
the,the,the,the,DET,True,True
fcc,fcc,fcc,fcc,PROPN,True,False
have,have,have,have,AUX,True,True
authority,authority,authority,authority,NOUN,True,False
to,to,to,to,PART,True,True
use,use,use,use,VERB,True,False
auction,auction,auction,auction,NOUN,True,False
",",",",",",",",PUNCT,False,False
even,even,even,even,ADV,True,True
if,if,if,if,SCONJ,True,True
all,all,all,all,DET,True,True
application,application,application,application,NOUN,True,False
be,be,be,be,VERB,True,True
receive,receive,receive,receive,ADJ,True,False
from,from,from,from,ADP,True,True
the,the,the,the,DET,True,True
same,same,same,same,ADJ,True,True
source,source,source,source,NOUN,True,False
.,.,.,.,PUNCT,False,False
drop,drop,drop,drop,VERB,True,False
the,the,the,the,DET,True,True
requirement,requirement,requirement,requirement,NOUN,True,False
that,that,that,that,DET,True,True
bid,bid,bid,bid,NOUN,True,False
must,must,must,must,VERB,True,True
come,come,come,come,VERB,True,False
from,from,from,from,ADP,True,True
two,two,two,two,NUM,True,True
or,or,or,or,CCONJ,True,True
more,more,more,more,ADJ,True,True
bidder,bidder,bidder,bidder,NOUN,True,False
would,would,would,would,VERB,True,True
allow,allow,allow,allow,VERB,True,False
region,region,region,region,NOUN,True,False
with,with,with,with,ADP,True,True
only,only,only,only,ADV,True,True
one,one,one,one,NUM,True,True
interested,interested,interested,interested,ADJ,True,False
provider,provider,provider,provider,NOUN,True,False
to,to,to,to,PART,True,True
have,have,have,have,AUX,True,True
pal,pal,pal,pal,NOUN,True,False
",",",",",",",",PUNCT,False,False
and,and,and,and,CCONJ,True,True
would,would,would,would,VERB,True,True
be,be,be,be,AUX,True,True
consistent,consistent,consistent,consistent,ADJ,True,False
with,with,with,with,ADP,True,True
the,the,the,the,DET,True,True
law,law,law,law,NOUN,True,False
.,.,.,.,PUNCT,False,False
it,it,-PRON-,-pron-,PRON,True,True
be,be,be,be,AUX,True,True
also,also,also,also,ADV,True,True
worth,worth,worth,worth,ADJ,True,False
note,note,note,note,VERB,True,False
the,the,the,the,DET,True,True
atypical,atypical,atypical,atypical,ADJ,True,False
aspect,aspect,aspect,aspect,NOUN,True,False
of,of,of,of,ADP,True,True
share,share,share,share,NOUN,True,False
in,in,in,in,ADP,True,True
the,the,the,the,DET,True,True
3.5,3.5,3.5,3.5,NUM,False,False
ghz,ghz,ghz,ghz,PROPN,True,False
band,band,band,band,NOUN,True,False
.,.,.,.,PUNCT,False,False
gaa,gaa,gaa,gaa,VERB,True,False
use,use,use,use,NOUN,True,False
be,be,be,be,AUX,True,True
license,license,license,license,VERB,True,False
by,by,by,by,ADP,True,True
rule,rule,rule,rule,NOUN,True,False
in,in,in,in,ADP,True,True
the,the,the,the,DET,True,True
same,same,same,same,ADJ,True,True
band,band,band,band,NOUN,True,False
as,as,as,as,SCONJ,True,True
pals,pals,pal,pal,NOUN,True,False
",",",",",",",",PUNCT,False,False
and,and,and,and,CCONJ,True,True
simultaneous,simultaneous,simultaneous,simultaneous,ADJ,True,False
pal,pal,pal,pal,NOUN,True,False
and,and,and,and,CCONJ,True,True
gaa,gaa,gaa,gaa,NOUN,True,False
use,use,use,use,NOUN,True,False
of,of,of,of,ADP,True,True
spectrum,spectrum,spectrum,spectrum,NOUN,True,False
be,be,be,be,AUX,True,True
mutually,mutually,mutually,mutually,ADV,True,False
exclusive,exclusive,exclusive,exclusive,ADJ,True,False
",",",",",",",",PUNCT,False,False
so,so,so,so,ADV,True,True
pal,pal,pal,pal,PROPN,True,False
bidder,bidder,bidder,bidder,NOUN,True,False
be,be,be,be,AUX,True,True
always,always,always,always,ADV,True,True
compete,compete,compete,compete,ADJ,True,False
with,with,with,with,ADP,True,True
other,other,other,other,ADJ,True,True
mutually,mutually,mutually,mutually,ADV,True,False
exclusive,exclusive,exclusive,exclusive,ADJ,True,False
use,use,use,use,NOUN,True,False
regardless,regardless,regardless,regardless,ADV,True,False
of,of,of,of,ADP,True,True
the,the,the,the,DET,True,True
number,number,number,number,NOUN,True,False
of,of,of,of,ADP,True,True
bid,bid,bid,bid,NOUN,True,False
or,or,or,or,CCONJ,True,True
the,the,the,the,DET,True,True
number,number,number,number,NOUN,True,False
of,of,of,of,ADP,True,True
bidder,bidder,bidder,bidder,NOUN,True,False
.,.,.,.,PUNCT,False,False
in,in,in,in,ADP,True,True
part,part,part,part,NOUN,True,True
because,because,because,because,SCONJ,True,True
pal,pal,pal,pal,NOUN,True,False
and,and,and,and,CCONJ,True,True
gaa,gaa,gaa,gaa,NOUN,True,False
use,use,use,use,NOUN,True,False
be,be,be,be,AUX,True,True
sometimes,sometimes,sometimes,sometimes,ADV,True,True
mutually,mutually,mutually,mutually,ADV,True,False
exclusive,exclusive,exclusive,exclusive,ADJ,True,False
",",",",",",",",PUNCT,False,False
the,the,the,the,DET,True,True
fcc,fcc,fcc,fcc,PROPN,True,False
should,should,should,should,VERB,True,True
establish,establish,establish,establish,VERB,True,False
a,a,a,a,DET,True,True
minimum,minimum,minimum,minimum,ADJ,True,False
bid,bid,bid,bid,NOUN,True,False
for,for,for,for,ADP,True,True
a,a,a,a,DET,True,True
pal,pal,pal,pal,NOUN,True,False
that,that,that,that,DET,True,True
reflect,reflect,reflect,reflect,VERB,True,False
the,the,the,the,DET,True,True
opportunity,opportunity,opportunity,opportunity,NOUN,True,False
cost,cost,cost,cost,NOUN,True,False
of,of,of,of,ADP,True,True
make,make,make,make,NOUN,True,True
the,the,the,the,DET,True,True
spectrum,spectrum,spectrum,spectrum,NOUN,True,False
unavailable,unavailable,unavailable,unavailable,ADJ,True,False
for,for,for,for,ADP,True,True
gaa,gaa,gaa,gaa,NOUN,True,False
use,use,use,use,NOUN,True,False
.,.,.,.,PUNCT,False,False
this,this,this,this,DET,True,True
opportunity,opportunity,opportunity,opportunity,NOUN,True,False
cost,cost,cost,cost,NOUN,True,False
could,could,could,could,VERB,True,True
be,be,be,be,AUX,True,True
small,small,small,small,ADJ,True,False
if,if,if,if,SCONJ,True,True
gaa,gaa,gaa,gaa,NOUN,True,False
user,user,user,user,NOUN,True,False
be,be,be,be,AUX,True,True
allow,allow,allow,allow,ADJ,True,False
to,to,to,to,PART,True,True
access,access,access,access,VERB,True,False
spectrum,spectrum,spectrum,spectrum,NOUN,True,False
associate,associate,associate,associate,NOUN,True,False
with,with,with,with,ADP,True,True
a,a,a,a,DET,True,True
pal,pal,pal,pal,NOUN,True,False
when,when,when,when,ADV,True,True
the,the,the,the,DET,True,True
palholder,palholder,palholder,palholder,NOUN,True,False
be,be,be,be,VERB,True,True
inactive,inactive,inactive,inactive,ADJ,True,False
",",",",",",",",PUNCT,False,False
and,and,and,and,CCONJ,True,True
would,would,would,would,VERB,True,True
be,be,be,be,AUX,True,True
much,much,much,much,ADV,True,True
large,large,large,large,ADJ,True,False
if,if,if,if,SCONJ,True,True
this,this,this,this,DET,True,True
be,be,be,be,VERB,True,True
not,not,not,not,PART,True,True
the,the,the,the,DET,True,True
case,case,case,case,NOUN,True,False
.,.,.,.,PUNCT,False,False
thus,thus,thus,thus,ADV,True,True
",",",",",",",",PUNCT,False,False
this,this,this,this,DET,True,True
issue,issue,issue,issue,NOUN,True,False
of,of,of,of,ADP,True,True
minimum,minimum,minimum,minimum,ADJ,True,False
bid,bid,bid,bid,NOUN,True,False
be,be,be,be,AUX,True,True
relate,relate,relate,relate,ADJ,True,False
to,to,to,to,ADP,True,True
the,the,the,the,DET,True,True
issue,issue,issue,issue,NOUN,True,False
discuss,discuss,discuss,discuss,VERB,True,False
below,below,below,below,ADV,True,True
.,.,.,.,PUNCT,False,False
when,when,when,when,ADV,True,True
spectrum,spectrum,spectrum,spectrum,PROPN,True,False
be,be,be,be,AUX,True,True
not,not,not,not,PART,True,True
be,be,be,be,AUX,True,True
use,use,use,use,NOUN,True,False
by,by,by,by,ADP,True,True
the,the,the,the,DET,True,True
palholder,palholder,palholder,palholder,NOUN,True,False
",",",",",",",",PUNCT,False,False
the,the,the,the,DET,True,True
spectrum,spectrum,spectrum,spectrum,NOUN,True,False
should,should,should,should,VERB,True,True
be,be,be,be,AUX,True,True
available,available,available,available,ADJ,True,False
for,for,for,for,ADP,True,True
gaapalholder,gaapalholder,gaapalholder,gaapalholder,NOUN,True,False
be,be,be,be,VERB,True,True
entitle,entitle,entitle,entitle,ADJ,True,False
to,to,to,to,ADP,True,True
exclusive,exclusive,exclusive,exclusive,ADJ,True,False
access,access,access,access,NOUN,True,False
to,to,to,to,ADP,True,True
their,their,-PRON-,-pron-,DET,True,True
spectrum,spectrum,spectrum,spectrum,NOUN,True,False
at,at,at,at,ADP,True,True
any,any,any,any,DET,True,True
time,time,time,time,NOUN,True,False
",",",",",",",",PUNCT,False,False
but,but,but,but,CCONJ,True,True
spectrum,spectrum,spectrum,spectrum,NOUN,True,False
should,should,should,should,VERB,True,True
be,be,be,be,AUX,True,True
available,available,available,available,ADJ,True,False
for,for,for,for,ADP,True,True
gaa,gaa,gaa,gaa,NOUN,True,False
use,use,use,use,NOUN,True,False
when,when,when,when,ADV,True,True
not,not,not,not,PART,True,True
need,need,need,need,VERB,True,False
by,by,by,by,ADP,True,True
the,the,the,the,DET,True,True
palholder,palholder,palholder,palholder,NOUN,True,False
.,.,.,.,PUNCT,False,False
further,further,further,further,ADJ,True,True
consideration,consideration,consideration,consideration,NOUN,True,False
be,be,be,be,AUX,True,True
need,need,nee,nee,VERB,True,False
to,to,to,to,PART,True,True
determine,determine,determine,determine,VERB,True,False
whether,whether,whether,whether,SCONJ,True,True
palholder,palholder,palholder,palholder,NOUN,True,False
should,should,should,should,VERB,True,True
be,be,be,be,AUX,True,True
give,give,give,give,VERB,True,True
additional,additional,additional,additional,ADJ,True,False
incentive,incentive,incentive,incentive,NOUN,True,False
to,to,to,to,PART,True,True
make,make,make,make,VERB,True,True
their,their,-PRON-,-pron-,DET,True,True
spectrum,spectrum,spectrum,spectrum,NOUN,True,False
available,available,available,available,ADJ,True,False
for,for,for,for,ADP,True,True
gaa,gaa,gaa,gaa,NOUN,True,False
",",",",",",",",PUNCT,False,False
and,and,and,and,CCONJ,True,True
how,how,how,how,ADV,True,True
to,to,to,to,PART,True,True
structure,structure,structure,structure,VERB,True,False
those,those,those,those,DET,True,True
incentive,incentive,incentive,incentive,NOUN,True,False
.,.,.,.,PUNCT,False,False
for,for,for,for,ADP,True,True
example,example,example,example,NOUN,True,False
",",",",",",",",PUNCT,False,False
we,we,-PRON-,-pron-,PRON,True,True
may,may,may,may,VERB,True,True
define,define,define,define,VERB,True,False
spectrum,spectrum,spectrum,spectrum,NOUN,True,False
as,as,as,as,SCONJ,True,True
in,in,in,in,ADP,True,True
usewhenever,usewhenever,usewhenever,usewhenever,NOUN,True,False
the,the,the,the,DET,True,True
palholder,palholder,palholder,palholder,NOUN,True,False
direct,direct,direct,direct,VERB,True,False
the,the,the,the,DET,True,True
sas,sas,sas,sas,PROPN,True,False
to,to,to,to,PART,True,True
label,label,label,label,VERB,True,False
it,it,-PRON-,-pron-,PRON,True,True
as,as,as,as,SCONJ,True,True
such,such,such,such,ADJ,True,True
",",",",",",",",PUNCT,False,False
and,and,and,and,CCONJ,True,True
the,the,the,the,DET,True,True
palholder,palholder,palholder,palholder,NOUN,True,False
may,may,may,may,VERB,True,True
be,be,be,be,AUX,True,True
require,require,require,require,VERB,True,False
to,to,to,to,PART,True,True
pay,pay,pay,pay,VERB,True,False
the,the,the,the,DET,True,True
fcc,fcc,fcc,fcc,PROPN,True,False
each,each,each,each,DET,True,True
year,year,year,year,NOUN,True,False
some,some,some,some,DET,True,True
fraction,fraction,fraction,fraction,NOUN,True,False
of,of,of,of,ADP,True,True
its,its,-PRON-,-pron-,DET,True,True
win,win,win,win,NOUN,True,False
bid,bid,bid,bid,NOUN,True,False
time,time,time,time,NOUN,True,False
the,the,the,the,DET,True,True
number,number,number,number,NOUN,True,False
of,of,of,of,ADP,True,True
hour,hour,hour,hour,NOUN,True,False
when,when,when,when,ADV,True,True
the,the,the,the,DET,True,True
spectrum,spectrum,spectrum,spectrum,NOUN,True,False
be,be,be,be,VERB,True,True
label,label,label,label,NOUN,True,False
by,by,by,by,ADP,True,True
the,the,the,the,DET,True,True
sas,sas,sas,sas,PROPN,True,False
as,as,as,as,SCONJ,True,True
in,in,in,in,ADP,True,True
use,use,use,use,NOUN,True,False
.,.,.,.,PUNCT,False,False
