text,text_lower,lemma,lemma_lower,part_of_speech,is_alphabet,is_stopword
comment,comment,comment,comment,NOUN,True,False
of,of,of,of,ADP,True,True
interdigital,interdigital,interdigital,interdigital,NOUN,True,False
",",",",",",",",PUNCT,False,False
inc.interdigital,inc.interdigital,inc.interdigital,inc.interdigital,PROPN,False,False
",",",",",",",",PUNCT,False,False
inc,inc,inc,inc,PROPN,True,False
.,.,.,.,PROPN,False,False
interdigital,interdigital,interdigital,interdigital,PROPN,True,False
hereby,hereby,hereby,hereby,PROPN,True,True
submit,submit,submit,submit,VERB,True,False
its,its,-PRON-,-pron-,DET,True,True
comment,comment,comment,comment,NOUN,True,False
in,in,in,in,ADP,True,True
the,the,the,the,DET,True,True
above,above,above,above,ADJ,True,True
-,-,-,-,PUNCT,False,False
caption,caption,caption,caption,NOUN,True,False
docket,docket,docket,docket,NOUN,True,False
in,in,in,in,ADP,True,True
response,response,response,response,NOUN,True,False
to,to,to,to,ADP,True,True
the,the,the,the,DET,True,True
commissions,commissions,commission,commission,NOUN,True,False
second,second,second,second,ADJ,True,False
further,further,further,further,ADJ,True,True
notice,notice,notice,notice,NOUN,True,False
of,of,of,of,ADP,True,True
propose,propose,propose,propose,NOUN,True,False
rulemaking,rulemaking,rulemaking,rulemaking,NOUN,True,False
fnprm,fnprm,fnprm,fnprm,PROPN,True,False
15,15,15,15,NUM,False,False
-,-,-,-,SYM,False,False
47,47,47,47,NUM,False,False
",",",",",",",",PUNCT,False,False
regard,regard,regard,regard,VERB,True,False
commercial,commercial,commercial,commercial,ADJ,True,False
operation,operation,operation,operation,NOUN,True,False
in,in,in,in,ADP,True,True
the,the,the,the,DET,True,True
3550,3550,3550,3550,NUM,False,False
3650,3650,3650,3650,NUM,False,False
mhz,mhz,mhz,mhz,PROPN,True,False
band,band,band,band,NOUN,True,False
.,.,.,.,PUNCT,False,False
interdigital,interdigital,interdigital,interdigital,PROPN,True,False
",",",",",",",",PUNCT,False,False
a,a,a,a,DET,True,True
us,us,us,us,PROPN,True,True
company,company,company,company,NOUN,True,False
",",",",",",",",PUNCT,False,False
with,with,with,with,ADP,True,True
headquarter,headquarter,headquart,headquart,ADJ,True,False
in,in,in,in,ADP,True,True
de,de,de,de,PROPN,True,False
",",",",",",",",PUNCT,False,False
and,and,and,and,CCONJ,True,True
rd,rd,rd,rd,PROPN,True,False
office,office,office,office,PROPN,True,False
in,in,in,in,ADP,True,True
ny,ny,ny,ny,PROPN,True,False
",",",",",",",",PUNCT,False,False
pa,pa,pa,pa,PROPN,True,False
",",",",",",",",PUNCT,False,False
ca,ca,ca,ca,PROPN,True,True
",",",",",",",",PUNCT,False,False
as,as,as,as,ADV,True,True
well,well,well,well,ADV,True,True
as,as,as,as,SCONJ,True,True
in,in,in,in,ADP,True,True
montreal,montreal,montreal,montreal,PROPN,True,False
",",",",",",",",PUNCT,False,False
canada,canada,canada,canada,PROPN,True,False
",",",",",",",",PUNCT,False,False
london,london,london,london,PROPN,True,False
",",",",",",",",PUNCT,False,False
uk,uk,uk,uk,PROPN,True,False
and,and,and,and,CCONJ,True,True
seoul,seoul,seoul,seoul,PROPN,True,False
",",",",",",",",PUNCT,False,False
korea,korea,korea,korea,PROPN,True,False
",",",",",",",",PUNCT,False,False
be,be,be,be,AUX,True,True
an,an,an,an,DET,True,True
industry,industry,industry,industry,NOUN,True,False
leader,leader,leader,leader,NOUN,True,False
in,in,in,in,ADP,True,True
explore,explore,explore,explore,NOUN,True,False
and,and,and,and,CCONJ,True,True
develop,develop,develop,develop,VERB,True,False
technology,technology,technology,technology,NOUN,True,False
for,for,for,for,ADP,True,True
shared,shared,shared,shared,ADJ,True,False
and,and,and,and,CCONJ,True,True
dynamic,dynamic,dynamic,dynamic,ADJ,True,False
spectrum,spectrum,spectrum,spectrum,NOUN,True,False
use,use,use,use,NOUN,True,False
.,.,.,.,PUNCT,False,False
since,since,since,since,SCONJ,True,True
its,its,-PRON-,-pron-,DET,True,True
founding,founding,founding,founding,NOUN,True,False
in,in,in,in,ADP,True,True
1972,1972,1972,1972,NUM,False,False
",",",",",",",",PUNCT,False,False
the,the,the,the,DET,True,True
company,company,company,company,NOUN,True,False
have,have,have,have,AUX,True,True
be,be,be,be,VERB,True,True
a,a,a,a,DET,True,True
wireless,wireless,wireless,wireless,ADJ,True,False
pioneer,pioneer,pioneer,pioneer,NOUN,True,False
that,that,that,that,DET,True,True
have,have,have,have,AUX,True,True
design,design,design,design,NOUN,True,False
and,and,and,and,CCONJ,True,True
develop,develop,develop,develop,VERB,True,False
a,a,a,a,DET,True,True
wide,wide,wide,wide,ADJ,True,False
range,range,range,range,NOUN,True,False
of,of,of,of,ADP,True,True
technology,technology,technology,technology,NOUN,True,False
use,use,use,use,NOUN,True,False
in,in,in,in,ADP,True,True
digital,digital,digital,digital,ADJ,True,False
cellular,cellular,cellular,cellular,ADJ,True,False
and,and,and,and,CCONJ,True,True
wireless,wireless,wireless,wireless,ADJ,True,False
product,product,product,product,NOUN,True,False
and,and,and,and,CCONJ,True,True
network,network,network,network,NOUN,True,False
",",",",",",",",PUNCT,False,False
include,include,include,include,VERB,True,False
2,2,2,2,NUM,False,False
g,g,g,g,PROPN,True,False
",",",",",",",",PUNCT,False,False
3,3,3,3,NUM,False,False
g,g,g,g,NOUN,True,False
",",",",",",",",PUNCT,False,False
4,4,4,4,NUM,False,False
g,g,g,g,NOUN,True,False
and,and,and,and,CCONJ,True,True
now,now,now,now,ADV,True,True
5,5,5,5,NUM,False,False
g,g,g,g,NOUN,True,False
",",",",",",",",PUNCT,False,False
as,as,as,as,ADV,True,True
well,well,well,well,ADV,True,True
as,as,as,as,SCONJ,True,True
ieee,ieee,ieee,ieee,PROPN,True,False
802-related,802-related,802-related,802-related,NUM,False,False
product,product,product,product,NOUN,True,False
and,and,and,and,CCONJ,True,True
network,network,network,network,NOUN,True,False
.,.,.,.,PUNCT,False,False
the,the,the,the,DET,True,True
company,company,company,company,NOUN,True,False
actively,actively,actively,actively,ADV,True,False
participate,participate,participate,participate,VERB,True,False
in,in,in,in,ADP,True,True
and,and,and,and,CCONJ,True,True
contribute,contribute,contribute,contribute,VERB,True,False
to,to,to,to,ADP,True,True
the,the,the,the,DET,True,True
standard,standard,standard,standard,ADJ,True,False
body,body,body,body,NOUN,True,False
that,that,that,that,DET,True,True
drive,drive,drive,drive,VERB,True,False
the,the,the,the,DET,True,True
design,design,design,design,NOUN,True,False
and,and,and,and,CCONJ,True,True
function,function,function,function,NOUN,True,False
of,of,of,of,ADP,True,True
each,each,each,each,DET,True,True
generation,generation,generation,generation,NOUN,True,False
of,of,of,of,ADP,True,True
wireless,wireless,wireless,wireless,NOUN,True,False
technology,technology,technology,technology,NOUN,True,False
.,.,.,.,PUNCT,False,False
these,these,these,these,DET,True,True
body,body,body,body,NOUN,True,False
include,include,include,include,VERB,True,False
ietf,ietf,ietf,ietf,PROPN,True,False
",",",",",",",",PUNCT,False,False
etsi,etsi,etsi,etsi,PROPN,True,False
",",",",",",",",PUNCT,False,False
3gpp,3gpp,3gpp,3gpp,PROPN,False,False
",",",",",",",",PUNCT,False,False
sae,sae,sae,sae,PROPN,True,False
",",",",",",",",PUNCT,False,False
ieee,ieee,ieee,ieee,PROPN,True,False
802,802,802,802,NUM,False,False
",",",",",",",",PUNCT,False,False
atis,atis,atis,atis,PROPN,True,False
",",",",",",",",PUNCT,False,False
tia,tia,tia,tia,PROPN,True,False
and,and,and,and,CCONJ,True,True
wfa,wfa,wfa,wfa,PROPN,True,False
among,among,among,among,ADP,True,True
other,other,other,other,ADJ,True,True
.,.,.,.,PUNCT,False,False
some,some,some,some,DET,True,True
of,of,of,of,ADP,True,True
interdigitals,interdigitals,interdigital,interdigital,NOUN,True,False
recent,recent,recent,recent,ADJ,True,False
contribution,contribution,contribution,contribution,NOUN,True,False
to,to,to,to,ADP,True,True
the,the,the,the,DET,True,True
worldwide,worldwide,worldwide,worldwide,ADJ,True,False
standard,standard,standard,standard,NOUN,True,False
have,have,have,have,AUX,True,True
be,be,be,be,VERB,True,True
in,in,in,in,ADP,True,True
area,area,area,area,NOUN,True,False
involve,involve,involve,involve,VERB,True,False
multi,multi,multi,multi,ADJ,True,False
-,-,-,-,ADJ,False,False
carrier,carrier,carrier,carrier,ADJ,True,False
technology,technology,technology,technology,NOUN,True,False
",",",",",",",",PUNCT,False,False
heterogeneous,heterogeneous,heterogeneous,heterogeneous,ADJ,True,False
deployment,deployment,deployment,deployment,NOUN,True,False
",",",",",",",",PUNCT,False,False
interference,interference,interference,interference,NOUN,True,False
management,management,management,management,NOUN,True,False
",",",",",",",",PUNCT,False,False
dynamic,dynamic,dynamic,dynamic,ADJ,True,False
spectrum,spectrum,spectrum,spectrum,NOUN,True,False
management,management,management,management,NOUN,True,False
and,and,and,and,CCONJ,True,True
use,use,use,use,NOUN,True,False
",",",",",",",",PUNCT,False,False
small,small,small,small,ADJ,True,False
cell,cell,cell,cell,NOUN,True,False
support,support,support,support,NOUN,True,False
",",",",",",",",PUNCT,False,False
relay,relay,relay,relay,NOUN,True,False
",",",",",",",",PUNCT,False,False
machine,machine,machine,machine,NOUN,True,False
-,-,-,-,PUNCT,False,False
type,type,type,type,NOUN,True,False
communication,communication,communication,communication,NOUN,True,False
",",",",",",",",PUNCT,False,False
security,security,security,security,NOUN,True,False
and,and,and,and,CCONJ,True,True
video,video,video,video,NOUN,True,False
over,over,over,over,ADP,True,True
wireless,wireless,wireless,wireless,NOUN,True,False
.,.,.,.,PUNCT,False,False
interdigital,interdigital,interdigital,interdigital,ADJ,True,False
be,be,be,be,AUX,True,True
also,also,also,also,ADV,True,True
actively,actively,actively,actively,ADV,True,False
work,work,work,work,VERB,True,False
on,on,on,on,ADP,True,True
build,build,build,build,NOUN,True,False
and,and,and,and,CCONJ,True,True
promote,promote,promote,promote,VERB,True,False
so,so,so,so,ADV,True,True
call,call,call,call,VERB,True,True
5,5,5,5,NUM,False,False
g,g,g,g,NOUN,True,False
technology,technology,technology,technology,NOUN,True,False
globally,globally,globally,globally,ADV,True,False
",",",",",",",",PUNCT,False,False
be,be,be,be,AUX,True,True
involve,involve,involve,involve,NOUN,True,False
in,in,in,in,ADP,True,True
4,4,4,4,NUM,False,False
major,major,major,major,ADJ,True,False
eu,eu,eu,eu,PROPN,True,False
horizon,horizon,horizon,horizon,NOUN,True,False
2020,2020,2020,2020,NUM,False,False
5,5,5,5,NUM,False,False
g,g,g,g,NOUN,True,False
project,project,project,project,NOUN,True,False
",",",",",",",",PUNCT,False,False
and,and,and,and,CCONJ,True,True
participate,participate,participate,participate,VERB,True,False
as,as,as,as,SCONJ,True,True
member,member,member,member,NOUN,True,False
in,in,in,in,ADP,True,True
the,the,the,the,DET,True,True
european,european,european,european,PROPN,True,False
5,5,5,5,NUM,False,False
g,g,g,g,PROPN,True,False
public,public,public,public,ADJ,True,False
private,private,private,private,ADJ,True,False
partnership,partnership,partnership,partnership,NOUN,True,False
5,5,5,5,NUM,False,False
g,g,g,g,NOUN,True,False
ppp,ppp,ppp,ppp,NOUN,True,False
",",",",",",",",PUNCT,False,False
in,in,in,in,ADP,True,True
the,the,the,the,DET,True,True
5,5,5,5,NUM,False,False
g,g,g,g,PROPN,True,False
forum,forum,forum,forum,NOUN,True,False
in,in,in,in,ADP,True,True
south,south,south,south,PROPN,True,False
korea,korea,korea,korea,PROPN,True,False
",",",",",",",",PUNCT,False,False
and,and,and,and,CCONJ,True,True
other,other,other,other,ADJ,True,True
5,5,5,5,NUM,False,False
g,g,g,g,NOUN,True,False
organization,organization,organization,organization,NOUN,True,False
.,.,.,.,PUNCT,False,False
interdigital,interdigital,interdigital,interdigital,PROPN,True,False
will,will,will,will,VERB,True,True
continue,continue,continue,continue,VERB,True,False
to,to,to,to,PART,True,True
work,work,work,work,VERB,True,False
across,across,across,across,ADP,True,True
the,the,the,the,DET,True,True
ecosystem,ecosystem,ecosystem,ecosystem,NOUN,True,False
to,to,to,to,PART,True,True
drive,drive,drive,drive,VERB,True,False
market,market,market,market,NOUN,True,False
adoption,adoption,adoption,adoption,NOUN,True,False
of,of,of,of,ADP,True,True
spectrum,spectrum,spectrum,spectrum,PROPN,True,False
sharing,sharing,sharing,sharing,NOUN,True,False
",",",",",",",",PUNCT,False,False
5,5,5,5,NUM,False,False
g,g,g,g,NOUN,True,False
technology,technology,technology,technology,NOUN,True,False
in,in,in,in,ADP,True,True
both,both,both,both,CCONJ,True,True
spectrum,spectrum,spectrum,spectrum,NOUN,True,False
below,below,below,below,ADV,True,True
and,and,and,and,CCONJ,True,True
above,above,above,above,ADP,True,True
6,6,6,6,NUM,False,False
ghz,ghz,ghz,ghz,PROPN,True,False
.,.,.,.,PUNCT,False,False
introductionin,introductionin,introductionin,introductionin,PROPN,True,False
these,these,these,these,DET,True,True
comment,comment,comment,comment,NOUN,True,False
",",",",",",",",PUNCT,False,False
interdigital,interdigital,interdigital,interdigital,NOUN,True,False
provide,provide,provide,provide,VERB,True,False
its,its,-PRON-,-pron-,DET,True,True
view,view,view,view,NOUN,True,False
on,on,on,on,ADP,True,True
define,define,define,define,NOUN,True,False
use,use,use,use,NOUN,True,False
of,of,of,of,ADP,True,True
pal,pal,pal,pal,ADJ,True,False
frequency,frequency,frequency,frequency,NOUN,True,False
",",",",",",",",PUNCT,False,False
specifically,specifically,specifically,specifically,ADV,True,False
on,on,on,on,ADP,True,True
the,the,the,the,DET,True,True
engineering,engineering,engineering,engineering,NOUN,True,False
definition,definition,definition,definition,NOUN,True,False
of,of,of,of,ADP,True,True
spectrum,spectrum,spectrum,spectrum,PROPN,True,False
use,use,use,use,PROPN,True,False
paragraphs,paragraphs,paragraphs,paragraphs,PROPN,True,False
419,419,419,419,NUM,False,False
-,-,-,-,SYM,False,False
423,423,423,423,NUM,False,False
in,in,in,in,ADP,True,True
the,the,the,the,DET,True,True
2,2,2,2,NUM,False,False
fnprm,fnprm,fnprm,fnprm,NOUN,True,False
",",",",",",",",PUNCT,False,False
and,and,and,and,CCONJ,True,True
complement,complement,complement,complement,VERB,True,False
its,its,-PRON-,-pron-,DET,True,True
early,early,early,early,ADJ,True,False
comment,comment,comment,comment,NOUN,True,False
submit,submit,submit,submit,NOUN,True,False
in,in,in,in,ADP,True,True
response,response,response,response,NOUN,True,False
to,to,to,to,ADP,True,True
the,the,the,the,DET,True,True
commissions,commissions,commission,commission,NOUN,True,False
notice,notice,notice,notice,NOUN,True,False
of,of,of,of,ADP,True,True
proposed,proposed,propose,propose,VERB,True,False
rulemaking,rulemaking,rulemaking,rulemaking,NOUN,True,False
and,and,and,and,CCONJ,True,True
order,order,order,order,NOUN,True,False
regard,regard,regard,regard,VERB,True,False
commercial,commercial,commercial,commercial,ADJ,True,False
operation,operation,operation,operation,NOUN,True,False
in,in,in,in,ADP,True,True
the,the,the,the,DET,True,True
3550,3550,3550,3550,NUM,False,False
3650,3650,3650,3650,NUM,False,False
mhz,mhz,mhz,mhz,PROPN,True,False
band,band,band,band,NOUN,True,False
[,[,[,[,PUNCT,False,False
fcc_1]-[fcc_4,fcc_1]-[fcc_4,fcc_1]-[fcc_4,fcc_1]-[fcc_4,PROPN,False,False
],],],],PUNCT,False,False
",",",",",",",",PUNCT,False,False
[,[,[,[,PUNCT,False,False
idcc_1]-[idcc_3].interdigital,idcc_1]-[idcc_3].interdigital,idcc_1]-[idcc_3].interdigital,idcc_1]-[idcc_3].interdigital,INTJ,False,False
welcome,welcome,welcome,welcome,VERB,True,False
the,the,the,the,DET,True,True
commissions,commissions,commission,commission,NOUN,True,False
new,new,new,new,ADJ,True,False
rule,rule,rule,rule,NOUN,True,False
on,on,on,on,ADP,True,True
the,the,the,the,DET,True,True
3.5,3.5,3.5,3.5,NUM,False,False
ghz,ghz,ghz,ghz,PROPN,True,False
band,band,band,band,NOUN,True,False
",",",",",",",",PUNCT,False,False
where,where,where,where,ADV,True,True
new,new,new,new,ADJ,True,False
method,method,method,method,NOUN,True,False
of,of,of,of,ADP,True,True
spectrum,spectrum,spectrum,spectrum,NOUN,True,False
sharing,sharing,sharing,sharing,NOUN,True,False
be,be,be,be,AUX,True,True
explore,explore,explore,explore,VERB,True,False
and,and,and,and,CCONJ,True,True
up,up,up,up,ADP,True,True
to,to,to,to,PART,True,True
150,150,150,150,NUM,False,False
mhz,mhz,mhz,mhz,NOUN,True,False
of,of,of,of,ADP,True,True
spectrum,spectrum,spectrum,spectrum,NOUN,True,False
may,may,may,may,VERB,True,True
be,be,be,be,AUX,True,True
use,use,use,use,NOUN,True,False
in,in,in,in,ADP,True,True
a,a,a,a,DET,True,True
three,three,three,three,NUM,True,True
-,-,-,-,PUNCT,False,False
tiere,tiere,tiere,tiere,NOUN,True,False
sharing,sharing,sharing,sharing,NOUN,True,False
framework,framework,framework,framework,NOUN,True,False
.,.,.,.,PUNCT,False,False
as,as,as,as,SCONJ,True,True
we,we,-PRON-,-pron-,PRON,True,True
previously,previously,previously,previously,ADV,True,False
state,state,state,state,VERB,True,False
",",",",",",",",PUNCT,False,False
we,we,-PRON-,-pron-,PRON,True,True
do,do,do,do,AUX,True,True
believe,believe,believe,believe,VERB,True,False
that,that,that,that,SCONJ,True,True
the,the,the,the,DET,True,True
propose,propose,propose,propose,NOUN,True,False
sharing,sharing,sharing,sharing,NOUN,True,False
model,model,model,model,NOUN,True,False
can,can,can,can,VERB,True,True
be,be,be,be,AUX,True,True
apply,apply,apply,apply,VERB,True,False
also,also,also,also,ADV,True,True
in,in,in,in,ADP,True,True
other,other,other,other,ADJ,True,True
band,band,band,band,NOUN,True,False
in,in,in,in,ADP,True,True
the,the,the,the,DET,True,True
future,future,future,future,NOUN,True,False
",",",",",",",",PUNCT,False,False
thereby,thereby,thereby,thereby,ADV,True,True
provide,provide,provide,provide,VERB,True,False
a,a,a,a,DET,True,True
means,means,means,means,NOUN,True,False
of,of,of,of,ADP,True,True
improve,improve,improve,improve,VERB,True,False
the,the,the,the,DET,True,True
frequency,frequency,frequency,frequency,NOUN,True,False
spectrum,spectrum,spectrum,spectrum,NOUN,True,False
availability,availability,availability,availability,NOUN,True,False
and,and,and,and,CCONJ,True,True
use,use,use,use,NOUN,True,False
.,.,.,.,PUNCT,False,False
we,we,-PRON-,-pron-,PRON,True,True
commend,commend,commend,commend,VERB,True,False
the,the,the,the,DET,True,True
progress,progress,progress,progress,NOUN,True,False
make,make,make,make,VERB,True,True
by,by,by,by,ADP,True,True
the,the,the,the,DET,True,True
commission,commission,commission,commission,NOUN,True,False
",",",",",",",",PUNCT,False,False
work,work,work,work,VERB,True,False
with,with,with,with,ADP,True,True
the,the,the,the,DET,True,True
ntia,ntia,ntia,ntia,NOUN,True,False
",",",",",",",",PUNCT,False,False
to,to,to,to,PART,True,True
achieve,achieve,achieve,achieve,VERB,True,False
a,a,a,a,DET,True,True
significant,significant,significant,significant,ADJ,True,False
reduction,reduction,reduction,reduction,NOUN,True,False
in,in,in,in,ADP,True,True
the,the,the,the,DET,True,True
size,size,size,size,NOUN,True,False
of,of,of,of,ADP,True,True
the,the,the,the,DET,True,True
exclusion,exclusion,exclusion,exclusion,NOUN,True,False
zone,zone,zone,zone,NOUN,True,False
as,as,as,as,SCONJ,True,True
compare,compare,compare,compare,VERB,True,False
to,to,to,to,ADP,True,True
the,the,the,the,DET,True,True
original,original,original,original,ADJ,True,False
valuesreporte,valuesreporte,valuesreporte,valuesreporte,NOUN,True,False
in,in,in,in,ADP,True,True
ntias,ntias,ntias,ntias,PROPN,True,False
fast,fast,fast,fast,ADJ,True,False
track,track,track,track,NOUN,True,False
report,report,report,report,NOUN,True,False
[,[,[,[,PUNCT,False,False
ntia_1,ntia_1,ntia_1,ntia_1,PROPN,False,False
],],],],PUNCT,False,False
",",",",",",",",PUNCT,False,False
[,[,[,[,PUNCT,False,False
ntia_2,ntia_2,ntia_2,ntia_2,PROPN,False,False
],],],],PUNCT,False,False
.,.,.,.,PUNCT,False,False
at,at,at,at,ADP,True,True
the,the,the,the,DET,True,True
same,same,same,same,ADJ,True,True
time,time,time,time,NOUN,True,False
",",",",",",",",PUNCT,False,False
we,we,-PRON-,-pron-,PRON,True,True
believe,believe,believe,believe,VERB,True,False
that,that,that,that,SCONJ,True,True
in,in,in,in,ADP,True,True
order,order,order,order,NOUN,True,False
for,for,for,for,ADP,True,True
the,the,the,the,DET,True,True
technology,technology,technology,technology,NOUN,True,False
to,to,to,to,PART,True,True
gain,gain,gain,gain,VERB,True,False
market,market,market,market,NOUN,True,False
traction,traction,traction,traction,NOUN,True,False
",",",",",",",",PUNCT,False,False
a,a,a,a,DET,True,True
timely,timely,timely,timely,ADJ,True,False
transition,transition,transition,transition,NOUN,True,False
to,to,to,to,PART,True,True
phase,phase,phase,phase,VERB,True,False
2,2,2,2,NUM,False,False
be,be,be,be,AUX,True,True
highly,highly,highly,highly,ADV,True,False
desirable,desirable,desirable,desirable,ADJ,True,False
",",",",",",",",PUNCT,False,False
so,so,so,so,SCONJ,True,True
that,that,that,that,SCONJ,True,True
under,under,under,under,ADP,True,True
the,the,the,the,DET,True,True
control,control,control,control,NOUN,True,False
of,of,of,of,ADP,True,True
the,the,the,the,DET,True,True
sas,sas,sas,sas,PROPN,True,False
and,and,and,and,CCONJ,True,True
the,the,the,the,DET,True,True
esc,esc,esc,esc,NOUN,True,False
",",",",",",",",PUNCT,False,False
the,the,the,the,DET,True,True
exclusion,exclusion,exclusion,exclusion,NOUN,True,False
zone,zone,zone,zone,NOUN,True,False
can,can,can,can,VERB,True,True
be,be,be,be,AUX,True,True
convert,convert,convert,convert,ADJ,True,False
to,to,to,to,ADP,True,True
protection,protection,protection,protection,NOUN,True,False
zone,zone,zone,zone,NOUN,True,False
.,.,.,.,PUNCT,False,False
this,this,this,this,DET,True,True
way,way,way,way,NOUN,True,False
the,the,the,the,DET,True,True
cbrs,cbrs,cbr,cbr,NOUN,True,False
band,band,band,band,NOUN,True,False
become,become,become,become,VERB,True,True
truly,truly,truly,truly,ADV,True,False
nationwide,nationwide,nationwide,nationwide,ADJ,True,False
.,.,.,.,PUNCT,False,False
engineering,engineering,engineer,engineer,VERB,True,False
definition,definition,definition,definition,NOUN,True,False
of,of,of,of,ADP,True,True
spectrum,spectrum,spectrum,spectrum,PROPN,True,False
useinterdigital,useinterdigital,useinterdigital,useinterdigital,PROPN,True,False
believe,believe,believe,believe,VERB,True,False
than,than,than,than,SCONJ,True,True
an,an,an,an,DET,True,True
engineering,engineering,engineering,engineering,NOUN,True,False
definition,definition,definition,definition,NOUN,True,False
of,of,of,of,ADP,True,True
spectrum,spectrum,spectrum,spectrum,NOUN,True,False
use,use,use,use,NOUN,True,False
be,be,be,be,AUX,True,True
feasible,feasible,feasible,feasible,ADJ,True,False
within,within,within,within,ADP,True,True
the,the,the,the,DET,True,True
cbrs,cbrs,cbr,cbr,NOUN,True,False
framework,framework,framework,framework,NOUN,True,False
",",",",",",",",PUNCT,False,False
and,and,and,and,CCONJ,True,True
it,it,-PRON-,-pron-,PRON,True,True
be,be,be,be,AUX,True,True
a,a,a,a,DET,True,True
preferred,preferred,preferred,preferred,ADJ,True,False
way,way,way,way,NOUN,True,False
to,to,to,to,PART,True,True
determine,determine,determine,determine,VERB,True,False
the,the,the,the,DET,True,True
spectrum,spectrum,spectrum,spectrum,PROPN,True,False
use,use,use,use,PROPN,True,False
.,.,.,.,PUNCT,False,False
as,as,as,as,SCONJ,True,True
we,we,-PRON-,-pron-,PRON,True,True
suggest,suggest,suggest,suggest,VERB,True,False
in,in,in,in,ADP,True,True
our,our,-PRON-,-pron-,DET,True,True
previous,previous,previous,previous,ADJ,True,False
submission,submission,submission,submission,NOUN,True,False
[,[,[,[,PUNCT,False,False
idcc_2,idcc_2,idcc_2,idcc_2,NOUN,False,False
],],],],PUNCT,False,False
",",",",",",",",PUNCT,False,False
[,[,[,[,PUNCT,False,False
idcc_3,idcc_3,idcc_3,idcc_3,NOUN,False,False
],],],],PUNCT,False,False
",",",",",",",",PUNCT,False,False
the,the,the,the,DET,True,True
cbsds,cbsds,cbsds,cbsds,NOUN,True,False
or,or,or,or,CCONJ,True,True
the,the,the,the,DET,True,True
proxynetwork,proxynetwork,proxynetwork,proxynetwork,NOUN,True,False
manager,manager,manager,manager,NOUN,True,False
entity,entity,entity,entity,NOUN,True,False
should,should,should,should,VERB,True,True
provide,provide,provide,provide,VERB,True,False
measurement,measurement,measurement,measurement,NOUN,True,False
report,report,report,report,NOUN,True,False
to,to,to,to,ADP,True,True
the,the,the,the,DET,True,True
sas,sas,sas,sas,PROPN,True,False
.,.,.,.,PUNCT,False,False
example,example,example,example,NOUN,True,False
of,of,of,of,ADP,True,True
such,such,such,such,ADJ,True,True
measurement,measurement,measurement,measurement,NOUN,True,False
may,may,may,may,VERB,True,True
include,include,include,include,VERB,True,False
average,average,average,average,ADJ,True,False
over,over,over,over,ADP,True,True
-,-,-,-,PUNCT,False,False
the,the,the,the,DET,True,True
-,-,-,-,PUNCT,False,False
air,air,air,air,NOUN,True,False
data,data,data,data,NOUN,True,False
rate,rate,rate,rate,NOUN,True,False
or,or,or,or,CCONJ,True,True
the,the,the,the,DET,True,True
average,average,average,average,ADJ,True,False
throughput,throughput,throughput,throughput,NOUN,True,False
",",",",",",",",PUNCT,False,False
peak,peak,peak,peak,NOUN,True,False
data,data,data,data,NOUN,True,False
rate,rate,rate,rate,NOUN,True,False
",",",",",",",",PUNCT,False,False
channel,channel,channel,channel,NOUN,True,False
occupancy,occupancy,occupancy,occupancy,NOUN,True,False
",",",",",",",",PUNCT,False,False
as,as,as,as,ADV,True,True
well,well,well,well,ADV,True,True
as,as,as,as,SCONJ,True,True
duty,duty,duty,duty,NOUN,True,False
factor,factor,factor,factor,NOUN,True,False
average,average,average,average,VERB,True,False
over,over,over,over,ADP,True,True
various,various,various,various,ADJ,True,True
time,time,time,time,NOUN,True,False
interval,interval,interval,interval,NOUN,True,False
.,.,.,.,PUNCT,False,False
in,in,in,in,ADP,True,True
case,case,case,case,NOUN,True,False
a,a,a,a,DET,True,True
pa,pa,pa,pa,PROPN,True,False
licensee,licensee,licensee,licensee,PROPN,True,False
deploy,deploy,deploy,deploy,PROPN,True,False
multiple,multiple,multiple,multiple,ADJ,True,False
cbsds,cbsds,cbsds,cbsds,PROPN,True,False
across,across,across,across,ADP,True,True
the,the,the,the,DET,True,True
area,area,area,area,NOUN,True,False
of,of,of,of,ADP,True,True
a,a,a,a,DET,True,True
census,census,census,census,NOUN,True,False
tract,tract,tract,tract,NOUN,True,False
",",",",",",",",PUNCT,False,False
the,the,the,the,DET,True,True
proxynetwork,proxynetwork,proxynetwork,proxynetwork,NOUN,True,False
manager,manager,manager,manager,NOUN,True,False
entity,entity,entity,entity,NOUN,True,False
perform,perform,perform,perform,VERB,True,False
the,the,the,the,DET,True,True
reporting,reporting,reporting,reporting,NOUN,True,False
should,should,should,should,VERB,True,True
report,report,report,report,VERB,True,False
average,average,average,average,ADJ,True,False
use,use,use,use,NOUN,True,False
value,value,value,value,NOUN,True,False
for,for,for,for,ADP,True,True
each,each,each,each,DET,True,True
cbsd,cbsd,cbsd,cbsd,NOUN,True,False
.,.,.,.,PUNCT,False,False
additionally,additionally,additionally,additionally,ADV,True,False
",",",",",",",",PUNCT,False,False
as,as,as,as,SCONJ,True,True
the,the,the,the,DET,True,True
commission,commission,commission,commission,NOUN,True,False
rule,rule,rule,rule,NOUN,True,False
in,in,in,in,ADP,True,True
96.39d,96.39d,96.39d,96.39d,PROPN,False,False
",",",",",",",",PUNCT,False,False
the,the,the,the,DET,True,True
cbsd,cbsd,cbsd,cbsd,NOUN,True,False
must,must,must,must,VERB,True,True
report,report,report,report,VERB,True,False
to,to,to,to,ADP,True,True
an,an,an,an,DET,True,True
sas,sas,sas,sas,PROPN,True,False
regard,regard,regard,regard,NOUN,True,False
receive,receive,receive,receive,ADJ,True,False
signal,signal,signal,signal,NOUN,True,False
strength,strength,strength,strength,NOUN,True,False
in,in,in,in,ADP,True,True
its,its,-PRON-,-pron-,DET,True,True
occupy,occupy,occupy,occupy,NOUN,True,False
frequency,frequency,frequency,frequency,NOUN,True,False
and,and,and,and,CCONJ,True,True
adjacent,adjacent,adjacent,adjacent,ADJ,True,False
frequency,frequency,frequency,frequency,NOUN,True,False
",",",",",",",",PUNCT,False,False
receive,receive,receive,receive,VERB,True,False
packet,packet,packet,packet,NOUN,True,False
error,error,error,error,NOUN,True,False
rate,rate,rate,rate,NOUN,True,False
or,or,or,or,CCONJ,True,True
other,other,other,other,ADJ,True,True
common,common,common,common,ADJ,True,False
standard,standard,standard,standard,ADJ,True,False
metric,metric,metric,metric,NOUN,True,False
of,of,of,of,ADP,True,True
interference,interference,interference,interference,NOUN,True,False
for,for,for,for,ADP,True,True
itself,itself,-PRON-,-pron-,PRON,True,True
and,and,and,and,CCONJ,True,True
associate,associate,associate,associate,ADJ,True,False
end,end,end,end,NOUN,True,False
user,user,user,user,NOUN,True,False
devices,devices,device,device,NOUN,True,False
as,as,as,as,SCONJ,True,True
direct,direct,direct,direct,ADJ,True,False
by,by,by,by,ADP,True,True
an,an,an,an,DET,True,True
sas,sas,sas,sas,PROPN,True,False
",",",",",",",",PUNCT,False,False
this,this,this,this,DET,True,True
information,information,information,information,NOUN,True,False
should,should,should,should,VERB,True,True
be,be,be,be,AUX,True,True
use,use,use,use,NOUN,True,False
to,to,to,to,PART,True,True
determine,determine,determine,determine,VERB,True,False
if,if,if,if,SCONJ,True,True
the,the,the,the,DET,True,True
spectrum,spectrum,spectrum,spectrum,NOUN,True,False
be,be,be,be,VERB,True,True
in,in,in,in,ADP,True,True
use,use,use,use,NOUN,True,False
.,.,.,.,PUNCT,False,False
it,it,-PRON-,-pron-,PRON,True,True
be,be,be,be,VERB,True,True
assume,assume,assume,assume,ADJ,True,False
that,that,that,that,SCONJ,True,True
as,as,as,as,SCONJ,True,True
the,the,the,the,DET,True,True
cbsds,cbsds,cbsds,cbsds,NOUN,True,False
need,need,need,need,VERB,True,False
to,to,to,to,PART,True,True
be,be,be,be,AUX,True,True
certify,certify,certify,certify,ADJ,True,False
by,by,by,by,ADP,True,True
the,the,the,the,DET,True,True
commission,commission,commission,commission,NOUN,True,False
to,to,to,to,PART,True,True
operate,operate,operate,operate,VERB,True,False
in,in,in,in,ADP,True,True
the,the,the,the,DET,True,True
band,band,band,band,NOUN,True,False
",",",",",",",",PUNCT,False,False
they,they,-PRON-,-pron-,PRON,True,True
will,will,will,will,VERB,True,True
meet,meet,meet,meet,VERB,True,False
the,the,the,the,DET,True,True
requirement,requirement,requirement,requirement,NOUN,True,False
for,for,for,for,ADP,True,True
measurement,measurement,measurement,measurement,NOUN,True,False
and,and,and,and,CCONJ,True,True
reporting,reporting,reporting,reporting,NOUN,True,False
.,.,.,.,PUNCT,False,False
compliance,compliance,compliance,compliance,NOUN,True,False
with,with,with,with,ADP,True,True
these,these,these,these,DET,True,True
requirement,requirement,requirement,requirement,NOUN,True,False
",",",",",",",",PUNCT,False,False
as,as,as,as,ADV,True,True
well,well,well,well,ADV,True,True
as,as,as,as,SCONJ,True,True
with,with,with,with,ADP,True,True
policy,policy,policy,policy,NOUN,True,False
constraint,constraint,constraint,constraint,NOUN,True,False
",",",",",",",",PUNCT,False,False
can,can,can,can,VERB,True,True
ensure,ensure,ensure,ensure,VERB,True,False
that,that,that,that,SCONJ,True,True
false,false,false,false,ADJ,True,False
reporting,reporting,reporting,reporting,NOUN,True,False
or,or,or,or,CCONJ,True,True
over,over,over,over,ADP,True,True
reporting,reporting,reporting,reporting,NOUN,True,False
of,of,of,of,ADP,True,True
the,the,the,the,DET,True,True
traffic,traffic,traffic,traffic,NOUN,True,False
can,can,can,can,VERB,True,True
not,not,not,not,PART,True,True
be,be,be,be,AUX,True,True
use,use,use,use,NOUN,True,False
as,as,as,as,SCONJ,True,True
a,a,a,a,DET,True,True
means,means,means,means,NOUN,True,False
to,to,to,to,PART,True,True
artificially,artificially,artificially,artificially,ADV,True,False
keep,keep,keep,keep,VERB,True,True
the,the,the,the,DET,True,True
channel,channel,channel,channel,PROPN,True,False
occupy,occupy,occupy,occupy,PROPN,True,False
.,.,.,.,PUNCT,False,False
jointly,jointly,jointly,jointly,ADV,True,False
",",",",",",",",PUNCT,False,False
the,the,the,the,DET,True,True
measurement,measurement,measurement,measurement,NOUN,True,False
list,list,list,list,NOUN,True,False
above,above,above,above,ADV,True,True
can,can,can,can,VERB,True,True
provide,provide,provide,provide,VERB,True,False
an,an,an,an,DET,True,True
sas,sas,sas,sas,PROPN,True,False
with,with,with,with,ADP,True,True
enough,enough,enough,enough,ADJ,True,True
datum,datum,datum,datum,NOUN,True,False
to,to,to,to,PART,True,True
assess,assess,assess,assess,VERB,True,False
if,if,if,if,SCONJ,True,True
a,a,a,a,DET,True,True
channel,channel,channel,channel,NOUN,True,False
be,be,be,be,AUX,True,True
be,be,be,be,AUX,True,True
use,use,use,use,NOUN,True,False
.,.,.,.,PUNCT,False,False
the,the,the,the,DET,True,True
measurement,measurement,measurement,measurement,NOUN,True,False
reporting,reporting,reporting,reporting,NOUN,True,False
frequency,frequency,frequency,frequency,NOUN,True,False
should,should,should,should,VERB,True,True
be,be,be,be,AUX,True,True
choose,choose,choose,choose,VERB,True,False
such,such,such,such,ADJ,True,True
that,that,that,that,SCONJ,True,True
it,it,-PRON-,-pron-,PRON,True,True
be,be,be,be,AUX,True,True
effective,effective,effective,effective,ADJ,True,False
in,in,in,in,ADP,True,True
prevent,prevent,prevent,prevent,NOUN,True,False
game,game,game,game,NOUN,True,False
the,the,the,the,DET,True,True
system,system,system,system,NOUN,True,False
",",",",",",",",PUNCT,False,False
while,while,while,while,SCONJ,True,True
at,at,at,at,ADP,True,True
the,the,the,the,DET,True,True
same,same,same,same,ADJ,True,True
time,time,time,time,NOUN,True,False
it,it,-PRON-,-pron-,PRON,True,True
do,do,do,do,AUX,True,True
not,not,not,not,PART,True,True
significantly,significantly,significantly,significantly,ADV,True,False
increase,increase,increase,increase,VERB,True,False
the,the,the,the,DET,True,True
overhead,overhead,overhead,overhead,NOUN,True,False
.,.,.,.,PUNCT,False,False
report,report,report,report,VERB,True,False
measurement,measurement,measurement,measurement,NOUN,True,False
for,for,for,for,ADP,True,True
each,each,each,each,DET,True,True
cbsd,cbsd,cbsd,cbsd,NOUN,True,False
potentially,potentially,potentially,potentially,ADV,True,False
just,just,just,just,ADV,True,True
a,a,a,a,DET,True,True
sub,sub,sub,sub,NOUN,True,False
-,-,-,-,PUNCT,False,False
set,set,set,set,NOUN,True,False
of,of,of,of,ADP,True,True
the,the,the,the,DET,True,True
datum,datum,datum,datum,NOUN,True,False
",",",",",",",",PUNCT,False,False
to,to,to,to,PART,True,True
reduce,reduce,reduce,reduce,VERB,True,False
reporting,reporting,reporting,reporting,NOUN,True,False
overhead,overhead,overhead,overhead,ADV,True,False
may,may,may,may,VERB,True,True
help,help,help,help,VERB,True,False
address,address,address,address,VERB,True,False
the,the,the,the,DET,True,True
commissions,commissions,commission,commission,NOUN,True,False
concern,concern,concern,concern,NOUN,True,False
that,that,that,that,SCONJ,True,True
it,it,-PRON-,-pron-,PRON,True,True
may,may,may,may,VERB,True,True
be,be,be,be,AUX,True,True
possible,possible,possible,possible,ADJ,True,False
for,for,for,for,ADP,True,True
priority,priority,priority,priority,NOUN,True,False
access,access,access,access,NOUN,True,False
licensee,licensee,licensee,licensee,NOUN,True,False
to,to,to,to,PART,True,True
deploy,deploy,deploy,deploy,VERB,True,False
low,low,low,low,ADJ,True,False
-,-,-,-,PUNCT,False,False
cost,cost,cost,cost,NOUN,True,False
cbsds,cbsds,cbsds,cbsds,NOUN,True,False
whose,whose,whose,whose,DET,True,True
main,main,main,main,ADJ,True,False
purpose,purpose,purpose,purpose,NOUN,True,False
be,be,be,be,AUX,True,True
to,to,to,to,PART,True,True
trigger,trigger,trigger,trigger,VERB,True,False
sas,sas,sas,sas,PROPN,True,False
protection,protection,protection,protection,NOUN,True,False
[,[,[,[,PUNCT,False,False
fcc-4,fcc-4,fcc-4,fcc-4,INTJ,False,False
],],],],PUNCT,False,False
at,at,at,at,ADP,True,True
423.we,423.we,423.we,423.we,NUM,False,False
further,further,further,further,ADV,True,True
believe,believe,believe,believe,VERB,True,False
that,that,that,that,SCONJ,True,True
the,the,the,the,DET,True,True
specific,specific,specific,specific,ADJ,True,False
method,method,method,method,NOUN,True,False
to,to,to,to,PART,True,True
derive,derive,derive,derive,VERB,True,False
the,the,the,the,DET,True,True
occupancy,occupancy,occupancy,occupancy,NOUN,True,False
status,status,status,status,NOUN,True,False
need,need,need,need,VERB,True,False
to,to,to,to,PART,True,True
be,be,be,be,AUX,True,True
agree,agree,agree,agree,VERB,True,False
upon,upon,upon,upon,SCONJ,True,True
by,by,by,by,ADP,True,True
the,the,the,the,DET,True,True
stakeholder,stakeholder,stakeholder,stakeholder,NOUN,True,False
",",",",",",",",PUNCT,False,False
so,so,so,so,SCONJ,True,True
that,that,that,that,SCONJ,True,True
it,it,-PRON-,-pron-,PRON,True,True
be,be,be,be,AUX,True,True
implement,implement,implement,implement,VERB,True,False
consistently,consistently,consistently,consistently,ADV,True,False
across,across,across,across,ADP,True,True
different,different,different,different,ADJ,True,False
sas,sas,sas,sas,PROPN,True,False
provider,provider,provider,provider,NOUN,True,False
.,.,.,.,PUNCT,False,False
lastly,lastly,lastly,lastly,ADV,True,False
",",",",",",",",PUNCT,False,False
we,we,-PRON-,-pron-,PRON,True,True
believe,believe,believe,believe,VERB,True,False
that,that,that,that,SCONJ,True,True
vacate,vacate,vacate,vacate,ADJ,True,False
channel,channel,channel,channel,NOUN,True,False
to,to,to,to,PART,True,True
serve,serve,serve,serve,VERB,True,False
as,as,as,as,SCONJ,True,True
guard,guard,guard,guard,NOUN,True,False
band,band,band,band,NOUN,True,False
for,for,for,for,ADP,True,True
pa,pa,pa,pa,PROPN,True,False
licensee,licensee,licensee,licensee,PROPN,True,False
will,will,will,will,VERB,True,True
not,not,not,not,PART,True,True
result,result,result,result,VERB,True,False
in,in,in,in,ADP,True,True
efficient,efficient,efficient,efficient,ADJ,True,False
use,use,use,use,NOUN,True,False
of,of,of,of,ADP,True,True
spectrum,spectrum,spectrum,spectrum,NOUN,True,False
",",",",",",",",PUNCT,False,False
and,and,and,and,CCONJ,True,True
will,will,will,will,VERB,True,True
potentially,potentially,potentially,potentially,ADV,True,False
lead,lead,lead,lead,VERB,True,False
to,to,to,to,ADP,True,True
area,area,area,area,NOUN,True,False
where,where,where,where,ADV,True,True
the,the,the,the,DET,True,True
channel,channel,channel,channel,NOUN,True,False
may,may,may,may,VERB,True,True
lay,lay,lay,lay,VERB,True,False
fallow,fallow,fallow,fallow,ADJ,True,False
.,.,.,.,PUNCT,False,False
moreover,moreover,moreover,moreover,ADV,True,True
",",",",",",",",PUNCT,False,False
give,give,give,give,VERB,True,True
the,the,the,the,DET,True,True
maximum,maximum,maximum,maximum,ADJ,True,False
conduct,conduct,conduct,conduct,NOUN,True,False
power,power,power,power,NOUN,True,False
24,24,24,24,NUM,False,False
dbm10,dbm10,dbm10,dbm10,NOUN,False,False
mhz,mhz,mhz,mhz,NOUN,True,False
",",",",",",",",PUNCT,False,False
the,the,the,the,DET,True,True
maximum,maximum,maximum,maximum,ADJ,True,False
eirp,eirp,eirp,eirp,NOUN,True,False
30,30,30,30,NUM,False,False
dbm10,dbm10,dbm10,dbm10,NOUN,False,False
mhz,mhz,mhz,mhz,NOUN,True,False
",",",",",",",",PUNCT,False,False
as,as,as,as,ADV,True,True
well,well,well,well,ADV,True,True
as,as,as,as,SCONJ,True,True
the,the,the,the,DET,True,True
maximum,maximum,maximum,maximum,ADJ,True,False
haat,haat,haat,haat,NOUN,True,False
of,of,of,of,ADP,True,True
6,6,6,6,NUM,False,False
m,m,m,m,PROPN,True,False
",",",",",",",",PUNCT,False,False
guard,guard,guard,guard,NOUN,True,False
channel,channel,channel,channel,NOUN,True,False
be,be,be,be,VERB,True,True
not,not,not,not,PART,True,True
need,need,need,need,NOUN,True,False
for,for,for,for,ADP,True,True
category,category,category,category,NOUN,True,False
-,-,-,-,PUNCT,False,False
a,a,a,a,DET,True,True
cbsd,cbsd,cbsd,cbsd,NOUN,True,False
.,.,.,.,PUNCT,False,False
for,for,for,for,ADP,True,True
rural,rural,rural,rural,ADJ,True,False
deployment,deployment,deployment,deployment,NOUN,True,False
use,use,use,use,NOUN,True,False
category,category,category,category,NOUN,True,False
-,-,-,-,PUNCT,False,False
b,b,b,b,NOUN,True,False
cbsd,cbsd,cbsd,cbsd,NOUN,True,False
",",",",",",",",PUNCT,False,False
guard,guard,guard,guard,NOUN,True,False
channel,channel,channel,channel,PROPN,True,False
be,be,be,be,AUX,True,True
also,also,also,also,ADV,True,True
not,not,not,not,PART,True,True
need,need,need,need,VERB,True,False
",",",",",",",",PUNCT,False,False
since,since,since,since,SCONJ,True,True
the,the,the,the,DET,True,True
deployment,deployment,deployment,deployment,NOUN,True,False
would,would,would,would,VERB,True,True
likely,likely,likely,likely,ADV,True,False
use,use,use,use,VERB,True,False
directive,directive,directive,directive,NOUN,True,False
antenna,antenna,antenna,antenna,NOUN,True,False
",",",",",",",",PUNCT,False,False
thus,thus,thus,thus,ADV,True,True
limit,limit,limit,limit,VERB,True,False
the,the,the,the,DET,True,True
interference,interference,interference,interference,NOUN,True,False
.,.,.,.,PUNCT,False,False
use,use,use,use,NOUN,True,False
of,of,of,of,ADP,True,True
non,non,non,non,ADJ,True,False
-,-,-,-,ADJ,False,False
rural,rural,rural,rural,ADJ,True,False
category,category,category,category,NOUN,True,False
b,b,b,b,X,True,False
cbsd,cbsd,cbsd,cbsd,NOUN,True,False
on,on,on,on,ADP,True,True
a,a,a,a,DET,True,True
channel,channel,channel,channel,NOUN,True,False
should,should,should,should,VERB,True,True
not,not,not,not,PART,True,True
preclude,preclude,preclude,preclude,VERB,True,False
low,low,low,low,ADJ,True,False
power,power,power,power,NOUN,True,False
andor,andor,andor,andor,PROPN,True,False
indoor,indoor,indoor,indoor,ADJ,True,False
use,use,use,use,NOUN,True,False
on,on,on,on,ADP,True,True
the,the,the,the,DET,True,True
adjacent,adjacent,adjacent,adjacent,ADJ,True,False
channel,channel,channel,channel,NOUN,True,False
.,.,.,.,PUNCT,False,False
conclusioninterdigital,conclusioninterdigital,conclusioninterdigital,conclusioninterdigital,PROPN,True,False
welcome,welcome,welcome,welcome,VERB,True,False
the,the,the,the,DET,True,True
commissions,commissions,commission,commission,NOUN,True,False
new,new,new,new,ADJ,True,False
rule,rule,rule,rule,NOUN,True,False
for,for,for,for,ADP,True,True
part,part,part,part,NOUN,True,True
96,96,96,96,NUM,False,False
",",",",",",",",PUNCT,False,False
specific,specific,specific,specific,ADJ,True,False
for,for,for,for,ADP,True,True
the,the,the,the,DET,True,True
new,new,new,new,ADJ,True,False
citizens,citizens,citizen,citizen,NOUN,True,False
broadband,broadband,broadband,broadband,NOUN,True,False
radio,radio,radio,radio,NOUN,True,False
service,service,service,service,NOUN,True,False
in,in,in,in,ADP,True,True
the,the,the,the,DET,True,True
3.5,3.5,3.5,3.5,NUM,False,False
ghz,ghz,ghz,ghz,PROPN,True,False
band,band,band,band,NOUN,True,False
.,.,.,.,PUNCT,False,False
we,we,-PRON-,-pron-,PRON,True,True
support,support,support,support,VERB,True,False
the,the,the,the,DET,True,True
engineering,engineering,engineering,engineering,NOUN,True,False
definition,definition,definition,definition,NOUN,True,False
of,of,of,of,ADP,True,True
spectrum,spectrum,spectrum,spectrum,NOUN,True,False
use,use,use,use,NOUN,True,False
",",",",",",",",PUNCT,False,False
and,and,and,and,CCONJ,True,True
believe,believe,believe,believe,VERB,True,False
that,that,that,that,SCONJ,True,True
use,use,use,use,NOUN,True,False
of,of,of,of,ADP,True,True
vacant,vacant,vacant,vacant,ADJ,True,False
channel,channel,channel,channel,NOUN,True,False
to,to,to,to,PART,True,True
serve,serve,serve,serve,VERB,True,False
as,as,as,as,SCONJ,True,True
guard,guard,guard,guard,NOUN,True,False
band,band,band,band,NOUN,True,False
be,be,be,be,VERB,True,True
not,not,not,not,PART,True,True
necessary,necessary,necessary,necessary,ADJ,True,False
.,.,.,.,PUNCT,False,False
interdigital,interdigital,interdigital,interdigital,ADJ,True,False
will,will,will,will,VERB,True,True
be,be,be,be,AUX,True,True
pleased,pleased,pleased,pleased,ADJ,True,False
to,to,to,to,PART,True,True
continue,continue,continue,continue,VERB,True,False
to,to,to,to,PART,True,True
work,work,work,work,VERB,True,False
together,together,together,together,ADV,True,True
with,with,with,with,ADP,True,True
the,the,the,the,DET,True,True
commission,commission,commission,commission,NOUN,True,False
to,to,to,to,PART,True,True
ensure,ensure,ensure,ensure,VERB,True,False
that,that,that,that,SCONJ,True,True
there,there,there,there,PRON,True,True
will,will,will,will,VERB,True,True
be,be,be,be,AUX,True,True
a,a,a,a,DET,True,True
possibility,possibility,possibility,possibility,NOUN,True,False
to,to,to,to,PART,True,True
employ,employ,employ,employ,VERB,True,False
advanced,advanced,advanced,advanced,ADJ,True,False
and,and,and,and,CCONJ,True,True
efficient,efficient,efficient,efficient,ADJ,True,False
spectrum,spectrum,spectrum,spectrum,NOUN,True,False
management,management,management,management,NOUN,True,False
technology,technology,technology,technology,NOUN,True,False
in,in,in,in,ADP,True,True
the,the,the,the,DET,True,True
future,future,future,future,NOUN,True,False
.,.,.,.,PUNCT,False,False
