text,text_lower,lemma,lemma_lower,part_of_speech,is_alphabet,is_stopword
softcominternet,softcominternet,softcominternet,softcominternet,PROPN,True,False
communications,communications,communications,communications,PROPN,True,False
",",",",",",",",PUNCT,False,False
inc,inc,inc,inc,PROPN,True,False
.,.,.,.,PROPN,False,False
re,re,re,re,PROPN,True,True
fcc,fcc,fcc,fcc,PROPN,True,False
proceeding,proceeding,proceed,proceed,VERB,True,False
12,12,12,12,NUM,False,False
-,-,-,-,PUNCT,False,False
354this,354this,354this,354this,PROPN,False,False
letter,letter,letter,letter,NOUN,True,False
be,be,be,be,AUX,True,True
to,to,to,to,PART,True,True
voice,voice,voice,voice,VERB,True,False
our,our,-PRON-,-pron-,DET,True,True
opposition,opposition,opposition,opposition,NOUN,True,False
to,to,to,to,ADP,True,True
the,the,the,the,DET,True,True
proposal,proposal,proposal,proposal,NOUN,True,False
make,make,make,make,VERB,True,True
by,by,by,by,ADP,True,True
t,t,t,t,NOUN,True,False
-,-,-,-,PUNCT,False,False
mobile,mobile,mobile,mobile,NOUN,True,False
and,and,and,and,CCONJ,True,True
ctia,ctia,ctia,ctia,PROPN,True,False
regard,regard,regard,regard,VERB,True,False
the,the,the,the,DET,True,True
cbrs,cbrs,cbr,cbr,NOUN,True,False
band,band,band,band,NOUN,True,False
.,.,.,.,PUNCT,False,False
softcom,softcom,softcom,softcom,PROPN,True,False
internet,internet,internet,internet,PROPN,True,False
communications,communications,communication,communication,NOUN,True,False
",",",",",",",",PUNCT,False,False
inc,inc,inc,inc,PROPN,True,False
.,.,.,.,PROPN,False,False
be,be,be,be,AUX,True,True
a,a,a,a,DET,True,True
wireless,wireless,wireless,wireless,ADJ,True,False
internet,internet,internet,internet,NOUN,True,False
service,service,service,service,NOUN,True,False
provider,provider,provider,provider,NOUN,True,False
operate,operate,operate,operate,VERB,True,False
in,in,in,in,ADP,True,True
the,the,the,the,DET,True,True
central,central,central,central,PROPN,True,False
valley,valley,valley,valley,PROPN,True,False
of,of,of,of,ADP,True,True
california,california,california,california,PROPN,True,False
serve,serve,serve,serve,VERB,True,False
approximately,approximately,approximately,approximately,ADV,True,False
"4,000","4,000","4,000","4,000",NUM,False,False
customer,customer,customer,customer,NOUN,True,False
.,.,.,.,PUNCT,False,False
we,we,-PRON-,-pron-,PRON,True,True
offer,offer,offer,offer,VERB,True,False
download,download,download,download,ADJ,True,False
speed,speed,speed,speed,NOUN,True,False
of,of,of,of,ADP,True,True
up,up,up,up,ADP,True,True
to,to,to,to,PART,True,True
50,50,50,50,NUM,False,False
mop,mop,mop,mop,NOUN,True,False
.,.,.,.,PUNCT,False,False
our,our,-PRON-,-pron-,DET,True,True
coverage,coverage,coverage,coverage,NOUN,True,False
area,area,area,area,NOUN,True,False
be,be,be,be,VERB,True,True
predominantly,predominantly,predominantly,predominantly,ADV,True,False
rural,rural,rural,rural,ADJ,True,False
",",",",",",",",PUNCT,False,False
and,and,and,and,CCONJ,True,True
we,we,-PRON-,-pron-,PRON,True,True
focus,focus,focus,focus,VERB,True,False
on,on,on,on,ADP,True,True
bring,bring,bre,bre,VERB,True,False
the,the,the,the,DET,True,True
good,good,good,good,ADJ,True,False
possible,possible,possible,possible,ADJ,True,False
service,service,service,service,NOUN,True,False
to,to,to,to,PART,True,True
area,area,area,area,VERB,True,False
that,that,that,that,DET,True,True
incumbent,incumbent,incumbent,incumbent,ADJ,True,False
provider,provider,provider,provider,NOUN,True,False
refuse,refuse,refuse,refuse,VERB,True,False
to,to,to,to,PART,True,True
service,service,service,service,NOUN,True,False
.,.,.,.,PUNCT,False,False
since,since,since,since,SCONJ,True,True
2011,2011,2011,2011,NUM,False,False
",",",",",",",",PUNCT,False,False
we,we,-PRON-,-pron-,PRON,True,True
have,have,have,have,AUX,True,True
invest,invest,invest,invest,VERB,True,False
significantly,significantly,significantly,significantly,ADV,True,False
in,in,in,in,ADP,True,True
equipment,equipment,equipment,equipment,NOUN,True,False
which,which,which,which,DET,True,True
provide,provide,provide,provide,VERB,True,False
service,service,service,service,NOUN,True,False
to,to,to,to,ADP,True,True
our,our,-PRON-,-pron-,DET,True,True
customer,customer,customer,customer,NOUN,True,False
in,in,in,in,ADP,True,True
the,the,the,the,DET,True,True
3650,3650,3650,3650,NUM,False,False
-,-,-,-,SYM,False,False
3700,3700,3700,3700,NUM,False,False
band,band,band,band,NOUN,True,False
.,.,.,.,PUNCT,False,False
we,we,-PRON-,-pron-,PRON,True,True
have,have,have,have,AUX,True,True
recently,recently,recently,recently,ADV,True,False
begin,begin,begin,begin,VERB,True,False
invest,invest,invest,invest,NOUN,True,False
in,in,in,in,ADP,True,True
lte,lte,lte,lte,ADJ,True,False
equipment,equipment,equipment,equipment,NOUN,True,False
in,in,in,in,ADP,True,True
the,the,the,the,DET,True,True
past,past,past,past,ADJ,True,False
two,two,two,two,NUM,True,True
year,year,year,year,NOUN,True,False
",",",",",",",",PUNCT,False,False
with,with,with,with,ADP,True,True
the,the,the,the,DET,True,True
strong,strong,strong,strong,ADJ,True,False
belief,belief,belief,belief,NOUN,True,False
that,that,that,that,SCONJ,True,True
the,the,the,the,DET,True,True
several,several,several,several,ADJ,True,True
year,year,year,year,NOUN,True,False
of,of,of,of,ADP,True,True
time,time,time,time,NOUN,True,False
that,that,that,that,DET,True,True
the,the,the,the,DET,True,True
fcc,fcc,fcc,fcc,PROPN,True,False
take,take,take,take,VERB,True,True
in,in,in,in,ADP,True,True
work,work,work,work,NOUN,True,False
with,with,with,with,ADP,True,True
all,all,all,all,DET,True,True
the,the,the,the,DET,True,True
appropriate,appropriate,appropriate,appropriate,ADJ,True,False
stakeholder,stakeholder,stakeholder,stakeholder,NOUN,True,False
include,include,include,include,VERB,True,False
the,the,the,the,DET,True,True
wireless,wireless,wireless,wireless,ADJ,True,False
internet,internet,internet,internet,NOUN,True,False
service,service,service,service,PROPN,True,False
provider,provider,provider,provider,PROPN,True,False
association,association,association,association,PROPN,True,False
in,in,in,in,ADP,True,True
the,the,the,the,DET,True,True
rulemaking,rulemaking,rulemaking,rulemaking,NOUN,True,False
process,process,process,process,NOUN,True,False
for,for,for,for,ADP,True,True
the,the,the,the,DET,True,True
cbrs,cbrs,cbr,cbr,NOUN,True,False
band,band,band,band,NOUN,True,False
would,would,would,would,VERB,True,True
open,open,open,open,VERB,True,False
up,up,up,up,ADP,True,True
additional,additional,additional,additional,ADJ,True,False
spectrum,spectrum,spectrum,spectrum,NOUN,True,False
to,to,to,to,ADP,True,True
wisp,wisp,wisp,wisp,NOUN,True,False
such,such,such,such,ADJ,True,True
as,as,as,as,SCONJ,True,True
ours,ours,ours,ours,DET,True,True
.,.,.,.,PUNCT,False,False
we,we,-PRON-,-pron-,PRON,True,True
also,also,also,also,ADV,True,True
be,be,be,be,AUX,True,True
thankful,thankful,thankful,thankful,ADJ,True,False
for,for,for,for,ADP,True,True
the,the,the,the,DET,True,True
grandfathered,grandfathered,grandfathere,grandfathere,VERB,True,False
protection,protection,protection,protection,NOUN,True,False
include,include,include,include,VERB,True,False
in,in,in,in,ADP,True,True
the,the,the,the,DET,True,True
rule,rule,rule,rule,NOUN,True,False
which,which,which,which,DET,True,True
allow,allow,allow,allow,VERB,True,False
us,us,-PRON-,-pron-,PRON,True,True
to,to,to,to,PART,True,True
continue,continue,continue,continue,VERB,True,False
to,to,to,to,PART,True,True
offer,offer,offer,offer,VERB,True,False
service,service,service,service,NOUN,True,False
to,to,to,to,ADP,True,True
our,our,-PRON-,-pron-,DET,True,True
customer,customer,customer,customer,NOUN,True,False
use,use,use,use,VERB,True,False
our,our,-PRON-,-pron-,DET,True,True
investment,investment,investment,investment,NOUN,True,False
in,in,in,in,ADP,True,True
the,the,the,the,DET,True,True
3650,3650,3650,3650,NUM,False,False
-,-,-,-,SYM,False,False
3700,3700,3700,3700,NUM,False,False
band,band,band,band,NOUN,True,False
equipment,equipment,equipment,equipment,NOUN,True,False
until,until,until,until,ADP,True,True
we,we,-PRON-,-pron-,PRON,True,True
be,be,be,be,VERB,True,True
able,able,able,able,ADJ,True,False
to,to,to,to,PART,True,True
replace,replace,replace,replace,VERB,True,False
it,it,-PRON-,-pron-,PRON,True,True
with,with,with,with,ADP,True,True
cbrs,cbrs,cbr,cbr,NOUN,True,False
compliant,compliant,compliant,compliant,ADJ,True,False
equipment,equipment,equipment,equipment,NOUN,True,False
.,.,.,.,PUNCT,False,False
to,to,to,to,PART,True,True
hear,hear,hear,hear,VERB,True,False
that,that,that,that,SCONJ,True,True
one,one,one,one,NUM,True,True
of,of,of,of,ADP,True,True
the,the,the,the,DET,True,True
large,large,large,large,ADJ,True,False
mobile,mobile,mobile,mobile,ADJ,True,False
carrier,carrier,carrier,carrier,NOUN,True,False
in,in,in,in,ADP,True,True
the,the,the,the,DET,True,True
country,country,country,country,NOUN,True,False
and,and,and,and,CCONJ,True,True
the,the,the,the,DET,True,True
lobby,lobby,lobby,lobby,NOUN,True,False
organization,organization,organization,organization,NOUN,True,False
of,of,of,of,ADP,True,True
the,the,the,the,DET,True,True
mobile,mobile,mobile,mobile,ADJ,True,False
carrier,carrier,carrier,carrier,NOUN,True,False
have,have,have,have,AUX,True,True
file,file,file,file,NOUN,True,False
last,last,last,last,ADJ,True,True
second,second,second,second,ADJ,True,False
petition,petition,petition,petition,NOUN,True,False
in,in,in,in,ADP,True,True
an,an,an,an,DET,True,True
effort,effort,effort,effort,NOUN,True,False
to,to,to,to,PART,True,True
fundamentally,fundamentally,fundamentally,fundamentally,ADV,True,False
alter,alter,alter,alter,VERB,True,False
the,the,the,the,DET,True,True
cbrs,cbrs,cbr,cbr,NOUN,True,False
rule,rule,rule,rule,VERB,True,False
in,in,in,in,ADP,True,True
their,their,-PRON-,-pron-,DET,True,True
favor,favor,favor,favor,NOUN,True,False
be,be,be,be,AUX,True,True
distress,distress,distress,distress,NOUN,True,False
",",",",",",",",PUNCT,False,False
to,to,to,to,PART,True,True
say,say,say,say,VERB,True,True
the,the,the,the,DET,True,True
least,least,least,least,ADJ,True,True
.,.,.,.,PUNCT,False,False
despite,despite,despite,despite,SCONJ,True,False
their,their,-PRON-,-pron-,DET,True,True
claim,claim,claim,claim,NOUN,True,False
to,to,to,to,ADP,True,True
the,the,the,the,DET,True,True
contrary,contrary,contrary,contrary,NOUN,True,False
",",",",",",",",PUNCT,False,False
the,the,the,the,DET,True,True
large,large,large,large,ADJ,True,False
mobile,mobile,mobile,mobile,ADJ,True,False
carrier,carrier,carrier,carrier,NOUN,True,False
be,be,be,be,AUX,True,True
very,very,very,very,ADV,True,True
anti,anti,anti,anti,ADJ,True,False
-,-,-,-,ADJ,False,False
consumer,consumer,consumer,consumer,ADJ,True,False
",",",",",",",",PUNCT,False,False
and,and,and,and,CCONJ,True,True
their,their,-PRON-,-pron-,DET,True,True
coordinated,coordinated,coordinated,coordinated,ADJ,True,False
attack,attack,attack,attack,NOUN,True,False
on,on,on,on,ADP,True,True
the,the,the,the,DET,True,True
cbrs,cbrs,cbr,cbr,NOUN,True,False
rule,rule,rule,rule,NOUN,True,False
will,will,will,will,VERB,True,True
drive,drive,drive,drive,VERB,True,False
many,many,many,many,ADJ,True,True
wisp,wisp,wisp,wisp,NOUN,True,False
most,most,most,most,ADJ,True,True
of,of,of,of,ADP,True,True
whom,whom,whom,whom,PRON,True,True
be,be,be,be,VERB,True,True
small,small,small,small,ADJ,True,False
business,business,business,business,NOUN,True,False
--,--,--,--,PUNCT,False,False
out,out,out,out,SCONJ,True,True
of,of,of,of,ADP,True,True
business,business,business,business,NOUN,True,False
.,.,.,.,PUNCT,False,False
community,community,community,community,NOUN,True,False
who,who,who,who,PRON,True,True
lack,lack,lack,lack,VERB,True,False
affordable,affordable,affordable,affordable,ADJ,True,False
broadband,broadband,broadband,broadband,NOUN,True,False
service,service,service,service,NOUN,True,False
or,or,or,or,CCONJ,True,True
any,any,any,any,DET,True,True
broadband,broadband,broadband,broadband,NOUN,True,False
service,service,service,service,NOUN,True,False
whatsoever,whatsoever,whatsoever,whatsoever,ADV,True,False
will,will,will,will,VERB,True,True
continue,continue,continue,continue,VERB,True,False
to,to,to,to,PART,True,True
be,be,be,be,AUX,True,True
mire,mire,mire,mire,VERB,True,False
in,in,in,in,ADP,True,True
the,the,the,the,DET,True,True
digital,digital,digital,digital,ADJ,True,False
divide,divide,divide,divide,NOUN,True,False
consumer,consumer,consumer,consumer,NOUN,True,False
choice,choice,choice,choice,NOUN,True,False
will,will,will,will,VERB,True,True
be,be,be,be,AUX,True,True
stifle,stifle,stifle,stifle,NOUN,True,False
",",",",",",",",PUNCT,False,False
and,and,and,and,CCONJ,True,True
price,price,price,price,NOUN,True,False
will,will,will,will,VERB,True,True
continue,continue,continue,continue,VERB,True,False
to,to,to,to,PART,True,True
rise,rise,rise,rise,VERB,True,False
.,.,.,.,PUNCT,False,False
over,over,over,over,ADP,True,True
the,the,the,the,DET,True,True
year,year,year,year,NOUN,True,False
",",",",",",",",PUNCT,False,False
the,the,the,the,DET,True,True
fcc,fcc,fcc,fcc,PROPN,True,False
have,have,have,have,AUX,True,True
make,make,make,make,VERB,True,True
enhancement,enhancement,enhancement,enhancement,NOUN,True,False
to,to,to,to,ADP,True,True
the,the,the,the,DET,True,True
minimum,minimum,minimum,minimum,ADJ,True,False
speed,speed,speed,speed,NOUN,True,False
require,require,require,require,VERB,True,False
for,for,for,for,ADP,True,True
service,service,service,service,NOUN,True,False
to,to,to,to,PART,True,True
be,be,be,be,AUX,True,True
classify,classify,classify,classify,VERB,True,False
as,as,as,as,SCONJ,True,True
broadband,broadband,broadband,broadband,NOUN,True,False
",",",",",",",",PUNCT,False,False
and,and,and,and,CCONJ,True,True
this,this,this,this,DET,True,True
be,be,be,be,AUX,True,True
a,a,a,a,DET,True,True
very,very,very,very,ADV,True,True
challenging,challenging,challenging,challenging,ADJ,True,False
goal,goal,goal,goal,NOUN,True,False
to,to,to,to,PART,True,True
continuously,continuously,continuously,continuously,ADV,True,False
meet,meet,meet,meet,VERB,True,False
.,.,.,.,PUNCT,False,False
wisps,wisps,wisp,wisp,NOUN,True,False
such,such,such,such,ADJ,True,True
as,as,as,as,SCONJ,True,True
softcom,softcom,softcom,softcom,PROPN,True,False
be,be,be,be,AUX,True,True
ready,ready,ready,ready,ADJ,True,False
and,and,and,and,CCONJ,True,True
willing,willing,willing,willing,ADJ,True,False
to,to,to,to,PART,True,True
meet,meet,meet,meet,VERB,True,False
the,the,the,the,DET,True,True
task,task,task,task,NOUN,True,False
.,.,.,.,PUNCT,False,False
many,many,many,many,ADJ,True,True
wisp,wisp,wisp,wisp,NOUN,True,False
be,be,be,be,AUX,True,True
count,count,count,count,ADJ,True,False
on,on,on,on,ADP,True,True
the,the,the,the,DET,True,True
cbrs,cbrs,cbr,cbr,NOUN,True,False
rule,rule,rule,rule,VERB,True,False
to,to,to,to,PART,True,True
protect,protect,protect,protect,VERB,True,False
their,their,-PRON-,-pron-,DET,True,True
exist,exist,exist,exist,ADJ,True,False
3650,3650,3650,3650,NUM,False,False
-,-,-,-,SYM,False,False
3700,3700,3700,3700,NUM,False,False
gear,gear,gear,gear,NOUN,True,False
and,and,and,and,CCONJ,True,True
the,the,the,the,DET,True,True
additional,additional,additional,additional,ADJ,True,False
spectrum,spectrum,spectrum,spectrum,NOUN,True,False
to,to,to,to,PART,True,True
help,help,help,help,VERB,True,False
them,them,-PRON-,-pron-,PRON,True,True
meet,meet,meet,meet,VERB,True,False
the,the,the,the,DET,True,True
goal,goal,goal,goal,NOUN,True,False
that,that,that,that,DET,True,True
the,the,the,the,DET,True,True
fcc,fcc,fcc,fcc,PROPN,True,False
have,have,have,have,AUX,True,True
lay,lay,lie,lie,VERB,True,False
out,out,out,out,ADP,True,True
these,these,these,these,DET,True,True
propose,propose,propose,propose,NOUN,True,False
rule,rule,rule,rule,NOUN,True,False
change,change,change,change,NOUN,True,False
by,by,by,by,ADP,True,True
t,t,t,t,NOUN,True,False
-,-,-,-,PUNCT,False,False
mobile,mobile,mobile,mobile,NOUN,True,False
and,and,and,and,CCONJ,True,True
ctia,ctia,ctia,ctia,PROPN,True,False
be,be,be,be,AUX,True,True
effectively,effectively,effectively,effectively,ADV,True,False
tell,tell,tell,tell,VERB,True,False
rural,rural,rural,rural,ADJ,True,False
citizen,citizen,citizen,citizen,NOUN,True,False
that,that,that,that,DET,True,True
they,they,-PRON-,-pron-,PRON,True,True
do,do,do,do,AUX,True,True
not,not,not,not,PART,True,True
deserve,deserve,deserve,deserve,VERB,True,False
quality,quality,quality,quality,NOUN,True,False
broadband,broadband,broadband,broadband,NOUN,True,False
service,service,service,service,NOUN,True,False
at,at,at,at,ADP,True,True
an,an,an,an,DET,True,True
affordable,affordable,affordable,affordable,ADJ,True,False
price,price,price,price,NOUN,True,False
.,.,.,.,PUNCT,False,False
the,the,the,the,DET,True,True
fcc,fcc,fcc,fcc,PROPN,True,False
should,should,should,should,VERB,True,True
not,not,not,not,PART,True,True
give,give,give,give,VERB,True,True
in,in,in,in,ADP,True,True
to,to,to,to,ADP,True,True
the,the,the,the,DET,True,True
effort,effort,effort,effort,NOUN,True,False
to,to,to,to,PART,True,True
control,control,control,control,VERB,True,False
even,even,even,even,ADV,True,True
more,more,more,more,ADJ,True,True
spectrum,spectrum,spectrum,spectrum,NOUN,True,False
by,by,by,by,ADP,True,True
a,a,a,a,DET,True,True
multibillion,multibillion,multibillion,multibillion,NOUN,True,False
dollar,dollar,dollar,dollar,NOUN,True,False
company,company,company,company,NOUN,True,False
and,and,and,and,CCONJ,True,True
the,the,the,the,DET,True,True
lobbying,lobbying,lobbying,lobbying,NOUN,True,False
arm,arm,arm,arm,NOUN,True,False
of,of,of,of,ADP,True,True
a,a,a,a,DET,True,True
group,group,group,group,NOUN,True,False
of,of,of,of,ADP,True,True
multibillion,multibillion,multibillion,multibillion,NOUN,True,False
dollar,dollar,dollar,dollar,NOUN,True,False
company,company,company,company,NOUN,True,False
.,.,.,.,PUNCT,False,False
for,for,for,for,ADP,True,True
these,these,these,these,DET,True,True
reason,reason,reason,reason,NOUN,True,False
",",",",",",",",PUNCT,False,False
softcom,softcom,softcom,softcom,PROPN,True,False
internet,internet,internet,internet,PROPN,True,False
communications,communications,communication,communication,NOUN,True,False
",",",",",",",",PUNCT,False,False
inc,inc,inc,inc,PROPN,True,False
.,.,.,.,PUNCT,False,False
strongly,strongly,strongly,strongly,ADV,True,False
oppose,oppose,oppose,oppose,VERB,True,False
the,the,the,the,DET,True,True
petition,petition,petition,petition,NOUN,True,False
file,file,file,file,NOUN,True,False
by,by,by,by,ADP,True,True
t,t,t,t,NOUN,True,False
-,-,-,-,PUNCT,False,False
mobile,mobile,mobile,mobile,PROPN,True,False
and,and,and,and,CCONJ,True,True
the,the,the,the,DET,True,True
ctia,ctia,ctia,ctia,NOUN,True,False
regard,regard,regard,regard,NOUN,True,False
change,change,change,change,NOUN,True,False
to,to,to,to,ADP,True,True
the,the,the,the,DET,True,True
cbrs,cbrs,cbr,cbr,NOUN,True,False
band,band,band,band,NOUN,True,False
.,.,.,.,PUNCT,False,False
