text,text_lower,lemma,lemma_lower,part_of_speech,is_alphabet,is_stopword
dear,dear,dear,dear,PROPN,True,False
ms,ms,ms,ms,PROPN,True,False
.,.,.,.,PROPN,False,False
dortchcloud,dortchcloud,dortchcloud,dortchcloud,PROPN,True,False
alliance,alliance,alliance,alliance,PROPN,True,False
llc,llc,llc,llc,PROPN,True,False
ca,ca,ca,ca,PROPN,True,True
",",",",",",",",PUNCT,False,False
now,now,now,now,ADV,True,True
in,in,in,in,ADP,True,True
its,its,-PRON-,-pron-,DET,True,True
tenth,tenth,tenth,tenth,ADJ,True,False
year,year,year,year,NOUN,True,False
",",",",",",",",PUNCT,False,False
be,be,be,be,AUX,True,True
a,a,a,a,DET,True,True
vermont,vermont,vermont,vermont,NOUN,True,False
-,-,-,-,PUNCT,False,False
base,base,base,base,NOUN,True,False
",",",",",",",",PUNCT,False,False
wireless,wireless,wireless,wireless,ADJ,True,False
internet,internet,internet,internet,NOUN,True,False
service,service,service,service,NOUN,True,False
provider,provider,provider,provider,NOUN,True,False
",",",",",",",",PUNCT,False,False
which,which,which,which,DET,True,True
be,be,be,be,AUX,True,True
found,found,find,find,VERB,True,False
to,to,to,to,PART,True,True
bring,bring,bring,bring,VERB,True,False
fixed,fixed,fixed,fixed,ADJ,True,False
wireless,wireless,wireless,wireless,ADJ,True,False
broadband,broadband,broadband,broadband,NOUN,True,False
to,to,to,to,ADP,True,True
resident,resident,resident,resident,NOUN,True,False
and,and,and,and,CCONJ,True,True
business,business,business,business,NOUN,True,False
in,in,in,in,ADP,True,True
unserved,unserved,unserved,unserved,ADJ,True,False
area,area,area,area,NOUN,True,False
of,of,of,of,ADP,True,True
central,central,central,central,ADJ,True,False
and,and,and,and,CCONJ,True,True
northern,northern,northern,northern,ADJ,True,False
vermont,vermont,vermont,vermont,PROPN,True,False
.,.,.,.,PUNCT,False,False
though,though,though,though,SCONJ,True,True
ca,ca,ca,ca,VERB,True,True
continue,continue,continue,continue,VERB,True,False
to,to,to,to,PART,True,True
use,use,use,use,VERB,True,False
part,part,part,part,NOUN,True,True
15,15,15,15,NUM,False,False
spectrum,spectrum,spectrum,spectrum,NOUN,True,False
",",",",",",",",PUNCT,False,False
it,it,-PRON-,-pron-,PRON,True,True
have,have,have,have,AUX,True,True
undertake,undertake,undertake,undertake,VERB,True,False
a,a,a,a,DET,True,True
significant,significant,significant,significant,ADJ,True,False
transition,transition,transition,transition,NOUN,True,False
over,over,over,over,ADP,True,True
the,the,the,the,DET,True,True
last,last,last,last,ADJ,True,True
three,three,three,three,NUM,True,True
year,year,year,year,NOUN,True,False
to,to,to,to,ADP,True,True
the,the,the,the,DET,True,True
3650,3650,3650,3650,NUM,False,False
3700,3700,3700,3700,NUM,False,False
mhz,mhz,mhz,mhz,PROPN,True,False
band,band,band,band,NOUN,True,False
under,under,under,under,ADP,True,True
part,part,part,part,NOUN,True,True
90,90,90,90,NUM,False,False
.,.,.,.,PUNCT,False,False
after,after,after,after,ADP,True,True
secure,secure,secure,secure,ADJ,True,False
agreement,agreement,agreement,agreement,NOUN,True,False
from,from,from,from,ADP,True,True
the,the,the,the,DET,True,True
incumbent,incumbent,incumbent,incumbent,ADJ,True,False
fss,fss,fss,fss,NOUN,True,False
earth,earth,earth,earth,NOUN,True,False
station,station,station,station,NOUN,True,False
operator,operator,operator,operator,NOUN,True,False
to,to,to,to,PART,True,True
operate,operate,operate,operate,VERB,True,False
in,in,in,in,ADP,True,True
its,its,-PRON-,-pron-,DET,True,True
protect,protect,protect,protect,ADJ,True,False
exclusion,exclusion,exclusion,exclusion,NOUN,True,False
zone,zone,zone,zone,NOUN,True,False
",",",",",",",",PUNCT,False,False
ca,ca,ca,ca,VERB,True,True
bring,bring,bring,bring,VERB,True,False
wimax,wimax,wimax,wimax,PROPN,True,False
service,service,service,service,NOUN,True,False
utilize,utilize,utilize,utilize,VERB,True,False
this,this,this,this,DET,True,True
band,band,band,band,NOUN,True,False
to,to,to,to,ADP,True,True
over,over,over,over,ADP,True,True
90,90,90,90,NUM,False,False
of,of,of,of,ADP,True,True
its,its,-PRON-,-pron-,DET,True,True
geographic,geographic,geographic,geographic,ADJ,True,False
service,service,service,service,NOUN,True,False
area,area,area,area,NOUN,True,False
gsa,gsa,gsa,gsa,PROPN,True,False
.,.,.,.,PUNCT,False,False
fully,fully,fully,fully,ADV,True,False
50,50,50,50,NUM,False,False
of,of,of,of,ADP,True,True
cas,cas,cas,cas,PROPN,True,False
gsa,gsa,gsa,gsa,PROPN,True,False
be,be,be,be,AUX,True,True
exclusively,exclusively,exclusively,exclusively,ADV,True,False
serve,serve,serve,serve,VERB,True,False
with,with,with,with,ADP,True,True
this,this,this,this,DET,True,True
band,band,band,band,NOUN,True,False
.,.,.,.,PUNCT,False,False
ca,ca,ca,ca,VERB,True,True
choose,choose,choose,choose,VERB,True,False
to,to,to,to,PART,True,True
deploy,deploy,deploy,deploy,VERB,True,False
this,this,this,this,DET,True,True
new,new,new,new,ADJ,True,False
band,band,band,band,NOUN,True,False
because,because,because,because,SCONJ,True,True
of,of,of,of,ADP,True,True
the,the,the,the,DET,True,True
need,need,need,need,NOUN,True,False
to,to,to,to,PART,True,True
overcome,overcome,overcome,overcome,VERB,True,False
the,the,the,the,DET,True,True
problem,problem,problem,problem,NOUN,True,False
of,of,of,of,ADP,True,True
limited,limited,limited,limited,ADJ,True,False
spectrum,spectrum,spectrum,spectrum,NOUN,True,False
in,in,in,in,ADP,True,True
primarily,primarily,primarily,primarily,ADV,True,False
the,the,the,the,DET,True,True
900,900,900,900,NUM,False,False
mhz,mhz,mhz,mhz,NOUN,True,False
bandthe,bandthe,bandthe,bandthe,VERB,True,False
only,only,only,only,ADJ,True,True
available,available,available,available,ADJ,True,False
spectrum,spectrum,spectrum,spectrum,NOUN,True,False
which,which,which,which,DET,True,True
could,could,could,could,VERB,True,True
penetrate,penetrate,penetrate,penetrate,VERB,True,False
vermonts,vermonts,vermont,vermont,NOUN,True,False
dense,dense,dense,dense,ADJ,True,False
forestation,forestation,forestation,forestation,NOUN,True,False
",",",",",",",",PUNCT,False,False
where,where,where,where,ADV,True,True
a,a,a,a,DET,True,True
large,large,large,large,ADJ,True,False
share,share,share,share,NOUN,True,False
of,of,of,of,ADP,True,True
its,its,-PRON-,-pron-,DET,True,True
rural,rural,rural,rural,ADJ,True,False
resident,resident,resident,resident,NOUN,True,False
live,live,live,live,NOUN,True,False
.,.,.,.,PUNCT,False,False
use,use,use,use,VERB,True,False
spatially,spatially,spatially,spatially,ADV,True,False
diverse,diverse,diverse,diverse,ADJ,True,False
antenna,antenna,antenna,antenna,NOUN,True,False
on,on,on,on,ADP,True,True
sixth,sixth,sixth,sixth,ADJ,True,False
-,-,-,-,PUNCT,False,False
order,order,order,order,NOUN,True,False
diversity,diversity,diversity,diversity,NOUN,True,False
wimax,wimax,wimax,wimax,PROPN,True,False
base,base,base,base,PROPN,True,False
station,station,station,station,NOUN,True,False
",",",",",",",",PUNCT,False,False
ca,ca,ca,ca,VERB,True,True
have,have,have,have,AUX,True,True
be,be,be,be,AUX,True,True
able,able,able,able,ADJ,True,False
to,to,to,to,PART,True,True
deliver,deliver,deliver,deliver,VERB,True,False
robust,robust,robust,robust,ADJ,True,False
",",",",",",",",PUNCT,False,False
video,video,video,video,NOUN,True,False
-,-,-,-,PUNCT,False,False
streamable,streamable,streamable,streamable,ADJ,True,False
broadband,broadband,broadband,broadband,NOUN,True,False
to,to,to,to,ADP,True,True
its,its,-PRON-,-pron-,DET,True,True
subscriber,subscriber,subscriber,subscriber,NOUN,True,False
.,.,.,.,PUNCT,False,False
on,on,on,on,ADP,True,True
behalf,behalf,behalf,behalf,NOUN,True,False
of,of,of,of,ADP,True,True
ca,ca,ca,ca,PROPN,True,True
",",",",",",",",PUNCT,False,False
i,i,i,i,PRON,True,True
strongly,strongly,strongly,strongly,ADV,True,False
support,support,support,support,VERB,True,False
the,the,the,the,DET,True,True
propose,propose,propose,propose,NOUN,True,False
sharing,sharing,sharing,sharing,NOUN,True,False
of,of,of,of,ADP,True,True
the,the,the,the,DET,True,True
3550,3550,3550,3550,NUM,False,False
3650,3650,3650,3650,NUM,False,False
mhz,mhz,mhz,mhz,PROPN,True,False
band,band,band,band,NOUN,True,False
",",",",",",",",PUNCT,False,False
and,and,and,and,CCONJ,True,True
",",",",",",",",PUNCT,False,False
on,on,on,on,ADP,True,True
the,the,the,the,DET,True,True
whole,whole,whole,whole,NOUN,True,True
",",",",",",",",PUNCT,False,False
i,i,i,i,PRON,True,True
support,support,support,support,VERB,True,False
the,the,the,the,DET,True,True
propose,propose,propose,propose,NOUN,True,False
rule,rule,rule,rule,NOUN,True,False
.,.,.,.,PUNCT,False,False
inparticular,inparticular,inparticular,inparticular,PROPN,True,False
",",",",",",",",PUNCT,False,False
i,i,i,i,PRON,True,True
think,think,think,think,VERB,True,False
the,the,the,the,DET,True,True
innovation,innovation,innovation,innovation,NOUN,True,False
of,of,of,of,ADP,True,True
the,the,the,the,DET,True,True
three,three,three,three,NUM,True,True
tier,tier,tier,tier,NOUN,True,False
of,of,of,of,ADP,True,True
access,access,access,access,NOUN,True,False
and,and,and,and,CCONJ,True,True
the,the,the,the,DET,True,True
use,use,use,use,NOUN,True,False
of,of,of,of,ADP,True,True
an,an,an,an,DET,True,True
advanced,advanced,advanced,advanced,ADJ,True,False
sas,sas,sas,sas,PROPN,True,False
provide,provide,provide,provide,VERB,True,False
a,a,a,a,DET,True,True
useful,useful,useful,useful,ADJ,True,False
model,model,model,model,NOUN,True,False
for,for,for,for,ADP,True,True
the,the,the,the,DET,True,True
sharing,sharing,sharing,sharing,NOUN,True,False
of,of,of,of,ADP,True,True
spectrum,spectrum,spectrum,spectrum,NOUN,True,False
in,in,in,in,ADP,True,True
other,other,other,other,ADJ,True,True
underutilize,underutilize,underutilize,underutilize,ADJ,True,False
band,band,band,band,NOUN,True,False
.,.,.,.,PUNCT,False,False
cas,cas,cas,cas,PROPN,True,False
fix,fix,fix,fix,PROPN,True,False
",",",",",",",",PUNCT,False,False
end,end,end,end,NOUN,True,False
-,-,-,-,PUNCT,False,False
user,user,user,user,NOUN,True,False
device,device,device,device,NOUN,True,False
operate,operate,operate,operate,VERB,True,False
at,at,at,at,ADP,True,True
similar,similar,similar,similar,ADJ,True,False
power,power,power,power,NOUN,True,False
level,level,level,level,NOUN,True,False
and,and,and,and,CCONJ,True,True
eirp,eirp,eirp,eirp,NOUN,True,False
as,as,as,as,SCONJ,True,True
the,the,the,the,DET,True,True
base,base,base,base,NOUN,True,False
station,station,station,station,NOUN,True,False
.,.,.,.,PUNCT,False,False
without,without,without,without,ADP,True,True
those,those,those,those,DET,True,True
level,level,level,level,NOUN,True,False
",",",",",",",",PUNCT,False,False
service,service,service,service,NOUN,True,False
would,would,would,would,VERB,True,True
simply,simply,simply,simply,ADV,True,False
not,not,not,not,PART,True,True
be,be,be,be,AUX,True,True
possible,possible,possible,possible,ADJ,True,False
",",",",",",",",PUNCT,False,False
as,as,as,as,SCONJ,True,True
the,the,the,the,DET,True,True
base,base,base,base,NOUN,True,False
station,station,station,station,NOUN,True,False
would,would,would,would,VERB,True,True
not,not,not,not,PART,True,True
receive,receive,receive,receive,VERB,True,False
sufficient,sufficient,sufficient,sufficient,ADJ,True,False
signal,signal,signal,signal,NOUN,True,False
level,level,level,level,NOUN,True,False
.,.,.,.,PUNCT,False,False
the,the,the,the,DET,True,True
rule,rule,rule,rule,NOUN,True,False
for,for,for,for,ADP,True,True
end,end,end,end,NOUN,True,False
-,-,-,-,PUNCT,False,False
user,user,user,user,NOUN,True,False
power,power,power,power,NOUN,True,False
and,and,and,and,CCONJ,True,True
eirp,eirp,eirp,eirp,NOUN,True,False
level,level,level,level,NOUN,True,False
in,in,in,in,ADP,True,True
rural,rural,rural,rural,ADJ,True,False
area,area,area,area,NOUN,True,False
should,should,should,should,VERB,True,True
be,be,be,be,AUX,True,True
raise,raise,raise,raise,VERB,True,False
to,to,to,to,PART,True,True
match,match,match,match,VERB,True,False
those,those,those,those,DET,True,True
of,of,of,of,ADP,True,True
the,the,the,the,DET,True,True
base,base,base,base,NOUN,True,False
station,station,station,station,NOUN,True,False
.,.,.,.,PUNCT,False,False
in,in,in,in,ADP,True,True
provide,provide,provide,provide,VERB,True,False
its,its,-PRON-,-pron-,DET,True,True
service,service,service,service,NOUN,True,False
",",",",",",",",PUNCT,False,False
ca,ca,ca,ca,VERB,True,True
transmit,transmit,transmit,transmit,VERB,True,False
on,on,on,on,ADP,True,True
five,five,five,five,NUM,True,True
",",",",",",",",PUNCT,False,False
10,10,10,10,NUM,False,False
mhz,mhz,mhz,mhz,PROPN,True,False
channel,channel,channel,channel,NOUN,True,False
throughout,throughout,throughout,throughout,ADP,True,True
its,its,-PRON-,-pron-,DET,True,True
gsa,gsa,gsa,gsa,NOUN,True,False
.,.,.,.,PUNCT,False,False
this,this,this,this,DET,True,True
be,be,be,be,AUX,True,True
helpful,helpful,helpful,helpful,ADJ,True,False
to,to,to,to,PART,True,True
avoid,avoid,avoid,avoid,VERB,True,False
self,self,self,self,NOUN,True,False
-,-,-,-,PUNCT,False,False
interference,interference,interference,interference,NOUN,True,False
",",",",",",",",PUNCT,False,False
without,without,without,without,ADP,True,True
excessively,excessively,excessively,excessively,ADV,True,False
limit,limit,limit,limit,VERB,True,False
the,the,the,the,DET,True,True
range,range,range,range,NOUN,True,False
of,of,of,of,ADP,True,True
the,the,the,the,DET,True,True
relatively,relatively,relatively,relatively,ADV,True,False
expensive,expensive,expensive,expensive,ADJ,True,False
base,base,base,base,NOUN,True,False
station,station,station,station,NOUN,True,False
",",",",",",",",PUNCT,False,False
from,from,from,from,ADP,True,True
hill,hill,hill,hill,NOUN,True,False
and,and,and,and,CCONJ,True,True
mountaintop,mountaintop,mountaintop,mountaintop,PROPN,True,False
.,.,.,.,PUNCT,False,False
as,as,as,as,SCONJ,True,True
a,a,a,a,DET,True,True
small,small,small,small,ADJ,True,False
company,company,company,company,NOUN,True,False
",",",",",",",",PUNCT,False,False
ca,ca,ca,ca,VERB,True,True
be,be,be,be,AUX,True,True
count,count,count,count,VERB,True,False
on,on,on,on,ADP,True,True
its,its,-PRON-,-pron-,DET,True,True
ten,ten,ten,ten,NUM,True,True
-,-,-,-,PUNCT,False,False
year,year,year,year,NOUN,True,False
license,license,license,license,NOUN,True,False
and,and,and,and,CCONJ,True,True
have,have,have,have,AUX,True,True
invest,invest,invest,invest,VERB,True,False
mightily,mightily,mightily,mightily,ADV,True,False
in,in,in,in,ADP,True,True
this,this,this,this,DET,True,True
technology,technology,technology,technology,NOUN,True,False
.,.,.,.,PUNCT,False,False
it,it,-PRON-,-pron-,PRON,True,True
can,can,can,can,VERB,True,True
not,not,not,not,PART,True,True
afford,afford,afford,afford,VERB,True,False
to,to,to,to,PART,True,True
replace,replace,replace,replace,VERB,True,False
its,its,-PRON-,-pron-,DET,True,True
infrastructure,infrastructure,infrastructure,infrastructure,NOUN,True,False
until,until,until,until,ADP,True,True
the,the,the,the,DET,True,True
equipment,equipment,equipment,equipment,NOUN,True,False
useful,useful,useful,useful,ADJ,True,False
life,life,life,life,NOUN,True,False
be,be,be,be,AUX,True,True
over,over,over,over,ADV,True,True
.,.,.,.,PUNCT,False,False
this,this,this,this,DET,True,True
could,could,could,could,VERB,True,True
be,be,be,be,AUX,True,True
considerably,considerably,considerably,considerably,ADV,True,False
long,long,long,long,ADJ,True,False
than,than,than,than,SCONJ,True,True
the,the,the,the,DET,True,True
five,five,five,five,NUM,True,True
year,year,year,year,NOUN,True,False
the,the,the,the,DET,True,True
rule,rule,rule,rule,NOUN,True,False
suggest,suggest,suggest,suggest,VERB,True,False
.,.,.,.,PUNCT,False,False
ca,ca,ca,ca,VERB,True,True
need,need,need,need,VERB,True,False
access,access,access,access,NOUN,True,False
to,to,to,to,ADP,True,True
the,the,the,the,DET,True,True
50,50,50,50,NUM,False,False
mhz,mhz,mhz,mhz,NOUN,True,False
of,of,of,of,ADP,True,True
spectrum,spectrum,spectrum,spectrum,NOUN,True,False
it,it,-PRON-,-pron-,PRON,True,True
use,use,use,use,VERB,True,False
",",",",",",",",PUNCT,False,False
and,and,and,and,CCONJ,True,True
long,long,long,long,ADJ,True,False
-,-,-,-,PUNCT,False,False
term,term,term,term,NOUN,True,False
",",",",",",",",PUNCT,False,False
incumbent,incumbent,incumbent,incumbent,ADJ,True,False
status,status,status,status,NOUN,True,False
in,in,in,in,ADP,True,True
the,the,the,the,DET,True,True
3650,3650,3650,3650,NUM,False,False
-,-,-,-,SYM,False,False
3700,3700,3700,3700,NUM,False,False
band,band,band,band,NOUN,True,False
be,be,be,be,AUX,True,True
essential,essential,essential,essential,ADJ,True,False
to,to,to,to,ADP,True,True
cas,cas,cas,cas,PROPN,True,False
continue,continue,continue,continue,VERB,True,False
ability,ability,ability,ability,NOUN,True,False
to,to,to,to,PART,True,True
serve,serve,serve,serve,VERB,True,False
its,its,-PRON-,-pron-,DET,True,True
subscriber,subscriber,subscriber,subscriber,NOUN,True,False
.,.,.,.,PUNCT,False,False
i,i,i,i,PRON,True,True
support,support,support,support,VERB,True,False
the,the,the,the,DET,True,True
position,position,position,position,NOUN,True,False
take,take,take,take,VERB,True,True
by,by,by,by,ADP,True,True
wispa,wispa,wispa,wispa,NOUN,True,False
regard,regard,regard,regard,VERB,True,False
both,both,both,both,DET,True,True
power,power,power,power,NOUN,True,False
level,level,level,level,NOUN,True,False
and,and,and,and,CCONJ,True,True
incumbency,incumbency,incumbency,incumbency,NOUN,True,False
for,for,for,for,ADP,True,True
exist,exist,exist,exist,ADJ,True,False
part,part,part,part,NOUN,True,True
90,90,90,90,NUM,False,False
",",",",",",",",PUNCT,False,False
3650,3650,3650,3650,NUM,False,False
-,-,-,-,SYM,False,False
3700,3700,3700,3700,NUM,False,False
mhz,mhz,mhz,mhz,PROPN,True,False
broadband,broadband,broadband,broadband,NOUN,True,False
provider,provider,provider,provider,NOUN,True,False
.,.,.,.,PUNCT,False,False
if,if,if,if,SCONJ,True,True
these,these,these,these,DET,True,True
significant,significant,significant,significant,ADJ,True,False
protection,protection,protection,protection,NOUN,True,False
can,can,can,can,VERB,True,True
not,not,not,not,PART,True,True
be,be,be,be,AUX,True,True
include,include,include,include,VERB,True,False
in,in,in,in,ADP,True,True
the,the,the,the,DET,True,True
rule,rule,rule,rule,NOUN,True,False
",",",",",",",",PUNCT,False,False
i,i,i,i,PRON,True,True
must,must,must,must,VERB,True,True
respectfully,respectfully,respectfully,respectfully,ADV,True,False
",",",",",",",",PUNCT,False,False
but,but,but,but,CCONJ,True,True
strongly,strongly,strongly,strongly,ADV,True,False
",",",",",",",",PUNCT,False,False
oppose,oppose,oppose,oppose,VERB,True,False
the,the,the,the,DET,True,True
merging,merging,merging,merging,NOUN,True,False
of,of,of,of,ADP,True,True
the,the,the,the,DET,True,True
two,two,two,two,NUM,True,True
band,band,band,band,NOUN,True,False
.,.,.,.,PUNCT,False,False
