text,text_lower,lemma,lemma_lower,part_of_speech,is_alphabet,is_stopword
cohere,cohere,cohere,cohere,PROPN,True,False
technologies,technologies,technologies,technologies,PROPN,True,False
backgroundcohere,backgroundcohere,backgroundcohere,backgroundcohere,PROPN,True,False
technologies,technologies,technologies,technologies,PROPN,True,False
cohere,cohere,cohere,cohere,ADV,True,False
be,be,be,be,AUX,True,True
an,an,an,an,DET,True,True
early,early,early,early,ADJ,True,False
-,-,-,-,PUNCT,False,False
stage,stage,stage,stage,NOUN,True,False
enterprise,enterprise,enterprise,enterprise,NOUN,True,False
",",",",",",",",PUNCT,False,False
headquarter,headquarter,headquart,headquart,ADJ,True,False
in,in,in,in,ADP,True,True
santa,santa,santa,santa,PROPN,True,False
clara,clara,clara,clara,PROPN,True,False
",",",",",",",",PUNCT,False,False
california,california,california,california,PROPN,True,False
.,.,.,.,PUNCT,False,False
found,found,find,find,VERB,True,False
in,in,in,in,ADP,True,True
2010,2010,2010,2010,NUM,False,False
",",",",",",",",PUNCT,False,False
the,the,the,the,DET,True,True
company,company,company,company,NOUN,True,False
be,be,be,be,VERB,True,True
develop,develop,develop,develop,VERB,True,False
a,a,a,a,DET,True,True
novel,novel,novel,novel,ADJ,True,False
modulation,modulation,modulation,modulation,NOUN,True,False
encompass,encompass,encompass,encompass,NOUN,True,False
within,within,within,within,ADP,True,True
a,a,a,a,DET,True,True
system,system,system,system,NOUN,True,False
for,for,for,for,ADP,True,True
application,application,application,application,NOUN,True,False
in,in,in,in,ADP,True,True
wireless,wireless,wireless,wireless,ADJ,True,False
backhaul,backhaul,backhaul,backhaul,NOUN,True,False
and,and,and,and,CCONJ,True,True
wireless,wireless,wireless,wireless,ADJ,True,False
fixed,fixed,fixed,fixed,ADJ,True,False
access,access,access,access,NOUN,True,False
system,system,system,system,NOUN,True,False
",",",",",",",",PUNCT,False,False
use,use,use,use,VERB,True,False
the,the,the,the,DET,True,True
3650,3650,3650,3650,NUM,False,False
3700,3700,3700,3700,NUM,False,False
mhz,mhz,mhz,mhz,PROPN,True,False
band,band,band,band,NOUN,True,False
.,.,.,.,PUNCT,False,False
towards,towards,towards,towards,ADP,True,True
those,those,those,those,DET,True,True
objective,objective,objective,objective,ADJ,True,False
",",",",",",",",PUNCT,False,False
cohere,cohere,cohere,cohere,ADV,True,False
have,have,have,have,AUX,True,True
secure,secure,secure,secure,ADJ,True,False
million,million,million,million,NUM,True,False
of,of,of,of,ADP,True,True
dollar,dollar,dollar,dollar,NOUN,True,False
of,of,of,of,ADP,True,True
venture,venture,venture,venture,NOUN,True,False
investment,investment,investment,investment,NOUN,True,False
and,and,and,and,CCONJ,True,True
staff,staff,staff,staff,NOUN,True,False
an,an,an,an,DET,True,True
organization,organization,organization,organization,NOUN,True,False
.,.,.,.,PUNCT,False,False
when,when,when,when,ADV,True,True
cohere,cohere,cohere,cohere,X,True,False
initiate,initiate,initiate,initiate,VERB,True,False
product,product,product,product,NOUN,True,False
development,development,development,development,NOUN,True,False
planning,planning,planning,planning,NOUN,True,False
in,in,in,in,ADP,True,True
2012,2012,2012,2012,NUM,False,False
",",",",",",",",PUNCT,False,False
it,it,-PRON-,-pron-,PRON,True,True
begin,begin,begin,begin,VERB,True,False
meet,meet,meet,meet,VERB,True,False
with,with,with,with,ADP,True,True
potential,potential,potential,potential,ADJ,True,False
customer,customer,customer,customer,NOUN,True,False
",",",",",",",",PUNCT,False,False
include,include,include,include,VERB,True,False
mobile,mobile,mobile,mobile,PROPN,True,False
network,network,network,network,NOUN,True,False
operator,operator,operator,operator,NOUN,True,False
to,to,to,to,PART,True,True
discuss,discuss,discuss,discuss,VERB,True,False
idea,idea,idea,idea,NOUN,True,False
and,and,and,and,CCONJ,True,True
gather,gather,gather,gather,VERB,True,False
design,design,design,design,NOUN,True,False
input,input,input,input,NOUN,True,False
regard,regard,regard,regard,NOUN,True,False
a,a,a,a,DET,True,True
commercially,commercially,commercially,commercially,ADV,True,False
sustainable,sustainable,sustainable,sustainable,ADJ,True,False
system,system,system,system,NOUN,True,False
.,.,.,.,PUNCT,False,False
a,a,a,a,DET,True,True
common,common,common,common,ADJ,True,False
theme,theme,theme,theme,NOUN,True,False
cohere,cohere,cohere,cohere,NOUN,True,False
hear,hear,hear,hear,VERB,True,False
be,be,be,be,AUX,True,True
to,to,to,to,PART,True,True
focus,focus,focus,focus,VERB,True,False
our,our,-PRON-,-pron-,DET,True,True
effort,effort,effort,effort,NOUN,True,False
above,above,above,above,ADP,True,True
the,the,the,the,DET,True,True
3500,3500,3500,3500,NUM,False,False
mhz,mhz,mhz,mhz,PROPN,True,False
band,band,band,band,NOUN,True,False
because,because,because,because,SCONJ,True,True
the,the,the,the,DET,True,True
fcc,fcc,fcc,fcc,PROPN,True,False
",",",",",",",",PUNCT,False,False
in,in,in,in,ADP,True,True
its,its,-PRON-,-pron-,DET,True,True
pcast,pcast,pcast,pcast,NOUN,True,False
recommendation,recommendation,recommendation,recommendation,NOUN,True,False
",",",",",",",",PUNCT,False,False
be,be,be,be,AUX,True,True
plan,plan,plan,plan,NOUN,True,False
of,of,of,of,ADP,True,True
free,free,free,free,ADJ,True,False
up,up,up,up,ADP,True,True
100,100,100,100,NUM,False,False
mhz,mhz,mhz,mhz,NOUN,True,False
of,of,of,of,ADP,True,True
spectrum,spectrum,spectrum,spectrum,NOUN,True,False
for,for,for,for,ADP,True,True
common,common,common,common,ADJ,True,False
use,use,use,use,NOUN,True,False
.,.,.,.,PUNCT,False,False
base,base,base,base,NOUN,True,False
on,on,on,on,ADP,True,True
feedback,feedback,feedback,feedback,NOUN,True,False
from,from,from,from,ADP,True,True
these,these,these,these,DET,True,True
meeting,meeting,meeting,meeting,NOUN,True,False
",",",",",",",",PUNCT,False,False
cohere,cohere,cohere,cohere,ADV,True,False
take,take,take,take,VERB,True,True
the,the,the,the,DET,True,True
follow,follow,follow,follow,ADJ,True,False
action,action,action,action,NOUN,True,False
in,in,in,in,ADP,True,True
2013,2013,2013,2013,NUM,False,False
[,[,[,[,PUNCT,False,False
1,1,1,1,NUM,False,False
],],],],PUNCT,False,False
tobegan,tobegan,tobegan,tobegan,PROPN,True,False
design,design,design,design,VERB,True,False
its,its,-PRON-,-pron-,DET,True,True
radio,radio,radio,radio,NOUN,True,False
transmitter,transmitter,transmitter,transmitter,NOUN,True,False
receiver,receiver,receiver,receiver,NOUN,True,False
for,for,for,for,ADP,True,True
the,the,the,the,DET,True,True
3650,3650,3650,3650,NUM,False,False
3700,3700,3700,3700,NUM,False,False
mhz,mhz,mhz,mhz,PROPN,True,False
band,band,band,band,NOUN,True,False
[,[,[,[,PUNCT,False,False
2,2,2,2,NUM,False,False
],],],],PUNCT,False,False
apply,apply,apply,apply,VERB,True,False
for,for,for,for,ADP,True,True
and,and,and,and,CCONJ,True,True
be,be,be,be,AUX,True,True
grant,grant,grant,grant,NOUN,True,False
by,by,by,by,ADP,True,True
the,the,the,the,DET,True,True
fcc,fcc,fcc,fcc,PROPN,True,False
experimental,experimental,experimental,experimental,ADJ,True,False
special,special,special,special,ADJ,True,False
temporary,temporary,temporary,temporary,ADJ,True,False
authorizations,authorizations,authorization,authorization,NOUN,True,False
in,in,in,in,ADP,True,True
the,the,the,the,DET,True,True
3650,3650,3650,3650,NUM,False,False
mhz,mhz,mhz,mhz,PROPN,True,False
band,band,band,band,NOUN,True,False
for,for,for,for,ADP,True,True
conceptual,conceptual,conceptual,conceptual,ADJ,True,False
demonstration,demonstration,demonstration,demonstration,NOUN,True,False
with,with,with,with,ADP,True,True
customer,customer,customer,customer,NOUN,True,False
.,.,.,.,PUNCT,False,False
as,as,as,as,SCONJ,True,True
development,development,development,development,NOUN,True,False
testing,testing,testing,testing,NOUN,True,False
effort,effort,effort,effort,NOUN,True,False
continue,continue,continue,continue,VERB,True,False
to,to,to,to,PART,True,True
progress,progress,progress,progress,VERB,True,False
",",",",",",",",PUNCT,False,False
the,the,the,the,DET,True,True
company,company,company,company,NOUN,True,False
be,be,be,be,AUX,True,True
encourage,encourage,encourage,encourage,NOUN,True,False
by,by,by,by,ADP,True,True
customer,customer,customer,customer,NOUN,True,False
to,to,to,to,PART,True,True
gather,gather,gather,gather,VERB,True,False
datum,datum,datum,datum,NOUN,True,False
in,in,in,in,ADP,True,True
real,real,real,real,ADJ,True,False
-,-,-,-,PUNCT,False,False
world,world,world,world,NOUN,True,False
setting,setting,setting,setting,NOUN,True,False
.,.,.,.,PUNCT,False,False
therefore,therefore,therefore,therefore,ADV,True,True
in,in,in,in,ADP,True,True
march,march,march,march,PROPN,True,False
2014,2014,2014,2014,NUM,False,False
",",",",",",",",PUNCT,False,False
cohere,cohere,cohere,cohere,ADV,True,False
apply,apply,apply,apply,VERB,True,False
for,for,for,for,ADP,True,True
and,and,and,and,CCONJ,True,True
receive,receive,receive,receive,VERB,True,False
a,a,a,a,DET,True,True
nationwide,nationwide,nationwide,nationwide,ADJ,True,False
license,license,license,license,NOUN,True,False
for,for,for,for,ADP,True,True
3650,3650,3650,3650,NUM,False,False
3700,3700,3700,3700,NUM,False,False
mhz,mhz,mhz,mhz,PROPN,True,False
band,band,band,band,NOUN,True,False
.,.,.,.,PUNCT,False,False
in,in,in,in,ADP,True,True
the,the,the,the,DET,True,True
ensue,ensue,ensue,ensue,NOUN,True,False
month,month,month,month,NOUN,True,False
",",",",",",",",PUNCT,False,False
sta,sta,sta,sta,PROPN,True,False
for,for,for,for,ADP,True,True
the,the,the,the,DET,True,True
3655,3655,3655,3655,NUM,False,False
3665,3665,3665,3665,NUM,False,False
mhz,mhz,mhz,mhz,PROPN,True,False
frequency,frequency,frequency,frequency,NOUN,True,False
be,be,be,be,AUX,True,True
grant,grant,grant,grant,ADJ,True,False
to,to,to,to,PART,True,True
cohere,cohere,cohere,cohere,VERB,True,False
for,for,for,for,ADP,True,True
location,location,location,location,NOUN,True,False
within,within,within,within,ADP,True,True
northern,northern,northern,northern,ADJ,True,False
california,california,california,california,PROPN,True,False
",",",",",",",",PUNCT,False,False
to,to,to,to,PART,True,True
continue,continue,continue,continue,VERB,True,False
development,development,development,development,NOUN,True,False
of,of,of,of,ADP,True,True
its,its,-PRON-,-pron-,DET,True,True
backhaul,backhaul,backhaul,backhaul,NOUN,True,False
system,system,system,system,NOUN,True,False
.,.,.,.,PUNCT,False,False
introductionon,introductionon,introductionon,introductionon,PROPN,True,False
december,december,december,december,PROPN,True,False
12,12,12,12,NUM,False,False
",",",",",",",",PUNCT,False,False
2012,2012,2012,2012,NUM,False,False
the,the,the,the,DET,True,True
commission,commission,commission,commission,NOUN,True,False
issue,issue,issue,issue,VERB,True,False
a,a,a,a,DET,True,True
notice,notice,notice,notice,NOUN,True,False
of,of,of,of,ADP,True,True
propose,propose,propose,propose,NOUN,True,False
rulemaking,rulemaking,rulemaking,rulemaking,NOUN,True,False
nprm,nprm,nprm,nprm,NOUN,True,False
",",",",",",",",PUNCT,False,False
under,under,under,under,ADP,True,True
gt,gt,gt,gt,CCONJ,True,False
docket,docket,docket,docket,PROPN,True,False
12,12,12,12,NUM,False,False
-,-,-,-,SYM,False,False
354,354,354,354,NUM,False,False
",",",",",",",",PUNCT,False,False
propose,propose,propose,propose,VERB,True,False
the,the,the,the,DET,True,True
creation,creation,creation,creation,NOUN,True,False
of,of,of,of,ADP,True,True
a,a,a,a,DET,True,True
new,new,new,new,ADJ,True,False
citizens,citizens,citizen,citizen,NOUN,True,False
broadband,broadband,broadband,broadband,NOUN,True,False
radio,radio,radio,radio,NOUN,True,False
service,service,service,service,NOUN,True,False
cbrs,cbrs,cbr,cbr,NOUN,True,False
share,share,share,share,VERB,True,False
the,the,the,the,DET,True,True
3550,3550,3550,3550,NUM,False,False
3650,3650,3650,3650,NUM,False,False
mhz,mhz,mhz,mhz,PROPN,True,False
band,band,band,band,NOUN,True,False
with,with,with,with,ADP,True,True
incumbent,incumbent,incumbent,incumbent,ADJ,True,False
user,user,user,user,NOUN,True,False
",",",",",",",",PUNCT,False,False
with,with,with,with,ADP,True,True
a,a,a,a,DET,True,True
supplementary,supplementary,supplementary,supplementary,ADJ,True,False
proposal,proposal,proposal,proposal,NOUN,True,False
to,to,to,to,PART,True,True
incorporate,incorporate,incorporate,incorporate,VERB,True,False
the,the,the,the,DET,True,True
3650,3650,3650,3650,NUM,False,False
3700,3700,3700,3700,NUM,False,False
mhz,mhz,mhz,mhz,PROPN,True,False
band,band,band,band,NOUN,True,False
under,under,under,under,ADP,True,True
the,the,the,the,DET,True,True
new,new,new,new,ADJ,True,False
regulatory,regulatory,regulatory,regulatory,ADJ,True,False
regime,regime,regime,regime,NOUN,True,False
.,.,.,.,PUNCT,False,False
on,on,on,on,ADP,True,True
april,april,april,april,PROPN,True,False
23,23,23,23,NUM,False,False
",",",",",",",",PUNCT,False,False
2014,2014,2014,2014,NUM,False,False
the,the,the,the,DET,True,True
commission,commission,commission,commission,NOUN,True,False
issue,issue,issue,issue,NOUN,True,False
a,a,a,a,DET,True,True
further,further,further,further,ADJ,True,True
notice,notice,notice,notice,NOUN,True,False
of,of,of,of,ADP,True,True
propose,propose,propose,propose,NOUN,True,False
rulemaking,rulemaking,rulemaking,rulemaking,NOUN,True,False
fnprm,fnprm,fnprm,fnprm,NOUN,True,False
",",",",",",",",PUNCT,False,False
under,under,under,under,ADP,True,True
gt,gt,gt,gt,CCONJ,True,False
docket,docket,docket,docket,PROPN,True,False
12,12,12,12,NUM,False,False
-,-,-,-,SYM,False,False
354,354,354,354,NUM,False,False
in,in,in,in,ADP,True,True
order,order,order,order,NOUN,True,False
to,to,to,to,PART,True,True
create,create,create,create,VERB,True,False
150,150,150,150,NUM,False,False
mhz,mhz,mhz,mhz,NOUN,True,False
of,of,of,of,ADP,True,True
contiguous,contiguous,contiguous,contiguous,ADJ,True,False
spectrum,spectrum,spectrum,spectrum,NOUN,True,False
for,for,for,for,ADP,True,True
cbrs.cohere,cbrs.cohere,cbrs.cohere,cbrs.cohere,PROPN,False,False
consider,consider,consider,consider,VERB,True,False
the,the,the,the,DET,True,True
3650,3650,3650,3650,NUM,False,False
3700,3700,3700,3700,NUM,False,False
mhz,mhz,mhz,mhz,PROPN,True,False
band,band,band,band,VERB,True,False
an,an,an,an,DET,True,True
important,important,important,important,ADJ,True,False
spectrum,spectrum,spectrum,spectrum,NOUN,True,False
option,option,option,option,NOUN,True,False
for,for,for,for,ADP,True,True
backhaul,backhaul,backhaul,backhaul,PROPN,True,False
network,network,network,network,NOUN,True,False
operate,operate,operate,operate,NOUN,True,False
by,by,by,by,ADP,True,True
its,its,-PRON-,-pron-,DET,True,True
target,target,target,target,NOUN,True,False
customer,customer,customer,customer,NOUN,True,False
.,.,.,.,PUNCT,False,False
as,as,as,as,SCONJ,True,True
the,the,the,the,DET,True,True
commission,commission,commission,commission,NOUN,True,False
be,be,be,be,AUX,True,True
well,well,well,well,ADV,True,True
aware,aware,aware,aware,ADJ,True,False
",",",",",",",",PUNCT,False,False
there,there,there,there,PRON,True,True
be,be,be,be,AUX,True,True
very,very,very,very,ADV,True,True
few,few,few,few,ADJ,True,True
suitable,suitable,suitable,suitable,ADJ,True,False
spectrum,spectrum,spectrum,spectrum,NOUN,True,False
option,option,option,option,NOUN,True,False
in,in,in,in,ADP,True,True
the,the,the,the,DET,True,True
low,low,low,low,ADJ,True,False
band,band,band,band,NOUN,True,False
available,available,available,available,ADJ,True,False
for,for,for,for,ADP,True,True
the,the,the,the,DET,True,True
implementation,implementation,implementation,implementation,NOUN,True,False
ofbackhaul,ofbackhaul,ofbackhaul,ofbackhaul,PROPN,True,False
.,.,.,.,PUNCT,False,False
the,the,the,the,DET,True,True
3500,3500,3500,3500,NUM,False,False
mhz,mhz,mhz,mhz,PROPN,True,False
band,band,band,band,PROPN,True,False
identify,identify,identify,identify,VERB,True,False
in,in,in,in,ADP,True,True
the,the,the,the,DET,True,True
pcast,pcast,pcast,pcast,NOUN,True,False
have,have,have,have,AUX,True,True
be,be,be,be,AUX,True,True
note,note,note,note,NOUN,True,False
as,as,as,as,SCONJ,True,True
ideal,ideal,ideal,ideal,ADJ,True,False
for,for,for,for,ADP,True,True
small,small,small,small,ADJ,True,False
cell,cell,cell,cell,NOUN,True,False
deployment,deployment,deployment,deployment,NOUN,True,False
.,.,.,.,PUNCT,False,False
by,by,by,by,ADP,True,True
create,create,create,create,VERB,True,False
a,a,a,a,DET,True,True
separate,separate,separate,separate,ADJ,True,False
band,band,band,band,NOUN,True,False
for,for,for,for,ADP,True,True
small,small,small,small,ADJ,True,False
cell,cell,cell,cell,NOUN,True,False
network,network,network,network,NOUN,True,False
",",",",",",",",PUNCT,False,False
carrier,carrier,carrier,carrier,NOUN,True,False
would,would,would,would,VERB,True,True
not,not,not,not,PART,True,True
have,have,have,have,AUX,True,True
to,to,to,to,PART,True,True
worry,worry,worry,worry,VERB,True,False
about,about,about,about,ADP,True,True
interference,interference,interference,interference,NOUN,True,False
with,with,with,with,ADP,True,True
their,their,-PRON-,-pron-,DET,True,True
primary,primary,primary,primary,ADJ,True,False
macro,macro,macro,macro,ADJ,True,False
network,network,network,network,NOUN,True,False
.,.,.,.,PUNCT,False,False
cohere,cohere,cohere,cohere,PROPN,True,False
appreciate,appreciate,appreciate,appreciate,VERB,True,False
the,the,the,the,DET,True,True
commissions,commissions,commission,commission,NOUN,True,False
effort,effort,effort,effort,NOUN,True,False
to,to,to,to,PART,True,True
improve,improve,improve,improve,VERB,True,False
the,the,the,the,DET,True,True
overall,overall,overall,overall,ADJ,True,False
efficiency,efficiency,efficiency,efficiency,NOUN,True,False
of,of,of,of,ADP,True,True
usage,usage,usage,usage,NOUN,True,False
within,within,within,within,ADP,True,True
the,the,the,the,DET,True,True
spectrum,spectrum,spectrum,spectrum,PROPN,True,False
band,band,band,band,PROPN,True,False
3550,3550,3550,3550,NUM,False,False
3650,3650,3650,3650,NUM,False,False
mhz,mhz,mhz,mhz,NOUN,True,False
by,by,by,by,ADP,True,True
mean,mean,mean,mean,NOUN,True,False
of,of,of,of,ADP,True,True
small,small,small,small,ADJ,True,False
cell,cell,cell,cell,NOUN,True,False
and,and,and,and,CCONJ,True,True
spectrum,spectrum,spectrum,spectrum,NOUN,True,False
sharing,sharing,share,share,VERB,True,False
manage,manage,manage,manage,NOUN,True,False
by,by,by,by,ADP,True,True
the,the,the,the,DET,True,True
spectrum,spectrum,spectrum,spectrum,PROPN,True,False
access,access,access,access,PROPN,True,False
system,system,system,system,NOUN,True,False
sas,sas,sas,sas,PROPN,True,False
.,.,.,.,PUNCT,False,False
the,the,the,the,DET,True,True
comment,comment,comment,comment,NOUN,True,False
in,in,in,in,ADP,True,True
response,response,response,response,NOUN,True,False
to,to,to,to,ADP,True,True
the,the,the,the,DET,True,True
fnprm,fnprm,fnprm,fnprm,NOUN,True,False
be,be,be,be,AUX,True,True
base,base,base,base,NOUN,True,False
on,on,on,on,ADP,True,True
our,our,-PRON-,-pron-,DET,True,True
evaluation,evaluation,evaluation,evaluation,NOUN,True,False
of,of,of,of,ADP,True,True
the,the,the,the,DET,True,True
propose,propose,propose,propose,NOUN,True,False
rule,rule,rule,rule,NOUN,True,False
and,and,and,and,CCONJ,True,True
policy,policy,policy,policy,NOUN,True,False
for,for,for,for,ADP,True,True
the,the,the,the,DET,True,True
cbrs,cbrs,cbr,cbr,NOUN,True,False
and,and,and,and,CCONJ,True,True
how,how,how,how,ADV,True,True
these,these,these,these,DET,True,True
proposal,proposal,proposal,proposal,NOUN,True,False
would,would,would,would,VERB,True,True
impact,impact,impact,impact,VERB,True,False
our,our,-PRON-,-pron-,DET,True,True
ability,ability,ability,ability,NOUN,True,False
to,to,to,to,PART,True,True
employ,employ,employ,employ,VERB,True,False
a,a,a,a,DET,True,True
financially,financially,financially,financially,ADV,True,False
viable,viable,viable,viable,ADJ,True,False
business,business,business,business,NOUN,True,False
.,.,.,.,PUNCT,False,False
response,response,response,response,NOUN,True,False
to,to,to,to,ADP,True,True
fnprmmobile,fnprmmobile,fnprmmobile,fnprmmobile,ADJ,True,False
network,network,network,network,NOUN,True,False
operator,operator,operator,operator,NOUN,True,False
be,be,be,be,AUX,True,True
consider,consider,consider,consider,VERB,True,False
3650,3650,3650,3650,NUM,False,False
3700,3700,3700,3700,NUM,False,False
mhz,mhz,mhz,mhz,NOUN,True,False
as,as,as,as,SCONJ,True,True
a,a,a,a,DET,True,True
solution,solution,solution,solution,NOUN,True,False
to,to,to,to,PART,True,True
backhaul,backhaul,backhaul,backhaul,VERB,True,False
application,application,application,application,NOUN,True,False
and,and,and,and,CCONJ,True,True
cohere,cohere,cohere,cohere,ADV,True,False
be,be,be,be,AUX,True,True
consider,consider,consider,consider,VERB,True,False
the,the,the,the,DET,True,True
same,same,same,same,ADJ,True,True
frequency,frequency,frequency,frequency,NOUN,True,False
for,for,for,for,ADP,True,True
its,its,-PRON-,-pron-,DET,True,True
initial,initial,initial,initial,ADJ,True,False
product,product,product,product,NOUN,True,False
launch,launch,launch,launch,NOUN,True,False
in,in,in,in,ADP,True,True
2015,2015,2015,2015,NUM,False,False
.,.,.,.,PUNCT,False,False
give,give,give,give,VERB,True,True
the,the,the,the,DET,True,True
commissions,commissions,commission,commission,NOUN,True,False
potential,potential,potential,potential,ADJ,True,False
plan,plan,plan,plan,NOUN,True,False
to,to,to,to,PART,True,True
extend,extend,extend,extend,VERB,True,False
the,the,the,the,DET,True,True
consider,consider,consider,consider,ADJ,True,False
regulation,regulation,regulation,regulation,NOUN,True,False
to,to,to,to,PART,True,True
include,include,include,include,VERB,True,False
the,the,the,the,DET,True,True
3650,3650,3650,3650,NUM,False,False
3700,3700,3700,3700,NUM,False,False
mhz,mhz,mhz,mhz,PROPN,True,False
band,band,band,band,NOUN,True,False
",",",",",",",",PUNCT,False,False
cohere,cohere,cohere,cohere,PROPN,True,False
may,may,may,may,VERB,True,True
find,find,find,find,VERB,True,False
it,it,-PRON-,-pron-,PRON,True,True
necessary,necessary,necessary,necessary,ADJ,True,False
to,to,to,to,PART,True,True
re,re,re,re,VERB,True,True
-,-,-,-,VERB,False,False
evaluate,evaluate,evaluate,evaluate,VERB,True,False
its,its,-PRON-,-pron-,DET,True,True
business,business,business,business,NOUN,True,False
model,model,model,model,NOUN,True,False
in,in,in,in,ADP,True,True
conjunction,conjunction,conjunction,conjunction,NOUN,True,False
of,of,of,of,ADP,True,True
when,when,when,when,ADV,True,True
and,and,and,and,CCONJ,True,True
how,how,how,how,ADV,True,True
the,the,the,the,DET,True,True
determination,determination,determination,determination,NOUN,True,False
be,be,be,be,AUX,True,True
make,make,make,make,VERB,True,True
.,.,.,.,PUNCT,False,False
incorporate,incorporate,incorporate,incorporate,VERB,True,False
an,an,an,an,DET,True,True
additional,additional,additional,additional,ADJ,True,False
50,50,50,50,NUM,False,False
mhz,mhz,mhz,mhz,NOUN,True,False
to,to,to,to,ADP,True,True
the,the,the,the,DET,True,True
nprm,nprm,nprm,nprm,NOUN,True,False
over,over,over,over,ADP,True,True
the,the,the,the,DET,True,True
last,last,last,last,ADJ,True,True
two,two,two,two,NUM,True,True
year,year,year,year,NOUN,True,False
cohere,cohere,cohere,cohere,NOUN,True,False
have,have,have,have,AUX,True,True
be,be,be,be,AUX,True,True
invest,invest,invest,invest,NOUN,True,False
research,research,research,research,NOUN,True,False
and,and,and,and,CCONJ,True,True
development,development,development,development,NOUN,True,False
dollar,dollar,dollar,dollar,NOUN,True,False
along,along,along,along,ADP,True,True
with,with,with,with,ADP,True,True
record,record,record,record,NOUN,True,False
many,many,many,many,ADJ,True,True
engineering,engineering,engineering,engineering,NOUN,True,False
man,man,man,man,NOUN,True,False
-,-,-,-,PUNCT,False,False
hour,hour,hour,hour,NOUN,True,False
towards,towards,towards,towards,ADP,True,True
design,design,design,design,NOUN,True,False
and,and,and,and,CCONJ,True,True
manufacture,manufacture,manufacture,manufacture,VERB,True,False
a,a,a,a,DET,True,True
backhaul,backhaul,backhaul,backhaul,NOUN,True,False
product,product,product,product,NOUN,True,False
for,for,for,for,ADP,True,True
use,use,use,use,NOUN,True,False
in,in,in,in,ADP,True,True
the,the,the,the,DET,True,True
3650,3650,3650,3650,NUM,False,False
3700,3700,3700,3700,NUM,False,False
mhz,mhz,mhz,mhz,PROPN,True,False
band,band,band,band,NOUN,True,False
.,.,.,.,PUNCT,False,False
these,these,these,these,DET,True,True
effort,effort,effort,effort,NOUN,True,False
have,have,have,have,AUX,True,True
include,include,include,include,VERB,True,False
design,design,design,design,NOUN,True,False
a,a,a,a,DET,True,True
radio,radio,radio,radio,NOUN,True,False
and,and,and,and,CCONJ,True,True
antenna,antenna,antenna,antenna,NOUN,True,False
for,for,for,for,ADP,True,True
these,these,these,these,DET,True,True
specific,specific,specific,specific,ADJ,True,False
band,band,band,band,NOUN,True,False
as,as,as,as,ADV,True,True
well,well,well,well,ADV,True,True
as,as,as,as,SCONJ,True,True
characterize,characterize,characterize,characterize,VERB,True,False
their,their,-PRON-,-pron-,DET,True,True
performance,performance,performance,performance,NOUN,True,False
in,in,in,in,ADP,True,True
practical,practical,practical,practical,ADJ,True,False
application,application,application,application,NOUN,True,False
outside,outside,outside,outside,ADP,True,False
the,the,the,the,DET,True,True
lab,lab,lab,lab,NOUN,True,False
.,.,.,.,PUNCT,False,False
grant,grant,grant,grant,VERB,True,False
an,an,an,an,DET,True,True
extension,extension,extension,extension,NOUN,True,False
of,of,of,of,ADP,True,True
part,part,part,part,NOUN,True,True
96,96,96,96,NUM,False,False
rules,rules,rule,rule,NOUN,True,False
to,to,to,to,ADP,True,True
3560,3560,3560,3560,NUM,False,False
3700mhz,3700mhz,3700mhz,3700mhz,NOUN,False,False
could,could,could,could,VERB,True,True
impact,impact,impact,impact,VERB,True,False
coheres,coheres,cohere,cohere,NOUN,True,False
development,development,development,development,NOUN,True,False
by,by,by,by,ADP,True,True
two,two,two,two,NUM,True,True
year,year,year,year,NOUN,True,False
or,or,or,or,CCONJ,True,True
more,more,more,more,ADJ,True,True
and,and,and,and,CCONJ,True,True
require,require,require,require,VERB,True,False
a,a,a,a,DET,True,True
repeat,repeat,repeat,repeat,NOUN,True,False
ofprevious,ofprevious,ofprevious,ofprevious,ADJ,True,False
effort,effort,effort,effort,NOUN,True,False
",",",",",",",",PUNCT,False,False
as,as,as,as,SCONJ,True,True
it,it,-PRON-,-pron-,PRON,True,True
seek,seek,seek,seek,VERB,True,False
a,a,a,a,DET,True,True
suitable,suitable,suitable,suitable,ADJ,True,False
band,band,band,band,NOUN,True,False
for,for,for,for,ADP,True,True
backhaul,backhaul,backhaul,backhaul,PROPN,True,False
.,.,.,.,PUNCT,False,False
this,this,this,this,DET,True,True
same,same,same,same,ADJ,True,True
burden,burden,burden,burden,NOUN,True,False
most,most,most,most,ADV,True,True
likely,likely,likely,likely,ADJ,True,False
impact,impact,impact,impact,NOUN,True,False
coheres,coheres,cohere,cohere,NOUN,True,False
competitor,competitor,competitor,competitor,NOUN,True,False
in,in,in,in,ADP,True,True
the,the,the,the,DET,True,True
market,market,market,market,NOUN,True,False
as,as,as,as,ADV,True,True
well,well,well,well,ADV,True,True
.,.,.,.,PUNCT,False,False
grandfather,grandfather,grandfather,grandfather,VERB,True,False
exist,exist,exist,exist,VERB,True,False
operation,operation,operation,operation,NOUN,True,False
while,while,while,while,SCONJ,True,True
five,five,five,five,NUM,True,True
year,year,year,year,NOUN,True,False
may,may,may,may,VERB,True,True
provide,provide,provide,provide,VERB,True,False
an,an,an,an,DET,True,True
adequate,adequate,adequate,adequate,ADJ,True,False
period,period,period,period,NOUN,True,False
of,of,of,of,ADP,True,True
time,time,time,time,NOUN,True,False
for,for,for,for,ADP,True,True
small,small,small,small,ADJ,True,False
operator,operator,operator,operator,NOUN,True,False
such,such,such,such,ADJ,True,True
as,as,as,as,SCONJ,True,True
wireless,wireless,wireless,wireless,PROPN,True,False
isp,isp,isp,isp,PROPN,True,False
to,to,to,to,PART,True,True
fully,fully,fully,fully,ADV,True,False
amortize,amortize,amortize,amortize,VERB,True,False
their,their,-PRON-,-pron-,DET,True,True
investment,investment,investment,investment,NOUN,True,False
and,and,and,and,CCONJ,True,True
upgrade,upgrade,upgrade,upgrade,VERB,True,False
to,to,to,to,ADP,True,True
new,new,new,new,ADJ,True,False
equipment,equipment,equipment,equipment,NOUN,True,False
and,and,and,and,CCONJ,True,True
the,the,the,the,DET,True,True
associate,associate,associate,associate,NOUN,True,False
rule,rule,rule,rule,NOUN,True,False
",",",",",",",",PUNCT,False,False
cohere,cohere,cohere,cohere,ADV,True,False
believe,believe,believe,believe,VERB,True,False
its,its,-PRON-,-pron-,DET,True,True
market,market,market,market,NOUN,True,False
insertion,insertion,insertion,insertion,NOUN,True,False
focus,focus,focus,focus,NOUN,True,False
",",",",",",",",PUNCT,False,False
the,the,the,the,DET,True,True
mobile,mobile,mobile,mobile,ADJ,True,False
network,network,network,network,NOUN,True,False
operator,operator,operator,operator,NOUN,True,False
",",",",",",",",PUNCT,False,False
will,will,will,will,VERB,True,True
reconsider,reconsider,reconsider,reconsider,VERB,True,False
deployment,deployment,deployment,deployment,NOUN,True,False
and,and,and,and,CCONJ,True,True
investment,investment,investment,investment,NOUN,True,False
of,of,of,of,ADP,True,True
system,system,system,system,NOUN,True,False
use,use,use,use,NOUN,True,False
3650,3650,3650,3650,NUM,False,False
3700,3700,3700,3700,NUM,False,False
mhz,mhz,mhz,mhz,PROPN,True,False
band,band,band,band,NOUN,True,False
",",",",",",",",PUNCT,False,False
give,give,give,give,VERB,True,True
a,a,a,a,DET,True,True
five,five,five,five,NUM,True,True
year,year,year,year,NOUN,True,False
time,time,time,time,NOUN,True,False
horizon,horizon,horizon,horizon,NOUN,True,False
be,be,be,be,VERB,True,True
not,not,not,not,PART,True,True
substantial,substantial,substantial,substantial,ADJ,True,False
for,for,for,for,ADP,True,True
them,them,-PRON-,-pron-,PRON,True,True
to,to,to,to,PART,True,True
fully,fully,fully,fully,ADV,True,False
recoup,recoup,recoup,recoup,VERB,True,False
the,the,the,the,DET,True,True
capital,capital,capital,capital,NOUN,True,False
expenditure,expenditure,expenditure,expenditure,NOUN,True,False
.,.,.,.,PUNCT,False,False
therefore,therefore,therefore,therefore,ADV,True,True
should,should,should,should,VERB,True,True
cohere,cohere,cohere,cohere,ADV,True,False
continue,continue,continue,continue,VERB,True,False
development,development,development,development,NOUN,True,False
of,of,of,of,ADP,True,True
a,a,a,a,DET,True,True
system,system,system,system,NOUN,True,False
operate,operate,operate,operate,VERB,True,False
in,in,in,in,ADP,True,True
the,the,the,the,DET,True,True
3650,3650,3650,3650,NUM,False,False
mhz,mhz,mhz,mhz,PROPN,True,False
band,band,band,band,NOUN,True,False
",",",",",",",",PUNCT,False,False
it,it,-PRON-,-pron-,PRON,True,True
most,most,most,most,ADV,True,True
likely,likely,likely,likely,ADV,True,False
could,could,could,could,VERB,True,True
launch,launch,launch,launch,VERB,True,False
a,a,a,a,DET,True,True
product,product,product,product,NOUN,True,False
that,that,that,that,DET,True,True
be,be,be,be,AUX,True,True
obsolete,obsolete,obsolete,obsolete,ADJ,True,False
by,by,by,by,ADP,True,True
default,default,default,default,NOUN,True,False
.,.,.,.,PUNCT,False,False
conduct,conduct,conduct,conduct,NOUN,True,False
and,and,and,and,CCONJ,True,True
emitted,emitted,emitted,emitted,ADJ,True,False
power,power,power,power,NOUN,True,False
limits,limits,limit,limit,NOUN,True,False
in,in,in,in,ADP,True,True
read,read,read,read,VERB,True,False
the,the,the,the,DET,True,True
table,table,table,table,NOUN,True,False
find,find,find,find,VERB,True,False
within,within,within,within,ADP,True,True
fnprm,fnprm,fnprm,fnprm,PROPN,True,False
96.38b,96.38b,96.38b,96.38b,PROPN,False,False
imply,imply,imply,imply,NOUN,True,False
coheres,coheres,cohere,cohere,VERB,True,False
current,current,current,current,ADJ,True,False
design,design,design,design,NOUN,True,False
parameter,parameter,parameter,parameter,NOUN,True,False
[,[,[,[,PUNCT,False,False
30,30,30,30,NUM,False,False
dbm,dbm,dbm,dbm,NOUN,True,False
per,per,per,per,ADP,True,True
mhz,mhz,mhz,mhz,PROPN,True,False
eirp,eirp,eirp,eirp,NOUN,True,False
],],],],PUNCT,False,False
must,must,must,must,VERB,True,True
be,be,be,be,AUX,True,True
dramatically,dramatically,dramatically,dramatically,ADV,True,False
reduce,reduce,reduce,reduce,VERB,True,False
[,[,[,[,PUNCT,False,False
30,30,30,30,NUM,False,False
dbm,dbm,dbm,dbm,NOUN,True,False
per,per,per,per,ADP,True,True
10,10,10,10,NUM,False,False
mhz,mhz,mhz,mhz,NOUN,True,False
eirp,eirp,eirp,eirp,NOUN,True,False
],],],],PUNCT,False,False
.,.,.,.,PUNCT,False,False
this,this,this,this,DET,True,True
create,create,create,create,VERB,True,False
minimal,minimal,minimal,minimal,ADJ,True,False
link,link,link,link,NOUN,True,False
budget,budget,budget,budget,NOUN,True,False
for,for,for,for,ADP,True,True
operator,operator,operator,operator,NOUN,True,False
",",",",",",",",PUNCT,False,False
and,and,and,and,CCONJ,True,True
directly,directly,directly,directly,ADV,True,False
impact,impact,impact,impact,NOUN,True,False
coheres,coheres,cohere,cohere,NOUN,True,False
target,target,target,target,VERB,True,False
application,application,application,application,NOUN,True,False
backhaul,backhaul,backhaul,backhaul,PROPN,True,False
.,.,.,.,PUNCT,False,False
cohere,cohere,cohere,cohere,PROPN,True,False
recognize,recognize,recognize,recognize,VERB,True,False
the,the,the,the,DET,True,True
fcc,fcc,fcc,fcc,PROPN,True,False
be,be,be,be,AUX,True,True
propose,propose,propose,propose,VERB,True,False
a,a,a,a,DET,True,True
five,five,five,five,NUM,True,True
-,-,-,-,PUNCT,False,False
year,year,year,year,NOUN,True,False
conversion,conversion,conversion,conversion,NOUN,True,False
for,for,for,for,ADP,True,True
exist,exist,exist,exist,ADJ,True,False
base,base,base,base,NOUN,True,False
station,station,station,station,NOUN,True,False
but,but,but,but,CCONJ,True,True
the,the,the,the,DET,True,True
language,language,language,language,NOUN,True,False
provide,provide,provide,provide,VERB,True,False
no,no,no,no,DET,True,True
relief,relief,relief,relief,NOUN,True,False
since,since,since,since,SCONJ,True,True
everything,everything,everything,everything,PRON,True,True
cohere,cohere,cohere,cohere,ADV,True,False
be,be,be,be,AUX,True,True
develop,develop,develop,develop,VERB,True,False
fall,fall,fall,fall,NOUN,True,False
outside,outside,outside,outside,ADP,True,False
the,the,the,the,DET,True,True
exclusion,exclusion,exclusion,exclusion,NOUN,True,False
period,period,period,period,NOUN,True,False
.,.,.,.,PUNCT,False,False
summarycohere,summarycohere,summarycohere,summarycohere,PROPN,True,False
technologies,technologies,technology,technology,NOUN,True,False
have,have,have,have,AUX,True,True
serious,serious,serious,serious,ADJ,True,True
concern,concern,concern,concern,NOUN,True,False
about,about,about,about,ADP,True,True
the,the,the,the,DET,True,True
applicability,applicability,applicability,applicability,NOUN,True,False
of,of,of,of,ADP,True,True
these,these,these,these,DET,True,True
rule,rule,rule,rule,NOUN,True,False
in,in,in,in,ADP,True,True
our,our,-PRON-,-pron-,DET,True,True
effort,effort,effort,effort,NOUN,True,False
to,to,to,to,PART,True,True
market,market,market,market,VERB,True,False
next,next,next,next,ADJ,True,True
generation,generation,generation,generation,NOUN,True,False
backhaul,backhaul,backhaul,backhaul,PROPN,True,False
and,and,and,and,CCONJ,True,True
fix,fix,fix,fix,VERB,True,False
wireless,wireless,wireless,wireless,ADJ,True,False
access,access,access,access,NOUN,True,False
system,system,system,system,NOUN,True,False
.,.,.,.,PUNCT,False,False
it,it,-PRON-,-pron-,PRON,True,True
be,be,be,be,VERB,True,True
coheres,coheres,cohere,cohere,NOUN,True,False
view,view,view,view,VERB,True,False
that,that,that,that,SCONJ,True,True
the,the,the,the,DET,True,True
rule,rule,rule,rule,NOUN,True,False
and,and,and,and,CCONJ,True,True
policy,policy,policy,policy,NOUN,True,False
be,be,be,be,AUX,True,True
consider,consider,consider,consider,VERB,True,False
for,for,for,for,ADP,True,True
extend,extend,extend,extend,NOUN,True,False
into,into,into,into,ADP,True,True
the,the,the,the,DET,True,True
3650,3650,3650,3650,NUM,False,False
3700,3700,3700,3700,NUM,False,False
mhz,mhz,mhz,mhz,PROPN,True,False
band,band,band,band,NOUN,True,False
would,would,would,would,VERB,True,True
be,be,be,be,AUX,True,True
detrimental,detrimental,detrimental,detrimental,ADJ,True,False
in,in,in,in,ADP,True,True
our,our,-PRON-,-pron-,DET,True,True
effort,effort,effort,effort,NOUN,True,False
to,to,to,to,PART,True,True
use,use,use,use,VERB,True,False
this,this,this,this,DET,True,True
spectrum,spectrum,spectrum,spectrum,NOUN,True,False
for,for,for,for,ADP,True,True
backhaul,backhaul,backhaul,backhaul,PROPN,True,False
application,application,application,application,NOUN,True,False
.,.,.,.,PUNCT,False,False
we,we,-PRON-,-pron-,PRON,True,True
strongly,strongly,strongly,strongly,ADV,True,False
urge,urge,urge,urge,VERB,True,False
the,the,the,the,DET,True,True
commission,commission,commission,commission,NOUN,True,False
to,to,to,to,PART,True,True
consider,consider,consider,consider,VERB,True,False
the,the,the,the,DET,True,True
above,above,above,above,ADJ,True,True
in,in,in,in,ADP,True,True
make,make,make,make,VERB,True,True
a,a,a,a,DET,True,True
final,final,final,final,ADJ,True,False
determination,determination,determination,determination,NOUN,True,False
for,for,for,for,ADP,True,True
the,the,the,the,DET,True,True
3650,3650,3650,3650,NUM,False,False
3700,3700,3700,3700,NUM,False,False
mhz,mhz,mhz,mhz,PROPN,True,False
band,band,band,band,NOUN,True,False
.,.,.,.,PUNCT,False,False
