text,text_lower,lemma,lemma_lower,part_of_speech,is_alphabet,is_stopword
southern,southern,southern,southern,ADJ,True,False
company,company,company,company,PROPN,True,False
services,services,services,services,PROPN,True,False
",",",",",",",",PUNCT,False,False
inc,inc,inc,inc,PROPN,True,False
.,.,.,.,PROPN,False,False
southern,southern,southern,southern,PROPN,True,False
",",",",",",",",PUNCT,False,False
on,on,on,on,ADP,True,True
behalf,behalf,behalf,behalf,NOUN,True,False
of,of,of,of,ADP,True,True
itself,itself,-PRON-,-pron-,PRON,True,True
and,and,and,and,CCONJ,True,True
its,its,-PRON-,-pron-,DET,True,True
operatingaffiliate,operatingaffiliate,operatingaffiliate,operatingaffiliate,NOUN,True,False
",",",",",",",",PUNCT,False,False
hereby,hereby,hereby,hereby,PROPN,True,True
submit,submit,submit,submit,VERB,True,False
its,its,-PRON-,-pron-,DET,True,True
comment,comment,comment,comment,NOUN,True,False
in,in,in,in,ADP,True,True
response,response,response,response,NOUN,True,False
to,to,to,to,ADP,True,True
the,the,the,the,DET,True,True
further,further,further,further,ADJ,True,True
notice,notice,notice,notice,NOUN,True,False
of,of,of,of,ADP,True,True
proposed,proposed,propose,propose,VERB,True,False
rulemaking,rulemaking,rulemaking,rulemaking,NOUN,True,False
in,in,in,in,ADP,True,True
the,the,the,the,DET,True,True
above,above,above,above,ADJ,True,True
-,-,-,-,PUNCT,False,False
caption,caption,caption,caption,NOUN,True,False
matter,matter,matter,matter,NOUN,True,False
.,.,.,.,PUNCT,False,False
as,as,as,as,SCONJ,True,True
discuss,discuss,discuss,discuss,VERB,True,False
more,more,more,more,ADV,True,True
fully,fully,fully,fully,ADV,True,False
below,below,below,below,ADV,True,True
",",",",",",",",PUNCT,False,False
southern,southern,southern,southern,PROPN,True,False
supportsthe,supportsthe,supportsthe,supportsthe,PROPN,True,False
commission,commission,commission,commission,PROPN,True,False
effort,effort,effort,effort,NOUN,True,False
to,to,to,to,PART,True,True
optimize,optimize,optimize,optimize,VERB,True,False
use,use,use,use,NOUN,True,False
of,of,of,of,ADP,True,True
the,the,the,the,DET,True,True
3550,3550,3550,3550,NUM,False,False
3650,3650,3650,3650,NUM,False,False
mhz,mhz,mhz,mhz,PROPN,True,False
band,band,band,band,NOUN,True,False
3.5,3.5,3.5,3.5,NUM,False,False
ghz,ghz,ghz,ghz,PROPN,True,False
band,band,band,band,NOUN,True,False
byadopting,byadopting,byadopte,byadopte,VERB,True,False
rule,rule,rule,rule,NOUN,True,False
for,for,for,for,ADP,True,True
a,a,a,a,DET,True,True
new,new,new,new,ADJ,True,False
citizens,citizens,citizen,citizen,NOUN,True,False
broadband,broadband,broadband,broadband,NOUN,True,False
radio,radio,radio,radio,NOUN,True,False
service,service,service,service,NOUN,True,False
cbrs,cbrs,cbr,cbr,NOUN,True,False
.,.,.,.,PUNCT,False,False
southern,southern,southern,southern,ADJ,True,False
support,support,support,support,NOUN,True,False
thecommissions,thecommissions,thecommission,thecommission,NOUN,True,False
novel,novel,novel,novel,NOUN,True,False
proposal,proposal,proposal,proposal,NOUN,True,False
for,for,for,for,ADP,True,True
allocation,allocation,allocation,allocation,NOUN,True,False
and,and,and,and,CCONJ,True,True
use,use,use,use,NOUN,True,False
of,of,of,of,ADP,True,True
the,the,the,the,DET,True,True
3.5,3.5,3.5,3.5,NUM,False,False
ghz,ghz,ghz,ghz,PROPN,True,False
band,band,band,band,NOUN,True,False
through,through,through,through,ADP,True,True
use,use,use,use,NOUN,True,False
of,of,of,of,ADP,True,True
a,a,a,a,DET,True,True
three,three,three,three,NUM,True,True
-,-,-,-,PUNCT,False,False
tiere,tiere,tiere,tiere,NOUN,True,False
authorization,authorization,authorization,authorization,NOUN,True,False
framework,framework,framework,framework,NOUN,True,False
of,of,of,of,ADP,True,True
incumbent,incumbent,incumbent,incumbent,ADJ,True,False
access,access,access,access,NOUN,True,False
",",",",",",",",PUNCT,False,False
priority,priority,priority,priority,NOUN,True,False
access,access,access,access,NOUN,True,False
",",",",",",",",PUNCT,False,False
and,and,and,and,CCONJ,True,True
general,general,general,general,ADJ,True,False
authorizedaccess,authorizedaccess,authorizedaccess,authorizedaccess,NOUN,True,False
.,.,.,.,PUNCT,False,False
however,however,however,however,ADV,True,True
",",",",",",",",PUNCT,False,False
southern,southern,southern,southern,ADJ,True,False
urge,urge,urge,urge,VERB,True,False
the,the,the,the,DET,True,True
commission,commission,commission,commission,NOUN,True,False
to,to,to,to,PART,True,True
expand,expand,expand,expand,VERB,True,False
the,the,the,the,DET,True,True
interference,interference,interference,interference,NOUN,True,False
right,right,right,right,ADV,True,False
of,of,of,of,ADP,True,True
so,so,so,so,ADJ,True,True
-,-,-,-,PUNCT,False,False
calledcontaine,calledcontaine,calledcontaine,calledcontaine,NOUN,True,False
access,access,access,access,NOUN,True,False
users,users,user,user,NOUN,True,False
and,and,and,and,CCONJ,True,True
confirm,confirm,confirm,confirm,VERB,True,False
that,that,that,that,SCONJ,True,True
electric,electric,electric,electric,ADJ,True,False
utility,utility,utility,utility,NOUN,True,False
",",",",",",",",PUNCT,False,False
as,as,as,as,SCONJ,True,True
operator,operator,operator,operator,NOUN,True,False
of,of,of,of,ADP,True,True
facility,facility,facility,facility,NOUN,True,False
supportingthe,supportingthe,supportingthe,supportingthe,NOUN,True,False
nation,nation,nation,nation,NOUN,True,False
critical,critical,critical,critical,ADJ,True,False
infrastructure,infrastructure,infrastructure,infrastructure,NOUN,True,False
",",",",",",",",PUNCT,False,False
be,be,be,be,AUX,True,True
among,among,among,among,ADP,True,True
the,the,the,the,DET,True,True
entity,entity,entity,entity,NOUN,True,False
eligible,eligible,eligible,eligible,ADJ,True,False
for,for,for,for,ADP,True,True
these,these,these,these,DET,True,True
right,right,right,right,NOUN,True,False
.,.,.,.,PUNCT,False,False
by,by,by,by,ADP,True,True
way,way,way,way,NOUN,True,False
of,of,of,of,ADP,True,True
introduction,introduction,introduction,introduction,NOUN,True,False
",",",",",",",",PUNCT,False,False
southern,southern,southern,southern,ADJ,True,False
company,company,company,company,NOUN,True,False
services,services,service,service,NOUN,True,False
",",",",",",",",PUNCT,False,False
inc,inc,inc,inc,PROPN,True,False
.,.,.,.,PROPN,False,False
be,be,be,be,AUX,True,True
a,a,a,a,DET,True,True
wholly,wholly,wholly,wholly,ADV,True,False
-,-,-,-,PUNCT,False,False
own,own,own,own,ADJ,True,True
subsidiaryservice,subsidiaryservice,subsidiaryservice,subsidiaryservice,NOUN,True,False
company,company,company,company,NOUN,True,False
of,of,of,of,ADP,True,True
southern,southern,southern,southern,ADJ,True,False
company,company,company,company,NOUN,True,False
",",",",",",",",PUNCT,False,False
a,a,a,a,DET,True,True
super,super,super,super,ADJ,True,False
-,-,-,-,ADJ,False,False
regional,regional,regional,regional,ADJ,True,False
energy,energy,energy,energy,NOUN,True,False
company,company,company,company,NOUN,True,False
in,in,in,in,ADP,True,True
the,the,the,the,DET,True,True
southeastunited,southeastunited,southeastunite,southeastunite,VERB,True,False
states,states,state,state,NOUN,True,False
.,.,.,.,PUNCT,False,False
southern,southern,southern,southern,ADJ,True,False
company,company,company,company,NOUN,True,False
also,also,also,also,ADV,True,True
own,own,own,own,VERB,True,True
four,four,four,four,NUM,True,True
electric,electric,electric,electric,ADJ,True,False
utility,utility,utility,utility,NOUN,True,False
subsidiary,subsidiary,subsidiary,subsidiary,NOUN,True,False
alabama,alabama,alabama,alabama,PROPN,True,False
power,power,power,power,PROPN,True,False
company,company,company,company,PROPN,True,False
",",",",",",",",PUNCT,False,False
georgia,georgia,georgia,georgia,PROPN,True,False
power,power,power,power,PROPN,True,False
company,company,company,company,PROPN,True,False
",",",",",",",",PUNCT,False,False
gulf,gulf,gulf,gulf,PROPN,True,False
power,power,power,power,PROPN,True,False
company,company,company,company,PROPN,True,False
",",",",",",",",PUNCT,False,False
and,and,and,and,CCONJ,True,True
mississippi,mississippi,mississippi,mississippi,PROPN,True,False
power,power,power,power,PROPN,True,False
company,company,company,company,NOUN,True,False
which,which,which,which,DET,True,True
provide,provide,provide,provide,VERB,True,False
retail,retail,retail,retail,ADJ,True,False
and,and,and,and,CCONJ,True,True
wholesale,wholesale,wholesale,wholesale,ADJ,True,False
electric,electric,electric,electric,ADJ,True,False
service,service,service,service,NOUN,True,False
throughout,throughout,throughout,throughout,ADP,True,True
a,a,a,a,DET,True,True
"120,000","120,000","120,000","120,000",NUM,False,False
square,square,square,square,ADJ,True,False
mile,mile,mile,mile,NOUN,True,False
service,service,service,service,NOUN,True,False
territory,territory,territory,territory,NOUN,True,False
in,in,in,in,ADP,True,True
georgia,georgia,georgia,georgia,PROPN,True,False
",",",",",",",",PUNCT,False,False
most,most,most,most,ADJ,True,True
of,of,of,of,ADP,True,True
alabama,alabama,alabama,alabama,PROPN,True,False
",",",",",",",",PUNCT,False,False
and,and,and,and,CCONJ,True,True
part,part,part,part,NOUN,True,True
of,of,of,of,ADP,True,True
florida,florida,florida,florida,PROPN,True,False
and,and,and,and,CCONJ,True,True
mississippi,mississippi,mississippi,mississippi,PROPN,True,False
.,.,.,.,PUNCT,False,False
member,member,member,member,NOUN,True,False
of,of,of,of,ADP,True,True
the,the,the,the,DET,True,True
southern,southern,southern,southern,ADJ,True,False
company,company,company,company,NOUN,True,False
family,family,family,family,NOUN,True,False
use,use,use,use,VERB,True,False
a,a,a,a,DET,True,True
variety,variety,variety,variety,NOUN,True,False
of,of,of,of,ADP,True,True
communication,communication,communication,communication,NOUN,True,False
technology,technology,technology,technology,NOUN,True,False
",",",",",",",",PUNCT,False,False
include,include,include,include,VERB,True,False
fcc,fcc,fcc,fcc,PROPN,True,False
license,license,license,license,NOUN,True,False
spectrum,spectrum,spectrum,spectrum,NOUN,True,False
",",",",",",",",PUNCT,False,False
to,to,to,to,PART,True,True
support,support,support,support,VERB,True,False
the,the,the,the,DET,True,True
safe,safe,safe,safe,ADJ,True,False
and,and,and,and,CCONJ,True,True
efficient,efficient,efficient,efficient,ADJ,True,False
delivery,delivery,delivery,delivery,NOUN,True,False
of,of,of,of,ADP,True,True
energy,energy,energy,energy,NOUN,True,False
service,service,service,service,NOUN,True,False
to,to,to,to,ADP,True,True
their,their,-PRON-,-pron-,DET,True,True
customer,customer,customer,customer,NOUN,True,False
.,.,.,.,PUNCT,False,False
the,the,the,the,DET,True,True
proposed,proposed,propose,propose,VERB,True,False
citizens,citizens,citizen,citizen,NOUN,True,False
broadband,broadband,broadband,broadband,NOUN,True,False
radio,radio,radio,radio,NOUN,True,False
service,service,service,service,NOUN,True,False
at,at,at,at,ADP,True,True
3550,3550,3550,3550,NUM,False,False
-,-,-,-,SYM,False,False
3650,3650,3650,3650,NUM,False,False
mhzgeneral,mhzgeneral,mhzgeneral,mhzgeneral,NOUN,True,False
authorized,authorized,authorize,authorize,VERB,True,False
accesssouthern,accesssouthern,accesssouthern,accesssouthern,ADJ,True,False
support,support,support,support,VERB,True,False
the,the,the,the,DET,True,True
proposal,proposal,proposal,proposal,NOUN,True,False
to,to,to,to,PART,True,True
allow,allow,allow,allow,VERB,True,False
general,general,general,general,ADJ,True,False
authorized,authorized,authorized,authorized,ADJ,True,False
access,access,access,access,NOUN,True,False
gaa,gaa,gaa,gaa,NOUN,True,False
throughout,throughout,throughout,throughout,ADP,True,True
the,the,the,the,DET,True,True
3550,3550,3550,3550,NUM,False,False
-,-,-,-,SYM,False,False
3650,3650,3650,3650,NUM,False,False
mhz,mhz,mhz,mhz,PROPN,True,False
band,band,band,band,NOUN,True,False
",",",",",",",",PUNCT,False,False
subject,subject,subject,subject,ADJ,True,False
to,to,to,to,ADP,True,True
protection,protection,protection,protection,NOUN,True,False
of,of,of,of,ADP,True,True
federal,federal,federal,federal,ADJ,True,False
incumbent,incumbent,incumbent,incumbent,NOUN,True,False
and,and,and,and,CCONJ,True,True
priority,priority,priority,priority,NOUN,True,False
access,access,access,access,NOUN,True,False
licensees,licensees,licensee,licensee,NOUN,True,False
as,as,as,as,SCONJ,True,True
propose,propose,propose,propose,NOUN,True,False
in,in,in,in,ADP,True,True
the,the,the,the,DET,True,True
fnprm,fnprm,fnprm,fnprm,NOUN,True,False
.,.,.,.,PUNCT,False,False
allow,allow,allow,allow,VERB,True,False
gaa,gaa,gaa,gaa,NOUN,True,False
user,user,user,user,NOUN,True,False
to,to,to,to,PART,True,True
operate,operate,operate,operate,VERB,True,False
throughout,throughout,throughout,throughout,ADP,True,True
the,the,the,the,DET,True,True
band,band,band,band,NOUN,True,False
will,will,will,will,VERB,True,True
optimize,optimize,optimize,optimize,VERB,True,False
use,use,use,use,NOUN,True,False
of,of,of,of,ADP,True,True
this,this,this,this,DET,True,True
spectrum,spectrum,spectrum,spectrum,NOUN,True,False
and,and,and,and,CCONJ,True,True
promote,promote,promote,promote,VERB,True,False
the,the,the,the,DET,True,True
development,development,development,development,NOUN,True,False
of,of,of,of,ADP,True,True
a,a,a,a,DET,True,True
wide,wide,wide,wide,ADJ,True,False
range,range,range,range,NOUN,True,False
of,of,of,of,ADP,True,True
equipment,equipment,equipment,equipment,NOUN,True,False
than,than,than,than,SCONJ,True,True
would,would,would,would,VERB,True,True
be,be,be,be,AUX,True,True
possible,possible,possible,possible,ADJ,True,False
if,if,if,if,SCONJ,True,True
gaa,gaa,gaa,gaa,NOUN,True,False
use,use,use,use,NOUN,True,False
be,be,be,be,AUX,True,True
restrict,restrict,restrict,restrict,ADJ,True,False
to,to,to,to,ADP,True,True
only,only,only,only,ADV,True,True
certain,certain,certain,certain,ADJ,True,False
channel,channel,channel,channel,NOUN,True,False
block,block,block,block,NOUN,True,False
.,.,.,.,PUNCT,False,False
southern,southern,southern,southern,ADJ,True,False
support,support,support,support,VERB,True,False
the,the,the,the,DET,True,True
proposal,proposal,proposal,proposal,NOUN,True,False
to,to,to,to,PART,True,True
open,open,open,open,VERB,True,False
eligibility,eligibility,eligibility,eligibility,NOUN,True,False
to,to,to,to,PART,True,True
operate,operate,operate,operate,VERB,True,False
a,a,a,a,DET,True,True
citizens,citizens,citizen,citizen,NOUN,True,False
band,band,band,band,NOUN,True,False
service,service,service,service,NOUN,True,False
device,device,device,device,NOUN,True,False
cbsd,cbsd,cbsd,cbsd,ADV,True,False
to,to,to,to,ADP,True,True
any,any,any,any,DET,True,True
entity,entity,entity,entity,NOUN,True,False
not,not,not,not,PART,True,True
preclude,preclude,preclude,preclude,ADJ,True,False
from,from,from,from,ADP,True,True
hold,hold,hold,hold,VERB,True,False
an,an,an,an,DET,True,True
fcc,fcc,fcc,fcc,PROPN,True,False
license,license,license,license,NOUN,True,False
under,under,under,under,ADP,True,True
section,section,section,section,NOUN,True,False
310,310,310,310,NUM,False,False
of,of,of,of,ADP,True,True
the,the,the,the,DET,True,True
communications,communications,communication,communication,NOUN,True,False
act,act,act,act,NOUN,True,False
.,.,.,.,PUNCT,False,False
southern,southern,southern,southern,ADJ,True,False
note,note,note,note,NOUN,True,False
that,that,that,that,SCONJ,True,True
the,the,the,the,DET,True,True
currently,currently,currently,currently,ADV,True,False
-,-,-,-,PUNCT,False,False
define,define,define,define,NOUN,True,False
exclusion,exclusion,exclusion,exclusion,NOUN,True,False
zone,zone,zone,zone,NOUN,True,False
for,for,for,for,ADP,True,True
the,the,the,the,DET,True,True
protection,protection,protection,protection,NOUN,True,False
of,of,of,of,ADP,True,True
shipborne,shipborne,shipborne,shipborne,ADJ,True,False
radar,radar,radar,radar,NOUN,True,False
would,would,would,would,VERB,True,True
effectively,effectively,effectively,effectively,ADV,True,False
deny,deny,deny,deny,VERB,True,False
access,access,access,access,NOUN,True,False
to,to,to,to,ADP,True,True
the,the,the,the,DET,True,True
3550,3550,3550,3550,NUM,False,False
-,-,-,-,SYM,False,False
3650,3650,3650,3650,NUM,False,False
mhz,mhz,mhz,mhz,PROPN,True,False
band,band,band,band,NOUN,True,False
throughout,throughout,throughout,throughout,ADP,True,True
southern,southern,southern,southern,ADJ,True,False
operate,operate,operate,operate,PROPN,True,False
area,area,area,area,NOUN,True,False
in,in,in,in,ADP,True,True
georgia,georgia,georgia,georgia,PROPN,True,False
",",",",",",",",PUNCT,False,False
alabama,alabama,alabama,alabama,PROPN,True,False
",",",",",",",",PUNCT,False,False
florida,florida,florida,florida,PROPN,True,False
and,and,and,and,CCONJ,True,True
mississippi,mississippi,mississippi,mississippi,PROPN,True,False
.,.,.,.,PUNCT,False,False
southern,southern,southern,southern,PROPN,True,False
appreciate,appreciate,appreciate,appreciate,VERB,True,False
the,the,the,the,DET,True,True
commissions,commissions,commission,commission,NOUN,True,False
commitment,commitment,commitment,commitment,NOUN,True,False
to,to,to,to,PART,True,True
work,work,work,work,VERB,True,False
expeditiously,expeditiously,expeditiously,expeditiously,ADV,True,False
with,with,with,with,ADP,True,True
the,the,the,the,DET,True,True
national,national,national,national,PROPN,True,False
telecommunications,telecommunications,telecommunications,telecommunications,PROPN,True,False
andinformation,andinformation,andinformation,andinformation,PROPN,True,False
administration,administration,administration,administration,PROPN,True,False
ntia,ntia,ntia,ntia,PROPN,True,False
and,and,and,and,CCONJ,True,True
other,other,other,other,ADJ,True,True
relevant,relevant,relevant,relevant,ADJ,True,False
federal,federal,federal,federal,ADJ,True,False
agency,agency,agency,agency,NOUN,True,False
to,to,to,to,PART,True,True
reduce,reduce,reduce,reduce,VERB,True,False
the,the,the,the,DET,True,True
exclusion,exclusion,exclusion,exclusion,NOUN,True,False
zone,zone,zone,zone,NOUN,True,False
distance,distance,distance,distance,NOUN,True,False
",",",",",",",",PUNCT,False,False
take,take,take,take,VERB,True,True
into,into,into,into,ADP,True,True
account,account,account,account,NOUN,True,False
the,the,the,the,DET,True,True
small,small,small,small,ADJ,True,False
cell,cell,cell,cell,NOUN,True,False
deployment,deployment,deployment,deployment,NOUN,True,False
contemplate,contemplate,contemplate,contemplate,NOUN,True,False
for,for,for,for,ADP,True,True
the,the,the,the,DET,True,True
cbrs,cbrs,cbr,cbr,NOUN,True,False
and,and,and,and,CCONJ,True,True
the,the,the,the,DET,True,True
potential,potential,potential,potential,NOUN,True,False
for,for,for,for,ADP,True,True
the,the,the,the,DET,True,True
spectrum,spectrum,spectrum,spectrum,PROPN,True,False
access,access,access,access,NOUN,True,False
system,system,system,system,NOUN,True,False
sas,sas,sas,sas,PROPN,True,False
to,to,to,to,PART,True,True
dynamically,dynamically,dynamically,dynamically,ADV,True,False
allow,allow,allow,allow,VERB,True,False
coordinated,coordinated,coordinated,coordinated,ADJ,True,False
access,access,access,access,NOUN,True,False
with,with,with,with,ADP,True,True
incumbent,incumbent,incumbent,incumbent,ADJ,True,False
operation,operation,operation,operation,NOUN,True,False
and,and,and,and,CCONJ,True,True
to,to,to,to,PART,True,True
thereby,thereby,thereby,thereby,ADV,True,True
convert,convert,convert,convert,VERB,True,False
exclusion,exclusion,exclusion,exclusion,NOUN,True,False
zone,zone,zone,zone,NOUN,True,False
into,into,into,into,ADP,True,True
protection,protection,protection,protection,NOUN,True,False
zone,zone,zone,zone,NOUN,True,False
.,.,.,.,PUNCT,False,False
southern,southern,southern,southern,ADJ,True,False
urge,urge,urge,urge,VERB,True,False
the,the,the,the,DET,True,True
commission,commission,commission,commission,NOUN,True,False
to,to,to,to,PART,True,True
aggressively,aggressively,aggressively,aggressively,ADV,True,False
pursue,pursue,pursue,pursue,VERB,True,False
these,these,these,these,DET,True,True
discussion,discussion,discussion,discussion,NOUN,True,False
so,so,so,so,SCONJ,True,True
exclusion,exclusion,exclusion,exclusion,NOUN,True,False
zone,zone,zone,zone,NOUN,True,False
do,do,do,do,AUX,True,True
not,not,not,not,PART,True,True
unnecessarily,unnecessarily,unnecessarily,unnecessarily,ADV,True,False
constrain,constrain,constrain,constrain,VERB,True,False
deployment,deployment,deployment,deployment,NOUN,True,False
of,of,of,of,ADP,True,True
cbrs,cbrs,cbr,cbr,NOUN,True,False
in,in,in,in,ADP,True,True
the,the,the,the,DET,True,True
3.5,3.5,3.5,3.5,NUM,False,False
ghz,ghz,ghz,ghz,PROPN,True,False
band,band,band,band,NOUN,True,False
.,.,.,.,PUNCT,False,False
priority,priority,priority,priority,PROPN,True,False
accesssouthern,accesssouthern,accesssouthern,accesssouthern,PROPN,True,False
prefer,prefer,prefer,prefer,VERB,True,False
the,the,the,the,DET,True,True
commissions,commissions,commission,commission,NOUN,True,False
early,early,early,early,ADJ,True,False
proposal,proposal,proposal,proposal,NOUN,True,False
to,to,to,to,PART,True,True
limit,limit,limit,limit,VERB,True,False
the,the,the,the,DET,True,True
priority,priority,priority,priority,NOUN,True,False
access,access,access,access,NOUN,True,False
tier,tier,tier,tier,NOUN,True,False
to,to,to,to,ADP,True,True
utility,utility,utility,utility,NOUN,True,False
",",",",",",",",PUNCT,False,False
hospital,hospital,hospital,hospital,NOUN,True,False
",",",",",",",",PUNCT,False,False
state,state,state,state,NOUN,True,False
and,and,and,and,CCONJ,True,True
local,local,local,local,ADJ,True,False
government,government,government,government,NOUN,True,False
",",",",",",",",PUNCT,False,False
and,and,and,and,CCONJ,True,True
other,other,other,other,ADJ,True,True
entity,entity,entity,entity,NOUN,True,False
with,with,with,with,ADP,True,True
a,a,a,a,DET,True,True
distinct,distinct,distinct,distinct,ADJ,True,False
need,need,need,need,NOUN,True,False
for,for,for,for,ADP,True,True
reliable,reliable,reliable,reliable,ADJ,True,False
",",",",",",",",PUNCT,False,False
prioritize,prioritize,prioritize,prioritize,VERB,True,False
access,access,access,access,NOUN,True,False
.,.,.,.,PUNCT,False,False
the,the,the,the,DET,True,True
commissions,commissions,commission,commission,NOUN,True,False
new,new,new,new,ADJ,True,False
proposal,proposal,proposal,proposal,NOUN,True,False
to,to,to,to,PART,True,True
auction,auction,auction,auction,VERB,True,False
priority,priority,priority,priority,NOUN,True,False
access,access,access,access,NOUN,True,False
licenses,licenses,license,license,NOUN,True,False
be,be,be,be,AUX,True,True
inconsistent,inconsistent,inconsistent,inconsistent,ADJ,True,False
with,with,with,with,ADP,True,True
its,its,-PRON-,-pron-,DET,True,True
early,early,early,early,ADJ,True,False
acknowledgement,acknowledgement,acknowledgement,acknowledgement,NOUN,True,False
that,that,that,that,SCONJ,True,True
there,there,there,there,PRON,True,True
be,be,be,be,AUX,True,True
a,a,a,a,DET,True,True
variety,variety,variety,variety,NOUN,True,False
of,of,of,of,ADP,True,True
facility,facility,facility,facility,NOUN,True,False
with,with,with,with,ADP,True,True
an,an,an,an,DET,True,True
urgent,urgent,urgent,urgent,ADJ,True,False
need,need,need,need,NOUN,True,False
for,for,for,for,ADP,True,True
uninterrupted,uninterrupted,uninterrupted,uninterrupted,ADJ,True,False
spectrum,spectrum,spectrum,spectrum,NOUN,True,False
access,access,access,access,NOUN,True,False
to,to,to,to,PART,True,True
support,support,support,support,VERB,True,False
mission,mission,mission,mission,NOUN,True,False
critical,critical,critical,critical,ADJ,True,False
use,use,use,use,NOUN,True,False
.,.,.,.,PUNCT,False,False
it,it,-PRON-,-pron-,PRON,True,True
be,be,be,be,AUX,True,True
also,also,also,also,ADV,True,True
inconsistent,inconsistent,inconsistent,inconsistent,ADJ,True,False
with,with,with,with,ADP,True,True
the,the,the,the,DET,True,True
spirit,spirit,spirit,spirit,PROPN,True,False
",",",",",",",",PUNCT,False,False
as,as,as,as,ADV,True,True
well,well,well,well,ADV,True,True
as,as,as,as,SCONJ,True,True
the,the,the,the,DET,True,True
letter,letter,letter,letter,NOUN,True,False
",",",",",",",",PUNCT,False,False
of,of,of,of,ADP,True,True
section,section,section,section,NOUN,True,False
309j2,309j2,309j2,309j2,NOUN,False,False
of,of,of,of,ADP,True,True
the,the,the,the,DET,True,True
communications,communications,communication,communication,NOUN,True,False
act,act,act,act,NOUN,True,False
",",",",",",",",PUNCT,False,False
which,which,which,which,DET,True,True
state,state,state,state,VERB,True,False
that,that,that,that,SCONJ,True,True
competitive,competitive,competitive,competitive,ADJ,True,False
bidding,bidding,bidding,bidding,NOUN,True,False
be,be,be,be,AUX,True,True
not,not,not,not,PART,True,True
to,to,to,to,PART,True,True
be,be,be,be,AUX,True,True
use,use,use,use,NOUN,True,False
for,for,for,for,ADP,True,True
spectrum,spectrum,spectrum,spectrum,NOUN,True,False
that,that,that,that,DET,True,True
will,will,will,will,VERB,True,True
be,be,be,be,AUX,True,True
use,use,use,use,NOUN,True,False
for,for,for,for,ADP,True,True
the,the,the,the,DET,True,True
provision,provision,provision,provision,NOUN,True,False
of,of,of,of,ADP,True,True
public,public,public,public,ADJ,True,False
safety,safety,safety,safety,NOUN,True,False
radio,radio,radio,radio,NOUN,True,False
service,service,service,service,NOUN,True,False
.,.,.,.,PUNCT,False,False
congress,congress,congress,congress,PROPN,True,False
explain,explain,explain,explain,VERB,True,False
that,that,that,that,SCONJ,True,True
these,these,these,these,DET,True,True
service,service,service,service,NOUN,True,False
include,include,include,include,VERB,True,False
private,private,private,private,ADJ,True,False
internal,internal,internal,internal,ADJ,True,False
radio,radio,radio,radio,NOUN,True,False
service,service,service,service,NOUN,True,False
use,use,use,use,NOUN,True,False
by,by,by,by,ADP,True,True
utility,utility,utility,utility,NOUN,True,False
",",",",",",",",PUNCT,False,False
railroad,railroad,railroad,railroad,NOUN,True,False
",",",",",",",",PUNCT,False,False
metropolitan,metropolitan,metropolitan,metropolitan,ADJ,True,False
transit,transit,transit,transit,NOUN,True,False
system,system,system,system,NOUN,True,False
",",",",",",",",PUNCT,False,False
pipeline,pipeline,pipeline,pipeline,NOUN,True,False
",",",",",",",",PUNCT,False,False
private,private,private,private,ADJ,True,False
ambulance,ambulance,ambulance,ambulance,NOUN,True,False
",",",",",",",",PUNCT,False,False
and,and,and,and,CCONJ,True,True
volunteer,volunteer,volunteer,volunteer,NOUN,True,False
fire,fire,fire,fire,NOUN,True,False
department,department,department,department,PROPN,True,False
.,.,.,.,PUNCT,False,False
though,though,though,though,SCONJ,True,True
private,private,private,private,ADJ,True,False
in,in,in,in,ADP,True,True
nature,nature,nature,nature,NOUN,True,False
",",",",",",",",PUNCT,False,False
theservice,theservice,theservice,theservice,NOUN,True,False
offer,offer,offer,offer,NOUN,True,False
by,by,by,by,ADP,True,True
these,these,these,these,DET,True,True
entity,entity,entity,entity,NOUN,True,False
protect,protect,protect,protect,VERB,True,False
the,the,the,the,DET,True,True
safety,safety,safety,safety,NOUN,True,False
of,of,of,of,ADP,True,True
life,life,life,life,NOUN,True,False
",",",",",",",",PUNCT,False,False
health,health,health,health,NOUN,True,False
",",",",",",",",PUNCT,False,False
or,or,or,or,CCONJ,True,True
property,property,property,property,NOUN,True,False
and,and,and,and,CCONJ,True,True
be,be,be,be,AUX,True,True
not,not,not,not,PART,True,True
make,make,make,make,VERB,True,True
commercially,commercially,commercially,commercially,ADV,True,False
available,available,available,available,ADJ,True,False
to,to,to,to,ADP,True,True
the,the,the,the,DET,True,True
public,public,public,public,NOUN,True,False
.,.,.,.,PUNCT,False,False
section,section,section,section,NOUN,True,False
1,1,1,1,NUM,False,False
of,of,of,of,ADP,True,True
the,the,the,the,DET,True,True
communications,communications,communications,communications,PROPN,True,False
act,act,act,act,NOUN,True,False
vest,vest,vest,vest,VERB,True,False
the,the,the,the,DET,True,True
fcc,fcc,fcc,fcc,PROPN,True,False
with,with,with,with,ADP,True,True
responsibility,responsibility,responsibility,responsibility,NOUN,True,False
for,for,for,for,ADP,True,True
promote,promote,promote,promote,VERB,True,False
safety,safety,safety,safety,NOUN,True,False
of,of,of,of,ADP,True,True
life,life,life,life,NOUN,True,False
and,and,and,and,CCONJ,True,True
property,property,property,property,NOUN,True,False
through,through,through,through,ADP,True,True
the,the,the,the,DET,True,True
use,use,use,use,NOUN,True,False
of,of,of,of,ADP,True,True
wire,wire,wire,wire,NOUN,True,False
and,and,and,and,CCONJ,True,True
radio,radio,radio,radio,NOUN,True,False
communication,communication,communication,communication,NOUN,True,False
.,.,.,.,PUNCT,False,False
it,it,-PRON-,-pron-,PRON,True,True
be,be,be,be,AUX,True,True
counter,counter,counter,counter,ADJ,True,False
to,to,to,to,ADP,True,True
that,that,that,that,DET,True,True
responsibility,responsibility,responsibility,responsibility,NOUN,True,False
",",",",",",",",PUNCT,False,False
and,and,and,and,CCONJ,True,True
to,to,to,to,ADP,True,True
the,the,the,the,DET,True,True
public,public,public,public,ADJ,True,False
welfare,welfare,welfare,welfare,NOUN,True,False
generally,generally,generally,generally,ADV,True,False
",",",",",",",",PUNCT,False,False
to,to,to,to,PART,True,True
require,require,require,require,VERB,True,False
utility,utility,utility,utility,NOUN,True,False
and,and,and,and,CCONJ,True,True
other,other,other,other,ADJ,True,True
safety,safety,safety,safety,NOUN,True,False
of,of,of,of,ADP,True,True
life,life,life,life,NOUN,True,False
service,service,service,service,NOUN,True,False
to,to,to,to,PART,True,True
compete,compete,compete,compete,VERB,True,False
at,at,at,at,ADP,True,True
auction,auction,auction,auction,NOUN,True,False
for,for,for,for,ADP,True,True
the,the,the,the,DET,True,True
right,right,right,right,NOUN,True,False
to,to,to,to,PART,True,True
have,have,have,have,AUX,True,True
priority,priority,priority,priority,NOUN,True,False
access,access,access,access,NOUN,True,False
to,to,to,to,ADP,True,True
spectrum,spectrum,spectrum,spectrum,NOUN,True,False
that,that,that,that,DET,True,True
could,could,could,could,VERB,True,True
be,be,be,be,AUX,True,True
extremely,extremely,extremely,extremely,ADV,True,False
congest,congest,cong,cong,ADJ,True,False
at,at,at,at,ADP,True,True
the,the,the,the,DET,True,True
very,very,very,very,ADJ,True,True
time,time,time,time,NOUN,True,False
when,when,when,when,ADV,True,True
utility,utility,utility,utility,NOUN,True,False
need,need,need,need,VERB,True,False
clear,clear,clear,clear,ADJ,True,False
access,access,access,access,NOUN,True,False
to,to,to,to,ADP,True,True
spectrum,spectrum,spectrum,spectrum,NOUN,True,False
to,to,to,to,PART,True,True
restore,restore,restore,restore,VERB,True,False
or,or,or,or,CCONJ,True,True
maintain,maintain,maintain,maintain,VERB,True,False
power,power,power,power,NOUN,True,False
.,.,.,.,PUNCT,False,False
southern,southern,southern,southern,ADJ,True,False
therefore,therefore,therefore,therefore,ADV,True,True
respectfully,respectfully,respectfully,respectfully,ADV,True,False
request,request,request,request,VERB,True,False
that,that,that,that,SCONJ,True,True
the,the,the,the,DET,True,True
commission,commission,commission,commission,NOUN,True,False
permit,permit,permit,permit,NOUN,True,False
utility,utility,utility,utility,NOUN,True,False
and,and,and,and,CCONJ,True,True
other,other,other,other,ADJ,True,True
public,public,public,public,ADJ,True,False
safety,safety,safety,safety,NOUN,True,False
radio,radio,radio,radio,NOUN,True,False
service,service,service,service,NOUN,True,False
to,to,to,to,PART,True,True
obtain,obtain,obtain,obtain,VERB,True,False
priority,priority,priority,priority,NOUN,True,False
access,access,access,access,NOUN,True,False
licenses,licenses,license,license,NOUN,True,False
outside,outside,outside,outside,ADV,True,False
of,of,of,of,ADP,True,True
an,an,an,an,DET,True,True
auction,auction,auction,auction,NOUN,True,False
environment,environment,environment,environment,NOUN,True,False
.,.,.,.,PUNCT,False,False
contain,contain,contain,contain,VERB,True,False
accessthe,accessthe,accessthe,accessthe,PROPN,True,False
commission,commission,commission,commission,PROPN,True,False
have,have,have,have,AUX,True,True
propose,propose,propose,propose,NOUN,True,False
give,give,give,give,VERB,True,True
contained,contained,contained,contained,ADJ,True,False
access,access,access,access,NOUN,True,False
users,users,user,user,NOUN,True,False
the,the,the,the,DET,True,True
right,right,right,right,NOUN,True,False
to,to,to,to,ADP,True,True
requestassignment,requestassignment,requestassignment,requestassignment,NOUN,True,False
of,of,of,of,ADP,True,True
up,up,up,up,ADP,True,True
to,to,to,to,PART,True,True
20,20,20,20,NUM,False,False
mhz,mhz,mhz,mhz,NOUN,True,False
of,of,of,of,ADP,True,True
spectrum,spectrum,spectrum,spectrum,NOUN,True,False
otherwise,otherwise,otherwise,otherwise,ADV,True,True
available,available,available,available,ADJ,True,False
for,for,for,for,ADP,True,True
gaa,gaa,gaa,gaa,NOUN,True,False
use,use,use,use,NOUN,True,False
to,to,to,to,PART,True,True
be,be,be,be,AUX,True,True
reserve,reserve,reserve,reserve,NOUN,True,False
forcontained,forcontained,forcontained,forcontained,ADJ,True,False
access,access,access,access,NOUN,True,False
use,use,use,use,NOUN,True,False
inside,inside,inside,inside,ADP,True,False
a,a,a,a,DET,True,True
contained,contained,contained,contained,ADJ,True,False
access,access,access,access,NOUN,True,False
facility,facility,facility,facility,NOUN,True,False
caf,caf,caf,caf,PROPN,True,False
.,.,.,.,PROPN,False,False
contained,contained,contain,contain,VERB,True,False
access,access,access,access,PROPN,True,False
usersare,usersare,usersare,usersare,PROPN,True,False
tentatively,tentatively,tentatively,tentatively,ADV,True,False
define,define,define,define,VERB,True,False
as,as,as,as,SCONJ,True,True
[,[,[,[,PUNCT,False,False
q]ualified,q]ualified,q]ualifie,q]ualifie,VERB,False,False
government,government,government,government,NOUN,True,False
and,and,and,and,CCONJ,True,True
non,non,non,non,ADJ,True,False
-,-,-,-,ADJ,False,False
government,government,government,government,ADJ,True,False
entity,entity,entity,entity,NOUN,True,False
entitle,entitle,entitle,entitle,NOUN,True,False
toprotection,toprotection,toprotection,toprotection,NOUN,True,False
within,within,within,within,ADP,True,True
cafs,cafs,cafs,cafs,PROPN,True,False
in,in,in,in,ADP,True,True
furtherance,furtherance,furtherance,furtherance,NOUN,True,False
of,of,of,of,ADP,True,True
a,a,a,a,DET,True,True
mission,mission,mission,mission,NOUN,True,False
that,that,that,that,DET,True,True
support,support,support,support,VERB,True,False
the,the,the,the,DET,True,True
public,public,public,public,ADJ,True,False
interest,interest,interest,interest,NOUN,True,False
.,.,.,.,PUNCT,False,False
acontained,acontained,acontained,acontained,ADJ,True,False
access,access,access,access,NOUN,True,False
facility,facility,facility,facility,NOUN,True,False
be,be,be,be,AUX,True,True
tentatively,tentatively,tentatively,tentatively,ADV,True,False
define,define,define,define,ADJ,True,False
as,as,as,as,SCONJ,True,True
[,[,[,[,PUNCT,False,False
a]n,a]n,a]n,a]n,VERB,False,False
indoor,indoor,indoor,indoor,ADJ,True,False
or,or,or,or,CCONJ,True,True
otherwise,otherwise,otherwise,otherwise,ADV,True,True
physicallycontained,physicallycontained,physicallycontained,physicallycontained,ADJ,True,False
location,location,location,location,NOUN,True,False
use,use,use,use,NOUN,True,False
by,by,by,by,ADP,True,True
contained,contained,contained,contained,ADJ,True,False
access,access,access,access,NOUN,True,False
users,users,user,user,NOUN,True,False
for,for,for,for,ADP,True,True
the,the,the,the,DET,True,True
express,express,express,express,ADJ,True,False
purpose,purpose,purpose,purpose,NOUN,True,False
of,of,of,of,ADP,True,True
perform,perform,perform,perform,ADJ,True,False
coremission,coremission,coremission,coremission,NOUN,True,False
operation,operation,operation,operation,NOUN,True,False
.,.,.,.,PUNCT,False,False
as,as,as,as,SCONJ,True,True
propose,propose,propose,propose,NOUN,True,False
",",",",",",",",PUNCT,False,False
the,the,the,the,DET,True,True
spectrum,spectrum,spectrum,spectrum,NOUN,True,False
access,access,access,access,NOUN,True,False
system,system,system,system,NOUN,True,False
would,would,would,would,VERB,True,True
reserve,reserve,reserve,reserve,VERB,True,False
spectrum,spectrum,spectrum,spectrum,PROPN,True,False
forcontaine,forcontaine,forcontaine,forcontaine,PROPN,True,False
access,access,access,access,NOUN,True,False
use,use,use,use,NOUN,True,False
within,within,within,within,ADP,True,True
the,the,the,the,DET,True,True
caf,caf,caf,caf,PROPN,True,False
as,as,as,as,SCONJ,True,True
against,against,against,against,ADP,True,True
other,other,other,other,ADJ,True,True
gaa,gaa,gaa,gaa,NOUN,True,False
user,user,user,user,NOUN,True,False
within,within,within,within,ADP,True,True
the,the,the,the,DET,True,True
physical,physical,physical,physical,ADJ,True,False
confine,confine,confine,confine,NOUN,True,False
of,of,of,of,ADP,True,True
the,the,the,the,DET,True,True
caf,caf,caf,caf,PROPN,True,False
.,.,.,.,PUNCT,False,False
a,a,a,a,DET,True,True
contained,contained,contained,contained,ADJ,True,False
access,access,access,access,NOUN,True,False
user,user,user,user,NOUN,True,False
would,would,would,would,VERB,True,True
only,only,only,only,ADV,True,True
be,be,be,be,AUX,True,True
protect,protect,protect,protect,ADJ,True,False
to,to,to,to,ADP,True,True
the,the,the,the,DET,True,True
extent,extent,extent,extent,NOUN,True,False
that,that,that,that,SCONJ,True,True
the,the,the,the,DET,True,True
sas,sas,sas,sas,PROPN,True,False
would,would,would,would,VERB,True,True
not,not,not,not,PART,True,True
authorize,authorize,authorize,authorize,VERB,True,False
a,a,a,a,DET,True,True
gaa,gaa,gaa,gaa,NOUN,True,False
user,user,user,user,NOUN,True,False
to,to,to,to,PART,True,True
operate,operate,operate,operate,VERB,True,False
on,on,on,on,ADP,True,True
the,the,the,the,DET,True,True
same,same,same,same,ADJ,True,True
frequency,frequency,frequency,frequency,NOUN,True,False
within,within,within,within,ADP,True,True
the,the,the,the,DET,True,True
confine,confine,confine,confine,NOUN,True,False
of,of,of,of,ADP,True,True
the,the,the,the,DET,True,True
caf,caf,caf,caf,PROPN,True,False
contained,contained,contain,contain,VERB,True,False
access,access,access,access,NOUN,True,False
users,users,user,user,NOUN,True,False
would,would,would,would,VERB,True,True
not,not,not,not,PART,True,True
be,be,be,be,AUX,True,True
entitle,entitle,entitle,entitle,ADJ,True,False
to,to,to,to,ADP,True,True
interference,interference,interference,interference,NOUN,True,False
protection,protection,protection,protection,NOUN,True,False
from,from,from,from,ADP,True,True
device,device,device,device,NOUN,True,False
operate,operate,operate,operate,VERB,True,False
outside,outside,outside,outside,ADP,True,False
the,the,the,the,DET,True,True
caf.southern,caf.southern,caf.southern,caf.southern,PROPN,False,False
appreciate,appreciate,appreciate,appreciate,VERB,True,False
the,the,the,the,DET,True,True
commissions,commissions,commission,commission,NOUN,True,False
willingness,willingness,willingness,willingness,NOUN,True,False
to,to,to,to,PART,True,True
accommodate,accommodate,accommodate,accommodate,VERB,True,False
critical,critical,critical,critical,ADJ,True,False
user,user,user,user,NOUN,True,False
with,with,with,with,ADP,True,True
at,at,at,at,ADP,True,True
least,least,least,least,ADJ,True,True
some,some,some,some,DET,True,True
limited,limited,limited,limited,ADJ,True,False
priority,priority,priority,priority,NOUN,True,False
access,access,access,access,NOUN,True,False
",",",",",",",",PUNCT,False,False
and,and,and,and,CCONJ,True,True
offer,offer,offer,offer,VERB,True,False
the,the,the,the,DET,True,True
follow,follow,follow,follow,ADJ,True,False
comment,comment,comment,comment,NOUN,True,False
on,on,on,on,ADP,True,True
how,how,how,how,ADV,True,True
the,the,the,the,DET,True,True
rule,rule,rule,rule,NOUN,True,False
on,on,on,on,ADP,True,True
caf,caf,caf,caf,PROPN,True,False
could,could,could,could,VERB,True,True
be,be,be,be,AUX,True,True
structure,structure,structure,structure,NOUN,True,False
to,to,to,to,PART,True,True
provide,provide,provide,provide,VERB,True,False
a,a,a,a,DET,True,True
meaningful,meaningful,meaningful,meaningful,ADJ,True,False
opportunity,opportunity,opportunity,opportunity,NOUN,True,False
for,for,for,for,ADP,True,True
utility,utility,utility,utility,NOUN,True,False
and,and,and,and,CCONJ,True,True
other,other,other,other,ADJ,True,True
critical,critical,critical,critical,ADJ,True,False
user,user,user,user,NOUN,True,False
to,to,to,to,PART,True,True
make,make,make,make,VERB,True,True
effective,effective,effective,effective,ADJ,True,False
use,use,use,use,NOUN,True,False
of,of,of,of,ADP,True,True
this,this,this,this,DET,True,True
spectrum,spectrum,spectrum,spectrum,NOUN,True,False
in,in,in,in,ADP,True,True
support,support,support,support,NOUN,True,False
of,of,of,of,ADP,True,True
the,the,the,the,DET,True,True
public,public,public,public,ADJ,True,False
interest,interest,interest,interest,NOUN,True,False
.,.,.,.,PUNCT,False,False
first,first,first,first,ADV,True,True
",",",",",",",",PUNCT,False,False
southern,southern,southern,southern,ADJ,True,False
urge,urge,urge,urge,VERB,True,False
the,the,the,the,DET,True,True
commission,commission,commission,commission,NOUN,True,False
to,to,to,to,PART,True,True
substitute,substitute,substitute,substitute,VERB,True,False
the,the,the,the,DET,True,True
term,term,term,term,NOUN,True,False
contained,contained,contain,contain,VERB,True,False
access,access,access,access,NOUN,True,False
user,user,user,user,NOUN,True,False
and,and,and,and,CCONJ,True,True
contained,contained,contain,contain,VERB,True,False
access,access,access,access,NOUN,True,False
facility,facility,facility,facility,NOUN,True,False
with,with,with,with,ADP,True,True
critical,critical,critical,critical,ADJ,True,False
access,access,access,access,NOUN,True,False
user,user,user,user,NOUN,True,False
and,and,and,and,CCONJ,True,True
critical,critical,critical,critical,ADJ,True,False
access,access,access,access,NOUN,True,False
facility,facility,facility,facility,NOUN,True,False
",",",",",",",",PUNCT,False,False
respectively,respectively,respectively,respectively,ADV,True,False
.,.,.,.,PUNCT,False,False
southern,southern,southern,southern,ADJ,True,False
foresee,foresee,foresee,foresee,NOUN,True,False
that,that,that,that,SCONJ,True,True
it,it,-PRON-,-pron-,PRON,True,True
could,could,could,could,VERB,True,True
use,use,use,use,VERB,True,False
3.5,3.5,3.5,3.5,NUM,False,False
ghz,ghz,ghz,ghz,NOUN,True,False
system,system,system,system,NOUN,True,False
at,at,at,at,ADP,True,True
many,many,many,many,ADJ,True,True
critical,critical,critical,critical,ADJ,True,False
location,location,location,location,NOUN,True,False
that,that,that,that,DET,True,True
may,may,may,may,VERB,True,True
not,not,not,not,PART,True,True
be,be,be,be,AUX,True,True
consider,consider,consider,consider,VERB,True,False
indoor,indoor,indoor,indoor,ADJ,True,False
or,or,or,or,CCONJ,True,True
physically,physically,physically,physically,ADV,True,False
contain,contain,contain,contain,VERB,True,False
as,as,as,as,SCONJ,True,True
state,state,state,state,NOUN,True,False
in,in,in,in,ADP,True,True
the,the,the,the,DET,True,True
propose,propose,propose,propose,NOUN,True,False
rule,rule,rule,rule,NOUN,True,False
.,.,.,.,PUNCT,False,False
with,with,with,with,ADP,True,True
the,the,the,the,DET,True,True
exception,exception,exception,exception,NOUN,True,False
of,of,of,of,ADP,True,True
electric,electric,electric,electric,ADJ,True,False
generating,generating,generating,generating,NOUN,True,False
station,station,station,station,NOUN,True,False
and,and,and,and,CCONJ,True,True
infrastructure,infrastructure,infrastructure,infrastructure,NOUN,True,False
operation,operation,operation,operation,NOUN,True,False
center,center,center,center,NOUN,True,False
",",",",",",",",PUNCT,False,False
most,most,most,most,ADJ,True,True
utility,utility,utility,utility,NOUN,True,False
property,property,property,property,NOUN,True,False
be,be,be,be,AUX,True,True
locate,locate,locate,locate,ADJ,True,False
outside,outside,outside,outside,ADP,True,False
e.g.,e.g.,e.g.,e.g.,ADV,False,False
",",",",",",",",PUNCT,False,False
transmission,transmission,transmission,transmission,NOUN,True,False
and,and,and,and,CCONJ,True,True
distribution,distribution,distribution,distribution,NOUN,True,False
substation,substation,substation,substation,NOUN,True,False
.,.,.,.,PUNCT,False,False
for,for,for,for,ADP,True,True
safety,safety,safety,safety,NOUN,True,False
and,and,and,and,CCONJ,True,True
security,security,security,security,NOUN,True,False
reason,reason,reason,reason,NOUN,True,False
",",",",",",",",PUNCT,False,False
substation,substation,substation,substation,NOUN,True,False
be,be,be,be,AUX,True,True
locate,locate,locate,locate,ADJ,True,False
within,within,within,within,ADP,True,True
fenced,fenced,fenced,fenced,ADJ,True,False
area,area,area,area,NOUN,True,False
that,that,that,that,DET,True,True
be,be,be,be,VERB,True,True
not,not,not,not,PART,True,True
accessible,accessible,accessible,accessible,ADJ,True,False
to,to,to,to,ADP,True,True
member,member,member,member,NOUN,True,False
of,of,of,of,ADP,True,True
the,the,the,the,DET,True,True
public,public,public,public,NOUN,True,False
.,.,.,.,PUNCT,False,False
these,these,these,these,DET,True,True
be,be,be,be,AUX,True,True
also,also,also,also,ADV,True,True
high,high,high,high,ADJ,True,False
-,-,-,-,PUNCT,False,False
noise,noise,noise,noise,NOUN,True,False
environment,environment,environment,environment,NOUN,True,False
where,where,where,where,ADV,True,True
it,it,-PRON-,-pron-,PRON,True,True
can,can,can,can,VERB,True,True
be,be,be,be,AUX,True,True
difficult,difficult,difficult,difficult,ADJ,True,False
to,to,to,to,PART,True,True
maintain,maintain,maintain,maintain,VERB,True,False
electronic,electronic,electronic,electronic,ADJ,True,False
communication,communication,communication,communication,NOUN,True,False
",",",",",",",",PUNCT,False,False
so,so,so,so,CCONJ,True,True
avoidance,avoidance,avoidance,avoidance,NOUN,True,False
of,of,of,of,ADP,True,True
extraneous,extraneous,extraneous,extraneous,ADJ,True,False
interference,interference,interference,interference,NOUN,True,False
be,be,be,be,AUX,True,True
very,very,very,very,ADV,True,True
important,important,important,important,ADJ,True,False
.,.,.,.,PUNCT,False,False
southern,southern,southern,southern,ADV,True,False
therefore,therefore,therefore,therefore,ADV,True,True
urge,urge,urge,urge,VERB,True,False
the,the,the,the,DET,True,True
commission,commission,commission,commission,NOUN,True,False
to,to,to,to,PART,True,True
revise,revise,revise,revise,VERB,True,False
the,the,the,the,DET,True,True
definition,definition,definition,definition,NOUN,True,False
of,of,of,of,ADP,True,True
contained,contained,contained,contained,ADJ,True,False
access,access,access,access,NOUN,True,False
facility,facility,facility,facility,NOUN,True,False
to,to,to,to,ADP,True,True
the,the,the,the,DET,True,True
followingcritical,followingcritical,followingcritical,followingcritical,ADJ,True,False
access,access,access,access,NOUN,True,False
facility,facility,facility,facility,NOUN,True,False
caf,caf,caf,caf,CCONJ,True,False
a,a,a,a,DET,True,True
control,control,control,control,ADJ,True,False
-,-,-,-,PUNCT,False,False
access,access,access,access,NOUN,True,False
location,location,location,location,NOUN,True,False
use,use,use,use,NOUN,True,False
by,by,by,by,ADP,True,True
a,a,a,a,DET,True,True
critical,critical,critical,critical,ADJ,True,False
access,access,access,access,NOUN,True,False
user,user,user,user,NOUN,True,False
for,for,for,for,ADP,True,True
the,the,the,the,DET,True,True
express,express,express,express,ADJ,True,False
purpose,purpose,purpose,purpose,NOUN,True,False
of,of,of,of,ADP,True,True
perform,perform,perform,perform,ADJ,True,False
core,core,core,core,NOUN,True,False
mission,mission,mission,mission,NOUN,True,False
operation,operation,operation,operation,NOUN,True,False
.,.,.,.,PUNCT,False,False
second,second,second,second,ADJ,True,False
",",",",",",",",PUNCT,False,False
southern,southern,southern,southern,ADJ,True,False
recommend,recommend,recommend,recommend,NOUN,True,False
that,that,that,that,SCONJ,True,True
the,the,the,the,DET,True,True
definition,definition,definition,definition,NOUN,True,False
of,of,of,of,ADP,True,True
contained,contained,contained,contained,ADJ,True,False
access,access,access,access,NOUN,True,False
user,user,user,user,NOUN,True,False
be,be,be,be,AUX,True,True
revisedto,revisedto,revisedto,revisedto,PROPN,True,False
the,the,the,the,DET,True,True
followingcritical,followingcritical,followingcritical,followingcritical,ADJ,True,False
access,access,access,access,NOUN,True,False
user,user,user,user,NOUN,True,False
an,an,an,an,DET,True,True
entity,entity,entity,entity,NOUN,True,False
meeting,meeting,meeting,meeting,NOUN,True,False
the,the,the,the,DET,True,True
definition,definition,definition,definition,NOUN,True,False
of,of,of,of,ADP,True,True
a,a,a,a,DET,True,True
critical,critical,critical,critical,ADJ,True,False
infrastructure,infrastructure,infrastructure,infrastructure,NOUN,True,False
industry,industry,industry,industry,NOUN,True,False
cii,cii,cii,cii,NOUN,True,False
as,as,as,as,SCONJ,True,True
define,define,define,define,NOUN,True,False
at,at,at,at,ADP,True,True
section,section,section,section,NOUN,True,False
90.7,90.7,90.7,90.7,NUM,False,False
of,of,of,of,ADP,True,True
the,the,the,the,DET,True,True
commissions,commissions,commission,commission,NOUN,True,False
rules,rules,rule,rule,NOUN,True,False
entitle,entitle,entitle,entitle,ADJ,True,False
to,to,to,to,ADP,True,True
protection,protection,protection,protection,NOUN,True,False
within,within,within,within,ADP,True,True
cafs,cafs,cafs,cafs,PROPN,True,False
in,in,in,in,ADP,True,True
furtherance,furtherance,furtherance,furtherance,NOUN,True,False
of,of,of,of,ADP,True,True
a,a,a,a,DET,True,True
core,core,core,core,NOUN,True,False
mission,mission,mission,mission,NOUN,True,False
of,of,of,of,ADP,True,True
the,the,the,the,DET,True,True
cii,cii,cii,cii,PROPN,True,False
entity,entity,entity,entity,NOUN,True,False
.,.,.,.,PUNCT,False,False
section,section,section,section,NOUN,True,False
90.7,90.7,90.7,90.7,NUM,False,False
define,define,define,define,VERB,True,False
a,a,a,a,DET,True,True
critical,critical,critical,critical,ADJ,True,False
infrastructure,infrastructure,infrastructure,infrastructure,NOUN,True,False
industry,industry,industry,industry,NOUN,True,False
cii,cii,cii,cii,NOUN,True,False
as,as,as,as,SCONJ,True,True
followsstate,followsstate,followsstate,followsstate,NOUN,True,False
",",",",",",",",PUNCT,False,False
local,local,local,local,ADJ,True,False
government,government,government,government,NOUN,True,False
and,and,and,and,CCONJ,True,True
non,non,non,non,ADJ,True,False
-,-,-,-,ADJ,False,False
government,government,government,government,ADJ,True,False
entity,entity,entity,entity,NOUN,True,False
",",",",",",",",PUNCT,False,False
include,include,include,include,VERB,True,False
utility,utility,utility,utility,NOUN,True,False
",",",",",",",",PUNCT,False,False
railroad,railroad,railroad,railroad,NOUN,True,False
",",",",",",",",PUNCT,False,False
metropolitan,metropolitan,metropolitan,metropolitan,ADJ,True,False
transit,transit,transit,transit,NOUN,True,False
system,system,system,system,NOUN,True,False
",",",",",",",",PUNCT,False,False
pipeline,pipeline,pipeline,pipeline,NOUN,True,False
",",",",",",",",PUNCT,False,False
private,private,private,private,ADJ,True,False
ambulance,ambulance,ambulance,ambulance,NOUN,True,False
",",",",",",",",PUNCT,False,False
volunteer,volunteer,volunteer,volunteer,NOUN,True,False
fire,fire,fire,fire,NOUN,True,False
department,department,department,department,PROPN,True,False
",",",",",",",",PUNCT,False,False
and,and,and,and,CCONJ,True,True
not,not,not,not,PART,True,True
-,-,-,-,PUNCT,False,False
for,for,for,for,ADP,True,True
-,-,-,-,PUNCT,False,False
profit,profit,profit,profit,NOUN,True,False
organization,organization,organization,organization,NOUN,True,False
that,that,that,that,DET,True,True
offer,offer,offer,offer,VERB,True,False
emergency,emergency,emergency,emergency,NOUN,True,False
road,road,road,road,NOUN,True,False
service,service,service,service,NOUN,True,False
",",",",",",",",PUNCT,False,False
provide,provide,provide,provide,VERB,True,False
private,private,private,private,ADJ,True,False
internal,internal,internal,internal,ADJ,True,False
radio,radio,radio,radio,NOUN,True,False
service,service,service,service,NOUN,True,False
provide,provide,provide,provide,VERB,True,False
these,these,these,these,DET,True,True
private,private,private,private,ADJ,True,False
internal,internal,internal,internal,ADJ,True,False
radio,radio,radio,radio,NOUN,True,False
service,service,service,service,NOUN,True,False
be,be,be,be,AUX,True,True
use,use,use,use,NOUN,True,False
to,to,to,to,PART,True,True
protect,protect,protect,protect,VERB,True,False
safety,safety,safety,safety,NOUN,True,False
of,of,of,of,ADP,True,True
life,life,life,life,NOUN,True,False
",",",",",",",",PUNCT,False,False
health,health,health,health,NOUN,True,False
",",",",",",",",PUNCT,False,False
or,or,or,or,CCONJ,True,True
property,property,property,property,NOUN,True,False
and,and,and,and,CCONJ,True,True
be,be,be,be,AUX,True,True
not,not,not,not,PART,True,True
make,make,make,make,VERB,True,True
commercially,commercially,commercially,commercially,ADV,True,False
available,available,available,available,ADJ,True,False
to,to,to,to,ADP,True,True
the,the,the,the,DET,True,True
public,public,public,public,NOUN,True,False
.,.,.,.,PUNCT,False,False
cross,cross,cross,cross,ADJ,True,False
-,-,-,-,NOUN,False,False
reference,reference,reference,reference,VERB,True,False
the,the,the,the,DET,True,True
definition,definition,definition,definition,NOUN,True,False
of,of,of,of,ADP,True,True
critical,critical,critical,critical,ADJ,True,False
access,access,access,access,NOUN,True,False
user,user,user,user,NOUN,True,False
to,to,to,to,ADP,True,True
the,the,the,the,DET,True,True
definition,definition,definition,definition,NOUN,True,False
of,of,of,of,ADP,True,True
criticalinfrastructure,criticalinfrastructure,criticalinfrastructure,criticalinfrastructure,NOUN,True,False
industry,industry,industry,industry,NOUN,True,False
will,will,will,will,VERB,True,True
allow,allow,allow,allow,VERB,True,False
the,the,the,the,DET,True,True
commission,commission,commission,commission,NOUN,True,False
and,and,and,and,CCONJ,True,True
prospective,prospective,prospective,prospective,ADJ,True,False
licensee,licensee,licensee,licensee,NOUN,True,False
to,to,to,to,PART,True,True
rely,rely,rely,rely,VERB,True,False
on,on,on,on,ADP,True,True
analready,analready,analready,analready,PROPN,True,False
accept,accept,accept,accept,PROPN,True,False
",",",",",",",",PUNCT,False,False
and,and,and,and,CCONJ,True,True
congressionally,congressionally,congressionally,congressionally,ADV,True,False
-,-,-,-,PUNCT,False,False
endorse,endorse,endorse,endorse,NOUN,True,False
",",",",",",",",PUNCT,False,False
definition,definition,definition,definition,NOUN,True,False
of,of,of,of,ADP,True,True
the,the,the,the,DET,True,True
type,type,type,type,NOUN,True,False
of,of,of,of,ADP,True,True
entity,entity,entity,entity,NOUN,True,False
for,for,for,for,ADP,True,True
which,which,which,which,DET,True,True
the,the,the,the,DET,True,True
allocation,allocation,allocation,allocation,NOUN,True,False
and,and,and,and,CCONJ,True,True
assignment,assignment,assignment,assignment,NOUN,True,False
of,of,of,of,ADP,True,True
spectrum,spectrum,spectrum,spectrum,NOUN,True,False
for,for,for,for,ADP,True,True
internal,internal,internal,internal,ADJ,True,False
use,use,use,use,NOUN,True,False
be,be,be,be,AUX,True,True
clearly,clearly,clearly,clearly,ADV,True,False
in,in,in,in,ADP,True,True
the,the,the,the,DET,True,True
public,public,public,public,ADJ,True,False
interest,interest,interest,interest,NOUN,True,False
.,.,.,.,PUNCT,False,False
finally,finally,finally,finally,ADV,True,False
",",",",",",",",PUNCT,False,False
and,and,and,and,CCONJ,True,True
whether,whether,whether,whether,SCONJ,True,True
or,or,or,or,CCONJ,True,True
not,not,not,not,PART,True,True
the,the,the,the,DET,True,True
commission,commission,commission,commission,NOUN,True,False
adopt,adopt,adopt,adopt,VERB,True,False
a,a,a,a,DET,True,True
more,more,more,more,ADV,True,True
precise,precise,precise,precise,ADJ,True,False
definition,definition,definition,definition,NOUN,True,False
of,of,of,of,ADP,True,True
theentitie,theentitie,theentitie,theentitie,NOUN,True,False
entitle,entitle,entitle,entitle,ADJ,True,False
to,to,to,to,ADP,True,True
these,these,these,these,DET,True,True
protection,protection,protection,protection,NOUN,True,False
",",",",",",",",PUNCT,False,False
the,the,the,the,DET,True,True
commission,commission,commission,commission,NOUN,True,False
should,should,should,should,VERB,True,True
clarify,clarify,clarify,clarify,VERB,True,False
that,that,that,that,SCONJ,True,True
electric,electric,electric,electric,ADJ,True,False
utility,utility,utility,utility,NOUN,True,False
areeligible,areeligible,areeligible,areeligible,ADJ,True,False
as,as,as,as,SCONJ,True,True
contained,contained,contain,contain,VERB,True,False
access,access,access,access,NOUN,True,False
users,users,user,user,NOUN,True,False
or,or,or,or,CCONJ,True,True
critical,critical,critical,critical,ADJ,True,False
access,access,access,access,NOUN,True,False
user,user,user,user,NOUN,True,False
when,when,when,when,ADV,True,True
operate,operate,operate,operate,VERB,True,False
3.5,3.5,3.5,3.5,NUM,False,False
ghzequipment,ghzequipment,ghzequipment,ghzequipment,NOUN,True,False
at,at,at,at,ADP,True,True
facility,facility,facility,facility,NOUN,True,False
that,that,that,that,DET,True,True
support,support,support,support,VERB,True,False
the,the,the,the,DET,True,True
generation,generation,generation,generation,NOUN,True,False
",",",",",",",",PUNCT,False,False
transmission,transmission,transmission,transmission,NOUN,True,False
or,or,or,or,CCONJ,True,True
distribution,distribution,distribution,distribution,NOUN,True,False
of,of,of,of,ADP,True,True
electric,electric,electric,electric,ADJ,True,False
powerto,powerto,powerto,powerto,NOUN,True,False
the,the,the,the,DET,True,True
public,public,public,public,NOUN,True,False
.,.,.,.,PUNCT,False,False
the,the,the,the,DET,True,True
fnprm,fnprm,fnprm,fnprm,NOUN,True,False
only,only,only,only,ADJ,True,True
state,state,state,state,NOUN,True,False
",",",",",",",",PUNCT,False,False
by,by,by,by,ADP,True,True
way,way,way,way,NOUN,True,False
of,of,of,of,ADP,True,True
example,example,example,example,NOUN,True,False
",",",",",",",",PUNCT,False,False
that,that,that,that,DET,True,True
hospital,hospital,hospital,hospital,NOUN,True,False
",",",",",",",",PUNCT,False,False
public,public,public,public,ADJ,True,False
safetyorganization,safetyorganization,safetyorganization,safetyorganization,NOUN,True,False
",",",",",",",",PUNCT,False,False
and,and,and,and,CCONJ,True,True
local,local,local,local,ADJ,True,False
government,government,government,government,NOUN,True,False
could,could,could,could,VERB,True,True
be,be,be,be,AUX,True,True
consider,consider,consider,consider,VERB,True,False
contained,contained,contain,contain,VERB,True,False
access,access,access,access,NOUN,True,False
users,users,user,user,NOUN,True,False
.,.,.,.,PUNCT,False,False
electricutilitie,electricutilitie,electricutilitie,electricutilitie,VERB,True,False
be,be,be,be,VERB,True,True
among,among,among,among,ADP,True,True
the,the,the,the,DET,True,True
nation,nation,nation,nation,NOUN,True,False
critical,critical,critical,critical,ADJ,True,False
infrastructure,infrastructure,infrastructure,infrastructure,NOUN,True,False
and,and,and,and,CCONJ,True,True
need,need,need,need,VERB,True,False
reliable,reliable,reliable,reliable,ADJ,True,False
and,and,and,and,CCONJ,True,True
secure,secure,secure,secure,ADJ,True,False
communication,communication,communication,communication,NOUN,True,False
to,to,to,to,PART,True,True
carry,carry,carry,carry,VERB,True,False
out,out,out,out,ADP,True,True
their,their,-PRON-,-pron-,DET,True,True
public,public,public,public,ADJ,True,False
service,service,service,service,NOUN,True,False
obligation,obligation,obligation,obligation,NOUN,True,False
.,.,.,.,PUNCT,False,False
the,the,the,the,DET,True,True
record,record,record,record,NOUN,True,False
in,in,in,in,ADP,True,True
this,this,this,this,DET,True,True
docket,docket,docket,docket,NOUN,True,False
already,already,already,already,ADV,True,True
demonstrate,demonstrate,demonstrate,demonstrate,VERB,True,False
that,that,that,that,SCONJ,True,True
utility,utility,utility,utility,NOUN,True,False
have,have,have,have,AUX,True,True
critical,critical,critical,critical,ADJ,True,False
need,need,need,need,NOUN,True,False
for,for,for,for,ADP,True,True
broadband,broadband,broadband,broadband,NOUN,True,False
spectrum,spectrum,spectrum,spectrum,NOUN,True,False
.,.,.,.,PUNCT,False,False
to,to,to,to,PART,True,True
assist,assist,assist,assist,VERB,True,False
southern,southern,southern,southern,ADJ,True,False
and,and,and,and,CCONJ,True,True
other,other,other,other,ADJ,True,True
utility,utility,utility,utility,NOUN,True,False
in,in,in,in,ADP,True,True
planning,planning,planning,planning,NOUN,True,False
for,for,for,for,ADP,True,True
the,the,the,the,DET,True,True
use,use,use,use,NOUN,True,False
of,of,of,of,ADP,True,True
3.5,3.5,3.5,3.5,NUM,False,False
ghz,ghz,ghz,ghz,PROPN,True,False
system,system,system,system,NOUN,True,False
the,the,the,the,DET,True,True
commission,commission,commission,commission,NOUN,True,False
should,should,should,should,VERB,True,True
confirm,confirm,confirm,confirm,VERB,True,False
that,that,that,that,SCONJ,True,True
utility,utility,utility,utility,NOUN,True,False
be,be,be,be,AUX,True,True
eligible,eligible,eligible,eligible,ADJ,True,False
as,as,as,as,SCONJ,True,True
contained,contained,contained,contained,ADJ,True,False
or,or,or,or,CCONJ,True,True
critical,critical,critical,critical,ADJ,True,False
access,access,access,access,NOUN,True,False
user,user,user,user,NOUN,True,False
.,.,.,.,PUNCT,False,False
spectrum,spectrum,spectrum,spectrum,PROPN,True,False
access,access,access,access,PROPN,True,False
systemsto,systemsto,systemsto,systemsto,PROPN,True,False
implement,implement,implement,implement,VERB,True,False
these,these,these,these,DET,True,True
spectrum,spectrum,spectrum,spectrum,NOUN,True,False
share,share,share,share,NOUN,True,False
opportunity,opportunity,opportunity,opportunity,NOUN,True,False
",",",",",",",",PUNCT,False,False
the,the,the,the,DET,True,True
commission,commission,commission,commission,NOUN,True,False
have,have,have,have,AUX,True,True
propose,propose,propose,propose,NOUN,True,False
use,use,use,use,NOUN,True,False
of,of,of,of,ADP,True,True
one,one,one,one,NUM,True,True
or,or,or,or,CCONJ,True,True
more,more,more,more,ADJ,True,True
spectrum,spectrum,spectrum,spectrum,ADJ,True,False
access,access,access,access,NOUN,True,False
systems,systems,system,system,NOUN,True,False
sass,sass,sass,sass,NOUN,True,False
to,to,to,to,PART,True,True
dynamically,dynamically,dynamically,dynamically,ADV,True,False
manage,manage,manage,manage,VERB,True,False
frequency,frequency,frequency,frequency,NOUN,True,False
assignment,assignment,assignment,assignment,NOUN,True,False
and,and,and,and,CCONJ,True,True
automatically,automatically,automatically,automatically,ADV,True,False
enforce,enforce,enforce,enforce,VERB,True,False
priority,priority,priority,priority,NOUN,True,False
access,access,access,access,NOUN,True,False
limitation,limitation,limitation,limitation,NOUN,True,False
and,and,and,and,CCONJ,True,True
interference,interference,interference,interference,NOUN,True,False
protection,protection,protection,protection,NOUN,True,False
.,.,.,.,PUNCT,False,False
southern,southern,southern,southern,ADJ,True,False
strongly,strongly,strongly,strongly,ADV,True,False
support,support,support,support,VERB,True,False
the,the,the,the,DET,True,True
use,use,use,use,NOUN,True,False
of,of,of,of,ADP,True,True
new,new,new,new,ADJ,True,False
technical,technical,technical,technical,ADJ,True,False
solution,solution,solution,solution,NOUN,True,False
to,to,to,to,PART,True,True
promote,promote,promote,promote,VERB,True,False
more,more,more,more,ADJ,True,True
intense,intense,intense,intense,ADJ,True,False
use,use,use,use,NOUN,True,False
of,of,of,of,ADP,True,True
spectrum,spectrum,spectrum,spectrum,NOUN,True,False
",",",",",",",",PUNCT,False,False
and,and,and,and,CCONJ,True,True
therefore,therefore,therefore,therefore,ADV,True,True
support,support,support,support,VERB,True,False
the,the,the,the,DET,True,True
fcc,fcc,fcc,fcc,PROPN,True,False
proposal,proposal,proposal,proposal,NOUN,True,False
to,to,to,to,PART,True,True
use,use,use,use,VERB,True,False
sas,sas,sas,sas,PROPN,True,False
technology,technology,technology,technology,NOUN,True,False
in,in,in,in,ADP,True,True
this,this,this,this,DET,True,True
band,band,band,band,NOUN,True,False
.,.,.,.,PUNCT,False,False
however,however,however,however,ADV,True,True
",",",",",",",",PUNCT,False,False
because,because,because,because,SCONJ,True,True
this,this,this,this,DET,True,True
be,be,be,be,AUX,True,True
a,a,a,a,DET,True,True
new,new,new,new,ADJ,True,False
concept,concept,concept,concept,NOUN,True,False
in,in,in,in,ADP,True,True
dynamic,dynamic,dynamic,dynamic,PROPN,True,False
spectrum,spectrum,spectrum,spectrum,PROPN,True,False
management,management,management,management,PROPN,True,False
southern,southern,southern,southern,PROPN,True,False
urge,urge,urge,urge,VERB,True,False
the,the,the,the,DET,True,True
commission,commission,commission,commission,NOUN,True,False
to,to,to,to,PART,True,True
implement,implement,implement,implement,VERB,True,False
a,a,a,a,DET,True,True
comprehensive,comprehensive,comprehensive,comprehensive,ADJ,True,False
approval,approval,approval,approval,NOUN,True,False
process,process,process,process,NOUN,True,False
for,for,for,for,ADP,True,True
sass,sass,sass,sass,NOUN,True,False
and,and,and,and,CCONJ,True,True
sas,sas,sas,sas,PROPN,True,False
administrators,administrators,administrator,administrator,NOUN,True,False
similar,similar,similar,similar,ADJ,True,False
to,to,to,to,ADP,True,True
what,what,what,what,PRON,True,True
be,be,be,be,AUX,True,True
use,use,use,use,NOUN,True,False
in,in,in,in,ADP,True,True
approve,approve,approve,approve,VERB,True,False
tv,tv,tv,tv,NOUN,True,False
white,white,white,white,PROPN,True,False
space,space,space,space,PROPN,True,False
tvws,tvws,tvws,tvws,PROPN,True,False
database,database,database,database,PROPN,True,False
administrator,administrator,administrator,administrator,NOUN,True,False
.,.,.,.,PUNCT,False,False
user,user,user,user,NOUN,True,False
of,of,of,of,ADP,True,True
the,the,the,the,DET,True,True
band,band,band,band,NOUN,True,False
",",",",",",",",PUNCT,False,False
as,as,as,as,ADV,True,True
well,well,well,well,ADV,True,True
as,as,as,as,SCONJ,True,True
equipment,equipment,equipment,equipment,NOUN,True,False
developer,developer,developer,developer,NOUN,True,False
",",",",",",",",PUNCT,False,False
must,must,must,must,VERB,True,True
have,have,have,have,AUX,True,True
confidence,confidence,confidence,confidence,NOUN,True,False
that,that,that,that,SCONJ,True,True
the,the,the,the,DET,True,True
sass,sass,sass,sass,NOUN,True,False
will,will,will,will,VERB,True,True
operate,operate,operate,operate,VERB,True,False
as,as,as,as,SCONJ,True,True
design,design,design,design,NOUN,True,False
so,so,so,so,SCONJ,True,True
that,that,that,that,SCONJ,True,True
interference,interference,interference,interference,NOUN,True,False
will,will,will,will,VERB,True,True
be,be,be,be,AUX,True,True
avoid,avoid,avoid,avoid,VERB,True,False
or,or,or,or,CCONJ,True,True
mitigate,mitigate,mitigate,mitigate,VERB,True,False
appropriately,appropriately,appropriately,appropriately,ADV,True,False
and,and,and,and,CCONJ,True,True
so,so,so,so,ADV,True,True
that,that,that,that,DET,True,True
prioritization,prioritization,prioritization,prioritization,NOUN,True,False
will,will,will,will,VERB,True,True
be,be,be,be,AUX,True,True
honor,honor,honor,honor,NOUN,True,False
as,as,as,as,SCONJ,True,True
contemplate,contemplate,contemplate,contemplate,VERB,True,False
in,in,in,in,ADP,True,True
the,the,the,the,DET,True,True
rule,rule,rule,rule,NOUN,True,False
.,.,.,.,PUNCT,False,False
southern,southern,southern,southern,ADJ,True,False
support,support,support,support,VERB,True,False
the,the,the,the,DET,True,True
use,use,use,use,NOUN,True,False
of,of,of,of,ADP,True,True
census,census,census,census,NOUN,True,False
tract,tract,tract,tract,NOUN,True,False
to,to,to,to,PART,True,True
define,define,define,define,VERB,True,False
the,the,the,the,DET,True,True
geographic,geographic,geographic,geographic,ADJ,True,False
license,license,license,license,NOUN,True,False
area,area,area,area,NOUN,True,False
use,use,use,use,NOUN,True,False
for,for,for,for,ADP,True,True
priority,priority,priority,priority,NOUN,True,False
access,access,access,access,NOUN,True,False
licenses,licenses,license,license,NOUN,True,False
and,and,and,and,CCONJ,True,True
operation,operation,operation,operation,NOUN,True,False
of,of,of,of,ADP,True,True
the,the,the,the,DET,True,True
sas,sas,sas,sas,PROPN,True,False
.,.,.,.,PUNCT,False,False
large,large,large,large,ADJ,True,False
geographic,geographic,geographic,geographic,ADJ,True,False
area,area,area,area,NOUN,True,False
",",",",",",",",PUNCT,False,False
such,such,such,such,ADJ,True,True
as,as,as,as,SCONJ,True,True
basiceconomic,basiceconomic,basiceconomic,basiceconomic,ADJ,True,False
areas,areas,area,area,NOUN,True,False
",",",",",",",",PUNCT,False,False
usually,usually,usually,usually,ADV,True,False
do,do,do,do,AUX,True,True
not,not,not,not,PART,True,True
correspond,correspond,correspond,correspond,VERB,True,False
to,to,to,to,ADP,True,True
a,a,a,a,DET,True,True
utilitys,utilitys,utilitys,utilitys,PROPN,True,False
service,service,service,service,NOUN,True,False
area,area,area,area,NOUN,True,False
",",",",",",",",PUNCT,False,False
make,make,make,make,VERB,True,True
it,it,-PRON-,-pron-,PRON,True,True
very,very,very,very,ADV,True,True
difficult,difficult,difficult,difficult,ADJ,True,False
for,for,for,for,ADP,True,True
a,a,a,a,DET,True,True
utility,utility,utility,utility,NOUN,True,False
to,to,to,to,PART,True,True
acquire,acquire,acquire,acquire,VERB,True,False
spectrum,spectrum,spectrum,spectrum,NOUN,True,False
right,right,right,right,ADV,True,False
at,at,at,at,ADP,True,True
auction,auction,auction,auction,NOUN,True,False
",",",",",",",",PUNCT,False,False
even,even,even,even,ADV,True,True
if,if,if,if,SCONJ,True,True
it,it,-PRON-,-pron-,PRON,True,True
be,be,be,be,AUX,True,True
able,able,able,able,ADJ,True,False
to,to,to,to,PART,True,True
outbid,outbid,outbid,outbid,VERB,True,False
commercial,commercial,commercial,commercial,ADJ,True,False
carrier,carrier,carrier,carrier,NOUN,True,False
.,.,.,.,PUNCT,False,False
base,base,base,base,NOUN,True,False
pal,pal,pal,pal,ADJ,True,False
license,license,license,license,NOUN,True,False
on,on,on,on,ADP,True,True
census,census,census,census,NOUN,True,False
block,block,block,block,NOUN,True,False
would,would,would,would,VERB,True,True
allow,allow,allow,allow,VERB,True,False
utility,utility,utility,utility,NOUN,True,False
and,and,and,and,CCONJ,True,True
other,other,other,other,ADJ,True,True
enterprise,enterprise,enterprise,enterprise,NOUN,True,False
user,user,user,user,NOUN,True,False
a,a,a,a,DET,True,True
well,well,well,well,ADJ,True,True
opportunity,opportunity,opportunity,opportunity,NOUN,True,False
to,to,to,to,PART,True,True
acquire,acquire,acquire,acquire,VERB,True,False
priority,priority,priority,priority,NOUN,True,False
right,right,right,right,ADV,True,False
where,where,where,where,ADV,True,True
they,they,-PRON-,-pron-,PRON,True,True
be,be,be,be,VERB,True,True
need,need,need,need,VERB,True,False
most,most,most,most,ADV,True,True
.,.,.,.,PUNCT,False,False
retain,retain,retain,retain,VERB,True,False
the,the,the,the,DET,True,True
36503700,36503700,36503700,36503700,NUM,False,False
mhz,mhz,mhz,mhz,PROPN,True,False
band,band,band,band,NOUN,True,False
for,for,for,for,ADP,True,True
higher,higher,high,high,ADJ,True,False
-,-,-,-,PUNCT,False,False
power,power,power,power,NOUN,True,False
part,part,part,part,NOUN,True,True
90,90,90,90,NUM,False,False
operationsin,operationsin,operationsin,operationsin,NOUN,True,False
the,the,the,the,DET,True,True
2012,2012,2012,2012,NUM,False,False
notice,notice,notice,notice,NOUN,True,False
of,of,of,of,ADP,True,True
proposed,proposed,propose,propose,VERB,True,False
rulemaking,rulemaking,rulemaking,rulemaking,NOUN,True,False
in,in,in,in,ADP,True,True
this,this,this,this,DET,True,True
docket,docket,docket,docket,NOUN,True,False
",",",",",",",",PUNCT,False,False
the,the,the,the,DET,True,True
commission,commission,commission,commission,NOUN,True,False
propose,propose,propose,propose,NOUN,True,False
tomerge,tomerge,tomerge,tomerge,VERB,True,False
the,the,the,the,DET,True,True
3650,3650,3650,3650,NUM,False,False
-,-,-,-,SYM,False,False
3700,3700,3700,3700,NUM,False,False
mhz,mhz,mhz,mhz,PROPN,True,False
band,band,band,band,NOUN,True,False
with,with,with,with,ADP,True,True
the,the,the,the,DET,True,True
35503650,35503650,35503650,35503650,NUM,False,False
mhz,mhz,mhz,mhz,PROPN,True,False
band,band,band,band,NOUN,True,False
to,to,to,to,PART,True,True
allocate,allocate,allocate,allocate,VERB,True,False
a,a,a,a,DET,True,True
total,total,total,total,NOUN,True,False
of,of,of,of,ADP,True,True
150,150,150,150,NUM,False,False
mhzof,mhzof,mhzof,mhzof,NOUN,True,False
bandwidth,bandwidth,bandwidth,bandwidth,NOUN,True,False
to,to,to,to,ADP,True,True
the,the,the,the,DET,True,True
cbrs,cbrs,cbr,cbr,NOUN,True,False
.,.,.,.,PUNCT,False,False
the,the,the,the,DET,True,True
commission,commission,commission,commission,NOUN,True,False
note,note,note,note,VERB,True,False
that,that,that,that,SCONJ,True,True
the,the,the,the,DET,True,True
3650,3650,3650,3650,NUM,False,False
-,-,-,-,SYM,False,False
3700,3700,3700,3700,NUM,False,False
mhz,mhz,mhz,mhz,PROPN,True,False
band,band,band,band,NOUN,True,False
be,be,be,be,AUX,True,True
license,license,license,license,NOUN,True,False
ona,ona,ona,ona,PROPN,True,False
light,light,light,light,PROPN,True,False
licensed,licensed,licensed,licensed,ADJ,True,False
basis,basis,basis,basis,NOUN,True,False
under,under,under,under,ADP,True,True
part,part,part,part,NOUN,True,True
90,90,90,90,NUM,False,False
and,and,and,and,CCONJ,True,True
be,be,be,be,AUX,True,True
use,use,use,use,NOUN,True,False
by,by,by,by,ADP,True,True
licensee,licensee,licensee,licensee,NOUN,True,False
to,to,to,to,PART,True,True
provide,provide,provide,provide,VERB,True,False
a,a,a,a,DET,True,True
variety,variety,variety,variety,NOUN,True,False
of,of,of,of,ADP,True,True
importantservice,importantservice,importantservice,importantservice,NOUN,True,False
to,to,to,to,ADP,True,True
utility,utility,utility,utility,NOUN,True,False
company,company,company,company,NOUN,True,False
",",",",",",",",PUNCT,False,False
public,public,public,public,ADJ,True,False
safety,safety,safety,safety,NOUN,True,False
entity,entity,entity,entity,NOUN,True,False
",",",",",",",",PUNCT,False,False
business,business,business,business,NOUN,True,False
",",",",",",",",PUNCT,False,False
and,and,and,and,CCONJ,True,True
consumer,consumer,consumer,consumer,NOUN,True,False
.,.,.,.,PUNCT,False,False
at,at,at,at,ADP,True,True
the,the,the,the,DET,True,True
sametime,sametime,sametime,sametime,NOUN,True,False
",",",",",",",",PUNCT,False,False
the,the,the,the,DET,True,True
commission,commission,commission,commission,NOUN,True,False
note,note,note,note,NOUN,True,False
that,that,that,that,SCONJ,True,True
dedicated,dedicated,dedicated,dedicated,ADJ,True,False
spectrum,spectrum,spectrum,spectrum,NOUN,True,False
be,be,be,be,VERB,True,True
in,in,in,in,ADP,True,True
short,short,short,short,ADJ,True,False
supply,supply,supply,supply,NOUN,True,False
and,and,and,and,CCONJ,True,True
that,that,that,that,SCONJ,True,True
it,it,-PRON-,-pron-,PRON,True,True
seemedunlikely,seemedunlikely,seemedunlikely,seemedunlikely,ADV,True,False
that,that,that,that,SCONJ,True,True
enough,enough,enough,enough,ADJ,True,True
spectrum,spectrum,spectrum,spectrum,NOUN,True,False
could,could,could,could,VERB,True,True
be,be,be,be,AUX,True,True
free,free,free,free,ADJ,True,False
to,to,to,to,PART,True,True
meet,meet,meet,meet,VERB,True,False
the,the,the,the,DET,True,True
escalate,escalate,escalate,escalate,NOUN,True,False
need,need,need,need,NOUN,True,False
of,of,of,of,ADP,True,True
mission,mission,mission,mission,NOUN,True,False
criticaluser,criticaluser,criticaluser,criticaluser,NOUN,True,False
such,such,such,such,ADJ,True,True
as,as,as,as,SCONJ,True,True
utility,utility,utility,utility,NOUN,True,False
.,.,.,.,PUNCT,False,False
the,the,the,the,DET,True,True
commission,commission,commission,commission,NOUN,True,False
therefore,therefore,therefore,therefore,ADV,True,True
propose,propose,propose,propose,VERB,True,False
to,to,to,to,PART,True,True
afford,afford,afford,afford,VERB,True,False
priority,priority,priority,priority,NOUN,True,False
access,access,access,access,NOUN,True,False
status,status,status,status,NOUN,True,False
todevice,todevice,todevice,todevice,NOUN,True,False
operate,operate,operate,operate,VERB,True,False
by,by,by,by,ADP,True,True
these,these,these,these,DET,True,True
critical,critical,critical,critical,ADJ,True,False
user,user,user,user,NOUN,True,False
in,in,in,in,ADP,True,True
the,the,the,the,DET,True,True
3550,3550,3550,3550,NUM,False,False
-,-,-,-,SYM,False,False
3650,3650,3650,3650,NUM,False,False
mhz,mhz,mhz,mhz,PROPN,True,False
band,band,band,band,NOUN,True,False
.,.,.,.,PUNCT,False,False
combine,combine,combine,combine,VERB,True,False
the,the,the,the,DET,True,True
3550,3550,3550,3550,NUM,False,False
-,-,-,-,SYM,False,False
3650mhz,3650mhz,3650mhz,3650mhz,NOUN,False,False
band,band,band,band,NOUN,True,False
with,with,with,with,ADP,True,True
the,the,the,the,DET,True,True
3650,3650,3650,3650,NUM,False,False
-,-,-,-,SYM,False,False
3700,3700,3700,3700,NUM,False,False
mhz,mhz,mhz,mhz,NOUN,True,False
would,would,would,would,VERB,True,True
create,create,create,create,VERB,True,False
150,150,150,150,NUM,False,False
mhz,mhz,mhz,mhz,NOUN,True,False
of,of,of,of,ADP,True,True
contiguous,contiguous,contiguous,contiguous,ADJ,True,False
bandwidth,bandwidth,bandwidth,bandwidth,NOUN,True,False
for,for,for,for,ADP,True,True
theseoperation,theseoperation,theseoperation,theseoperation,NOUN,True,False
.,.,.,.,PUNCT,False,False
utility,utility,utility,utility,NOUN,True,False
and,and,and,and,CCONJ,True,True
other,other,other,other,ADJ,True,True
operate,operate,operate,operate,NOUN,True,False
in,in,in,in,ADP,True,True
the,the,the,the,DET,True,True
3650,3650,3650,3650,NUM,False,False
-,-,-,-,SYM,False,False
3700,3700,3700,3700,NUM,False,False
mhz,mhz,mhz,mhz,PROPN,True,False
band,band,band,band,NOUN,True,False
generally,generally,generally,generally,ADV,True,False
support,support,support,support,VERB,True,False
theseproposal,theseproposal,theseproposal,theseproposal,NOUN,True,False
because,because,because,because,SCONJ,True,True
they,they,-PRON-,-pron-,PRON,True,True
would,would,would,would,VERB,True,True
have,have,have,have,AUX,True,True
afford,afford,afford,afford,VERB,True,False
them,them,-PRON-,-pron-,PRON,True,True
great,great,great,great,ADJ,True,False
access,access,access,access,NOUN,True,False
to,to,to,to,ADP,True,True
much,much,much,much,ADJ,True,True
-,-,-,-,PUNCT,False,False
need,need,need,need,NOUN,True,False
spectrum,spectrum,spectrum,spectrum,NOUN,True,False
formission,formission,formission,formission,NOUN,True,False
critical,critical,critical,critical,ADJ,True,False
communication,communication,communication,communication,NOUN,True,False
",",",",",",",",PUNCT,False,False
include,include,include,include,VERB,True,False
smart,smart,smart,smart,ADJ,True,False
grid,grid,grid,grid,NOUN,True,False
.,.,.,.,PUNCT,False,False
in,in,in,in,ADP,True,True
the,the,the,the,DET,True,True
fnprm,fnprm,fnprm,fnprm,NOUN,True,False
the,the,the,the,DET,True,True
commission,commission,commission,commission,NOUN,True,False
have,have,have,have,AUX,True,True
now,now,now,now,ADV,True,True
propose,propose,propose,propose,VERB,True,False
to,to,to,to,ADP,True,True
auction,auction,auction,auction,NOUN,True,False
priority,priority,priority,priority,NOUN,True,False
access,access,access,access,NOUN,True,False
licenses,licenses,license,license,NOUN,True,False
without,without,without,without,ADP,True,True
reserve,reserve,reserve,reserve,NOUN,True,False
any,any,any,any,DET,True,True
spectrum,spectrum,spectrum,spectrum,NOUN,True,False
for,for,for,for,ADP,True,True
mission,mission,mission,mission,NOUN,True,False
critical,critical,critical,critical,ADJ,True,False
service,service,service,service,NOUN,True,False
.,.,.,.,PUNCT,False,False
southern,southern,southern,southern,ADJ,True,False
therefore,therefore,therefore,therefore,ADV,True,True
oppose,oppose,oppose,oppose,VERB,True,False
theproposal,theproposal,theproposal,theproposal,NOUN,True,False
to,to,to,to,PART,True,True
reallocate,reallocate,reallocate,reallocate,VERB,True,False
the,the,the,the,DET,True,True
3650,3650,3650,3650,NUM,False,False
-,-,-,-,SYM,False,False
3700,3700,3700,3700,NUM,False,False
mhz,mhz,mhz,mhz,PROPN,True,False
band,band,band,band,NOUN,True,False
from,from,from,from,ADP,True,True
part,part,part,part,NOUN,True,True
90,90,90,90,NUM,False,False
and,and,and,and,CCONJ,True,True
make,make,make,make,VERB,True,True
it,it,-PRON-,-pron-,PRON,True,True
part,part,part,part,NOUN,True,True
of,of,of,of,ADP,True,True
the,the,the,the,DET,True,True
cbrs,cbrs,cbr,cbr,NOUN,True,False
",",",",",",",",PUNCT,False,False
which,which,which,which,DET,True,True
would,would,would,would,VERB,True,True
far,far,far,far,ADV,True,False
reduce,reduce,reduce,reduce,VERB,True,False
the,the,the,the,DET,True,True
amount,amount,amount,amount,NOUN,True,True
and,and,and,and,CCONJ,True,True
kind,kind,kind,kind,ADV,True,False
of,of,of,of,ADV,True,True
spectrum,spectrum,spectrum,spectrum,NOUN,True,False
available,available,available,available,ADJ,True,False
to,to,to,to,ADP,True,True
utility,utility,utility,utility,NOUN,True,False
for,for,for,for,ADP,True,True
mission,mission,mission,mission,NOUN,True,False
critical,critical,critical,critical,ADJ,True,False
service,service,service,service,NOUN,True,False
",",",",",",",",PUNCT,False,False
include,include,include,include,VERB,True,False
advanced,advanced,advanced,advanced,ADJ,True,False
metering,metering,metering,metering,NOUN,True,False
service,service,service,service,NOUN,True,False
.,.,.,.,PUNCT,False,False
southern,southern,southern,southern,ADJ,True,False
note,note,note,note,NOUN,True,False
that,that,that,that,SCONJ,True,True
the,the,the,the,DET,True,True
3650,3650,3650,3650,NUM,False,False
-,-,-,-,SYM,False,False
3700,3700,3700,3700,NUM,False,False
mhz,mhz,mhz,mhz,PROPN,True,False
band,band,band,band,NOUN,True,False
can,can,can,can,VERB,True,True
be,be,be,be,AUX,True,True
use,use,use,use,NOUN,True,False
for,for,for,for,ADP,True,True
high,high,high,high,ADJ,True,False
power,power,power,power,NOUN,True,False
operation,operation,operation,operation,NOUN,True,False
than,than,than,than,SCONJ,True,True
would,would,would,would,VERB,True,True
be,be,be,be,AUX,True,True
permit,permit,permit,permit,NOUN,True,False
for,for,for,for,ADP,True,True
cbsds,cbsds,cbsds,cbsds,PROPN,True,False
.,.,.,.,PUNCT,False,False
for,for,for,for,ADP,True,True
smart,smart,smart,smart,PROPN,True,False
grid,grid,grid,grid,PROPN,True,False
and,and,and,and,CCONJ,True,True
other,other,other,other,ADJ,True,True
utility,utility,utility,utility,NOUN,True,False
application,application,application,application,NOUN,True,False
",",",",",",",",PUNCT,False,False
small,small,small,small,ADJ,True,False
-,-,-,-,PUNCT,False,False
cell,cell,cell,cell,NOUN,True,False
deployment,deployment,deployment,deployment,NOUN,True,False
would,would,would,would,VERB,True,True
be,be,be,be,AUX,True,True
expensive,expensive,expensive,expensive,ADJ,True,False
and,and,and,and,CCONJ,True,True
problematic,problematic,problematic,problematic,ADJ,True,False
to,to,to,to,PART,True,True
implement,implement,implement,implement,VERB,True,False
.,.,.,.,PUNCT,False,False
southern,southern,southern,southern,ADJ,True,False
therefore,therefore,therefore,therefore,ADV,True,True
urge,urge,urge,urge,VERB,True,False
the,the,the,the,DET,True,True
commission,commission,commission,commission,NOUN,True,False
to,to,to,to,PART,True,True
retain,retain,retain,retain,VERB,True,False
the,the,the,the,DET,True,True
3650,3650,3650,3650,NUM,False,False
-,-,-,-,SYM,False,False
3700,3700,3700,3700,NUM,False,False
mhz,mhz,mhz,mhz,PROPN,True,False
band,band,band,band,NOUN,True,False
for,for,for,for,ADP,True,True
light,light,light,light,ADJ,True,False
license,license,license,license,NOUN,True,False
operation,operation,operation,operation,NOUN,True,False
under,under,under,under,ADP,True,True
part,part,part,part,NOUN,True,True
90,90,90,90,NUM,False,False
so,so,so,so,SCONJ,True,True
that,that,that,that,SCONJ,True,True
it,it,-PRON-,-pron-,PRON,True,True
can,can,can,can,VERB,True,True
be,be,be,be,AUX,True,True
use,use,use,use,NOUN,True,False
to,to,to,to,PART,True,True
meet,meet,meet,meet,VERB,True,False
mission,mission,mission,mission,NOUN,True,False
critical,critical,critical,critical,ADJ,True,False
application,application,application,application,NOUN,True,False
.,.,.,.,PUNCT,False,False
conclusionsouthern,conclusionsouthern,conclusionsouthern,conclusionsouthern,PROPN,True,False
generally,generally,generally,generally,ADV,True,False
support,support,support,support,VERB,True,False
the,the,the,the,DET,True,True
commissions,commissions,commission,commission,NOUN,True,False
proposal,proposal,proposal,proposal,NOUN,True,False
for,for,for,for,ADP,True,True
a,a,a,a,DET,True,True
three,three,three,three,NUM,True,True
-,-,-,-,PUNCT,False,False
tier,tier,tier,tier,NOUN,True,False
authorizationframework,authorizationframework,authorizationframework,authorizationframework,NOUN,True,False
for,for,for,for,ADP,True,True
the,the,the,the,DET,True,True
3550,3550,3550,3550,NUM,False,False
-,-,-,-,SYM,False,False
3650,3650,3650,3650,NUM,False,False
mhz,mhz,mhz,mhz,PROPN,True,False
band,band,band,band,NOUN,True,False
.,.,.,.,PUNCT,False,False
however,however,however,however,ADV,True,True
",",",",",",",",PUNCT,False,False
southern,southern,southern,southern,PROPN,True,False
prefer,prefer,prefer,prefer,VERB,True,False
the,the,the,the,DET,True,True
commissions,commissions,commission,commission,NOUN,True,False
early,early,early,early,ADJ,True,False
proposal,proposal,proposal,proposal,NOUN,True,False
to,to,to,to,PART,True,True
limit,limit,limit,limit,VERB,True,False
priority,priority,priority,priority,NOUN,True,False
access,access,access,access,NOUN,True,False
to,to,to,to,ADP,True,True
utility,utility,utility,utility,NOUN,True,False
and,and,and,and,CCONJ,True,True
other,other,other,other,ADJ,True,True
entity,entity,entity,entity,NOUN,True,False
have,have,have,have,AUX,True,True
need,need,nee,nee,VERB,True,False
for,for,for,for,ADP,True,True
reliable,reliable,reliable,reliable,ADJ,True,False
",",",",",",",",PUNCT,False,False
prioritize,prioritize,prioritize,prioritize,VERB,True,False
access,access,access,access,NOUN,True,False
",",",",",",",",PUNCT,False,False
consistent,consistent,consistent,consistent,ADJ,True,False
with,with,with,with,ADP,True,True
the,the,the,the,DET,True,True
commission,commission,commission,commission,NOUN,True,False
obligation,obligation,obligation,obligation,NOUN,True,False
to,to,to,to,PART,True,True
promote,promote,promote,promote,VERB,True,False
use,use,use,use,NOUN,True,False
of,of,of,of,ADP,True,True
communication,communication,communication,communication,NOUN,True,False
to,to,to,to,PART,True,True
promote,promote,promote,promote,VERB,True,False
safety,safety,safety,safety,NOUN,True,False
of,of,of,of,ADP,True,True
life,life,life,life,NOUN,True,False
and,and,and,and,CCONJ,True,True
property,property,property,property,NOUN,True,False
.,.,.,.,PUNCT,False,False
southern,southern,southern,southern,ADJ,True,False
recommend,recommend,recommend,recommend,NOUN,True,False
that,that,that,that,SCONJ,True,True
the,the,the,the,DET,True,True
provision,provision,provision,provision,NOUN,True,False
on,on,on,on,ADP,True,True
contained,contained,contained,contained,ADJ,True,False
access,access,access,access,NOUN,True,False
be,be,be,be,AUX,True,True
expand,expand,expand,expand,VERB,True,False
to,to,to,to,PART,True,True
encompass,encompass,encompass,encompass,VERB,True,False
any,any,any,any,DET,True,True
control,control,control,control,NOUN,True,False
-,-,-,-,PUNCT,False,False
access,access,access,access,NOUN,True,False
facility,facility,facility,facility,NOUN,True,False
use,use,use,use,NOUN,True,False
by,by,by,by,ADP,True,True
critical,critical,critical,critical,ADJ,True,False
infrastructure,infrastructure,infrastructure,infrastructure,NOUN,True,False
industry,industry,industry,industry,NOUN,True,False
.,.,.,.,PUNCT,False,False
southern,southern,southern,southern,PROPN,True,False
also,also,also,also,ADV,True,True
urge,urge,urge,urge,VERB,True,False
thorough,thorough,thorough,thorough,ADJ,True,False
testing,testing,testing,testing,NOUN,True,False
of,of,of,of,ADP,True,True
the,the,the,the,DET,True,True
sas,sas,sas,sas,PROPN,True,False
",",",",",",",",PUNCT,False,False
which,which,which,which,DET,True,True
will,will,will,will,VERB,True,True
be,be,be,be,AUX,True,True
key,key,key,key,ADJ,True,False
to,to,to,to,PART,True,True
optimize,optimize,optimize,optimize,VERB,True,False
the,the,the,the,DET,True,True
use,use,use,use,NOUN,True,False
of,of,of,of,ADP,True,True
the,the,the,the,DET,True,True
3.5,3.5,3.5,3.5,NUM,False,False
ghz,ghz,ghz,ghz,PROPN,True,False
band,band,band,band,NOUN,True,False
and,and,and,and,CCONJ,True,True
ensure,ensure,ensure,ensure,VERB,True,False
proper,proper,proper,proper,ADJ,True,False
implementation,implementation,implementation,implementation,NOUN,True,False
of,of,of,of,ADP,True,True
prioritization,prioritization,prioritization,prioritization,NOUN,True,False
.,.,.,.,PUNCT,False,False
finally,finally,finally,finally,ADV,True,False
",",",",",",",",PUNCT,False,False
southern,southern,southern,southern,ADJ,True,False
recommend,recommend,recommend,recommend,NOUN,True,False
that,that,that,that,SCONJ,True,True
the,the,the,the,DET,True,True
3650,3650,3650,3650,NUM,False,False
-,-,-,-,SYM,False,False
3700,3700,3700,3700,NUM,False,False
mhz,mhz,mhz,mhz,PROPN,True,False
band,band,band,band,NOUN,True,False
be,be,be,be,AUX,True,True
retain,retain,retain,retain,NOUN,True,False
for,for,for,for,ADP,True,True
high,high,high,high,ADJ,True,False
-,-,-,-,PUNCT,False,False
power,power,power,power,NOUN,True,False
operation,operation,operation,operation,NOUN,True,False
under,under,under,under,ADP,True,True
part,part,part,part,NOUN,True,True
90.wherefore,90.wherefore,90.wherefore,90.wherefore,NUM,False,False
",",",",",",",",PUNCT,False,False
the,the,the,the,DET,True,True
premises,premises,premise,premise,NOUN,True,False
considered,considered,consider,consider,VERB,True,False
",",",",",",",",PUNCT,False,False
southern,southern,southern,southern,ADJ,True,False
company,company,company,company,NOUN,True,False
services,services,service,service,NOUN,True,False
",",",",",",",",PUNCT,False,False
inc,inc,inc,inc,PROPN,True,False
.,.,.,.,PROPN,False,False
respectfully,respectfully,respectfully,respectfully,ADV,True,False
request,request,request,request,VERB,True,False
that,that,that,that,SCONJ,True,True
the,the,the,the,DET,True,True
commission,commission,commission,commission,NOUN,True,False
adopt,adopt,adopt,adopt,VERB,True,False
final,final,final,final,ADJ,True,False
rule,rule,rule,rule,NOUN,True,False
in,in,in,in,ADP,True,True
this,this,this,this,DET,True,True
docket,docket,docket,docket,NOUN,True,False
consistent,consistent,consistent,consistent,ADJ,True,False
with,with,with,with,ADP,True,True
the,the,the,the,DET,True,True
view,view,view,view,PROPN,True,False
express,express,express,express,PROPN,True,False
herein,herein,herein,herein,PROPN,True,True
.,.,.,.,PUNCT,False,False
