text,text_lower,lemma,lemma_lower,part_of_speech,is_alphabet,is_stopword
sony,sony,sony,sony,PROPN,True,False
electronics,electronics,electronics,electronics,PROPN,True,False
inc,inc,inc,inc,PROPN,True,False
.,.,.,.,PROPN,False,False
sony,sony,sony,sony,PROPN,True,False
respectfully,respectfully,respectfully,respectfully,ADV,True,False
submit,submit,submit,submit,VERB,True,False
the,the,the,the,DET,True,True
follow,follow,follow,follow,ADJ,True,False
comment,comment,comment,comment,NOUN,True,False
on,on,on,on,ADP,True,True
the,the,the,the,DET,True,True
further,further,further,further,ADJ,True,True
notice,notice,notice,notice,NOUN,True,False
of,of,of,of,ADP,True,True
proposed,proposed,propose,propose,VERB,True,False
rulemaking,rulemaking,rulemaking,rulemaking,NOUN,True,False
in,in,in,in,ADP,True,True
the,the,the,the,DET,True,True
above,above,above,above,ADV,True,True
-,-,-,-,PUNCT,False,False
referenced,referenced,referenced,referenced,ADJ,True,False
proceeding,proceeding,proceeding,proceeding,NOUN,True,False
.,.,.,.,PUNCT,False,False
frequency,frequency,frequency,frequency,NOUN,True,False
assignments,assignments,assignment,assignment,NOUN,True,False
96.13,96.13,96.13,96.13,NUM,False,False
in,in,in,in,ADP,True,True
order,order,order,order,NOUN,True,False
to,to,to,to,PART,True,True
balance,balance,balance,balance,VERB,True,False
the,the,the,the,DET,True,True
need,need,need,need,NOUN,True,False
of,of,of,of,ADP,True,True
priority,priority,priority,priority,NOUN,True,False
access,access,access,access,NOUN,True,False
licensees,licensees,licensee,licensee,NOUN,True,False
pal,pal,pal,pal,NOUN,True,False
and,and,and,and,CCONJ,True,True
general,general,general,general,ADJ,True,False
authorized,authorized,authorized,authorized,ADJ,True,False
access,access,access,access,NOUN,True,False
gaa,gaa,gaa,gaa,NOUN,True,False
user,user,user,user,NOUN,True,False
",",",",",",",",PUNCT,False,False
to,to,to,to,PART,True,True
foster,foster,foster,foster,VERB,True,False
a,a,a,a,DET,True,True
robust,robust,robust,robust,ADJ,True,False
gaa,gaa,gaa,gaa,NOUN,True,False
ecosystem,ecosystem,ecosystem,ecosystem,NOUN,True,False
",",",",",",",",PUNCT,False,False
and,and,and,and,CCONJ,True,True
to,to,to,to,PART,True,True
promote,promote,promote,promote,VERB,True,False
efficient,efficient,efficient,efficient,ADJ,True,False
spectrum,spectrum,spectrum,spectrum,NOUN,True,False
use,use,use,use,NOUN,True,False
",",",",",",",",PUNCT,False,False
the,the,the,the,DET,True,True
commission,commission,commission,commission,NOUN,True,False
have,have,have,have,AUX,True,True
propose,propose,propose,propose,NOUN,True,False
rule,rule,rule,rule,NOUN,True,False
that,that,that,that,DET,True,True
would,would,would,would,VERB,True,True
require,require,require,require,VERB,True,False
the,the,the,the,DET,True,True
spectrum,spectrum,spectrum,spectrum,PROPN,True,False
access,access,access,access,NOUN,True,False
system,system,system,system,NOUN,True,False
sas,sas,sas,sas,PROPN,True,False
to,to,to,to,PART,True,True
dynamically,dynamically,dynamically,dynamically,ADV,True,False
assign,assign,assign,assign,VERB,True,False
pal,pal,pal,pal,PROPN,True,False
channel,channel,channel,channel,PROPN,True,False
and,and,and,and,CCONJ,True,True
gaa,gaa,gaa,gaa,NOUN,True,False
bandwidth,bandwidth,bandwidth,bandwidth,NOUN,True,False
in,in,in,in,ADP,True,True
real,real,real,real,ADJ,True,False
time,time,time,time,NOUN,True,False
in,in,in,in,ADP,True,True
any,any,any,any,DET,True,True
give,give,give,give,VERB,True,True
geographic,geographic,geographic,geographic,ADJ,True,False
area,area,area,area,NOUN,True,False
.,.,.,.,PUNCT,False,False
after,after,after,after,ADP,True,True
account,account,account,account,NOUN,True,False
for,for,for,for,ADP,True,True
usage,usage,usage,usage,NOUN,True,False
by,by,by,by,ADP,True,True
any,any,any,any,DET,True,True
incumbent,incumbent,incumbent,incumbent,NOUN,True,False
and,and,and,and,CCONJ,True,True
pal,pal,pal,pal,NOUN,True,False
user,user,user,user,NOUN,True,False
",",",",",",",",PUNCT,False,False
the,the,the,the,DET,True,True
sas,sas,sas,sas,PROPN,True,False
would,would,would,would,VERB,True,True
assign,assign,assign,assign,VERB,True,False
bandwidth,bandwidth,bandwidth,bandwidth,NOUN,True,False
in,in,in,in,ADP,True,True
vary,vary,vary,vary,PROPN,True,False
amount,amount,amount,amount,NOUN,True,True
and,and,and,and,CCONJ,True,True
at,at,at,at,ADP,True,True
vary,vary,vary,vary,ADJ,True,False
spectral,spectral,spectral,spectral,ADJ,True,False
location,location,location,location,NOUN,True,False
to,to,to,to,ADP,True,True
individual,individual,individual,individual,ADJ,True,False
gaa,gaa,gaa,gaa,NOUN,True,False
user,user,user,user,NOUN,True,False
.,.,.,.,PUNCT,False,False
sony,sony,sony,sony,PROPN,True,False
support,support,support,support,VERB,True,False
this,this,this,this,DET,True,True
approach,approach,approach,approach,NOUN,True,False
.,.,.,.,PUNCT,False,False
dynamic,dynamic,dynamic,dynamic,ADJ,True,False
frequency,frequency,frequency,frequency,NOUN,True,False
assignment,assignment,assignment,assignment,NOUN,True,False
and,and,and,and,CCONJ,True,True
variable,variable,variable,variable,ADJ,True,False
gaa,gaa,gaa,gaa,NOUN,True,False
bandwidth,bandwidth,bandwidth,bandwidth,NOUN,True,False
and,and,and,and,CCONJ,True,True
frequency,frequency,frequency,frequency,NOUN,True,False
assignment,assignment,assignment,assignment,NOUN,True,False
will,will,will,will,VERB,True,True
well,well,well,well,ADV,True,True
serve,serve,serve,serve,VERB,True,False
the,the,the,the,DET,True,True
goal,goal,goal,goal,NOUN,True,False
of,of,of,of,ADP,True,True
the,the,the,the,DET,True,True
commission,commission,commission,commission,NOUN,True,False
in,in,in,in,ADP,True,True
this,this,this,this,DET,True,True
proceeding,proceeding,proceeding,proceeding,NOUN,True,False
.,.,.,.,PUNCT,False,False
in,in,in,in,ADP,True,True
addition,addition,addition,addition,NOUN,True,False
",",",",",",",",PUNCT,False,False
sony,sony,sony,sony,PROPN,True,False
believe,believe,believe,believe,VERB,True,False
that,that,that,that,SCONJ,True,True
the,the,the,the,DET,True,True
propose,propose,propose,propose,NOUN,True,False
rule,rule,rule,rule,NOUN,True,False
should,should,should,should,VERB,True,True
not,not,not,not,PART,True,True
preclude,preclude,preclude,preclude,VERB,True,False
a,a,a,a,DET,True,True
sas,sas,sas,sas,PROPN,True,False
from,from,from,from,ADP,True,True
assign,assign,assign,assign,NOUN,True,False
overlapping,overlapping,overlapping,overlapping,NOUN,True,False
or,or,or,or,CCONJ,True,True
identical,identical,identical,identical,ADJ,True,False
frequency,frequency,frequency,frequency,NOUN,True,False
to,to,to,to,ADP,True,True
multiple,multiple,multiple,multiple,ADJ,True,False
gaa,gaa,gaa,gaa,NOUN,True,False
user,user,user,user,NOUN,True,False
",",",",",",",",PUNCT,False,False
provide,provide,provide,provide,VERB,True,False
that,that,that,that,SCONJ,True,True
the,the,the,the,DET,True,True
technicalcharacteristic,technicalcharacteristic,technicalcharacteristic,technicalcharacteristic,NOUN,True,False
of,of,of,of,ADP,True,True
the,the,the,the,DET,True,True
affected,affected,affected,affected,ADJ,True,False
end,end,end,end,NOUN,True,False
-,-,-,-,PUNCT,False,False
user,user,user,user,NOUN,True,False
citizen,citizen,citizen,citizen,NOUN,True,False
broadband,broadband,broadband,broadband,NOUN,True,False
radio,radio,radio,radio,NOUN,True,False
service,service,service,service,NOUN,True,False
device,device,device,device,NOUN,True,False
csbds,csbds,csbds,csbds,ADJ,True,False
permit,permit,permit,permit,VERB,True,False
such,such,such,such,ADJ,True,True
co,co,co,co,ADJ,True,False
-,-,-,-,ADJ,False,False
channel,channel,channel,channel,ADJ,True,False
operation,operation,operation,operation,NOUN,True,False
and,and,and,and,CCONJ,True,True
ask,ask,ask,ask,VERB,True,False
that,that,that,that,SCONJ,True,True
the,the,the,the,DET,True,True
commission,commission,commission,commission,PROPN,True,False
clarify,clarify,clarify,clarify,PROPN,True,False
rule,rule,rule,rule,NOUN,True,False
pertain,pertain,pertain,pertain,NOUN,True,False
to,to,to,to,ADP,True,True
this,this,this,this,DET,True,True
usage,usage,usage,usage,NOUN,True,False
.,.,.,.,PUNCT,False,False
aggregation,aggregation,aggregation,aggregation,NOUN,True,False
of,of,of,of,ADP,True,True
priority,priority,priority,priority,NOUN,True,False
access,access,access,access,NOUN,True,False
licenses,licenses,license,license,VERB,True,False
96.29sony,96.29sony,96.29sony,96.29sony,NUM,False,False
disagree,disagree,disagree,disagree,NOUN,True,False
with,with,with,with,ADP,True,True
the,the,the,the,DET,True,True
commissions,commissions,commission,commission,NOUN,True,False
proposal,proposal,proposal,proposal,NOUN,True,False
to,to,to,to,PART,True,True
allow,allow,allow,allow,VERB,True,False
pal,pal,pal,pal,ADJ,True,False
licensee,licensee,licensee,licensee,NOUN,True,False
to,to,to,to,PART,True,True
hold,hold,hold,hold,VERB,True,False
up,up,up,up,ADP,True,True
to,to,to,to,PART,True,True
3,3,3,3,NUM,False,False
authorization,authorization,authorization,authorization,NOUN,True,False
",",",",",",",",PUNCT,False,False
for,for,for,for,ADP,True,True
a,a,a,a,DET,True,True
total,total,total,total,NOUN,True,False
of,of,of,of,ADP,True,True
30,30,30,30,NUM,False,False
mhz,mhz,mhz,mhz,NOUN,True,False
",",",",",",",",PUNCT,False,False
in,in,in,in,ADP,True,True
a,a,a,a,DET,True,True
give,give,give,give,ADJ,True,True
census,census,census,census,NOUN,True,False
tract,tract,tract,tract,NOUN,True,False
at,at,at,at,ADP,True,True
a,a,a,a,DET,True,True
give,give,give,give,ADJ,True,True
time,time,time,time,NOUN,True,False
",",",",",",",",PUNCT,False,False
and,and,and,and,CCONJ,True,True
request,request,request,request,VERB,True,False
instead,instead,instead,instead,ADV,True,False
that,that,that,that,SCONJ,True,True
the,the,the,the,DET,True,True
rule,rule,rule,rule,NOUN,True,False
establish,establish,establish,establish,VERB,True,False
a,a,a,a,DET,True,True
pal,pal,pal,pal,ADJ,True,False
aggregation,aggregation,aggregation,aggregation,NOUN,True,False
limit,limit,limit,limit,NOUN,True,False
of,of,of,of,ADP,True,True
20,20,20,20,NUM,False,False
mhz,mhz,mhz,mhz,NOUN,True,False
",",",",",",",",PUNCT,False,False
with,with,with,with,ADP,True,True
no,no,no,no,DET,True,True
consideration,consideration,consideration,consideration,NOUN,True,False
give,give,give,give,VERB,True,True
to,to,to,to,ADP,True,True
the,the,the,the,DET,True,True
availability,availability,availability,availability,NOUN,True,False
of,of,of,of,ADP,True,True
gaa,gaa,gaa,gaa,NOUN,True,False
or,or,or,or,CCONJ,True,True
other,other,other,other,ADJ,True,True
",",",",",",",",PUNCT,False,False
similar,similar,similar,similar,ADJ,True,False
spectrum,spectrum,spectrum,spectrum,NOUN,True,False
.,.,.,.,PUNCT,False,False
this,this,this,this,DET,True,True
low,low,low,low,ADJ,True,False
aggregation,aggregation,aggregation,aggregation,NOUN,True,False
will,will,will,will,VERB,True,True
well,well,well,well,ADV,True,True
facilitate,facilitate,facilitate,facilitate,VERB,True,False
competition,competition,competition,competition,NOUN,True,False
and,and,and,and,CCONJ,True,True
innovation,innovation,innovation,innovation,NOUN,True,False
a,a,a,a,DET,True,True
state,state,state,state,NOUN,True,False
goal,goal,goal,goal,NOUN,True,False
of,of,of,of,ADP,True,True
this,this,this,this,DET,True,True
proceeding,proceeding,proceeding,proceeding,NOUN,True,False
by,by,by,by,ADP,True,True
allow,allow,allow,allow,VERB,True,False
a,a,a,a,DET,True,True
minimum,minimum,minimum,minimum,NOUN,True,False
of,of,of,of,ADP,True,True
two,two,two,two,NUM,True,True
pal,pal,pal,pal,ADJ,True,False
licensee,licensee,licensee,licensee,NOUN,True,False
to,to,to,to,PART,True,True
operate,operate,operate,operate,VERB,True,False
in,in,in,in,ADP,True,True
those,those,those,those,DET,True,True
census,census,census,census,NOUN,True,False
tract,tract,tract,tract,NOUN,True,False
that,that,that,that,DET,True,True
have,have,have,have,AUX,True,True
a,a,a,a,DET,True,True
maximum,maximum,maximum,maximum,NOUN,True,False
of,of,of,of,ADP,True,True
20,20,20,20,NUM,False,False
mhz,mhz,mhz,mhz,NOUN,True,False
of,of,of,of,ADP,True,True
incumbent,incumbent,incumbent,incumbent,ADJ,True,False
operation,operation,operation,operation,NOUN,True,False
.,.,.,.,PUNCT,False,False
by,by,by,by,ADP,True,True
contrast,contrast,contrast,contrast,NOUN,True,False
",",",",",",",",PUNCT,False,False
a,a,a,a,DET,True,True
30,30,30,30,NUM,False,False
mhz,mhz,mhz,mhz,PROPN,True,False
aggregation,aggregation,aggregation,aggregation,NOUN,True,False
limit,limit,limit,limit,NOUN,True,False
would,would,would,would,VERB,True,True
allow,allow,allow,allow,VERB,True,False
a,a,a,a,DET,True,True
single,single,single,single,ADJ,True,False
pal,pal,pal,pal,NOUN,True,False
licensee,licensee,licensee,licensee,NOUN,True,False
to,to,to,to,PART,True,True
dominate,dominate,dominate,dominate,VERB,True,False
operation,operation,operation,operation,NOUN,True,False
by,by,by,by,ADP,True,True
hold,hold,hold,hold,NOUN,True,False
up,up,up,up,ADP,True,True
to,to,to,to,PART,True,True
50,50,50,50,NUM,False,False
more,more,more,more,ADJ,True,True
of,of,of,of,ADP,True,True
the,the,the,the,DET,True,True
available,available,available,available,ADJ,True,False
spectrum,spectrum,spectrum,spectrum,NOUN,True,False
than,than,than,than,SCONJ,True,True
any,any,any,any,DET,True,True
other,other,other,other,ADJ,True,True
licensee,licensee,licensee,licensee,NOUN,True,False
.,.,.,.,PUNCT,False,False
contained,contained,contain,contain,VERB,True,False
access,access,access,access,NOUN,True,False
facilities,facilities,facility,facility,NOUN,True,False
96.35sony,96.35sony,96.35sony,96.35sony,NUM,False,False
object,object,object,object,NOUN,True,False
to,to,to,to,ADP,True,True
the,the,the,the,DET,True,True
fnprms,fnprms,fnprm,fnprm,NOUN,True,False
proposal,proposal,proposal,proposal,NOUN,True,False
to,to,to,to,PART,True,True
create,create,create,create,VERB,True,False
a,a,a,a,DET,True,True
separate,separate,separate,separate,ADJ,True,False
category,category,category,category,NOUN,True,False
of,of,of,of,ADP,True,True
gaa,gaa,gaa,gaa,NOUN,True,False
user,user,user,user,NOUN,True,False
with,with,with,with,ADP,True,True
special,special,special,special,ADJ,True,False
authorization,authorization,authorization,authorization,NOUN,True,False
to,to,to,to,PART,True,True
operate,operate,operate,operate,VERB,True,False
on,on,on,on,ADP,True,True
an,an,an,an,DET,True,True
exclusive,exclusive,exclusive,exclusive,ADJ,True,False
basis,basis,basis,basis,NOUN,True,False
within,within,within,within,ADP,True,True
contained,contained,contain,contain,VERB,True,False
access,access,access,access,NOUN,True,False
facilities,facilities,facility,facility,NOUN,True,False
",",",",",",",",PUNCT,False,False
and,and,and,and,CCONJ,True,True
ask,ask,ask,ask,VERB,True,False
that,that,that,that,SCONJ,True,True
the,the,the,the,DET,True,True
proposal,proposal,proposal,proposal,NOUN,True,False
to,to,to,to,PART,True,True
authorize,authorize,authorize,authorize,VERB,True,False
such,such,such,such,ADJ,True,True
contained,contained,contained,contained,ADJ,True,False
access,access,access,access,NOUN,True,False
users,users,user,user,NOUN,True,False
cau,cau,cau,cau,NOUN,True,False
be,be,be,be,AUX,True,True
discard,discard,discard,discard,ADJ,True,False
.,.,.,.,PUNCT,False,False
sony,sony,sony,sony,PROPN,True,False
believe,believe,believe,believe,VERB,True,False
that,that,that,that,SCONJ,True,True
special,special,special,special,ADJ,True,False
authorization,authorization,authorization,authorization,NOUN,True,False
for,for,for,for,ADP,True,True
cau,cau,cau,cau,PROPN,True,False
would,would,would,would,VERB,True,True
have,have,have,have,AUX,True,True
the,the,the,the,DET,True,True
effect,effect,effect,effect,NOUN,True,False
of,of,of,of,ADP,True,True
limiting,limiting,limiting,limiting,NOUN,True,False
",",",",",",",",PUNCT,False,False
or,or,or,or,CCONJ,True,True
in,in,in,in,ADP,True,True
some,some,some,some,DET,True,True
case,case,case,case,NOUN,True,False
eliminate,eliminate,eliminate,eliminate,VERB,True,False
",",",",",",",",PUNCT,False,False
the,the,the,the,DET,True,True
spectrum,spectrum,spectrum,spectrum,NOUN,True,False
available,available,available,available,ADJ,True,False
for,for,for,for,ADP,True,True
gaa,gaa,gaa,gaa,NOUN,True,False
use,use,use,use,NOUN,True,False
in,in,in,in,ADP,True,True
a,a,a,a,DET,True,True
give,give,give,give,VERB,True,True
geographic,geographic,geographic,geographic,ADJ,True,False
area,area,area,area,NOUN,True,False
.,.,.,.,PUNCT,False,False
in,in,in,in,ADP,True,True
situation,situation,situation,situation,NOUN,True,False
where,where,where,where,ADV,True,True
a,a,a,a,DET,True,True
cau,cau,cau,cau,NOUN,True,False
may,may,may,may,VERB,True,True
require,require,require,require,VERB,True,False
exclusive,exclusive,exclusive,exclusive,ADJ,True,False
spectrum,spectrum,spectrum,spectrum,NOUN,True,False
access,access,access,access,NOUN,True,False
",",",",",",",",PUNCT,False,False
to,to,to,to,PART,True,True
would,would,would,would,VERB,True,True
always,always,always,always,ADV,True,True
have,have,have,have,AUX,True,True
the,the,the,the,DET,True,True
ability,ability,ability,ability,NOUN,True,False
purchase,purchase,purchase,purchase,NOUN,True,False
or,or,or,or,CCONJ,True,True
lease,lease,lease,lease,NOUN,True,False
pal,pal,pal,pal,ADJ,True,False
license,license,license,license,NOUN,True,False
.,.,.,.,PUNCT,False,False
add,add,add,add,VERB,True,False
what,what,what,what,DET,True,True
amount,amount,amount,amount,NOUN,True,True
to,to,to,to,ADP,True,True
a,a,a,a,DET,True,True
fourth,fourth,fourth,fourth,ADJ,True,False
tier,tier,tier,tier,NOUN,True,False
to,to,to,to,ADP,True,True
the,the,the,the,DET,True,True
3.5,3.5,3.5,3.5,NUM,False,False
ghz,ghz,ghz,ghz,PROPN,True,False
authorization,authorization,authorization,authorization,NOUN,True,False
and,and,and,and,CCONJ,True,True
interference,interference,interference,interference,NOUN,True,False
protection,protection,protection,protection,NOUN,True,False
framework,framework,framework,framework,NOUN,True,False
will,will,will,will,VERB,True,True
needlessly,needlessly,needlessly,needlessly,ADV,True,False
complicate,complicate,complicate,complicate,VERB,True,False
operation,operation,operation,operation,NOUN,True,False
in,in,in,in,ADP,True,True
the,the,the,the,DET,True,True
band,band,band,band,NOUN,True,False
.,.,.,.,PUNCT,False,False
citizens,citizens,citizens,citizens,PROPN,True,False
broadband,broadband,broadband,broadband,PROPN,True,False
radio,radio,radio,radio,NOUN,True,False
service,service,service,service,NOUN,True,False
devices,devices,device,device,NOUN,True,False
general,general,general,general,ADJ,True,False
requirements,requirements,requirement,requirement,NOUN,True,False
96.36,96.36,96.36,96.36,NUM,False,False
the,the,the,the,DET,True,True
fnprm,fnprm,fnprm,fnprm,NOUN,True,False
propose,propose,propose,propose,NOUN,True,False
that,that,that,that,DET,True,True
cbsds,cbsds,cbsds,cbsds,PROPN,True,False
transmit,transmit,transmit,transmit,VERB,True,False
certain,certain,certain,certain,ADJ,True,False
operation,operation,operation,operation,NOUN,True,False
and,and,and,and,CCONJ,True,True
identificationinformation,identificationinformation,identificationinformation,identificationinformation,NOUN,True,False
to,to,to,to,ADP,True,True
the,the,the,the,DET,True,True
sas,sas,sas,sas,PROPN,True,False
",",",",",",",",PUNCT,False,False
include,include,include,include,VERB,True,False
the,the,the,the,DET,True,True
follow,follow,follow,follow,ADJ,True,False
1,1,1,1,NUM,False,False
geographic,geographic,geographic,geographic,ADJ,True,False
location,location,location,location,NOUN,True,False
2,2,2,2,NUM,False,False
antenna,antenna,antenna,antenna,NOUN,True,False
height,height,height,height,NOUN,True,False
above,above,above,above,ADP,True,True
ground,ground,ground,ground,NOUN,True,False
level,level,level,level,NOUN,True,False
3,3,3,3,NUM,False,False
request,request,request,request,NOUN,True,False
authorization,authorization,authorization,authorization,NOUN,True,False
status,status,status,status,NOUN,True,False
4,4,4,4,NUM,False,False
unique,unique,unique,unique,ADJ,True,False
fcc,fcc,fcc,fcc,PROPN,True,False
identification,identification,identification,identification,NOUN,True,False
number,number,number,number,NOUN,True,False
5,5,5,5,NUM,False,False
user,user,user,user,NOUN,True,False
contact,contact,contact,contact,NOUN,True,False
information,information,information,information,NOUN,True,False
and,and,and,and,CCONJ,True,True
6,6,6,6,NUM,False,False
unique,unique,unique,unique,ADJ,True,False
serial,serial,serial,serial,ADJ,True,False
number,number,number,number,NOUN,True,False
.,.,.,.,PUNCT,False,False
csbd,csbd,csbd,csbd,PROPN,True,False
would,would,would,would,VERB,True,True
be,be,be,be,AUX,True,True
require,require,require,require,VERB,True,False
to,to,to,to,PART,True,True
report,report,report,report,VERB,True,False
any,any,any,any,DET,True,True
change,change,change,change,NOUN,True,False
to,to,to,to,ADP,True,True
this,this,this,this,DET,True,True
information,information,information,information,NOUN,True,False
within,within,within,within,ADP,True,True
60,60,60,60,NUM,False,False
second,second,second,second,NOUN,True,False
of,of,of,of,ADP,True,True
the,the,the,the,DET,True,True
change,change,change,change,NOUN,True,False
occur,occur,occur,occur,VERB,True,False
.,.,.,.,PUNCT,False,False
in,in,in,in,ADP,True,True
addition,addition,addition,addition,NOUN,True,False
",",",",",",",",PUNCT,False,False
the,the,the,the,DET,True,True
fnprm,fnprm,fnprm,fnprm,NOUN,True,False
would,would,would,would,VERB,True,True
require,require,require,require,VERB,True,False
cbsds,cbsds,cbsds,cbsds,PROPN,True,False
to,to,to,to,PART,True,True
measure,measure,measure,measure,VERB,True,False
and,and,and,and,CCONJ,True,True
report,report,report,report,VERB,True,False
on,on,on,on,ADP,True,True
their,their,-PRON-,-pron-,DET,True,True
local,local,local,local,ADJ,True,False
signal,signal,signal,signal,ADJ,True,False
level,level,level,level,NOUN,True,False
environment,environment,environment,environment,NOUN,True,False
.,.,.,.,PUNCT,False,False
sony,sony,sony,sony,PROPN,True,False
support,support,support,support,VERB,True,False
each,each,each,each,DET,True,True
of,of,of,of,ADP,True,True
these,these,these,these,DET,True,True
propose,propose,propose,propose,NOUN,True,False
requirement,requirement,requirement,requirement,NOUN,True,False
",",",",",",",",PUNCT,False,False
but,but,but,but,CCONJ,True,True
request,request,request,request,VERB,True,False
that,that,that,that,SCONJ,True,True
the,the,the,the,DET,True,True
commission,commission,commission,commission,NOUN,True,False
clarify,clarify,clarify,clarify,NOUN,True,False
that,that,that,that,SCONJ,True,True
a,a,a,a,DET,True,True
sas,sas,sas,sas,PROPN,True,False
may,may,may,may,VERB,True,True
require,require,require,require,VERB,True,False
cbsds,cbsds,cbsds,cbsds,PROPN,True,False
to,to,to,to,PART,True,True
provide,provide,provide,provide,VERB,True,False
information,information,information,information,NOUN,True,False
about,about,about,about,ADP,True,True
the,the,the,the,DET,True,True
local,local,local,local,ADJ,True,False
signal,signal,signal,signal,NOUN,True,False
environment,environment,environment,environment,NOUN,True,False
upon,upon,upon,upon,SCONJ,True,True
request,request,request,request,NOUN,True,False
by,by,by,by,ADP,True,True
the,the,the,the,DET,True,True
sas,sas,sas,sas,PROPN,True,False
",",",",",",",",PUNCT,False,False
at,at,at,at,ADP,True,True
any,any,any,any,DET,True,True
time,time,time,time,NOUN,True,False
",",",",",",",",PUNCT,False,False
and,and,and,and,CCONJ,True,True
base,base,base,base,NOUN,True,False
on,on,on,on,ADP,True,True
any,any,any,any,DET,True,True
criterion,criterion,criterion,criterion,NOUN,True,False
set,set,set,set,VERB,True,False
by,by,by,by,ADP,True,True
the,the,the,the,DET,True,True
sas,sas,sas,sas,PROPN,True,False
",",",",",",",",PUNCT,False,False
rather,rather,rather,rather,ADV,True,True
than,than,than,than,SCONJ,True,True
only,only,only,only,ADV,True,True
in,in,in,in,ADP,True,True
those,those,those,those,DET,True,True
situation,situation,situation,situation,NOUN,True,False
where,where,where,where,ADV,True,True
the,the,the,the,DET,True,True
cbsd,cbsd,cbsd,cbsd,NOUN,True,False
experience[s,experience[s,experience[s,experience[s,NOUN,False,False
],],],],PUNCT,False,False
interference,interference,interference,interference,NOUN,True,False
in,in,in,in,ADP,True,True
exceed,exceed,exceed,exceed,VERB,True,False
a,a,a,a,DET,True,True
threshold,threshold,threshold,threshold,NOUN,True,False
as,as,as,as,SCONJ,True,True
set,set,set,set,VERB,True,False
by,by,by,by,ADP,True,True
an,an,an,an,DET,True,True
sas,sas,sas,sas,PROPN,True,False
.,.,.,.,PUNCT,False,False
allow,allow,allow,allow,VERB,True,False
a,a,a,a,DET,True,True
sas,sas,sas,sas,PROPN,True,False
flexibility,flexibility,flexibility,flexibility,NOUN,True,False
to,to,to,to,PART,True,True
choose,choose,choose,choose,VERB,True,False
alternative,alternative,alternative,alternative,ADJ,True,False
criterion,criterion,criterion,criterion,NOUN,True,False
for,for,for,for,ADP,True,True
when,when,when,when,ADV,True,True
csbd,csbd,csbd,csbd,NOUN,True,False
must,must,must,must,VERB,True,True
report,report,report,report,VERB,True,False
on,on,on,on,ADP,True,True
the,the,the,the,DET,True,True
local,local,local,local,ADJ,True,False
signal,signal,signal,signal,NOUN,True,False
environment,environment,environment,environment,NOUN,True,False
will,will,will,will,VERB,True,True
help,help,help,help,VERB,True,False
ensure,ensure,ensure,ensure,VERB,True,False
more,more,more,more,ADV,True,True
efficient,efficient,efficient,efficient,ADJ,True,False
channel,channel,channel,channel,NOUN,True,False
assignment,assignment,assignment,assignment,NOUN,True,False
and,and,and,and,CCONJ,True,True
selection,selection,selection,selection,NOUN,True,False
for,for,for,for,ADP,True,True
both,both,both,both,DET,True,True
pal,pal,pal,pal,NOUN,True,False
and,and,and,and,CCONJ,True,True
gaa,gaa,gaa,gaa,NOUN,True,False
operation,operation,operation,operation,NOUN,True,False
.,.,.,.,PUNCT,False,False
in,in,in,in,ADP,True,True
addition,addition,addition,addition,NOUN,True,False
",",",",",",",",PUNCT,False,False
sony,sony,sony,sony,PROPN,True,False
ask,ask,ask,ask,VERB,True,False
that,that,that,that,SCONJ,True,True
the,the,the,the,DET,True,True
commission,commission,commission,commission,NOUN,True,False
authorize,authorize,authorize,authorize,VERB,True,False
cbsds,cbsds,cbsds,cbsds,PROPN,True,False
to,to,to,to,PART,True,True
meet,meet,meet,meet,VERB,True,False
its,its,-PRON-,-pron-,DET,True,True
obligation,obligation,obligation,obligation,NOUN,True,False
under,under,under,under,ADP,True,True
propose,propose,propose,propose,NOUN,True,False
rule,rule,rule,rule,NOUN,True,False
96.36,96.36,96.36,96.36,NUM,False,False
i.e.,i.e.,i.e.,i.e.,X,False,False
",",",",",",",",PUNCT,False,False
send,send,send,send,VERB,True,False
operation,operation,operation,operation,NOUN,True,False
and,and,and,and,CCONJ,True,True
identification,identification,identification,identification,NOUN,True,False
information,information,information,information,NOUN,True,False
",",",",",",",",PUNCT,False,False
and,and,and,and,CCONJ,True,True
respond,respond,respond,respond,VERB,True,False
to,to,to,to,ADP,True,True
sas,sas,sas,sas,PROPN,True,False
query,query,query,query,NOUN,True,False
by,by,by,by,ADP,True,True
communicate,communicate,communicate,communicate,VERB,True,False
indirectly,indirectly,indirectly,indirectly,ADV,True,False
with,with,with,with,ADP,True,True
the,the,the,the,DET,True,True
sas,sas,sas,sas,PROPN,True,False
through,through,through,through,ADP,True,True
a,a,a,a,DET,True,True
separate,separate,separate,separate,ADJ,True,False
cbsd,cbsd,cbsd,cbsd,NOUN,True,False
via,via,via,via,ADP,True,True
a,a,a,a,DET,True,True
secure,secure,secure,secure,ADJ,True,False
link,link,link,link,NOUN,True,False
.,.,.,.,PUNCT,False,False
general,general,general,general,ADJ,True,False
radio,radio,radio,radio,NOUN,True,False
requirements,requirements,requirement,requirement,VERB,True,False
96.38sony,96.38sony,96.38sony,96.38sony,NUM,False,False
support,support,support,support,VERB,True,False
the,the,the,the,DET,True,True
propose,propose,propose,propose,NOUN,True,False
general,general,general,general,ADJ,True,False
radio,radio,radio,radio,NOUN,True,False
requirement,requirement,requirement,requirement,NOUN,True,False
in,in,in,in,ADP,True,True
the,the,the,the,DET,True,True
fnprm,fnprm,fnprm,fnprm,NOUN,True,False
",",",",",",",",PUNCT,False,False
but,but,but,but,CCONJ,True,True
suggest,suggest,suggest,suggest,VERB,True,False
that,that,that,that,SCONJ,True,True
in,in,in,in,ADP,True,True
order,order,order,order,NOUN,True,False
to,to,to,to,PART,True,True
realize,realize,realize,realize,VERB,True,False
timely,timely,timely,timely,ADJ,True,False
control,control,control,control,NOUN,True,False
of,of,of,of,ADP,True,True
spectrum,spectrum,spectrum,spectrum,PROPN,True,False
utilization,utilization,utilization,utilization,PROPN,True,False
",",",",",",",",PUNCT,False,False
sas,sas,sas,sas,PROPN,True,False
operator,operator,operator,operator,NOUN,True,False
be,be,be,be,AUX,True,True
allow,allow,allow,allow,ADJ,True,False
to,to,to,to,PART,True,True
require,require,require,require,VERB,True,False
cbsds,cbsds,cbsds,cbsds,PROPN,True,False
to,to,to,to,PART,True,True
report,report,report,report,VERB,True,False
the,the,the,the,DET,True,True
status,status,status,status,NOUN,True,False
of,of,of,of,ADP,True,True
their,their,-PRON-,-pron-,DET,True,True
operation,operation,operation,operation,NOUN,True,False
either,either,either,either,CCONJ,True,True
upon,upon,upon,upon,SCONJ,True,True
request,request,request,request,NOUN,True,False
from,from,from,from,ADP,True,True
the,the,the,the,DET,True,True
sas,sas,sas,sas,PROPN,True,False
",",",",",",",",PUNCT,False,False
or,or,or,or,CCONJ,True,True
on,on,on,on,ADP,True,True
a,a,a,a,DET,True,True
regular,regular,regular,regular,ADJ,True,False
schedule,schedule,schedule,schedule,NOUN,True,False
set,set,set,set,VERB,True,False
by,by,by,by,ADP,True,True
the,the,the,the,DET,True,True
sas.spectrum,sas.spectrum,sas.spectrum,sas.spectrum,PROPN,False,False
access,access,access,access,NOUN,True,False
system,system,system,system,NOUN,True,False
purposes,purposes,purpose,purpose,NOUN,True,False
and,and,and,and,CCONJ,True,True
functionality,functionality,functionality,functionality,NOUN,True,False
96.43sony,96.43sony,96.43sony,96.43sony,NUM,False,False
agree,agree,agree,agree,NOUN,True,False
with,with,with,with,ADP,True,True
the,the,the,the,DET,True,True
general,general,general,general,ADJ,True,False
approach,approach,approach,approach,NOUN,True,False
to,to,to,to,ADP,True,True
sas,sas,sas,sas,PROPN,True,False
database,database,database,database,PROPN,True,False
operation,operation,operation,operation,NOUN,True,False
in,in,in,in,ADP,True,True
the,the,the,the,DET,True,True
fnprm,fnprm,fnprm,fnprm,NOUN,True,False
.,.,.,.,PUNCT,False,False
by,by,by,by,ADP,True,True
codify,codify,codify,codify,PROPN,True,False
only,only,only,only,ADV,True,True
high,high,high,high,ADJ,True,False
-,-,-,-,PUNCT,False,False
level,level,level,level,NOUN,True,False
sas,sas,sas,sas,PROPN,True,False
requirement,requirement,requirement,requirement,NOUN,True,False
",",",",",",",",PUNCT,False,False
and,and,and,and,CCONJ,True,True
by,by,by,by,ADP,True,True
allow,allow,allow,allow,VERB,True,False
for,for,for,for,ADP,True,True
the,the,the,the,DET,True,True
authorization,authorization,authorization,authorization,NOUN,True,False
of,of,of,of,ADP,True,True
multiple,multiple,multiple,multiple,ADJ,True,False
sass,sass,sass,sass,NOUN,True,False
",",",",",",",",PUNCT,False,False
the,the,the,the,DET,True,True
propose,propose,propose,propose,NOUN,True,False
rule,rule,rule,rule,NOUN,True,False
allow,allow,allow,allow,VERB,True,False
database,database,database,database,NOUN,True,False
administrator,administrator,administrator,administrator,NOUN,True,False
freedom,freedom,freedom,freedom,NOUN,True,False
to,to,to,to,PART,True,True
implement,implement,implement,implement,VERB,True,False
different,different,different,different,ADJ,True,False
spectrum,spectrum,spectrum,spectrum,NOUN,True,False
management,management,management,management,NOUN,True,False
algorithm,algorithm,algorithm,algorithm,PROPN,True,False
",",",",",",",",PUNCT,False,False
consistent,consistent,consistent,consistent,ADJ,True,False
with,with,with,with,ADP,True,True
the,the,the,the,DET,True,True
rule,rule,rule,rule,NOUN,True,False
",",",",",",",",PUNCT,False,False
and,and,and,and,CCONJ,True,True
therefore,therefore,therefore,therefore,ADV,True,True
compete,compete,compete,compete,VERB,True,False
to,to,to,to,PART,True,True
provide,provide,provide,provide,VERB,True,False
the,the,the,the,DET,True,True
good,good,good,good,ADJ,True,False
overall,overall,overall,overall,ADJ,True,False
system,system,system,system,NOUN,True,False
performance,performance,performance,performance,NOUN,True,False
.,.,.,.,PUNCT,False,False
operator,operator,operator,operator,NOUN,True,False
and,and,and,and,CCONJ,True,True
end,end,end,end,NOUN,True,False
user,user,user,user,NOUN,True,False
will,will,will,will,VERB,True,True
ultimately,ultimately,ultimately,ultimately,ADV,True,False
benefit,benefit,benefit,benefit,VERB,True,False
from,from,from,from,ADP,True,True
more,more,more,more,ADV,True,True
efficient,efficient,efficient,efficient,ADJ,True,False
spectrum,spectrum,spectrum,spectrum,NOUN,True,False
use,use,use,use,NOUN,True,False
.,.,.,.,PUNCT,False,False
to,to,to,to,PART,True,True
enable,enable,enable,enable,VERB,True,False
this,this,this,this,DET,True,True
multiple,multiple,multiple,multiple,ADJ,True,False
-,-,-,-,PUNCT,False,False
sas,sas,sas,sas,NOUN,True,False
environment,environment,environment,environment,NOUN,True,False
",",",",",",",",PUNCT,False,False
the,the,the,the,DET,True,True
propose,propose,propose,propose,NOUN,True,False
rule,rule,rule,rule,NOUN,True,False
will,will,will,will,VERB,True,True
need,need,need,need,VERB,True,False
to,to,to,to,PART,True,True
define,define,define,define,VERB,True,False
an,an,an,an,DET,True,True
interface,interface,interface,interface,NOUN,True,False
to,to,to,to,PART,True,True
facilitate,facilitate,facilitate,facilitate,VERB,True,False
communication,communication,communication,communication,NOUN,True,False
and,and,and,and,CCONJ,True,True
to,to,to,to,PART,True,True
ensure,ensure,ensure,ensure,VERB,True,False
strong,strong,strong,strong,ADJ,True,False
interoperability,interoperability,interoperability,interoperability,NOUN,True,False
among,among,among,among,ADP,True,True
sas,sas,sas,sas,PROPN,True,False
database,database,database,database,PROPN,True,False
.,.,.,.,PUNCT,False,False
sony,sony,sony,sony,PROPN,True,False
suggest,suggest,suggest,suggest,VERB,True,False
that,that,that,that,SCONJ,True,True
the,the,the,the,DET,True,True
commissions,commissions,commission,commission,NOUN,True,False
rule,rule,rule,rule,NOUN,True,False
require,require,require,require,VERB,True,False
sas,sas,sas,sas,PROPN,True,False
database,database,database,database,NOUN,True,False
to,to,to,to,PART,True,True
implement,implement,implement,implement,VERB,True,False
two,two,two,two,NUM,True,True
additional,additional,additional,additional,ADJ,True,False
function,function,function,function,NOUN,True,False
.,.,.,.,PUNCT,False,False
first,first,first,first,ADV,True,True
",",",",",",",",PUNCT,False,False
to,to,to,to,PART,True,True
well,well,well,well,ADV,True,True
protect,protect,protect,protect,VERB,True,False
high,high,high,high,ADJ,True,False
tier,tier,tier,tier,NOUN,True,False
from,from,from,from,ADP,True,True
interference,interference,interference,interference,NOUN,True,False
",",",",",",",",PUNCT,False,False
and,and,and,and,CCONJ,True,True
to,to,to,to,PART,True,True
well,well,well,well,ADV,True,True
manage,manage,manage,manage,VERB,True,False
coexistence,coexistence,coexistence,coexistence,NOUN,True,False
among,among,among,among,ADP,True,True
pal,pal,pal,pal,ADJ,True,False
licensee,licensee,licensee,licensee,NOUN,True,False
and,and,and,and,CCONJ,True,True
gaa,gaa,gaa,gaa,NOUN,True,False
user,user,user,user,NOUN,True,False
",",",",",",",",PUNCT,False,False
each,each,each,each,DET,True,True
sas,sas,sas,sas,PROPN,True,False
should,should,should,should,VERB,True,True
store,store,store,store,VERB,True,False
the,the,the,the,DET,True,True
actual,actual,actual,actual,ADJ,True,False
operational,operational,operational,operational,ADJ,True,False
information,information,information,information,NOUN,True,False
of,of,of,of,ADP,True,True
cbsds,cbsds,cbsds,cbsds,NOUN,True,False
and,and,and,and,CCONJ,True,True
end,end,end,end,NOUN,True,False
user,user,user,user,NOUN,True,False
devices,devices,device,device,NOUN,True,False
register,register,register,register,VERB,True,False
with,with,with,with,ADP,True,True
it,it,-PRON-,-pron-,PRON,True,True
.,.,.,.,PUNCT,False,False
second,second,second,second,ADV,True,False
",",",",",",",",PUNCT,False,False
to,to,to,to,PART,True,True
help,help,help,help,VERB,True,False
realize,realize,realize,realize,VERB,True,False
the,the,the,the,DET,True,True
competitive,competitive,competitive,competitive,ADJ,True,False
efficiency,efficiency,efficiency,efficiency,NOUN,True,False
of,of,of,of,ADP,True,True
multiple,multiple,multiple,multiple,ADJ,True,False
sas,sas,sas,sas,PROPN,True,False
database,database,database,database,NOUN,True,False
",",",",",",",",PUNCT,False,False
the,the,the,the,DET,True,True
rule,rule,rule,rule,NOUN,True,False
should,should,should,should,VERB,True,True
provide,provide,provide,provide,VERB,True,False
for,for,for,for,ADP,True,True
secure,secure,secure,secure,ADJ,True,False
transmission,transmission,transmission,transmission,NOUN,True,False
of,of,of,of,ADP,True,True
information,information,information,information,NOUN,True,False
between,between,between,between,ADP,True,True
sass,sass,sass,sass,NOUN,True,False
",",",",",",",",PUNCT,False,False
as,as,as,as,ADV,True,True
well,well,well,well,ADV,True,True
as,as,as,as,SCONJ,True,True
between,between,between,between,ADP,True,True
the,the,the,the,DET,True,True
sas,sas,sas,sas,PROPN,True,False
and,and,and,and,CCONJ,True,True
cbsds,cbsds,cbsds,cbsds,PROPN,True,False
.,.,.,.,PUNCT,False,False
protection,protection,protection,protection,NOUN,True,False
for,for,for,for,ADP,True,True
fixed,fixed,fix,fix,VERB,True,False
satellite,satellite,satellite,satellite,NOUN,True,False
service,service,service,service,NOUN,True,False
earth,earth,earth,earth,NOUN,True,False
station,station,station,station,NOUN,True,False
fss,fss,fss,fss,NOUN,True,False
earth,earth,earth,earth,NOUN,True,False
stations,stations,station,station,NOUN,True,False
in,in,in,in,ADP,True,True
the,the,the,the,DET,True,True
3.5,3.5,3.5,3.5,NUM,False,False
ghz,ghz,ghz,ghz,NOUN,True,False
bandfinally,bandfinally,bandfinally,bandfinally,ADV,True,False
",",",",",",",",PUNCT,False,False
in,in,in,in,ADP,True,True
response,response,response,response,NOUN,True,False
to,to,to,to,ADP,True,True
the,the,the,the,DET,True,True
fnprms,fnprms,fnprm,fnprm,NOUN,True,False
propose,propose,propose,propose,VERB,True,False
requirement,requirement,requirement,requirement,NOUN,True,False
that,that,that,that,SCONJ,True,True
cbsds,cbsds,cbsds,cbsds,PROPN,True,False
avoid,avoid,avoid,avoid,PROPN,True,False
cause,cause,cause,cause,PROPN,True,False
harmful,harmful,harmful,harmful,ADJ,True,False
interference,interference,interference,interference,NOUN,True,False
to,to,to,to,ADP,True,True
fixed,fixed,fix,fix,VERB,True,False
satellite,satellite,satellite,satellite,NOUN,True,False
service,service,service,service,NOUN,True,False
fss,fss,fss,fss,NOUN,True,False
earth,earth,earth,earth,NOUN,True,False
station,station,station,station,NOUN,True,False
",",",",",",",",PUNCT,False,False
sony,sony,sony,sony,PROPN,True,False
agree,agree,agree,agree,VERB,True,False
that,that,that,that,SCONJ,True,True
certain,certain,certain,certain,ADJ,True,False
mitigation,mitigation,mitigation,mitigation,NOUN,True,False
strategy,strategy,strategy,strategy,NOUN,True,False
could,could,could,could,VERB,True,True
be,be,be,be,AUX,True,True
employ,employ,employ,employ,ADJ,True,False
to,to,to,to,PART,True,True
minimize,minimize,minimize,minimize,VERB,True,False
or,or,or,or,CCONJ,True,True
eliminate,eliminate,eliminate,eliminate,VERB,True,False
geographic,geographic,geographic,geographic,ADJ,True,False
protection,protection,protection,protection,NOUN,True,False
area,area,area,area,NOUN,True,False
around,around,around,around,ADP,True,True
these,these,these,these,DET,True,True
operation,operation,operation,operation,NOUN,True,False
.,.,.,.,PUNCT,False,False
specifically,specifically,specifically,specifically,ADV,True,False
",",",",",",",",PUNCT,False,False
a,a,a,a,DET,True,True
complementary,complementary,complementary,complementary,ADJ,True,False
cumulative,cumulative,cumulative,cumulative,ADJ,True,False
distribution,distribution,distribution,distribution,NOUN,True,False
function,function,function,function,NOUN,True,False
ccdf,ccdf,ccdf,ccdf,NOUN,True,False
of,of,of,of,ADP,True,True
the,the,the,the,DET,True,True
aggregate,aggregate,aggregate,aggregate,ADJ,True,False
power,power,power,power,NOUN,True,False
flux,flux,flux,flux,PROPN,True,False
density,density,density,density,NOUN,True,False
could,could,could,could,VERB,True,True
be,be,be,be,AUX,True,True
to,to,to,to,PART,True,True
ensure,ensure,ensure,ensure,VERB,True,False
that,that,that,that,SCONJ,True,True
interference,interference,interference,interference,NOUN,True,False
limit,limit,limit,limit,NOUN,True,False
be,be,be,be,AUX,True,True
not,not,not,not,PART,True,True
exceed,exceed,exceed,exceed,VERB,True,False
.,.,.,.,PUNCT,False,False
in,in,in,in,ADP,True,True
support,support,support,support,NOUN,True,False
of,of,of,of,ADP,True,True
this,this,this,this,DET,True,True
conclusion,conclusion,conclusion,conclusion,NOUN,True,False
",",",",",",",",PUNCT,False,False
sony,sony,sony,sony,PROPN,True,False
submit,submit,submit,submit,VERB,True,False
the,the,the,the,DET,True,True
attach,attach,attach,attach,PROPN,True,False
annex,annex,annex,annex,PROPN,True,False
",",",",",",",",PUNCT,False,False
which,which,which,which,DET,True,True
document,document,document,document,VERB,True,False
the,the,the,the,DET,True,True
simulation,simulation,simulation,simulation,NOUN,True,False
of,of,of,of,ADP,True,True
three,three,three,three,NUM,True,True
location,location,location,location,NOUN,True,False
-,-,-,-,PUNCT,False,False
specific,specific,specific,specific,ADJ,True,False
transmission,transmission,transmission,transmission,NOUN,True,False
power,power,power,power,NOUN,True,False
calculation,calculation,calculation,calculation,NOUN,True,False
method,method,method,method,NOUN,True,False
for,for,for,for,ADP,True,True
protection,protection,protection,protection,NOUN,True,False
of,of,of,of,ADP,True,True
these,these,these,these,DET,True,True
incumbent,incumbent,incumbent,incumbent,ADJ,True,False
operation,operation,operation,operation,NOUN,True,False
",",",",",",",",PUNCT,False,False
and,and,and,and,CCONJ,True,True
compare,compare,compare,compare,VERB,True,False
the,the,the,the,DET,True,True
performance,performance,performance,performance,NOUN,True,False
result,result,result,result,NOUN,True,False
base,base,base,base,NOUN,True,False
on,on,on,on,ADP,True,True
each,each,each,each,DET,True,True
method,method,method,method,NOUN,True,False
.,.,.,.,PUNCT,False,False
the,the,the,the,DET,True,True
result,result,result,result,NOUN,True,False
demonstrate,demonstrate,demonstrate,demonstrate,NOUN,True,False
that,that,that,that,SCONJ,True,True
1,1,1,1,NUM,False,False
without,without,without,without,ADP,True,True
take,take,take,take,VERB,True,True
into,into,into,into,ADP,True,True
account,account,account,account,NOUN,True,False
aggregate,aggregate,aggregate,aggregate,ADJ,True,False
interference,interference,interference,interference,NOUN,True,False
",",",",",",",",PUNCT,False,False
fss,fss,fss,fss,VERB,True,False
earth,earth,earth,earth,NOUN,True,False
stations,stations,station,station,NOUN,True,False
can,can,can,can,VERB,True,True
not,not,not,not,PART,True,True
be,be,be,be,AUX,True,True
protect,protect,protect,protect,ADJ,True,False
from,from,from,from,ADP,True,True
the,the,the,the,DET,True,True
harmful,harmful,harmful,harmful,ADJ,True,False
interference,interference,interference,interference,NOUN,True,False
of,of,of,of,ADP,True,True
multiple,multiple,multiple,multiple,ADJ,True,False
cbsd,cbsd,cbsd,cbsd,NOUN,True,False
2,2,2,2,NUM,False,False
by,by,by,by,ADP,True,True
use,use,use,use,NOUN,True,False
alternative,alternative,alternative,alternative,ADJ,True,False
mitigation,mitigation,mitigation,mitigation,NOUN,True,False
method,method,method,method,NOUN,True,False
",",",",",",",",PUNCT,False,False
fss,fss,fss,fss,VERB,True,False
earth,earth,earth,earth,NOUN,True,False
stations,stations,station,station,NOUN,True,False
can,can,can,can,VERB,True,True
be,be,be,be,AUX,True,True
protect,protect,protect,protect,ADJ,True,False
from,from,from,from,ADP,True,True
the,the,the,the,DET,True,True
harmful,harmful,harmful,harmful,ADJ,True,False
interference,interference,interference,interference,NOUN,True,False
of,of,of,of,ADP,True,True
multiple,multiple,multiple,multiple,ADJ,True,False
cbsds,cbsds,cbsds,cbsds,NOUN,True,False
and,and,and,and,CCONJ,True,True
3,3,3,3,NUM,False,False
use,use,use,use,NOUN,True,False
of,of,of,of,ADP,True,True
one,one,one,one,NUM,True,True
particular,particular,particular,particular,ADJ,True,False
alternative,alternative,alternative,alternative,ADJ,True,False
mitigation,mitigation,mitigation,mitigation,NOUN,True,False
method,method,method,method,NOUN,True,False
will,will,will,will,VERB,True,True
allow,allow,allow,allow,VERB,True,False
an,an,an,an,DET,True,True
increase,increase,increase,increase,NOUN,True,False
in,in,in,in,ADP,True,True
the,the,the,the,DET,True,True
maximum,maximum,maximum,maximum,ADJ,True,False
output,output,output,output,NOUN,True,False
power,power,power,power,NOUN,True,False
level,level,level,level,NOUN,True,False
of,of,of,of,ADP,True,True
cbsds,cbsds,cbsds,cbsds,NOUN,True,False
while,while,while,while,SCONJ,True,True
protect,protect,protect,protect,ADJ,True,False
fss,fss,fss,fss,NOUN,True,False
earth,earth,earth,earth,NOUN,True,False
stations,stations,station,station,NOUN,True,False
from,from,from,from,ADP,True,True
the,the,the,the,DET,True,True
harmful,harmful,harmful,harmful,ADJ,True,False
interference,interference,interference,interference,NOUN,True,False
of,of,of,of,ADP,True,True
multiple,multiple,multiple,multiple,ADJ,True,False
cbsds,cbsds,cbsds,cbsds,NOUN,True,False
.,.,.,.,PUNCT,False,False
