text,text_lower,lemma,lemma_lower,part_of_speech,is_alphabet,is_stopword
on,on,on,on,ADP,True,True
december,december,december,december,PROPN,True,False
12,12,12,12,NUM,False,False
",",",",",",",",PUNCT,False,False
2012,2012,2012,2012,NUM,False,False
",",",",",",",",PUNCT,False,False
the,the,the,the,DET,True,True
federal,federal,federal,federal,PROPN,True,False
communications,communications,communications,communications,PROPN,True,False
commission,commission,commission,commission,PROPN,True,False
issue,issue,issue,issue,NOUN,True,False
a,a,a,a,DET,True,True
notice,notice,notice,notice,NOUN,True,False
of,of,of,of,ADP,True,True
propose,propose,propose,propose,NOUN,True,False
rulemaking,rulemaking,rulemaking,rulemaking,NOUN,True,False
nprm,nprm,nprm,nprm,NOUN,True,False
",",",",",",",",PUNCT,False,False
under,under,under,under,ADP,True,True
gn,gn,gn,gn,PROPN,True,False
docket,docket,docket,docket,PROPN,True,False
12,12,12,12,NUM,False,False
-,-,-,-,SYM,False,False
354,354,354,354,NUM,False,False
",",",",",",",",PUNCT,False,False
propose,propose,propose,propose,VERB,True,False
the,the,the,the,DET,True,True
creation,creation,creation,creation,NOUN,True,False
of,of,of,of,ADP,True,True
a,a,a,a,DET,True,True
new,new,new,new,ADJ,True,False
citizens,citizens,citizen,citizen,NOUN,True,False
broadband,broadband,broadband,broadband,PROPN,True,False
service,service,service,service,PROPN,True,False
cbs,cbs,cbs,cbs,PROPN,True,False
share,share,share,share,VERB,True,False
the,the,the,the,DET,True,True
3550,3550,3550,3550,NUM,False,False
-,-,-,-,SYM,False,False
3650,3650,3650,3650,NUM,False,False
mhz,mhz,mhz,mhz,PROPN,True,False
band,band,band,band,NOUN,True,False
3.5,3.5,3.5,3.5,NUM,False,False
ghz,ghz,ghz,ghz,PROPN,True,False
band,band,band,band,NOUN,True,False
with,with,with,with,ADP,True,True
incumbent,incumbent,incumbent,incumbent,ADJ,True,False
user,user,user,user,NOUN,True,False
",",",",",",",",PUNCT,False,False
with,with,with,with,ADP,True,True
a,a,a,a,DET,True,True
supplementary,supplementary,supplementary,supplementary,ADJ,True,False
proposal,proposal,proposal,proposal,NOUN,True,False
to,to,to,to,PART,True,True
incorporate,incorporate,incorporate,incorporate,VERB,True,False
the,the,the,the,DET,True,True
3650,3650,3650,3650,NUM,False,False
-,-,-,-,SYM,False,False
3700,3700,3700,3700,NUM,False,False
mhz,mhz,mhz,mhz,PROPN,True,False
band,band,band,band,NOUN,True,False
3.65,3.65,3.65,3.65,NUM,False,False
ghz,ghz,ghz,ghz,PROPN,True,False
band,band,band,band,NOUN,True,False
under,under,under,under,ADP,True,True
the,the,the,the,DET,True,True
new,new,new,new,ADJ,True,False
regulatory,regulatory,regulatory,regulatory,ADJ,True,False
regime,regime,regime,regime,NOUN,True,False
.,.,.,.,PUNCT,False,False
on,on,on,on,ADP,True,True
april,april,april,april,PROPN,True,False
23,23,23,23,NUM,False,False
",",",",",",",",PUNCT,False,False
2014,2014,2014,2014,NUM,False,False
",",",",",",",",PUNCT,False,False
the,the,the,the,DET,True,True
commission,commission,commission,commission,NOUN,True,False
issue,issue,issue,issue,NOUN,True,False
a,a,a,a,DET,True,True
further,further,further,further,ADJ,True,True
notice,notice,notice,notice,NOUN,True,False
of,of,of,of,ADP,True,True
propose,propose,propose,propose,NOUN,True,False
rulemaking,rulemaking,rulemaking,rulemaking,NOUN,True,False
fnprm,fnprm,fnprm,fnprm,NOUN,True,False
",",",",",",",",PUNCT,False,False
under,under,under,under,ADP,True,True
gn,gn,gn,gn,PROPN,True,False
docket,docket,docket,docket,PROPN,True,False
12,12,12,12,NUM,False,False
-,-,-,-,PUNCT,False,False
354.exelon,354.exelon,354.exelon,354.exelon,NUM,False,False
corporation,corporation,corporation,corporation,NOUN,True,False
exelon,exelon,exelon,exelon,NOUN,True,False
hereby,hereby,hereby,hereby,PROPN,True,True
submit,submit,submit,submit,VERB,True,False
its,its,-PRON-,-pron-,DET,True,True
comment,comment,comment,comment,NOUN,True,False
to,to,to,to,ADP,True,True
the,the,the,the,DET,True,True
fnprm,fnprm,fnprm,fnprm,NOUN,True,False
in,in,in,in,ADP,True,True
the,the,the,the,DET,True,True
above,above,above,above,ADV,True,True
-,-,-,-,PUNCT,False,False
referenced,referenced,referenced,referenced,ADJ,True,False
docket,docket,docket,docket,NOUN,True,False
.,.,.,.,PUNCT,False,False
the,the,the,the,DET,True,True
exelon,exelon,exelon,exelon,PROPN,True,False
company,company,company,company,NOUN,True,False
commonwealth,commonwealth,commonwealth,commonwealth,PROPN,True,False
edison,edison,edison,edison,PROPN,True,False
company,company,company,company,PROPN,True,False
comed,comed,come,come,VERB,True,False
",",",",",",",",PUNCT,False,False
peco,peco,peco,peco,PROPN,True,False
energy,energy,energy,energy,PROPN,True,False
company,company,company,company,PROPN,True,False
peco,peco,peco,peco,PROPN,True,False
",",",",",",",",PUNCT,False,False
and,and,and,and,CCONJ,True,True
baltimore,baltimore,baltimore,baltimore,PROPN,True,False
gas,gas,gas,gas,NOUN,True,False
and,and,and,and,CCONJ,True,True
electric,electric,electric,electric,ADJ,True,False
bge,bge,bge,bge,NOUN,True,False
provide,provide,provide,provide,VERB,True,False
critical,critical,critical,critical,ADJ,True,False
infrastructure,infrastructure,infrastructure,infrastructure,NOUN,True,False
energy,energy,energy,energy,NOUN,True,False
delivery,delivery,delivery,delivery,NOUN,True,False
service,service,service,service,NOUN,True,False
to,to,to,to,ADP,True,True
approximately,approximately,approximately,approximately,ADV,True,False
6.6,6.6,6.6,6.6,NUM,False,False
million,million,million,million,NUM,True,False
customer,customer,customer,customer,NOUN,True,False
.,.,.,.,PUNCT,False,False
comed,comed,come,come,VERB,True,False
serve,serve,serve,serve,VERB,True,False
more,more,more,more,ADJ,True,True
than,than,than,than,SCONJ,True,True
3.8,3.8,3.8,3.8,NUM,False,False
million,million,million,million,NUM,True,False
electricity,electricity,electricity,electricity,NOUN,True,False
customer,customer,customer,customer,NOUN,True,False
in,in,in,in,ADP,True,True
northern,northern,northern,northern,ADJ,True,False
illinois,illinois,illinois,illinois,PROPN,True,False
include,include,include,include,VERB,True,False
chicago,chicago,chicago,chicago,PROPN,True,False
.,.,.,.,PUNCT,False,False
peco,peco,peco,peco,PROPN,True,False
serve,serve,serve,serve,VERB,True,False
about,about,about,about,ADV,True,True
1.6,1.6,1.6,1.6,NUM,False,False
million,million,million,million,NUM,True,False
electric,electric,electric,electric,ADJ,True,False
customer,customer,customer,customer,NOUN,True,False
and,and,and,and,CCONJ,True,True
"494,000","494,000","494,000","494,000",NUM,False,False
natural,natural,natural,natural,ADJ,True,False
gas,gas,gas,gas,NOUN,True,False
customer,customer,customer,customer,NOUN,True,False
in,in,in,in,ADP,True,True
southeastern,southeastern,southeastern,southeastern,PROPN,True,False
pennsylvania,pennsylvania,pennsylvania,pennsylvania,PROPN,True,False
include,include,include,include,VERB,True,False
philadelphia,philadelphia,philadelphia,philadelphia,PROPN,True,False
.,.,.,.,PUNCT,False,False
bge,bge,bge,bge,PROPN,True,False
serve,serve,serve,serve,VERB,True,False
about,about,about,about,ADV,True,True
1.2,1.2,1.2,1.2,NUM,False,False
million,million,million,million,NUM,True,False
electric,electric,electric,electric,ADJ,True,False
customer,customer,customer,customer,NOUN,True,False
and,and,and,and,CCONJ,True,True
more,more,more,more,ADJ,True,True
than,than,than,than,SCONJ,True,True
"650,000","650,000","650,000","650,000",NUM,False,False
gas,gas,gas,gas,NOUN,True,False
customer,customer,customer,customer,NOUN,True,False
in,in,in,in,ADP,True,True
central,central,central,central,ADJ,True,False
maryland,maryland,maryland,maryland,PROPN,True,False
include,include,include,include,VERB,True,False
baltimore,baltimore,baltimore,baltimore,PROPN,True,False
.,.,.,.,PUNCT,False,False
exelon,exelon,exelon,exelon,PROPN,True,False
currently,currently,currently,currently,ADV,True,False
hold,hold,hold,hold,VERB,True,False
several,several,several,several,ADJ,True,True
license,license,license,license,NOUN,True,False
in,in,in,in,ADP,True,True
the,the,the,the,DET,True,True
3.65,3.65,3.65,3.65,NUM,False,False
ghz,ghz,ghz,ghz,PROPN,True,False
band,band,band,band,NOUN,True,False
that,that,that,that,DET,True,True
form,form,form,form,VERB,True,False
a,a,a,a,DET,True,True
key,key,key,key,ADJ,True,False
component,component,component,component,NOUN,True,False
of,of,of,of,ADP,True,True
its,its,-PRON-,-pron-,DET,True,True
communication,communication,communication,communication,NOUN,True,False
network,network,network,network,NOUN,True,False
for,for,for,for,ADP,True,True
the,the,the,the,DET,True,True
efficient,efficient,efficient,efficient,ADJ,True,False
management,management,management,management,NOUN,True,False
of,of,of,of,ADP,True,True
its,its,-PRON-,-pron-,DET,True,True
utility,utility,utility,utility,NOUN,True,False
grid,grid,grid,grid,NOUN,True,False
.,.,.,.,PUNCT,False,False
it,it,-PRON-,-pron-,PRON,True,True
be,be,be,be,VERB,True,True
exelon,exelon,exelon,exelon,NOUN,True,False
intent,intent,intent,intent,ADJ,True,False
over,over,over,over,ADP,True,True
the,the,the,the,DET,True,True
long,long,long,long,ADJ,True,False
-,-,-,-,PUNCT,False,False
term,term,term,term,NOUN,True,False
to,to,to,to,PART,True,True
meet,meet,meet,meet,VERB,True,False
the,the,the,the,DET,True,True
mandate,mandate,mandate,mandate,NOUN,True,False
of,of,of,of,ADP,True,True
title,title,title,title,PROPN,True,False
xiii,xiii,xiii,xiii,PROPN,True,False
of,of,of,of,ADP,True,True
the,the,the,the,DET,True,True
energy,energy,energy,energy,NOUN,True,False
independence,independence,independence,independence,NOUN,True,False
and,and,and,and,CCONJ,True,True
security,security,security,security,NOUN,True,False
act,act,act,act,NOUN,True,False
of,of,of,of,ADP,True,True
2007,2007,2007,2007,NUM,False,False
eisa,eisa,eisa,eisa,PROPN,True,False
for,for,for,for,ADP,True,True
a,a,a,a,DET,True,True
smart,smart,smart,smart,ADJ,True,False
grid,grid,grid,grid,NOUN,True,False
network,network,network,network,NOUN,True,False
.,.,.,.,PUNCT,False,False
exelon,exelon,exelon,exelon,PROPN,True,False
operation,operation,operation,operation,NOUN,True,False
in,in,in,in,ADP,True,True
the,the,the,the,DET,True,True
3.65,3.65,3.65,3.65,NUM,False,False
ghz,ghz,ghz,ghz,PROPN,True,False
band,band,band,band,NOUN,True,False
represent,represent,represent,represent,VERB,True,False
a,a,a,a,DET,True,True
step,step,step,step,NOUN,True,False
in,in,in,in,ADP,True,True
that,that,that,that,DET,True,True
direction,direction,direction,direction,NOUN,True,False
.,.,.,.,PUNCT,False,False
as,as,as,as,SCONJ,True,True
the,the,the,the,DET,True,True
commission,commission,commission,commission,NOUN,True,False
be,be,be,be,AUX,True,True
well,well,well,well,ADV,True,True
aware,aware,aware,aware,ADJ,True,False
",",",",",",",",PUNCT,False,False
there,there,there,there,PRON,True,True
be,be,be,be,AUX,True,True
very,very,very,very,ADV,True,True
few,few,few,few,ADJ,True,True
suitable,suitable,suitable,suitable,ADJ,True,False
spectrum,spectrum,spectrum,spectrum,NOUN,True,False
option,option,option,option,NOUN,True,False
readily,readily,readily,readily,ADV,True,False
available,available,available,available,ADJ,True,False
to,to,to,to,ADP,True,True
electric,electric,electric,electric,ADJ,True,False
and,and,and,and,CCONJ,True,True
gas,gas,gas,gas,NOUN,True,False
utility,utility,utility,utility,NOUN,True,False
for,for,for,for,ADP,True,True
the,the,the,the,DET,True,True
implementation,implementation,implementation,implementation,NOUN,True,False
of,of,of,of,ADP,True,True
smart,smart,smart,smart,ADJ,True,False
grid,grid,grid,grid,NOUN,True,False
network,network,network,network,NOUN,True,False
.,.,.,.,PUNCT,False,False
the,the,the,the,DET,True,True
current,current,current,current,ADJ,True,False
rule,rule,rule,rule,NOUN,True,False
and,and,and,and,CCONJ,True,True
policy,policy,policy,policy,NOUN,True,False
in,in,in,in,ADP,True,True
place,place,place,place,NOUN,True,False
for,for,for,for,ADP,True,True
the,the,the,the,DET,True,True
3.65,3.65,3.65,3.65,NUM,False,False
ghz,ghz,ghz,ghz,PROPN,True,False
band,band,band,band,NOUN,True,False
be,be,be,be,AUX,True,True
not,not,not,not,PART,True,True
optimal,optimal,optimal,optimal,ADJ,True,False
but,but,but,but,CCONJ,True,True
",",",",",",",",PUNCT,False,False
nevertheless,nevertheless,nevertheless,nevertheless,ADV,True,True
",",",",",",",",PUNCT,False,False
this,this,this,this,DET,True,True
band,band,band,band,NOUN,True,False
represent,represent,represent,represent,VERB,True,False
one,one,one,one,NUM,True,True
of,of,of,of,ADP,True,True
the,the,the,the,DET,True,True
few,few,few,few,ADJ,True,True
spectrum,spectrum,spectrum,spectrum,NOUN,True,False
option,option,option,option,NOUN,True,False
available,available,available,available,ADJ,True,False
for,for,for,for,ADP,True,True
deploy,deploy,deploy,deploy,VERB,True,False
a,a,a,a,DET,True,True
wide,wide,wide,wide,ADJ,True,False
area,area,area,area,NOUN,True,False
network,network,network,network,NOUN,True,False
in,in,in,in,ADP,True,True
support,support,support,support,NOUN,True,False
of,of,of,of,ADP,True,True
our,our,-PRON-,-pron-,DET,True,True
smart,smart,smart,smart,ADJ,True,False
grid,grid,grid,grid,PROPN,True,False
initiative,initiative,initiative,initiative,PROPN,True,False
.,.,.,.,PUNCT,False,False
exelon,exelon,exelon,exelon,PROPN,True,False
applaud,applaud,applaud,applaud,VERB,True,False
the,the,the,the,DET,True,True
commissions,commissions,commission,commission,NOUN,True,False
ongoing,ongoing,ongoing,ongoing,ADJ,True,False
effort,effort,effort,effort,NOUN,True,False
to,to,to,to,PART,True,True
improve,improve,improve,improve,VERB,True,False
the,the,the,the,DET,True,True
overall,overall,overall,overall,ADJ,True,False
efficiency,efficiency,efficiency,efficiency,NOUN,True,False
of,of,of,of,ADP,True,True
usage,usage,usage,usage,NOUN,True,False
within,within,within,within,ADP,True,True
the,the,the,the,DET,True,True
spectrum,spectrum,spectrum,spectrum,PROPN,True,False
band,band,band,band,PROPN,True,False
3.5,3.5,3.5,3.5,NUM,False,False
ghz,ghz,ghz,ghz,PROPN,True,False
by,by,by,by,ADP,True,True
mean,mean,mean,mean,NOUN,True,False
of,of,of,of,ADP,True,True
the,the,the,the,DET,True,True
two,two,two,two,NUM,True,True
technique,technique,technique,technique,NOUN,True,False
small,small,small,small,ADJ,True,False
cell,cell,cell,cell,NOUN,True,False
and,and,and,and,CCONJ,True,True
spectrum,spectrum,spectrum,spectrum,NOUN,True,False
sharing,sharing,share,share,VERB,True,False
manage,manage,manage,manage,NOUN,True,False
by,by,by,by,ADP,True,True
the,the,the,the,DET,True,True
spectrum,spectrum,spectrum,spectrum,PROPN,True,False
access,access,access,access,PROPN,True,False
system,system,system,system,NOUN,True,False
sas,sas,sas,sas,PROPN,True,False
.,.,.,.,PUNCT,False,False
exelon,exelon,exelon,exelon,PROPN,True,False
also,also,also,also,ADV,True,True
see,see,see,see,VERB,True,True
considerable,considerable,considerable,considerable,ADJ,True,False
merit,merit,merit,merit,NOUN,True,False
in,in,in,in,ADP,True,True
the,the,the,the,DET,True,True
two,two,two,two,NUM,True,True
tier,tier,tier,tier,NOUN,True,False
approach,approach,approach,approach,NOUN,True,False
for,for,for,for,ADP,True,True
the,the,the,the,DET,True,True
awarding,awarding,awarding,awarding,NOUN,True,False
of,of,of,of,ADP,True,True
license,license,license,license,NOUN,True,False
priority,priority,priority,priority,NOUN,True,False
access,access,access,access,NOUN,True,False
licenses,licenses,license,license,NOUN,True,False
pal,pal,pal,pal,PROPN,True,False
and,and,and,and,CCONJ,True,True
general,general,general,general,ADJ,True,False
authorized,authorized,authorized,authorized,ADJ,True,False
access,access,access,access,NOUN,True,False
gaa,gaa,gaa,gaa,NOUN,True,False
license,license,license,license,NOUN,True,False
.,.,.,.,PUNCT,False,False
exelon,exelon,exelon,exelon,PROPN,True,False
comment,comment,comment,comment,NOUN,True,False
in,in,in,in,ADP,True,True
response,response,response,response,NOUN,True,False
to,to,to,to,ADP,True,True
the,the,the,the,DET,True,True
fnprm,fnprm,fnprm,fnprm,NOUN,True,False
be,be,be,be,AUX,True,True
base,base,base,base,NOUN,True,False
on,on,on,on,ADP,True,True
its,its,-PRON-,-pron-,DET,True,True
evaluation,evaluation,evaluation,evaluation,NOUN,True,False
of,of,of,of,ADP,True,True
the,the,the,the,DET,True,True
propose,propose,propose,propose,NOUN,True,False
rule,rule,rule,rule,NOUN,True,False
and,and,and,and,CCONJ,True,True
policy,policy,policy,policy,NOUN,True,False
for,for,for,for,ADP,True,True
the,the,the,the,DET,True,True
citizens,citizens,citizen,citizen,NOUN,True,False
band,band,band,band,NOUN,True,False
radio,radio,radio,radio,NOUN,True,False
service,service,service,service,NOUN,True,False
cbrs,cbrs,cbr,cbr,NOUN,True,False
and,and,and,and,CCONJ,True,True
how,how,how,how,ADV,True,True
these,these,these,these,DET,True,True
proposal,proposal,proposal,proposal,NOUN,True,False
would,would,would,would,VERB,True,True
impact,impact,impact,impact,VERB,True,False
its,its,-PRON-,-pron-,DET,True,True
ability,ability,ability,ability,NOUN,True,False
to,to,to,to,PART,True,True
deploy,deploy,deploy,deploy,VERB,True,False
a,a,a,a,DET,True,True
secure,secure,secure,secure,ADJ,True,False
and,and,and,and,CCONJ,True,True
reliable,reliable,reliable,reliable,ADJ,True,False
smart,smart,smart,smart,ADJ,True,False
grid,grid,grid,grid,NOUN,True,False
network,network,network,network,NOUN,True,False
segment,segment,segment,segment,NOUN,True,False
in,in,in,in,ADP,True,True
the,the,the,the,DET,True,True
3.65,3.65,3.65,3.65,NUM,False,False
ghz,ghz,ghz,ghz,PROPN,True,False
band,band,band,band,NOUN,True,False
if,if,if,if,SCONJ,True,True
the,the,the,the,DET,True,True
same,same,same,same,ADJ,True,True
rule,rule,rule,rule,NOUN,True,False
be,be,be,be,AUX,True,True
extend,extend,extend,extend,VERB,True,False
to,to,to,to,PART,True,True
cover,cover,cover,cover,VERB,True,False
the,the,the,the,DET,True,True
3.65,3.65,3.65,3.65,NUM,False,False
ghz,ghz,ghz,ghz,PROPN,True,False
band,band,band,band,PROPN,True,False
.,.,.,.,PUNCT,False,False
exelon,exelon,exelon,exelon,PROPN,True,False
thoughtful,thoughtful,thoughtful,thoughtful,ADJ,True,False
review,review,review,review,NOUN,True,False
raise,raise,raise,raise,VERB,True,False
several,several,several,several,ADJ,True,True
concern,concern,concern,concern,NOUN,True,False
about,about,about,about,ADP,True,True
the,the,the,the,DET,True,True
condition,condition,condition,condition,NOUN,True,False
under,under,under,under,ADP,True,True
which,which,which,which,DET,True,True
the,the,the,the,DET,True,True
3.65,3.65,3.65,3.65,NUM,False,False
ghz,ghz,ghz,ghz,PROPN,True,False
band,band,band,band,NOUN,True,False
would,would,would,would,VERB,True,True
be,be,be,be,AUX,True,True
include,include,include,include,VERB,True,False
within,within,within,within,ADP,True,True
the,the,the,the,DET,True,True
cbrs,cbrs,cbr,cbr,NOUN,True,False
regulatory,regulatory,regulatory,regulatory,ADJ,True,False
regime,regime,regime,regime,NOUN,True,False
and,and,and,and,CCONJ,True,True
its,its,-PRON-,-pron-,DET,True,True
concern,concern,concern,concern,NOUN,True,False
with,with,with,with,ADP,True,True
suggested,suggested,suggest,suggest,VERB,True,False
remedy,remedy,remedy,remedy,NOUN,True,False
be,be,be,be,AUX,True,True
describe,describe,describe,describe,ADJ,True,False
in,in,in,in,ADP,True,True
the,the,the,the,DET,True,True
follow,follow,follow,follow,NOUN,True,False
paragraph,paragraph,paragraph,paragraph,PROPN,True,False
.,.,.,.,PUNCT,False,False
exelon,exelon,exelon,exelon,PROPN,True,False
submit,submit,submit,submit,VERB,True,False
these,these,these,these,DET,True,True
comment,comment,comment,comment,NOUN,True,False
regard,regard,regard,regard,VERB,True,False
the,the,the,the,DET,True,True
potential,potential,potential,potential,ADJ,True,False
effect,effect,effect,effect,NOUN,True,False
on,on,on,on,ADP,True,True
energy,energy,energy,energy,NOUN,True,False
deliveryoperation,deliveryoperation,deliveryoperation,deliveryoperation,NOUN,True,False
and,and,and,and,CCONJ,True,True
be,be,be,be,AUX,True,True
concern,concern,concern,concern,NOUN,True,False
that,that,that,that,SCONJ,True,True
the,the,the,the,DET,True,True
licensing,licensing,licensing,licensing,NOUN,True,False
concept,concept,concept,concept,NOUN,True,False
refer,refer,refer,refer,NOUN,True,False
to,to,to,to,ADP,True,True
as,as,as,as,SCONJ,True,True
the,the,the,the,DET,True,True
revised,revised,revised,revised,ADJ,True,False
framework,framework,framework,framework,NOUN,True,False
inthe,inthe,inthe,inthe,DET,True,False
fnprm,fnprm,fnprm,fnprm,NOUN,True,False
would,would,would,would,VERB,True,True
discourage,discourage,discourage,discourage,VERB,True,False
electric,electric,electric,electric,ADJ,True,False
and,and,and,and,CCONJ,True,True
gas,gas,gas,gas,NOUN,True,False
utility,utility,utility,utility,NOUN,True,False
access,access,access,access,NOUN,True,False
to,to,to,to,ADP,True,True
the,the,the,the,DET,True,True
3.5,3.5,3.5,3.5,NUM,False,False
ghz,ghz,ghz,ghz,PROPN,True,False
band,band,band,band,NOUN,True,False
and,and,and,and,CCONJ,True,True
that,that,that,that,DET,True,True
itwould,itwould,itwould,itwould,VERB,True,False
impair,impair,impair,impair,VERB,True,False
exist,exist,exist,exist,VERB,True,False
utility,utility,utility,utility,NOUN,True,False
system,system,system,system,NOUN,True,False
in,in,in,in,ADP,True,True
the,the,the,the,DET,True,True
3.65,3.65,3.65,3.65,NUM,False,False
ghz,ghz,ghz,ghz,PROPN,True,False
band,band,band,band,NOUN,True,False
exelons,exelons,exelon,exelon,NOUN,True,False
operation,operation,operation,operation,NOUN,True,False
of,of,of,of,ADP,True,True
significant3.65,significant3.65,significant3.65,significant3.65,PROPN,False,False
ghz,ghz,ghz,ghz,PROPN,True,False
band,band,band,band,PROPN,True,False
network,network,network,network,NOUN,True,False
that,that,that,that,DET,True,True
support,support,support,support,VERB,True,False
both,both,both,both,CCONJ,True,True
advanced,advanced,advanced,advanced,ADJ,True,False
metering,metering,metering,metering,NOUN,True,False
infrastructure,infrastructure,infrastructure,infrastructure,NOUN,True,False
ami,ami,ami,ami,PROPN,True,False
anddistribute,anddistribute,anddistribute,anddistribute,PROPN,True,False
automation,automation,automation,automation,PROPN,True,False
da,da,da,da,PROPN,True,False
for,for,for,for,ADP,True,True
smart,smart,smart,smart,PROPN,True,False
grid,grid,grid,grid,PROPN,True,False
.,.,.,.,PUNCT,False,False
the,the,the,the,DET,True,True
investment,investment,investment,investment,NOUN,True,False
in,in,in,in,ADP,True,True
these,these,these,these,DET,True,True
network,network,network,network,NOUN,True,False
be,be,be,be,AUX,True,True
significant,significant,significant,significant,ADJ,True,False
",",",",",",",",PUNCT,False,False
include,include,include,include,VERB,True,False
million,million,million,million,NUM,True,False
of,of,of,of,ADP,True,True
dollar,dollar,dollar,dollar,NOUN,True,False
of,of,of,of,ADP,True,True
exelons,exelons,exelon,exelon,NOUN,True,False
money,money,money,money,NOUN,True,False
",",",",",",",",PUNCT,False,False
federal,federal,federal,federal,ADJ,True,False
grant,grant,grant,grant,NOUN,True,False
money,money,money,money,NOUN,True,False
",",",",",",",",PUNCT,False,False
and,and,and,and,CCONJ,True,True
state,state,state,state,NOUN,True,False
funding,funding,funding,funding,NOUN,True,False
.,.,.,.,PUNCT,False,False
exelon,exelon,exelon,exelon,PROPN,True,False
be,be,be,be,AUX,True,True
in,in,in,in,ADP,True,True
agreement,agreement,agreement,agreement,NOUN,True,False
with,with,with,with,ADP,True,True
the,the,the,the,DET,True,True
utilities,utilities,utilities,utilities,PROPN,True,False
telecom,telecom,telecom,telecom,PROPN,True,False
council,council,council,council,PROPN,True,False
utc,utc,utc,utc,PROPN,True,False
in,in,in,in,ADP,True,True
response,response,response,response,NOUN,True,False
to,to,to,to,ADP,True,True
the,the,the,the,DET,True,True
revisedframework,revisedframework,revisedframework,revisedframework,NOUN,True,False
.,.,.,.,PUNCT,False,False
specifically,specifically,specifically,specifically,ADV,True,False
",",",",",",",",PUNCT,False,False
exelon,exelon,exelon,exelon,PROPN,True,False
be,be,be,be,AUX,True,True
in,in,in,in,ADP,True,True
agreement,agreement,agreement,agreement,NOUN,True,False
with,with,with,with,ADP,True,True
the,the,the,the,DET,True,True
utc,utc,utc,utc,NOUN,True,False
that,that,that,that,SCONJ,True,True
the,the,the,the,DET,True,True
revised,revised,revised,revised,ADJ,True,False
frameworkwould,frameworkwould,frameworkwould,frameworkwould,VERB,True,False
negatively,negatively,negatively,negatively,ADV,True,False
impact,impact,impact,impact,NOUN,True,False
exist,exist,exist,exist,VERB,True,False
electric,electric,electric,electric,ADJ,True,False
and,and,and,and,CCONJ,True,True
gas,gas,gas,gas,NOUN,True,False
utility,utility,utility,utility,NOUN,True,False
system,system,system,system,NOUN,True,False
in,in,in,in,ADP,True,True
the,the,the,the,DET,True,True
3.65,3.65,3.65,3.65,NUM,False,False
ghz,ghz,ghz,ghz,PROPN,True,False
band,band,band,band,NOUN,True,False
in,in,in,in,ADP,True,True
twowaysby,twowaysby,twowaysby,twowaysby,PROPN,True,False
reserve,reserve,reserve,reserve,PROPN,True,False
spectrum,spectrum,spectrum,spectrum,NOUN,True,False
in,in,in,in,ADP,True,True
the,the,the,the,DET,True,True
3.65,3.65,3.65,3.65,NUM,False,False
ghz,ghz,ghz,ghz,PROPN,True,False
band,band,band,band,NOUN,True,False
for,for,for,for,ADP,True,True
gaa,gaa,gaa,gaa,NOUN,True,False
system,system,system,system,NOUN,True,False
exelon,exelon,exelon,exelon,NOUN,True,False
believe,believe,believe,believe,VERB,True,False
that,that,that,that,SCONJ,True,True
the,the,the,the,DET,True,True
potential,potential,potential,potential,NOUN,True,False
for,for,for,for,ADP,True,True
harmful,harmful,harmful,harmful,ADJ,True,False
interference,interference,interference,interference,NOUN,True,False
that,that,that,that,DET,True,True
would,would,would,would,VERB,True,True
affect,affect,affect,affect,VERB,True,False
the,the,the,the,DET,True,True
reliability,reliability,reliability,reliability,NOUN,True,False
of,of,of,of,ADP,True,True
electric,electric,electric,electric,ADJ,True,False
and,and,and,and,CCONJ,True,True
gas,gas,gas,gas,NOUN,True,False
utility,utility,utility,utility,NOUN,True,False
system,system,system,system,NOUN,True,False
be,be,be,be,AUX,True,True
too,too,too,too,ADV,True,True
great,great,great,great,ADJ,True,False
.,.,.,.,PUNCT,False,False
by,by,by,by,ADP,True,True
require,require,require,require,VERB,True,False
incumbent,incumbent,incumbent,incumbent,ADJ,True,False
in,in,in,in,ADP,True,True
the,the,the,the,DET,True,True
3.65,3.65,3.65,3.65,NUM,False,False
ghz,ghz,ghz,ghz,PROPN,True,False
band,band,band,band,NOUN,True,False
to,to,to,to,PART,True,True
bring,bring,bring,bring,VERB,True,False
equipment,equipment,equipment,equipment,NOUN,True,False
into,into,into,into,ADP,True,True
compliance,compliance,compliance,compliance,NOUN,True,False
with,with,with,with,ADP,True,True
the,the,the,the,DET,True,True
rule,rule,rule,rule,NOUN,True,False
for,for,for,for,ADP,True,True
the,the,the,the,DET,True,True
3.5,3.5,3.5,3.5,NUM,False,False
ghz,ghz,ghz,ghz,PROPN,True,False
band,band,band,band,NOUN,True,False
over,over,over,over,ADP,True,True
a,a,a,a,DET,True,True
five,five,five,five,NUM,True,True
-,-,-,-,PUNCT,False,False
year,year,year,year,NOUN,True,False
transition,transition,transition,transition,NOUN,True,False
period,period,period,period,NOUN,True,False
exelon,exelon,exelon,exelon,PROPN,True,False
believe,believe,believe,believe,VERB,True,False
that,that,that,that,SCONJ,True,True
the,the,the,the,DET,True,True
five,five,five,five,NUM,True,True
year,year,year,year,NOUN,True,False
transition,transition,transition,transition,NOUN,True,False
period,period,period,period,NOUN,True,False
propose,propose,propose,propose,NOUN,True,False
be,be,be,be,AUX,True,True
inadequate,inadequate,inadequate,inadequate,ADJ,True,False
give,give,give,give,VERB,True,True
the,the,the,the,DET,True,True
normal,normal,normal,normal,ADJ,True,False
life,life,life,life,NOUN,True,False
-,-,-,-,PUNCT,False,False
cycle,cycle,cycle,cycle,NOUN,True,False
of,of,of,of,ADP,True,True
equipment,equipment,equipment,equipment,NOUN,True,False
and,and,and,and,CCONJ,True,True
",",",",",",",",PUNCT,False,False
give,give,give,give,VERB,True,True
the,the,the,the,DET,True,True
size,size,size,size,NOUN,True,False
of,of,of,of,ADP,True,True
the,the,the,the,DET,True,True
network,network,network,network,NOUN,True,False
involve,involve,involve,involve,NOUN,True,False
",",",",",",",",PUNCT,False,False
would,would,would,would,VERB,True,True
also,also,also,also,ADV,True,True
be,be,be,be,AUX,True,True
cost,cost,cost,cost,NOUN,True,False
-,-,-,-,PUNCT,False,False
prohibitive,prohibitive,prohibitive,prohibitive,ADJ,True,False
.,.,.,.,PUNCT,False,False
with,with,with,with,ADP,True,True
regard,regard,regard,regard,NOUN,True,False
to,to,to,to,ADP,True,True
the,the,the,the,DET,True,True
commissions,commissions,commission,commission,NOUN,True,False
intent,intent,intent,intent,ADJ,True,False
to,to,to,to,PART,True,True
include,include,include,include,VERB,True,False
the,the,the,the,DET,True,True
3.65,3.65,3.65,3.65,NUM,False,False
ghz,ghz,ghz,ghz,PROPN,True,False
band,band,band,band,NOUN,True,False
in,in,in,in,ADP,True,True
the,the,the,the,DET,True,True
cbrsregulatory,cbrsregulatory,cbrsregulatory,cbrsregulatory,ADJ,True,False
regime,regime,regime,regime,NOUN,True,False
",",",",",",",",PUNCT,False,False
exelon,exelon,exelon,exelon,PROPN,True,False
have,have,have,have,AUX,True,True
serious,serious,serious,serious,ADJ,True,True
concern,concern,concern,concern,NOUN,True,False
about,about,about,about,ADP,True,True
the,the,the,the,DET,True,True
impact,impact,impact,impact,NOUN,True,False
these,these,these,these,DET,True,True
new,new,new,new,ADJ,True,False
operational,operational,operational,operational,ADJ,True,False
rule,rule,rule,rule,NOUN,True,False
andpolicie,andpolicie,andpolicie,andpolicie,PROPN,True,False
will,will,will,will,VERB,True,True
have,have,have,have,AUX,True,True
on,on,on,on,ADP,True,True
its,its,-PRON-,-pron-,DET,True,True
ability,ability,ability,ability,NOUN,True,False
to,to,to,to,PART,True,True
continue,continue,continue,continue,VERB,True,False
to,to,to,to,PART,True,True
operate,operate,operate,operate,VERB,True,False
and,and,and,and,CCONJ,True,True
gain,gain,gain,gain,VERB,True,False
new,new,new,new,ADJ,True,False
license,license,license,license,NOUN,True,False
in,in,in,in,ADP,True,True
this,this,this,this,DET,True,True
band,band,band,band,NOUN,True,False
with,with,with,with,ADP,True,True
theassurance,theassurance,theassurance,theassurance,NOUN,True,False
necessary,necessary,necessary,necessary,ADJ,True,False
to,to,to,to,PART,True,True
meet,meet,meet,meet,VERB,True,False
its,its,-PRON-,-pron-,DET,True,True
requirement,requirement,requirement,requirement,NOUN,True,False
for,for,for,for,ADP,True,True
interference,interference,interference,interference,NOUN,True,False
protection,protection,protection,protection,NOUN,True,False
and,and,and,and,CCONJ,True,True
network,network,network,network,NOUN,True,False
capacity,capacity,capacity,capacity,NOUN,True,False
tomeet,tomeet,tomeet,tomeet,NOUN,True,False
grow,grow,grow,grow,VERB,True,False
demand,demand,demand,demand,NOUN,True,False
.,.,.,.,PUNCT,False,False
exelon,exelon,exelon,exelon,PROPN,True,False
oppose,oppose,oppose,oppose,VERB,True,False
the,the,the,the,DET,True,True
inclusion,inclusion,inclusion,inclusion,NOUN,True,False
of,of,of,of,ADP,True,True
the,the,the,the,DET,True,True
3.65,3.65,3.65,3.65,NUM,False,False
ghz,ghz,ghz,ghz,PROPN,True,False
band,band,band,band,NOUN,True,False
in,in,in,in,ADP,True,True
the,the,the,the,DET,True,True
cbrs.exelon,cbrs.exelon,cbrs.exelon,cbrs.exelon,PROPN,False,False
have,have,have,have,AUX,True,True
carefully,carefully,carefully,carefully,ADV,True,False
review,review,review,review,VERB,True,False
the,the,the,the,DET,True,True
comment,comment,comment,comment,NOUN,True,False
be,be,be,be,AUX,True,True
submit,submit,submit,submit,ADJ,True,False
by,by,by,by,ADP,True,True
the,the,the,the,DET,True,True
utc,utc,utc,utc,NOUN,True,False
with,with,with,with,ADP,True,True
respect,respect,respect,respect,NOUN,True,False
tothe,tothe,tothe,tothe,DET,True,False
3.65,3.65,3.65,3.65,NUM,False,False
ghz,ghz,ghz,ghz,PROPN,True,False
band,band,band,band,NOUN,True,False
in,in,in,in,ADP,True,True
response,response,response,response,NOUN,True,False
to,to,to,to,ADP,True,True
the,the,the,the,DET,True,True
fnprm,fnprm,fnprm,fnprm,NOUN,True,False
and,and,and,and,CCONJ,True,True
agree,agree,agree,agree,VERB,True,False
with,with,with,with,ADP,True,True
the,the,the,the,DET,True,True
utc,utc,utc,utc,NOUN,True,False
conclusion,conclusion,conclusion,conclusion,NOUN,True,False
that,that,that,that,DET,True,True
the3.65,the3.65,the3.65,the3.65,PROPN,False,False
ghz,ghz,ghz,ghz,PROPN,True,False
band,band,band,band,NOUN,True,False
be,be,be,be,AUX,True,True
exclude,exclude,exclude,exclude,ADJ,True,False
from,from,from,from,ADP,True,True
the,the,the,the,DET,True,True
3.5,3.5,3.5,3.5,NUM,False,False
ghz,ghz,ghz,ghz,PROPN,True,False
band,band,band,band,NOUN,True,False
cbrs,cbrs,cbr,cbr,VERB,True,False
regulatory,regulatory,regulatory,regulatory,ADJ,True,False
regime,regime,regime,regime,NOUN,True,False
for,for,for,for,ADP,True,True
reason,reason,reason,reason,NOUN,True,False
citedin,citedin,citedin,citedin,ADV,True,False
the,the,the,the,DET,True,True
utc,utc,utc,utc,NOUN,True,False
comment,comment,comment,comment,NOUN,True,False
to,to,to,to,ADP,True,True
the,the,the,the,DET,True,True
fnprm,fnprm,fnprm,fnprm,NOUN,True,False
.,.,.,.,PUNCT,False,False
in,in,in,in,ADP,True,True
the,the,the,the,DET,True,True
absence,absence,absence,absence,NOUN,True,False
of,of,of,of,ADP,True,True
alternative,alternative,alternative,alternative,ADJ,True,False
spectrum,spectrum,spectrum,spectrum,NOUN,True,False
",",",",",",",",PUNCT,False,False
the,the,the,the,DET,True,True
3.65,3.65,3.65,3.65,NUM,False,False
ghzband,ghzband,ghzband,ghzband,NOUN,True,False
",",",",",",",",PUNCT,False,False
under,under,under,under,ADP,True,True
the,the,the,the,DET,True,True
current,current,current,current,ADJ,True,False
licensing,licensing,licensing,licensing,NOUN,True,False
rule,rule,rule,rule,NOUN,True,False
be,be,be,be,AUX,True,True
a,a,a,a,DET,True,True
viable,viable,viable,viable,ADJ,True,False
option,option,option,option,NOUN,True,False
for,for,for,for,ADP,True,True
smart,smart,smart,smart,ADJ,True,False
grid,grid,grid,grid,NOUN,True,False
network,network,network,network,NOUN,True,False
.,.,.,.,PUNCT,False,False
impose,impose,impose,impose,VERB,True,False
the,the,the,the,DET,True,True
rule,rule,rule,rule,NOUN,True,False
propose,propose,propose,propose,NOUN,True,False
in,in,in,in,ADP,True,True
the,the,the,the,DET,True,True
fnprm,fnprm,fnprm,fnprm,NOUN,True,False
for,for,for,for,ADP,True,True
cbrs,cbrs,cbr,cbr,NOUN,True,False
would,would,would,would,VERB,True,True
be,be,be,be,AUX,True,True
detrimental,detrimental,detrimental,detrimental,ADJ,True,False
to,to,to,to,ADP,True,True
exelon,exelon,exelon,exelon,NOUN,True,False
effort,effort,effort,effort,NOUN,True,False
and,and,and,and,CCONJ,True,True
its,its,-PRON-,-pron-,DET,True,True
ability,ability,ability,ability,NOUN,True,False
to,to,to,to,PART,True,True
fully,fully,fully,fully,ADV,True,False
implement,implement,implement,implement,VERB,True,False
a,a,a,a,DET,True,True
smart,smart,smart,smart,ADJ,True,False
grid,grid,grid,grid,NOUN,True,False
network,network,network,network,NOUN,True,False
and,and,and,and,CCONJ,True,True
meet,meet,meet,meet,VERB,True,False
the,the,the,the,DET,True,True
mandate,mandate,mandate,mandate,NOUN,True,False
of,of,of,of,ADP,True,True
title,title,title,title,PROPN,True,False
xiii,xiii,xiii,xiii,PROPN,True,False
.,.,.,.,PUNCT,False,False
for,for,for,for,ADP,True,True
these,these,these,these,DET,True,True
reason,reason,reason,reason,NOUN,True,False
",",",",",",",",PUNCT,False,False
exelon,exelon,exelon,exelon,PROPN,True,False
strongly,strongly,strongly,strongly,ADV,True,False
support,support,support,support,VERB,True,False
the,the,the,the,DET,True,True
recommendation,recommendation,recommendation,recommendation,NOUN,True,False
of,of,of,of,ADP,True,True
the,the,the,the,DET,True,True
utc,utc,utc,utc,NOUN,True,False
that,that,that,that,DET,True,True
the,the,the,the,DET,True,True
commission,commission,commission,commission,NOUN,True,False
refrain,refrain,refrain,refrain,VERB,True,False
from,from,from,from,ADP,True,True
extend,extend,extend,extend,VERB,True,False
the,the,the,the,DET,True,True
licensing,licensing,licensing,licensing,NOUN,True,False
and,and,and,and,CCONJ,True,True
authorization,authorization,authorization,authorization,NOUN,True,False
model,model,model,model,NOUN,True,False
in,in,in,in,ADP,True,True
the,the,the,the,DET,True,True
3.5,3.5,3.5,3.5,NUM,False,False
ghz,ghz,ghz,ghz,PROPN,True,False
band,band,band,band,NOUN,True,False
to,to,to,to,PART,True,True
apply,apply,apply,apply,VERB,True,False
to,to,to,to,ADP,True,True
the,the,the,the,DET,True,True
3.65,3.65,3.65,3.65,NUM,False,False
ghz,ghz,ghz,ghz,PROPN,True,False
band,band,band,band,NOUN,True,False
.,.,.,.,PUNCT,False,False
the,the,the,the,DET,True,True
commission,commission,commission,commission,NOUN,True,False
should,should,should,should,VERB,True,True
exclude,exclude,exclude,exclude,VERB,True,False
the,the,the,the,DET,True,True
3.65,3.65,3.65,3.65,NUM,False,False
ghz,ghz,ghz,ghz,PROPN,True,False
band,band,band,band,NOUN,True,False
from,from,from,from,ADP,True,True
the,the,the,the,DET,True,True
cbrs,cbrs,cbr,cbr,NOUN,True,False
proceeding,proceeding,proceed,proceed,VERB,True,False
.,.,.,.,PUNCT,False,False
the,the,the,the,DET,True,True
reliability,reliability,reliability,reliability,NOUN,True,False
requirement,requirement,requirement,requirement,NOUN,True,False
of,of,of,of,ADP,True,True
electric,electric,electric,electric,ADJ,True,False
and,and,and,and,CCONJ,True,True
gas,gas,gas,gas,NOUN,True,False
utility,utility,utility,utility,NOUN,True,False
communication,communication,communication,communication,NOUN,True,False
",",",",",",",",PUNCT,False,False
especially,especially,especially,especially,ADV,True,False
during,during,during,during,ADP,True,True
time,time,time,time,NOUN,True,False
of,of,of,of,ADP,True,True
disaster,disaster,disaster,disaster,NOUN,True,False
",",",",",",",",PUNCT,False,False
be,be,be,be,AUX,True,True
very,very,very,very,ADV,True,True
high,high,high,high,ADJ,True,False
.,.,.,.,PUNCT,False,False
electric,electric,electric,electric,ADJ,True,False
utility,utility,utility,utility,NOUN,True,False
need,need,need,need,VERB,True,False
dedicated,dedicated,dedicated,dedicated,ADJ,True,False
spectrum,spectrum,spectrum,spectrum,NOUN,True,False
that,that,that,that,SCONJ,True,True
they,they,-PRON-,-pron-,PRON,True,True
can,can,can,can,VERB,True,True
easily,easily,easily,easily,ADV,True,False
obtain,obtain,obtain,obtain,VERB,True,False
at,at,at,at,ADP,True,True
a,a,a,a,DET,True,True
reasonable,reasonable,reasonable,reasonable,ADJ,True,False
cost,cost,cost,cost,NOUN,True,False
to,to,to,to,PART,True,True
use,use,use,use,VERB,True,False
in,in,in,in,ADP,True,True
conjunction,conjunction,conjunction,conjunction,NOUN,True,False
with,with,with,with,ADP,True,True
operate,operate,operate,operate,ADJ,True,False
the,the,the,the,DET,True,True
power,power,power,power,NOUN,True,False
system,system,system,system,NOUN,True,False
.,.,.,.,PUNCT,False,False
such,such,such,such,ADJ,True,True
utility,utility,utility,utility,NOUN,True,False
be,be,be,be,AUX,True,True
consider,consider,consider,consider,VERB,True,False
critical,critical,critical,critical,ADJ,True,False
infrastructure,infrastructure,infrastructure,infrastructure,NOUN,True,False
and,and,and,and,CCONJ,True,True
",",",",",",",",PUNCT,False,False
as,as,as,as,SCONJ,True,True
such,such,such,such,ADJ,True,True
",",",",",",",",PUNCT,False,False
require,require,require,require,VERB,True,False
reliable,reliable,reliable,reliable,ADJ,True,False
communication,communication,communication,communication,NOUN,True,False
base,base,base,base,NOUN,True,False
monitoring,monitoring,monitoring,monitoring,NOUN,True,False
and,and,and,and,CCONJ,True,True
control,control,control,control,NOUN,True,False
",",",",",",",",PUNCT,False,False
often,often,often,often,ADV,True,True
know,know,know,know,VERB,True,False
as,as,as,as,ADV,True,True
smart,smart,smart,smart,ADJ,True,False
grid,grid,grid,grid,NOUN,True,False
",",",",",",",",PUNCT,False,False
to,to,to,to,PART,True,True
meet,meet,meet,meet,VERB,True,False
customer,customer,customer,customer,NOUN,True,False
need,need,need,need,NOUN,True,False
.,.,.,.,PUNCT,False,False
furthermore,furthermore,furthermore,furthermore,ADV,True,False
",",",",",",",",PUNCT,False,False
unlike,unlike,unlike,unlike,ADP,True,False
the,the,the,the,DET,True,True
telecommunication,telecommunication,telecommunication,telecommunication,NOUN,True,False
service,service,service,service,NOUN,True,False
provider,provider,provider,provider,NOUN,True,False
",",",",",",",",PUNCT,False,False
electric,electric,electric,electric,ADJ,True,False
utility,utility,utility,utility,NOUN,True,False
do,do,do,do,AUX,True,True
not,not,not,not,PART,True,True
earn,earn,earn,earn,VERB,True,False
revenue,revenue,revenue,revenue,NOUN,True,False
from,from,from,from,ADP,True,True
radio,radio,radio,radio,NOUN,True,False
spectrum,spectrum,spectrum,spectrum,NOUN,True,False
.,.,.,.,PUNCT,False,False
electric,electric,electric,electric,ADJ,True,False
and,and,and,and,CCONJ,True,True
gas,gas,gas,gas,NOUN,True,False
utility,utility,utility,utility,NOUN,True,False
can,can,can,can,VERB,True,True
not,not,not,not,PART,True,True
compete,compete,compete,compete,VERB,True,False
with,with,with,with,ADP,True,True
major,major,major,major,ADJ,True,False
commercial,commercial,commercial,commercial,ADJ,True,False
telecommunications,telecommunications,telecommunications,telecommunications,NOUN,True,False
carrier,carrier,carrier,carrier,NOUN,True,False
like,like,like,like,SCONJ,True,False
verizon,verizon,verizon,verizon,PROPN,True,False
",",",",",",",",PUNCT,False,False
att,att,att,att,INTJ,True,False
",",",",",",",",PUNCT,False,False
etc,etc,etc,etc,X,True,False
.,.,.,.,PUNCT,False,False
for,for,for,for,ADP,True,True
spectrum,spectrum,spectrum,spectrum,NOUN,True,False
and,and,and,and,CCONJ,True,True
these,these,these,these,DET,True,True
carrier,carrier,carrier,carrier,NOUN,True,False
would,would,would,would,VERB,True,True
dominate,dominate,dominate,dominate,VERB,True,False
a,a,a,a,DET,True,True
spectrum,spectrum,spectrum,spectrum,NOUN,True,False
auction,auction,auction,auction,NOUN,True,False
to,to,to,to,ADP,True,True
the,the,the,the,DET,True,True
exclusion,exclusion,exclusion,exclusion,NOUN,True,False
of,of,of,of,ADP,True,True
electric,electric,electric,electric,ADJ,True,False
and,and,and,and,CCONJ,True,True
gas,gas,gas,gas,NOUN,True,False
utility,utility,utility,utility,NOUN,True,False
.,.,.,.,PUNCT,False,False
nor,nor,nor,nor,CCONJ,True,True
can,can,can,can,VERB,True,True
electric,electric,electric,electric,VERB,True,False
and,and,and,and,CCONJ,True,True
gas,gas,gas,gas,NOUN,True,False
utility,utility,utility,utility,NOUN,True,False
justify,justify,justify,justify,PROPN,True,False
pay,pay,pay,pay,NOUN,True,False
for,for,for,for,ADP,True,True
spectrum,spectrum,spectrum,spectrum,NOUN,True,False
beyond,beyond,beyond,beyond,ADP,True,True
license,license,license,license,NOUN,True,False
fee,fee,fee,fee,NOUN,True,False
.,.,.,.,PUNCT,False,False
additionally,additionally,additionally,additionally,ADV,True,False
",",",",",",",",PUNCT,False,False
electric,electric,electric,electric,ADJ,True,False
and,and,and,and,CCONJ,True,True
gas,gas,gas,gas,NOUN,True,False
utility,utility,utility,utility,NOUN,True,False
spectrum,spectrum,spectrum,spectrum,NOUN,True,False
need,need,nee,nee,VERB,True,False
be,be,be,be,AUX,True,True
not,not,not,not,PART,True,True
as,as,as,as,ADV,True,True
demanding,demanding,demanding,demanding,ADJ,True,False
as,as,as,as,SCONJ,True,True
those,those,those,those,DET,True,True
of,of,of,of,ADP,True,True
telecommunication,telecommunication,telecommunication,telecommunication,NOUN,True,False
service,service,service,service,NOUN,True,False
provider,provider,provider,provider,NOUN,True,False
they,they,-PRON-,-pron-,PRON,True,True
tend,tend,tend,tend,VERB,True,False
to,to,to,to,PART,True,True
be,be,be,be,AUX,True,True
local,local,local,local,ADJ,True,False
rather,rather,rather,rather,ADV,True,True
than,than,than,than,SCONJ,True,True
wide,wide,wide,wide,ADJ,True,False
area,area,area,area,NOUN,True,False
.,.,.,.,PUNCT,False,False
electric,electric,electric,electric,ADJ,True,False
and,and,and,and,CCONJ,True,True
gas,gas,gas,gas,NOUN,True,False
utility,utility,utility,utility,NOUN,True,False
geographical,geographical,geographical,geographical,ADJ,True,False
coverage,coverage,coverage,coverage,NOUN,True,False
requirement,requirement,requirement,requirement,NOUN,True,False
be,be,be,be,VERB,True,True
sometimes,sometimes,sometimes,sometimes,ADV,True,True
over,over,over,over,ADP,True,True
a,a,a,a,DET,True,True
large,large,large,large,ADJ,True,False
geographical,geographical,geographical,geographical,ADJ,True,False
area,area,area,area,NOUN,True,False
",",",",",",",",PUNCT,False,False
such,such,such,such,ADJ,True,True
as,as,as,as,SCONJ,True,True
in,in,in,in,ADP,True,True
exelon,exelon,exelon,exelon,PROPN,True,False
case,case,case,case,NOUN,True,False
",",",",",",",",PUNCT,False,False
which,which,which,which,DET,True,True
be,be,be,be,VERB,True,True
typically,typically,typically,typically,ADV,True,False
a,a,a,a,DET,True,True
large,large,large,large,ADJ,True,False
metropolitan,metropolitan,metropolitan,metropolitan,ADJ,True,False
area,area,area,area,NOUN,True,False
and,and,and,and,CCONJ,True,True
additional,additional,additional,additional,ADJ,True,False
surround,surround,surround,surround,PROPN,True,False
county,county,county,county,PROPN,True,False
.,.,.,.,PUNCT,False,False
exelon,exelon,exelon,exelon,PROPN,True,False
oppose,oppose,oppose,oppose,VERB,True,False
the,the,the,the,DET,True,True
commissions,commissions,commission,commission,NOUN,True,False
proposal,proposal,proposal,proposal,NOUN,True,False
to,to,to,to,PART,True,True
expand,expand,expand,expand,VERB,True,False
eligibility,eligibility,eligibility,eligibility,NOUN,True,False
for,for,for,for,ADP,True,True
the,the,the,the,DET,True,True
priority,priority,priority,priority,NOUN,True,False
access,access,access,access,NOUN,True,False
pa,pa,pa,pa,PROPN,True,False
tier,tier,tier,tier,PROPN,True,False
to,to,to,to,ADP,True,True
a,a,a,a,DET,True,True
broad,broad,broad,broad,ADJ,True,False
class,class,class,class,NOUN,True,False
of,of,of,of,ADP,True,True
potential,potential,potential,potential,ADJ,True,False
user,user,user,user,NOUN,True,False
",",",",",",",",PUNCT,False,False
include,include,include,include,VERB,True,False
commercial,commercial,commercial,commercial,ADJ,True,False
entity,entity,entity,entity,NOUN,True,False
such,such,such,such,ADJ,True,True
as,as,as,as,SCONJ,True,True
wireless,wireless,wireless,wireless,ADJ,True,False
telecommunication,telecommunication,telecommunication,telecommunication,NOUN,True,False
carrier,carrier,carrier,carrier,NOUN,True,False
",",",",",",",",PUNCT,False,False
and,and,and,and,CCONJ,True,True
support,support,support,support,VERB,True,False
the,the,the,the,DET,True,True
original,original,original,original,ADJ,True,False
notice,notice,notice,notice,NOUN,True,False
of,of,of,of,ADP,True,True
propose,propose,propose,propose,NOUN,True,False
rulemakingnprm,rulemakingnprm,rulemakingnprm,rulemakingnprm,NOUN,True,False
to,to,to,to,PART,True,True
limit,limit,limit,limit,VERB,True,False
pa,pa,pa,pa,PROPN,True,False
eligibility,eligibility,eligibility,eligibility,NOUN,True,False
to,to,to,to,ADP,True,True
certain,certain,certain,certain,ADJ,True,False
mission,mission,mission,mission,NOUN,True,False
critical,critical,critical,critical,ADJ,True,False
user,user,user,user,NOUN,True,False
",",",",",",",",PUNCT,False,False
include,include,include,include,VERB,True,False
electric,electric,electric,electric,ADJ,True,False
and,and,and,and,CCONJ,True,True
gas,gas,gas,gas,NOUN,True,False
utility,utility,utility,utility,NOUN,True,False
.,.,.,.,PUNCT,False,False
exelon,exelon,exelon,exelon,PROPN,True,False
support,support,support,support,VERB,True,False
the,the,the,the,DET,True,True
utc,utc,utc,utc,NOUN,True,False
position,position,position,position,NOUN,True,False
that,that,that,that,SCONJ,True,True
the,the,the,the,DET,True,True
entire,entire,entire,entire,ADJ,True,False
pa,pa,pa,pa,PROPN,True,False
tier,tier,tier,tier,NOUN,True,False
should,should,should,should,VERB,True,True
be,be,be,be,AUX,True,True
reserve,reserve,reserve,reserve,NOUN,True,False
for,for,for,for,ADP,True,True
critical,critical,critical,critical,ADJ,True,False
access,access,access,access,NOUN,True,False
facility,facility,facility,facility,NOUN,True,False
and,and,and,and,CCONJ,True,True
be,be,be,be,AUX,True,True
in,in,in,in,ADP,True,True
agreement,agreement,agreement,agreement,NOUN,True,False
with,with,with,with,ADP,True,True
the,the,the,the,DET,True,True
utc,utc,utc,utc,NOUN,True,False
that,that,that,that,SCONJ,True,True
there,there,there,there,PRON,True,True
be,be,be,be,AUX,True,True
concern,concern,concern,concern,NOUN,True,False
that,that,that,that,SCONJ,True,True
major,major,major,major,ADJ,True,False
commercial,commercial,commercial,commercial,ADJ,True,False
carrier,carrier,carrier,carrier,NOUN,True,False
could,could,could,could,VERB,True,True
dominate,dominate,dominate,dominate,VERB,True,False
a,a,a,a,DET,True,True
spectrum,spectrum,spectrum,spectrum,NOUN,True,False
auction,auction,auction,auction,NOUN,True,False
to,to,to,to,ADP,True,True
the,the,the,the,DET,True,True
exclusion,exclusion,exclusion,exclusion,NOUN,True,False
of,of,of,of,ADP,True,True
electric,electric,electric,electric,ADJ,True,False
and,and,and,and,CCONJ,True,True
gas,gas,gas,gas,NOUN,True,False
utility,utility,utility,utility,NOUN,True,False
and,and,and,and,CCONJ,True,True
that,that,that,that,SCONJ,True,True
they,they,-PRON-,-pron-,PRON,True,True
could,could,could,could,VERB,True,True
warehouse,warehouse,warehouse,warehouse,VERB,True,False
the,the,the,the,DET,True,True
spectrum,spectrum,spectrum,spectrum,NOUN,True,False
by,by,by,by,ADP,True,True
aggregate,aggregate,aggregate,aggregate,VERB,True,False
the,the,the,the,DET,True,True
term,term,term,term,NOUN,True,False
and,and,and,and,CCONJ,True,True
the,the,the,the,DET,True,True
bandwidth,bandwidth,bandwidth,bandwidth,PROPN,True,False
.,.,.,.,PUNCT,False,False
exelon,exelon,exelon,exelon,PROPN,True,False
oppose,oppose,oppose,oppose,VERB,True,False
the,the,the,the,DET,True,True
auction,auction,auction,auction,NOUN,True,False
of,of,of,of,ADP,True,True
spectrum,spectrum,spectrum,spectrum,NOUN,True,False
in,in,in,in,ADP,True,True
the,the,the,the,DET,True,True
3.5,3.5,3.5,3.5,NUM,False,False
ghz,ghz,ghz,ghz,PROPN,True,False
and,and,and,and,CCONJ,True,True
3.65,3.65,3.65,3.65,NUM,False,False
ghz,ghz,ghz,ghz,PROPN,True,False
band,band,band,band,NOUN,True,False
due,due,due,due,ADP,True,True
to,to,to,to,ADP,True,True
aforementioned,aforementioned,aforementioned,aforementioned,ADJ,True,False
reason,reason,reason,reason,NOUN,True,False
.,.,.,.,PUNCT,False,False
however,however,however,however,ADV,True,True
",",",",",",",",PUNCT,False,False
if,if,if,if,SCONJ,True,True
pal,pal,pal,pal,NOUN,True,False
must,must,must,must,VERB,True,True
be,be,be,be,AUX,True,True
auction,auction,auction,auction,NOUN,True,False
",",",",",",",",PUNCT,False,False
exelon,exelon,exelon,exelon,PROPN,True,False
believe,believe,believe,believe,VERB,True,False
that,that,that,that,SCONJ,True,True
the,the,the,the,DET,True,True
fcc,fcc,fcc,fcc,PROPN,True,False
should,should,should,should,VERB,True,True
provide,provide,provide,provide,VERB,True,False
bidding,bidding,bidding,bidding,NOUN,True,False
credit,credit,credit,credit,NOUN,True,False
for,for,for,for,ADP,True,True
entity,entity,entity,entity,NOUN,True,False
that,that,that,that,DET,True,True
would,would,would,would,VERB,True,True
use,use,use,use,VERB,True,False
the,the,the,the,DET,True,True
spectrum,spectrum,spectrum,spectrum,NOUN,True,False
for,for,for,for,ADP,True,True
mission,mission,mission,mission,NOUN,True,False
critical,critical,critical,critical,ADJ,True,False
communication,communication,communication,communication,NOUN,True,False
system,system,system,system,NOUN,True,False
",",",",",",",",PUNCT,False,False
such,such,such,such,ADJ,True,True
as,as,as,as,SCONJ,True,True
utility,utility,utility,utility,NOUN,True,False
.,.,.,.,PUNCT,False,False
the,the,the,the,DET,True,True
fcc,fcc,fcc,fcc,PROPN,True,False
could,could,could,could,VERB,True,True
also,also,also,also,ADV,True,True
implement,implement,implement,implement,VERB,True,False
its,its,-PRON-,-pron-,DET,True,True
competitive,competitive,competitive,competitive,ADJ,True,False
bidding,bidding,bidding,bidding,NOUN,True,False
process,process,process,process,NOUN,True,False
to,to,to,to,PART,True,True
hold,hold,hold,hold,VERB,True,False
separate,separate,separate,separate,ADJ,True,False
auction,auction,auction,auction,NOUN,True,False
for,for,for,for,ADP,True,True
mission,mission,mission,mission,NOUN,True,False
critical,critical,critical,critical,ADJ,True,False
communication,communication,communication,communication,NOUN,True,False
user,user,user,user,NOUN,True,False
.,.,.,.,PUNCT,False,False
this,this,this,this,DET,True,True
would,would,would,would,VERB,True,True
allow,allow,allow,allow,VERB,True,False
such,such,such,such,ADJ,True,True
entity,entity,entity,entity,NOUN,True,False
the,the,the,the,DET,True,True
opportunity,opportunity,opportunity,opportunity,NOUN,True,False
to,to,to,to,PART,True,True
obtain,obtain,obtain,obtain,VERB,True,False
the,the,the,the,DET,True,True
use,use,use,use,NOUN,True,False
of,of,of,of,ADP,True,True
spectrum,spectrum,spectrum,spectrum,NOUN,True,False
without,without,without,without,ADP,True,True
compete,compete,compete,compete,NOUN,True,False
with,with,with,with,ADP,True,True
commercial,commercial,commercial,commercial,ADJ,True,False
carrier,carrier,carrier,carrier,NOUN,True,False
.,.,.,.,PUNCT,False,False
exelon,exelon,exelon,exelon,PROPN,True,False
oppose,oppose,oppose,oppose,VERB,True,False
the,the,the,the,DET,True,True
proposal,proposal,proposal,proposal,NOUN,True,False
to,to,to,to,PART,True,True
reserve,reserve,reserve,reserve,VERB,True,False
at,at,at,at,ADP,True,True
least,least,least,least,ADJ,True,True
50,50,50,50,NUM,False,False
of,of,of,of,ADP,True,True
the,the,the,the,DET,True,True
spectrum,spectrum,spectrum,spectrum,NOUN,True,False
for,for,for,for,ADP,True,True
gaa,gaa,gaa,gaa,NOUN,True,False
operation,operation,operation,operation,NOUN,True,False
in,in,in,in,ADP,True,True
the,the,the,the,DET,True,True
3.65,3.65,3.65,3.65,NUM,False,False
ghz,ghz,ghz,ghz,PROPN,True,False
band,band,band,band,NOUN,True,False
.,.,.,.,PUNCT,False,False
exelon,exelon,exelon,exelon,PROPN,True,False
believe,believe,believe,believe,VERB,True,False
that,that,that,that,SCONJ,True,True
bandwidth,bandwidth,bandwidth,bandwidth,ADJ,True,False
limitation,limitation,limitation,limitation,NOUN,True,False
and,and,and,and,CCONJ,True,True
interference,interference,interference,interference,NOUN,True,False
issue,issue,issue,issue,NOUN,True,False
in,in,in,in,ADP,True,True
the,the,the,the,DET,True,True
3.65,3.65,3.65,3.65,NUM,False,False
ghz,ghz,ghz,ghz,PROPN,True,False
band,band,band,band,NOUN,True,False
be,be,be,be,AUX,True,True
already,already,already,already,ADV,True,True
a,a,a,a,DET,True,True
significant,significant,significant,significant,ADJ,True,False
issue,issue,issue,issue,NOUN,True,False
and,and,and,and,CCONJ,True,True
",",",",",",",",PUNCT,False,False
even,even,even,even,ADV,True,True
with,with,with,with,ADP,True,True
the,the,the,the,DET,True,True
use,use,use,use,NOUN,True,False
of,of,of,of,ADP,True,True
the,the,the,the,DET,True,True
propose,propose,propose,propose,NOUN,True,False
sas,sas,sas,sas,PROPN,True,False
database,database,database,database,NOUN,True,False
",",",",",",",",PUNCT,False,False
that,that,that,that,SCONJ,True,True
the,the,the,the,DET,True,True
potential,potential,potential,potential,NOUN,True,False
for,for,for,for,ADP,True,True
an,an,an,an,DET,True,True
increase,increase,increase,increase,NOUN,True,False
in,in,in,in,ADP,True,True
harmful,harmful,harmful,harmful,ADJ,True,False
interference,interference,interference,interference,NOUN,True,False
be,be,be,be,AUX,True,True
far,far,far,far,ADV,True,False
too,too,too,too,ADV,True,True
great,great,great,great,ADJ,True,False
.,.,.,.,PUNCT,False,False
the,the,the,the,DET,True,True
nature,nature,nature,nature,NOUN,True,False
of,of,of,of,ADP,True,True
electric,electric,electric,electric,ADJ,True,False
and,and,and,and,CCONJ,True,True
gas,gas,gas,gas,NOUN,True,False
utility,utility,utility,utility,NOUN,True,False
communication,communication,communication,communication,NOUN,True,False
require,require,require,require,VERB,True,False
the,the,the,the,DET,True,True
high,high,high,high,ADJ,True,False
level,level,level,level,NOUN,True,False
of,of,of,of,ADP,True,True
protection,protection,protection,protection,NOUN,True,False
from,from,from,from,ADP,True,True
harmful,harmful,harmful,harmful,ADJ,True,False
interference,interference,interference,interference,NOUN,True,False
possible,possible,possible,possible,ADJ,True,False
so,so,so,so,SCONJ,True,True
as,as,as,as,SCONJ,True,True
not,not,not,not,PART,True,True
to,to,to,to,PART,True,True
affect,affect,affect,affect,VERB,True,False
the,the,the,the,DET,True,True
high,high,high,high,ADJ,True,False
reliability,reliability,reliability,reliability,NOUN,True,False
require,require,require,require,VERB,True,False
for,for,for,for,ADP,True,True
operation,operation,operation,operation,NOUN,True,False
.,.,.,.,PUNCT,False,False
exelon,exelon,exelon,exelon,PROPN,True,False
support,support,support,support,VERB,True,False
the,the,the,the,DET,True,True
fnprm,fnprm,fnprm,fnprm,ADJ,True,False
proposal,proposal,proposal,proposal,NOUN,True,False
to,to,to,to,PART,True,True
allow,allow,allow,allow,VERB,True,False
the,the,the,the,DET,True,True
assignment,assignment,assignment,assignment,NOUN,True,False
of,of,of,of,ADP,True,True
up,up,up,up,ADP,True,True
to,to,to,to,PART,True,True
20,20,20,20,NUM,False,False
mhz,mhz,mhz,mhz,NOUN,True,False
of,of,of,of,ADP,True,True
gaa,gaa,gaa,gaa,NOUN,True,False
spectrum,spectrum,spectrum,spectrum,NOUN,True,False
for,for,for,for,ADP,True,True
contained,contained,contained,contained,ADJ,True,False
access,access,access,access,NOUN,True,False
facilities,facilities,facility,facility,NOUN,True,False
caf,caf,caf,caf,ADJ,True,False
",",",",",",",",PUNCT,False,False
as,as,as,as,SCONJ,True,True
define,define,define,define,NOUN,True,False
",",",",",",",",PUNCT,False,False
which,which,which,which,DET,True,True
would,would,would,would,VERB,True,True
be,be,be,be,AUX,True,True
limit,limit,limit,limit,NOUN,True,False
for,for,for,for,ADP,True,True
access,access,access,access,NOUN,True,False
by,by,by,by,ADP,True,True
certain,certain,certain,certain,ADJ,True,False
contained,contained,contained,contained,ADJ,True,False
access,access,access,access,NOUN,True,False
users,users,user,user,NOUN,True,False
for,for,for,for,ADP,True,True
the,the,the,the,DET,True,True
express,express,express,express,ADJ,True,False
purpose,purpose,purpose,purpose,NOUN,True,False
of,of,of,of,ADP,True,True
perform,perform,perform,perform,ADJ,True,False
core,core,core,core,NOUN,True,False
mission,mission,mission,mission,NOUN,True,False
operation,operation,operation,operation,NOUN,True,False
and,and,and,and,CCONJ,True,True
would,would,would,would,VERB,True,True
be,be,be,be,AUX,True,True
limit,limit,limit,limit,NOUN,True,False
to,to,to,to,ADP,True,True
private,private,private,private,ADJ,True,False
internal,internal,internal,internal,ADJ,True,False
indoor,indoor,indoor,indoor,ADJ,True,False
-,-,-,-,PUNCT,False,False
use,use,use,use,NOUN,True,False
only,only,only,only,ADV,True,True
as,as,as,as,ADV,True,True
long,long,long,long,ADV,True,False
as,as,as,as,SCONJ,True,True
no,no,no,no,DET,True,True
use,use,use,use,NOUN,True,False
of,of,of,of,ADP,True,True
this,this,this,this,DET,True,True
spectrum,spectrum,spectrum,spectrum,NOUN,True,False
be,be,be,be,AUX,True,True
permit,permit,permit,permit,NOUN,True,False
outside,outside,outside,outside,ADV,True,False
of,of,of,of,ADP,True,True
the,the,the,the,DET,True,True
caf.although,caf.although,caf.although,caf.although,PROPN,False,False
exelon,exelon,exelon,exelon,NOUN,True,False
see,see,see,see,VERB,True,True
many,many,many,many,ADJ,True,True
merit,merit,merit,merit,NOUN,True,False
in,in,in,in,ADP,True,True
the,the,the,the,DET,True,True
propose,propose,propose,propose,NOUN,True,False
rulemaking,rulemaking,rulemaking,rulemaking,NOUN,True,False
",",",",",",",",PUNCT,False,False
we,we,-PRON-,-pron-,PRON,True,True
have,have,have,have,AUX,True,True
serious,serious,serious,serious,ADJ,True,True
reservation,reservation,reservation,reservation,NOUN,True,False
about,about,about,about,ADP,True,True
the,the,the,the,DET,True,True
applicability,applicability,applicability,applicability,NOUN,True,False
of,of,of,of,ADP,True,True
many,many,many,many,ADJ,True,True
of,of,of,of,ADP,True,True
these,these,these,these,DET,True,True
rule,rule,rule,rule,NOUN,True,False
in,in,in,in,ADP,True,True
our,our,-PRON-,-pron-,DET,True,True
effort,effort,effort,effort,NOUN,True,False
to,to,to,to,PART,True,True
deploy,deploy,deploy,deploy,VERB,True,False
network,network,network,network,NOUN,True,False
to,to,to,to,PART,True,True
meet,meet,meet,meet,VERB,True,False
our,our,-PRON-,-pron-,DET,True,True
goal,goal,goal,goal,NOUN,True,False
for,for,for,for,ADP,True,True
a,a,a,a,DET,True,True
complete,complete,complete,complete,ADJ,True,False
end,end,end,end,NOUN,True,False
-,-,-,-,PUNCT,False,False
to,to,to,to,ADP,True,True
-,-,-,-,PUNCT,False,False
end,end,end,end,NOUN,True,False
smart,smart,smart,smart,ADJ,True,False
grid,grid,grid,grid,NOUN,True,False
network,network,network,network,NOUN,True,False
.,.,.,.,PUNCT,False,False
the,the,the,the,DET,True,True
exist,exist,exist,exist,ADJ,True,False
rule,rule,rule,rule,NOUN,True,False
and,and,and,and,CCONJ,True,True
policy,policy,policy,policy,NOUN,True,False
for,for,for,for,ADP,True,True
the,the,the,the,DET,True,True
3.65,3.65,3.65,3.65,NUM,False,False
ghz,ghz,ghz,ghz,PROPN,True,False
band,band,band,band,NOUN,True,False
be,be,be,be,AUX,True,True
quite,quite,quite,quite,ADV,True,True
suitable,suitable,suitable,suitable,ADJ,True,False
for,for,for,for,ADP,True,True
our,our,-PRON-,-pron-,DET,True,True
purpose,purpose,purpose,purpose,NOUN,True,False
.,.,.,.,PUNCT,False,False
on,on,on,on,ADP,True,True
the,the,the,the,DET,True,True
other,other,other,other,ADJ,True,True
hand,hand,hand,hand,NOUN,True,False
",",",",",",",",PUNCT,False,False
it,it,-PRON-,-pron-,PRON,True,True
be,be,be,be,AUX,True,True
our,our,-PRON-,-pron-,DET,True,True
view,view,view,view,NOUN,True,False
that,that,that,that,SCONJ,True,True
the,the,the,the,DET,True,True
rule,rule,rule,rule,NOUN,True,False
and,and,and,and,CCONJ,True,True
policy,policy,policy,policy,NOUN,True,False
be,be,be,be,AUX,True,True
consider,consider,consider,consider,VERB,True,False
for,for,for,for,ADP,True,True
the,the,the,the,DET,True,True
cbrs,cbrs,cbr,cbr,NOUN,True,False
regime,regime,regime,regime,NOUN,True,False
if,if,if,if,SCONJ,True,True
extend,extend,extend,extend,VERB,True,False
to,to,to,to,ADP,True,True
the,the,the,the,DET,True,True
3.65,3.65,3.65,3.65,NUM,False,False
ghz,ghz,ghz,ghz,PROPN,True,False
band,band,band,band,NOUN,True,False
would,would,would,would,VERB,True,True
be,be,be,be,AUX,True,True
detrimental,detrimental,detrimental,detrimental,ADJ,True,False
in,in,in,in,ADP,True,True
our,our,-PRON-,-pron-,DET,True,True
effort,effort,effort,effort,NOUN,True,False
to,to,to,to,PART,True,True
use,use,use,use,VERB,True,False
this,this,this,this,DET,True,True
spectrum,spectrum,spectrum,spectrum,NOUN,True,False
for,for,for,for,ADP,True,True
our,our,-PRON-,-pron-,DET,True,True
smart,smart,smart,smart,ADJ,True,False
grid,grid,grid,grid,NOUN,True,False
network,network,network,network,NOUN,True,False
.,.,.,.,PUNCT,False,False
we,we,-PRON-,-pron-,PRON,True,True
strongly,strongly,strongly,strongly,ADV,True,False
urge,urge,urge,urge,VERB,True,False
the,the,the,the,DET,True,True
commission,commission,commission,commission,NOUN,True,False
to,to,to,to,PART,True,True
consider,consider,consider,consider,VERB,True,False
the,the,the,the,DET,True,True
above,above,above,above,ADJ,True,True
in,in,in,in,ADP,True,True
make,make,make,make,VERB,True,True
a,a,a,a,DET,True,True
final,final,final,final,ADJ,True,False
determination,determination,determination,determination,NOUN,True,False
for,for,for,for,ADP,True,True
the,the,the,the,DET,True,True
3.65,3.65,3.65,3.65,NUM,False,False
ghz,ghz,ghz,ghz,PROPN,True,False
band,band,band,band,NOUN,True,False
.,.,.,.,PUNCT,False,False
the,the,the,the,DET,True,True
implementation,implementation,implementation,implementation,NOUN,True,False
of,of,of,of,ADP,True,True
a,a,a,a,DET,True,True
nation,nation,nation,nation,NOUN,True,False
-,-,-,-,PUNCT,False,False
wide,wide,wide,wide,ADJ,True,False
smart,smart,smart,smart,ADJ,True,False
grid,grid,grid,grid,NOUN,True,False
network,network,network,network,NOUN,True,False
have,have,have,have,AUX,True,True
the,the,the,the,DET,True,True
potential,potential,potential,potential,NOUN,True,False
for,for,for,for,ADP,True,True
significant,significant,significant,significant,ADJ,True,False
public,public,public,public,ADJ,True,False
benefit,benefit,benefit,benefit,NOUN,True,False
lead,lead,lead,lead,NOUN,True,False
to,to,to,to,ADP,True,True
improved,improved,improve,improve,VERB,True,False
energy,energy,energy,energy,NOUN,True,False
efficiency,efficiency,efficiency,efficiency,NOUN,True,False
",",",",",",",",PUNCT,False,False
operational,operational,operational,operational,ADJ,True,False
efficiency,efficiency,efficiency,efficiency,NOUN,True,False
lead,lead,lead,lead,NOUN,True,False
to,to,to,to,ADP,True,True
low,low,low,low,ADJ,True,False
utility,utility,utility,utility,NOUN,True,False
cost,cost,cost,cost,NOUN,True,False
",",",",",",",",PUNCT,False,False
improve,improve,improve,improve,VERB,True,False
grid,grid,grid,grid,NOUN,True,False
reliability,reliability,reliability,reliability,NOUN,True,False
and,and,and,and,CCONJ,True,True
security,security,security,security,NOUN,True,False
",",",",",",",",PUNCT,False,False
and,and,and,and,CCONJ,True,True
fast,fast,fast,fast,ADJ,True,False
disaster,disaster,disaster,disaster,NOUN,True,False
recovery,recovery,recovery,recovery,NOUN,True,False
.,.,.,.,PUNCT,False,False
the,the,the,the,DET,True,True
commission,commission,commission,commission,NOUN,True,False
can,can,can,can,VERB,True,True
play,play,play,play,VERB,True,False
a,a,a,a,DET,True,True
key,key,key,key,ADJ,True,False
role,role,role,role,NOUN,True,False
by,by,by,by,ADP,True,True
implement,implement,implement,implement,VERB,True,False
a,a,a,a,DET,True,True
smart,smart,smart,smart,ADJ,True,False
grid,grid,grid,grid,NOUN,True,False
friendly,friendly,friendly,friendly,ADJ,True,False
regulatory,regulatory,regulatory,regulatory,ADJ,True,False
environment,environment,environment,environment,NOUN,True,False
.,.,.,.,PUNCT,False,False
