text,text_lower,lemma,lemma_lower,part_of_speech,is_alphabet,is_stopword
iberdrola,iberdrola,iberdrola,iberdrola,PROPN,True,False
usa,usa,usa,usa,PROPN,True,False
provide,provide,provide,provide,VERB,True,False
renewable,renewable,renewable,renewable,ADJ,True,False
and,and,and,and,CCONJ,True,True
thermal,thermal,thermal,thermal,ADJ,True,False
electricity,electricity,electricity,electricity,NOUN,True,False
generation,generation,generation,generation,NOUN,True,False
electricity,electricity,electricity,electricity,NOUN,True,False
transmission,transmission,transmission,transmission,NOUN,True,False
and,and,and,and,CCONJ,True,True
distribution,distribution,distribution,distribution,NOUN,True,False
natural,natural,natural,natural,ADJ,True,False
gas,gas,gas,gas,NOUN,True,False
storage,storage,storage,storage,NOUN,True,False
and,and,and,and,CCONJ,True,True
distribution,distribution,distribution,distribution,NOUN,True,False
and,and,and,and,CCONJ,True,True
renewable,renewable,renewable,renewable,ADJ,True,False
energy,energy,energy,energy,NOUN,True,False
operation,operation,operation,operation,NOUN,True,False
and,and,and,and,CCONJ,True,True
energy,energy,energy,energy,NOUN,True,False
service,service,service,service,NOUN,True,False
in,in,in,in,ADP,True,True
24,24,24,24,NUM,False,False
state,state,state,state,NOUN,True,False
for,for,for,for,ADP,True,True
new,new,new,new,PROPN,True,False
england,england,england,england,PROPN,True,False
to,to,to,to,ADP,True,True
the,the,the,the,DET,True,True
west,west,west,west,PROPN,True,False
coast,coast,coast,coast,PROPN,True,False
.,.,.,.,PUNCT,False,False
the,the,the,the,DET,True,True
iberdrola,iberdrola,iberdrola,iberdrola,PROPN,True,False
usa,usa,usa,usa,PROPN,True,False
network,network,network,network,PROPN,True,False
company,company,company,company,PROPN,True,False
of,of,of,of,ADP,True,True
new,new,new,new,PROPN,True,False
york,york,york,york,PROPN,True,False
state,state,state,state,PROPN,True,False
electric,electric,electric,electric,PROPN,True,False
and,and,and,and,CCONJ,True,True
gas,gas,gas,gas,PROPN,True,False
corporation,corporation,corporation,corporation,NOUN,True,False
nyseg,nyseg,nyseg,nyseg,VERB,True,False
",",",",",",",",PUNCT,False,False
serve,serve,serve,serve,VERB,True,False
"881,000","881,000","881,000","881,000",NUM,False,False
electricity,electricity,electricity,electricity,NOUN,True,False
customer,customer,customer,customer,NOUN,True,False
and,and,and,and,CCONJ,True,True
"263,000","263,000","263,000","263,000",NUM,False,False
natural,natural,natural,natural,ADJ,True,False
gas,gas,gas,gas,NOUN,True,False
customer,customer,customer,customer,NOUN,True,False
across,across,across,across,ADP,True,True
more,more,more,more,ADJ,True,True
than,than,than,than,SCONJ,True,True
40,40,40,40,NUM,False,False
of,of,of,of,ADP,True,True
upstate,upstate,upstate,upstate,ADJ,True,False
new,new,new,new,PROPN,True,False
york,york,york,york,PROPN,True,False
.,.,.,.,PUNCT,False,False
rochester,rochester,rochester,rochester,PROPN,True,False
gas,gas,gas,gas,PROPN,True,False
and,and,and,and,CCONJ,True,True
electric,electric,electric,electric,PROPN,True,False
corporation,corporation,corporation,corporation,NOUN,True,False
rge,rge,rge,rge,NOUN,True,False
",",",",",",",",PUNCT,False,False
serve,serve,serve,serve,VERB,True,False
"371,000","371,000","371,000","371,000",NUM,False,False
electricity,electricity,electricity,electricity,NOUN,True,False
customer,customer,customer,customer,NOUN,True,False
and,and,and,and,CCONJ,True,True
"307,000","307,000","307,000","307,000",NUM,False,False
natural,natural,natural,natural,ADJ,True,False
gas,gas,gas,gas,NOUN,True,False
customer,customer,customer,customer,NOUN,True,False
in,in,in,in,ADP,True,True
a,a,a,a,DET,True,True
nine,nine,nine,nine,NUM,True,True
county,county,county,county,NOUN,True,False
region,region,region,region,NOUN,True,False
center,center,center,center,NOUN,True,False
in,in,in,in,ADP,True,True
rochester,rochester,rochester,rochester,PROPN,True,False
ny.central,ny.central,ny.central,ny.central,PROPN,False,False
maine,maine,maine,maine,PROPN,True,False
power,power,power,power,PROPN,True,False
company,company,company,company,NOUN,True,False
cmp,cmp,cmp,cmp,INTJ,True,False
",",",",",",",",PUNCT,False,False
deliver,deliver,deliver,deliver,VERB,True,False
electricity,electricity,electricity,electricity,NOUN,True,False
to,to,to,to,ADP,True,True
more,more,more,more,ADJ,True,True
than,than,than,than,SCONJ,True,True
"600,000","600,000","600,000","600,000",NUM,False,False
in,in,in,in,ADP,True,True
central,central,central,central,ADJ,True,False
andsouthern,andsouthern,andsouthern,andsouthern,PROPN,True,False
maine,maine,maine,maine,PROPN,True,False
.,.,.,.,PUNCT,False,False
maine,maine,maine,maine,PROPN,True,False
natural,natural,natural,natural,ADJ,True,False
gas,gas,gas,gas,NOUN,True,False
mng,mng,mng,mng,NOUN,True,False
",",",",",",",",PUNCT,False,False
deliver,deliver,deliver,deliver,VERB,True,False
gas,gas,gas,gas,NOUN,True,False
to,to,to,to,ADP,True,True
4000,4000,4000,4000,NUM,False,False
residential,residential,residential,residential,ADJ,True,False
",",",",",",",",PUNCT,False,False
commercial,commercial,commercial,commercial,ADJ,True,False
",",",",",",",",PUNCT,False,False
and,and,and,and,CCONJ,True,True
institutional,institutional,institutional,institutional,ADJ,True,False
customer,customer,customer,customer,NOUN,True,False
in,in,in,in,ADP,True,True
several,several,several,several,ADJ,True,True
maine,maine,maine,maine,PROPN,True,False
communities,communities,community,community,NOUN,True,False
.,.,.,.,PUNCT,False,False
introductionon,introductionon,introductionon,introductionon,PROPN,True,False
december,december,december,december,PROPN,True,False
12,12,12,12,NUM,False,False
",",",",",",",",PUNCT,False,False
2012,2012,2012,2012,NUM,False,False
the,the,the,the,DET,True,True
commission,commission,commission,commission,NOUN,True,False
issue,issue,issue,issue,VERB,True,False
a,a,a,a,DET,True,True
notice,notice,notice,notice,NOUN,True,False
of,of,of,of,ADP,True,True
propose,propose,propose,propose,NOUN,True,False
rulemaking,rulemaking,rulemaking,rulemaking,NOUN,True,False
nprm,nprm,nprm,nprm,NOUN,True,False
",",",",",",",",PUNCT,False,False
under,under,under,under,ADP,True,True
gt,gt,gt,gt,CCONJ,True,False
docket,docket,docket,docket,PROPN,True,False
12,12,12,12,NUM,False,False
-,-,-,-,SYM,False,False
354,354,354,354,NUM,False,False
",",",",",",",",PUNCT,False,False
propose,propose,propose,propose,VERB,True,False
the,the,the,the,DET,True,True
creation,creation,creation,creation,NOUN,True,False
of,of,of,of,ADP,True,True
a,a,a,a,DET,True,True
new,new,new,new,ADJ,True,False
citizens,citizens,citizen,citizen,NOUN,True,False
broadband,broadband,broadband,broadband,PROPN,True,False
service,service,service,service,PROPN,True,False
cbs,cbs,cbs,cbs,PROPN,True,False
share,share,share,share,VERB,True,False
the,the,the,the,DET,True,True
3550,3550,3550,3550,NUM,False,False
-,-,-,-,SYM,False,False
3650,3650,3650,3650,NUM,False,False
mhz,mhz,mhz,mhz,PROPN,True,False
band,band,band,band,NOUN,True,False
with,with,with,with,ADP,True,True
incumbent,incumbent,incumbent,incumbent,ADJ,True,False
user,user,user,user,NOUN,True,False
",",",",",",",",PUNCT,False,False
with,with,with,with,ADP,True,True
a,a,a,a,DET,True,True
supplementary,supplementary,supplementary,supplementary,ADJ,True,False
proposal,proposal,proposal,proposal,NOUN,True,False
to,to,to,to,PART,True,True
incorporate,incorporate,incorporate,incorporate,VERB,True,False
the,the,the,the,DET,True,True
3650,3650,3650,3650,NUM,False,False
-,-,-,-,SYM,False,False
3700,3700,3700,3700,NUM,False,False
mhz,mhz,mhz,mhz,PROPN,True,False
band,band,band,band,NOUN,True,False
under,under,under,under,ADP,True,True
the,the,the,the,DET,True,True
new,new,new,new,ADJ,True,False
regulatory,regulatory,regulatory,regulatory,ADJ,True,False
regime,regime,regime,regime,NOUN,True,False
.,.,.,.,PUNCT,False,False
on,on,on,on,ADP,True,True
april,april,april,april,PROPN,True,False
23,23,23,23,NUM,False,False
",",",",",",",",PUNCT,False,False
2014,2014,2014,2014,NUM,False,False
the,the,the,the,DET,True,True
commission,commission,commission,commission,NOUN,True,False
issue,issue,issue,issue,NOUN,True,False
a,a,a,a,DET,True,True
further,further,further,further,ADJ,True,True
notice,notice,notice,notice,NOUN,True,False
of,of,of,of,ADP,True,True
propose,propose,propose,propose,NOUN,True,False
rulemaking,rulemaking,rulemaking,rulemaking,NOUN,True,False
fnrpm,fnrpm,fnrpm,fnrpm,PROPN,True,False
",",",",",",",",PUNCT,False,False
under,under,under,under,ADP,True,True
gt,gt,gt,gt,CCONJ,True,False
docket,docket,docket,docket,PROPN,True,False
12,12,12,12,NUM,False,False
-,-,-,-,SYM,False,False
354.iberdrola,354.iberdrola,354.iberdrola,354.iberdrola,NUM,False,False
usa,usa,usa,usa,PROPN,True,False
iusa,iusa,iusa,iusa,PROPN,True,False
believe,believe,believe,believe,VERB,True,False
service,service,service,service,NOUN,True,False
capability,capability,capability,capability,NOUN,True,False
as,as,as,as,SCONJ,True,True
currently,currently,currently,currently,ADV,True,False
realize,realize,realize,realize,VERB,True,False
in,in,in,in,ADP,True,True
the,the,the,the,DET,True,True
exist,exist,exist,exist,NOUN,True,False
3650mhz-3700mhz,3650mhz-3700mhz,3650mhz-3700mhz,3650mhz-3700mhz,PROPN,False,False
band,band,band,band,NOUN,True,False
be,be,be,be,AUX,True,True
essential,essential,essential,essential,ADJ,True,False
and,and,and,and,CCONJ,True,True
critical,critical,critical,critical,ADJ,True,False
to,to,to,to,PART,True,True
serve,serve,serve,serve,VERB,True,False
the,the,the,the,DET,True,True
good,good,good,good,ADJ,True,False
interest,interest,interest,interest,NOUN,True,False
of,of,of,of,ADP,True,True
the,the,the,the,DET,True,True
public,public,public,public,NOUN,True,False
in,in,in,in,ADP,True,True
a,a,a,a,DET,True,True
reliable,reliable,reliable,reliable,ADJ,True,False
",",",",",",",",PUNCT,False,False
secure,secure,secure,secure,ADJ,True,False
and,and,and,and,CCONJ,True,True
spectrally,spectrally,spectrally,spectrally,ADV,True,False
efficient,efficient,efficient,efficient,ADJ,True,False
manner,manner,manner,manner,NOUN,True,False
throughout,throughout,throughout,throughout,ADP,True,True
the,the,the,the,DET,True,True
next,next,next,next,ADJ,True,True
decade,decade,decade,decade,NOUN,True,False
.,.,.,.,PUNCT,False,False
iusa,iusa,iusa,iusa,PROPN,True,False
consider,consider,consider,consider,VERB,True,False
the,the,the,the,DET,True,True
3650,3650,3650,3650,NUM,False,False
-,-,-,-,SYM,False,False
3700,3700,3700,3700,NUM,False,False
mhz,mhz,mhz,mhz,PROPN,True,False
band,band,band,band,NOUN,True,False
an,an,an,an,DET,True,True
important,important,important,important,ADJ,True,False
spectrum,spectrum,spectrum,spectrum,NOUN,True,False
option,option,option,option,NOUN,True,False
for,for,for,for,ADP,True,True
smart,smart,smart,smart,ADJ,True,False
grid,grid,grid,grid,NOUN,True,False
network,network,network,network,NOUN,True,False
.,.,.,.,PUNCT,False,False
as,as,as,as,SCONJ,True,True
the,the,the,the,DET,True,True
commission,commission,commission,commission,NOUN,True,False
be,be,be,be,AUX,True,True
well,well,well,well,ADV,True,True
aware,aware,aware,aware,ADJ,True,False
there,there,there,there,PRON,True,True
be,be,be,be,AUX,True,True
very,very,very,very,ADV,True,True
few,few,few,few,ADJ,True,True
suitable,suitable,suitable,suitable,ADJ,True,False
spectrum,spectrum,spectrum,spectrum,NOUN,True,False
option,option,option,option,NOUN,True,False
readily,readily,readily,readily,ADV,True,False
available,available,available,available,ADJ,True,False
to,to,to,to,ADP,True,True
utility,utility,utility,utility,NOUN,True,False
for,for,for,for,ADP,True,True
the,the,the,the,DET,True,True
implementation,implementation,implementation,implementation,NOUN,True,False
of,of,of,of,ADP,True,True
smart,smart,smart,smart,ADJ,True,False
grid,grid,grid,grid,NOUN,True,False
network,network,network,network,NOUN,True,False
in,in,in,in,ADP,True,True
compliance,compliance,compliance,compliance,NOUN,True,False
with,with,with,with,ADP,True,True
title,title,title,title,PROPN,True,False
xiii,xiii,xiii,xiii,PROPN,True,False
of,of,of,of,ADP,True,True
the,the,the,the,DET,True,True
energy,energy,energy,energy,NOUN,True,False
independence,independence,independence,independence,NOUN,True,False
and,and,and,and,CCONJ,True,True
security,security,security,security,NOUN,True,False
act,act,act,act,NOUN,True,False
of,of,of,of,ADP,True,True
2007,2007,2007,2007,NUM,False,False
eisa,eisa,eisa,eisa,PROPN,True,False
.,.,.,.,PUNCT,False,False
the,the,the,the,DET,True,True
current,current,current,current,ADJ,True,False
rule,rule,rule,rule,NOUN,True,False
and,and,and,and,CCONJ,True,True
policy,policy,policy,policy,NOUN,True,False
in,in,in,in,ADP,True,True
place,place,place,place,NOUN,True,False
for,for,for,for,ADP,True,True
the,the,the,the,DET,True,True
3650,3650,3650,3650,NUM,False,False
-,-,-,-,SYM,False,False
3700,3700,3700,3700,NUM,False,False
mhz,mhz,mhz,mhz,PROPN,True,False
band,band,band,band,NOUN,True,False
be,be,be,be,AUX,True,True
not,not,not,not,PART,True,True
optimal,optimal,optimal,optimal,ADJ,True,False
but,but,but,but,CCONJ,True,True
nevertheless,nevertheless,nevertheless,nevertheless,ADV,True,True
",",",",",",",",PUNCT,False,False
this,this,this,this,DET,True,True
band,band,band,band,NOUN,True,False
represent,represent,represent,represent,VERB,True,False
one,one,one,one,NUM,True,True
of,of,of,of,ADP,True,True
the,the,the,the,DET,True,True
few,few,few,few,ADJ,True,True
spectrum,spectrum,spectrum,spectrum,NOUN,True,False
option,option,option,option,NOUN,True,False
available,available,available,available,ADJ,True,False
for,for,for,for,ADP,True,True
deploy,deploy,deploy,deploy,VERB,True,False
a,a,a,a,DET,True,True
wide,wide,wide,wide,ADJ,True,False
area,area,area,area,NOUN,True,False
network,network,network,network,NOUN,True,False
in,in,in,in,ADP,True,True
support,support,support,support,NOUN,True,False
of,of,of,of,ADP,True,True
our,our,-PRON-,-pron-,DET,True,True
smart,smart,smart,smart,ADJ,True,False
grid,grid,grid,grid,PROPN,True,False
initiative,initiative,initiative,initiative,NOUN,True,False
.,.,.,.,PUNCT,False,False
iberdrola,iberdrola,iberdrola,iberdrola,PROPN,True,False
usa,usa,usa,usa,PROPN,True,False
hold,hold,hold,hold,VERB,True,False
a,a,a,a,DET,True,True
3650,3650,3650,3650,NUM,False,False
-,-,-,-,SYM,False,False
3670,3670,3670,3670,NUM,False,False
license,license,license,license,NOUN,True,False
wqsg754,wqsg754,wqsg754,wqsg754,PROPN,False,False
grant,grant,grant,grant,NOUN,True,False
september,september,september,september,PROPN,True,False
18,18,18,18,NUM,False,False
",",",",",",",",PUNCT,False,False
2013.with,2013.with,2013.with,2013.with,NUM,False,False
84,84,84,84,NUM,False,False
subscriber,subscriber,subscriber,subscriber,NOUN,True,False
location,location,location,location,NOUN,True,False
registration,registration,registration,registration,NOUN,True,False
and,and,and,and,CCONJ,True,True
an,an,an,an,DET,True,True
additional,additional,additional,additional,ADJ,True,False
60,60,60,60,NUM,False,False
subscriber,subscriber,subscriber,subscriber,NOUN,True,False
registration,registration,registration,registration,NOUN,True,False
pende,pende,pende,pende,NOUN,True,False
for,for,for,for,ADP,True,True
2014,2014,2014,2014,NUM,False,False
in,in,in,in,ADP,True,True
the,the,the,the,DET,True,True
rge,rge,rge,rge,NOUN,True,False
operating,operating,operate,operate,VERB,True,False
company,company,company,company,NOUN,True,False
.,.,.,.,PUNCT,False,False
many,many,many,many,ADJ,True,True
of,of,of,of,ADP,True,True
these,these,these,these,DET,True,True
additional,additional,additional,additional,ADJ,True,False
registration,registration,registration,registration,NOUN,True,False
require,require,require,require,VERB,True,False
further,further,further,further,ADV,True,True
detailed,detailed,detailed,detailed,ADJ,True,False
engineering,engineering,engineering,engineering,NOUN,True,False
for,for,for,for,ADP,True,True
compliance,compliance,compliance,compliance,NOUN,True,False
to,to,to,to,ADP,True,True
the,the,the,the,DET,True,True
us,us,us,us,PROPN,True,True
canadian,canadian,canadian,canadian,PROPN,True,False
agreement,agreement,agreement,agreement,NOUN,True,False
.,.,.,.,PUNCT,False,False
our,our,-PRON-,-pron-,DET,True,True
operate,operate,operate,operate,ADJ,True,False
company,company,company,company,NOUN,True,False
nyseg,nyseg,nyseg,nyseg,ADV,True,False
be,be,be,be,AUX,True,True
currently,currently,currently,currently,ADV,True,False
on,on,on,on,ADP,True,True
hold,hold,hold,hold,NOUN,True,False
wait,wait,wait,wait,NOUN,True,False
for,for,for,for,ADP,True,True
the,the,the,the,DET,True,True
remain,remain,remain,remain,VERB,True,False
concurrence,concurrence,concurrence,concurrence,NOUN,True,False
to,to,to,to,PART,True,True
be,be,be,be,AUX,True,True
finalize,finalize,finalize,finalize,VERB,True,False
between,between,between,between,ADP,True,True
exist,exist,exist,exist,VERB,True,False
incumbent,incumbent,incumbent,incumbent,ADJ,True,False
fss,fss,fss,fss,NOUN,True,False
earth,earth,earth,earth,NOUN,True,False
stations,stations,station,station,NOUN,True,False
where,where,where,where,ADV,True,True
iberdrola,iberdrola,iberdrola,iberdrola,PROPN,True,False
operation,operation,operation,operation,NOUN,True,False
will,will,will,will,VERB,True,True
co,co,co,co,VERB,True,False
-,-,-,-,VERB,False,False
exist,exist,exist,exist,VERB,True,False
within,within,within,within,ADP,True,True
the,the,the,the,DET,True,True
150,150,150,150,NUM,False,False
km,km,km,km,NOUN,True,False
protection,protection,protection,protection,NOUN,True,False
zone,zone,zone,zone,NOUN,True,False
.,.,.,.,PUNCT,False,False
to,to,to,to,ADP,True,True
date,date,date,date,NOUN,True,False
iusa,iusa,iusa,iusa,PROPN,True,False
have,have,have,have,AUX,True,True
prepare,prepare,prepare,prepare,VERB,True,False
detailed,detailed,detailed,detailed,ADJ,True,False
engineering,engineering,engineering,engineering,NOUN,True,False
report,report,report,report,NOUN,True,False
",",",",",",",",PUNCT,False,False
and,and,and,and,CCONJ,True,True
in,in,in,in,ADP,True,True
conjunction,conjunction,conjunction,conjunction,NOUN,True,False
with,with,with,with,ADP,True,True
comsearch,comsearch,comsearch,comsearch,NOUN,True,False
have,have,have,have,AUX,True,True
prepare,prepare,prepare,prepare,VERB,True,False
a,a,a,a,DET,True,True
detailed,detailed,detailed,detailed,ADJ,True,False
interference,interference,interference,interference,NOUN,True,False
analysis,analysis,analysis,analysis,NOUN,True,False
and,and,and,and,CCONJ,True,True
report,report,report,report,NOUN,True,False
be,be,be,be,AUX,True,True
present,present,present,present,ADJ,True,False
to,to,to,to,ADP,True,True
all,all,all,all,DET,True,True
incumbent,incumbent,incumbent,incumbent,NOUN,True,False
for,for,for,for,ADP,True,True
consideration,consideration,consideration,consideration,NOUN,True,False
.,.,.,.,PUNCT,False,False
recently,recently,recently,recently,ADV,True,False
our,our,-PRON-,-pron-,DET,True,True
first,first,first,first,ADJ,True,True
notice,notice,notice,notice,NOUN,True,False
of,of,of,of,ADP,True,True
consent,consent,consent,consent,NOUN,True,False
be,be,be,be,VERB,True,True
receive,receive,receive,receive,ADJ,True,False
by,by,by,by,ADP,True,True
rueters,rueters,rueter,rueter,NOUN,True,False
america,america,america,america,PROPN,True,False
call,call,call,call,VERB,True,True
sign,sign,sign,sign,NOUN,True,False
e950436.cmp,e950436.cmp,e950436.cmp,e950436.cmp,PROPN,False,False
be,be,be,be,AUX,True,True
currently,currently,currently,currently,ADV,True,False
utilize,utilize,utilize,utilize,VERB,True,False
unlicensed,unlicensed,unlicensed,unlicensed,ADJ,True,False
spectrum,spectrum,spectrum,spectrum,NOUN,True,False
in,in,in,in,ADP,True,True
2.4,2.4,2.4,2.4,NUM,False,False
",",",",",",",",PUNCT,False,False
and,and,and,and,CCONJ,True,True
5.8ghz,5.8ghz,5.8ghz,5.8ghz,PROPN,False,False
band,band,band,band,NOUN,True,False
to,to,to,to,PART,True,True
support,support,support,support,VERB,True,False
ami,ami,ami,ami,PROPN,True,False
and,and,and,and,CCONJ,True,True
smart,smart,smart,smart,ADJ,True,False
grid,grid,grid,grid,NOUN,True,False
operation,operation,operation,operation,NOUN,True,False
.,.,.,.,PUNCT,False,False
although,although,although,although,SCONJ,True,True
initially,initially,initially,initially,ADV,True,False
attractive,attractive,attractive,attractive,ADJ,True,False
",",",",",",",",PUNCT,False,False
these,these,these,these,DET,True,True
system,system,system,system,NOUN,True,False
have,have,have,have,AUX,True,True
be,be,be,be,AUX,True,True
experience,experience,experience,experience,NOUN,True,False
an,an,an,an,DET,True,True
increase,increase,increase,increase,NOUN,True,False
in,in,in,in,ADP,True,True
spectral,spectral,spectral,spectral,ADJ,True,False
congestion,congestion,congestion,congestion,NOUN,True,False
",",",",",",",",PUNCT,False,False
and,and,and,and,CCONJ,True,True
limited,limited,limited,limited,ADJ,True,False
range,range,range,range,NOUN,True,False
capability,capability,capability,capability,NOUN,True,False
",",",",",",",",PUNCT,False,False
limited,limited,limited,limited,ADJ,True,False
flexibility,flexibility,flexibility,flexibility,NOUN,True,False
.,.,.,.,PUNCT,False,False
future,future,future,future,ADJ,True,False
use,use,use,use,NOUN,True,False
case,case,case,case,NOUN,True,False
consideration,consideration,consideration,consideration,NOUN,True,False
be,be,be,be,AUX,True,True
be,be,be,be,AUX,True,True
explore,explore,explore,explore,VERB,True,False
for,for,for,for,ADP,True,True
lifecycle,lifecycle,lifecycle,lifecycle,NOUN,True,False
replacement,replacement,replacement,replacement,NOUN,True,False
of,of,of,of,ADP,True,True
this,this,this,this,DET,True,True
equipment,equipment,equipment,equipment,NOUN,True,False
with,with,with,with,ADP,True,True
3.65,3.65,3.65,3.65,NUM,False,False
-,-,-,-,PUNCT,False,False
3.700mhz,3.700mhz,3.700mhz,3.700mhz,ADJ,False,False
capable,capable,capable,capable,ADJ,True,False
equipment,equipment,equipment,equipment,NOUN,True,False
.,.,.,.,PUNCT,False,False
overall,overall,overall,overall,DET,True,False
the,the,the,the,DET,True,True
3.65,3.65,3.65,3.65,NUM,False,False
-,-,-,-,SYM,False,False
3.700,3.700,3.700,3.700,NUM,False,False
mhz,mhz,mhz,mhz,PROPN,True,False
band,band,band,band,NOUN,True,False
offer,offer,offer,offer,VERB,True,False
the,the,the,the,DET,True,True
uniqueness,uniqueness,uniqueness,uniqueness,NOUN,True,False
for,for,for,for,ADP,True,True
the,the,the,the,DET,True,True
iusa,iusa,iusa,iusa,ADJ,True,False
infrastructure,infrastructure,infrastructure,infrastructure,NOUN,True,False
to,to,to,to,PART,True,True
apply,apply,apply,apply,VERB,True,False
a,a,a,a,DET,True,True
diverse,diverse,diverse,diverse,ADJ,True,False
array,array,array,array,NOUN,True,False
of,of,of,of,ADP,True,True
interoperable,interoperable,interoperable,interoperable,ADJ,True,False
",",",",",",",",PUNCT,False,False
interchangeable,interchangeable,interchangeable,interchangeable,ADJ,True,False
contention,contention,contention,contention,NOUN,True,False
base,base,base,base,NOUN,True,False
equipment,equipment,equipment,equipment,NOUN,True,False
to,to,to,to,PART,True,True
maintain,maintain,maintain,maintain,VERB,True,False
reliability,reliability,reliability,reliability,NOUN,True,False
",",",",",",",",PUNCT,False,False
stability,stability,stability,stability,NOUN,True,False
",",",",",",",",PUNCT,False,False
and,and,and,and,CCONJ,True,True
security,security,security,security,NOUN,True,False
.,.,.,.,PUNCT,False,False
these,these,these,these,DET,True,True
operation,operation,operation,operation,NOUN,True,False
include,include,include,include,VERB,True,False
capability,capability,capability,capability,NOUN,True,False
for,for,for,for,ADP,True,True
many,many,many,many,ADJ,True,True
of,of,of,of,ADP,True,True
our,our,-PRON-,-pron-,DET,True,True
require,require,require,require,ADJ,True,False
essential,essential,essential,essential,ADJ,True,False
daily,daily,daily,daily,ADJ,True,False
internal,internal,internal,internal,ADJ,True,False
service,service,service,service,NOUN,True,False
offering,offering,offering,offering,NOUN,True,False
",",",",",",",",PUNCT,False,False
and,and,and,and,CCONJ,True,True
the,the,the,the,DET,True,True
need,need,need,need,NOUN,True,False
for,for,for,for,ADP,True,True
technology,technology,technology,technology,NOUN,True,False
enhancement,enhancement,enhancement,enhancement,NOUN,True,False
during,during,during,during,ADP,True,True
disaster,disaster,disaster,disaster,NOUN,True,False
recovery,recovery,recovery,recovery,NOUN,True,False
operation,operation,operation,operation,NOUN,True,False
.,.,.,.,PUNCT,False,False
we,we,-PRON-,-pron-,PRON,True,True
applaud,applaud,applaud,applaud,VERB,True,False
the,the,the,the,DET,True,True
commission,commission,commission,commission,NOUN,True,False
effort,effort,effort,effort,NOUN,True,False
to,to,to,to,PART,True,True
improve,improve,improve,improve,VERB,True,False
the,the,the,the,DET,True,True
overall,overall,overall,overall,ADJ,True,False
efficiency,efficiency,efficiency,efficiency,NOUN,True,False
of,of,of,of,ADP,True,True
usage,usage,usage,usage,NOUN,True,False
within,within,within,within,ADP,True,True
the,the,the,the,DET,True,True
spectrum,spectrum,spectrum,spectrum,PROPN,True,False
band,band,band,band,PROPN,True,False
3550,3550,3550,3550,NUM,False,False
-,-,-,-,SYM,False,False
3650,3650,3650,3650,NUM,False,False
mhz,mhz,mhz,mhz,NOUN,True,False
by,by,by,by,ADP,True,True
mean,mean,mean,mean,NOUN,True,False
of,of,of,of,ADP,True,True
the,the,the,the,DET,True,True
two,two,two,two,NUM,True,True
technique,technique,technique,technique,NOUN,True,False
small,small,small,small,ADJ,True,False
cell,cell,cell,cell,NOUN,True,False
and,and,and,and,CCONJ,True,True
spectrum,spectrum,spectrum,spectrum,NOUN,True,False
sharing,sharing,share,share,VERB,True,False
manage,manage,manage,manage,NOUN,True,False
by,by,by,by,ADP,True,True
the,the,the,the,DET,True,True
spectrum,spectrum,spectrum,spectrum,PROPN,True,False
access,access,access,access,NOUN,True,False
system,system,system,system,NOUN,True,False
sas,sas,sas,sas,PROPN,True,False
.,.,.,.,PUNCT,False,False
we,we,-PRON-,-pron-,PRON,True,True
also,also,also,also,ADV,True,True
see,see,see,see,VERB,True,True
considerable,considerable,considerable,considerable,ADJ,True,False
merit,merit,merit,merit,NOUN,True,False
in,in,in,in,ADP,True,True
the,the,the,the,DET,True,True
two,two,two,two,NUM,True,True
tier,tier,tier,tier,NOUN,True,False
approach,approach,approach,approach,NOUN,True,False
for,for,for,for,ADP,True,True
the,the,the,the,DET,True,True
awarding,awarding,awarding,awarding,NOUN,True,False
of,of,of,of,ADP,True,True
license,license,license,license,NOUN,True,False
priority,priority,priority,priority,NOUN,True,False
access,access,access,access,NOUN,True,False
licenses,licenses,license,license,NOUN,True,False
pal,pal,pal,pal,PROPN,True,False
and,and,and,and,CCONJ,True,True
general,general,general,general,ADJ,True,False
authorized,authorized,authorized,authorized,ADJ,True,False
access,access,access,access,NOUN,True,False
gaa,gaa,gaa,gaa,NOUN,True,False
license,license,license,license,NOUN,True,False
.,.,.,.,PUNCT,False,False
our,our,-PRON-,-pron-,DET,True,True
comment,comment,comment,comment,NOUN,True,False
in,in,in,in,ADP,True,True
response,response,response,response,NOUN,True,False
to,to,to,to,ADP,True,True
the,the,the,the,DET,True,True
fnprm,fnprm,fnprm,fnprm,NOUN,True,False
be,be,be,be,AUX,True,True
base,base,base,base,NOUN,True,False
on,on,on,on,ADP,True,True
our,our,-PRON-,-pron-,DET,True,True
evaluation,evaluation,evaluation,evaluation,NOUN,True,False
of,of,of,of,ADP,True,True
the,the,the,the,DET,True,True
propose,propose,propose,propose,NOUN,True,False
rule,rule,rule,rule,NOUN,True,False
and,and,and,and,CCONJ,True,True
policy,policy,policy,policy,NOUN,True,False
for,for,for,for,ADP,True,True
the,the,the,the,DET,True,True
cbrs,cbrs,cbr,cbr,NOUN,True,False
and,and,and,and,CCONJ,True,True
how,how,how,how,ADV,True,True
these,these,these,these,DET,True,True
proposal,proposal,proposal,proposal,NOUN,True,False
would,would,would,would,VERB,True,True
impact,impact,impact,impact,VERB,True,False
our,our,-PRON-,-pron-,DET,True,True
continue,continue,continue,continue,VERB,True,False
ability,ability,ability,ability,NOUN,True,False
to,to,to,to,PART,True,True
deploy,deploy,deploy,deploy,VERB,True,False
a,a,a,a,DET,True,True
secure,secure,secure,secure,ADJ,True,False
and,and,and,and,CCONJ,True,True
reliable,reliable,reliable,reliable,ADJ,True,False
smart,smart,smart,smart,ADJ,True,False
grid,grid,grid,grid,NOUN,True,False
network,network,network,network,NOUN,True,False
segment,segment,segment,segment,NOUN,True,False
in,in,in,in,ADP,True,True
the,the,the,the,DET,True,True
3650,3650,3650,3650,NUM,False,False
-,-,-,-,SYM,False,False
3700,3700,3700,3700,NUM,False,False
mhz,mhz,mhz,mhz,PROPN,True,False
band,band,band,band,NOUN,True,False
if,if,if,if,SCONJ,True,True
the,the,the,the,DET,True,True
same,same,same,same,ADJ,True,True
rule,rule,rule,rule,NOUN,True,False
be,be,be,be,AUX,True,True
extend,extend,extend,extend,VERB,True,False
to,to,to,to,PART,True,True
cover,cover,cover,cover,VERB,True,False
the,the,the,the,DET,True,True
3650,3650,3650,3650,NUM,False,False
-,-,-,-,SYM,False,False
3700,3700,3700,3700,NUM,False,False
mhz,mhz,mhz,mhz,PROPN,True,False
band,band,band,band,NOUN,True,False
.,.,.,.,PUNCT,False,False
our,our,-PRON-,-pron-,DET,True,True
thoughtful,thoughtful,thoughtful,thoughtful,ADJ,True,False
review,review,review,review,NOUN,True,False
have,have,have,have,AUX,True,True
raise,raise,raise,raise,VERB,True,False
several,several,several,several,ADJ,True,True
concern,concern,concern,concern,NOUN,True,False
about,about,about,about,ADP,True,True
the,the,the,the,DET,True,True
condition,condition,condition,condition,NOUN,True,False
under,under,under,under,ADP,True,True
which,which,which,which,DET,True,True
the,the,the,the,DET,True,True
3650,3650,3650,3650,NUM,False,False
-,-,-,-,SYM,False,False
3700,3700,3700,3700,NUM,False,False
mhz,mhz,mhz,mhz,PROPN,True,False
band,band,band,band,NOUN,True,False
would,would,would,would,VERB,True,True
be,be,be,be,AUX,True,True
include,include,include,include,VERB,True,False
163,163,163,163,NUM,False,False
within,within,within,within,ADP,True,True
the,the,the,the,DET,True,True
cbrs,cbrs,cbr,cbr,NOUN,True,False
regulatory,regulatory,regulatory,regulatory,ADJ,True,False
regime,regime,regime,regime,NOUN,True,False
.,.,.,.,PUNCT,False,False
these,these,these,these,DET,True,True
concern,concern,concern,concern,NOUN,True,False
force,force,force,force,VERB,True,False
us,us,-PRON-,-pron-,PRON,True,True
to,to,to,to,PART,True,True
conclude,conclude,conclude,conclude,VERB,True,False
that,that,that,that,SCONJ,True,True
it,it,-PRON-,-pron-,PRON,True,True
would,would,would,would,VERB,True,True
not,not,not,not,PART,True,True
be,be,be,be,AUX,True,True
in,in,in,in,ADP,True,True
our,our,-PRON-,-pron-,DET,True,True
good,good,good,good,ADJ,True,False
interest,interest,interest,interest,NOUN,True,False
to,to,to,to,PART,True,True
recommend,recommend,recommend,recommend,VERB,True,False
the,the,the,the,DET,True,True
inclusion,inclusion,inclusion,inclusion,NOUN,True,False
of,of,of,of,ADP,True,True
the,the,the,the,DET,True,True
3650,3650,3650,3650,NUM,False,False
-,-,-,-,SYM,False,False
3700,3700,3700,3700,NUM,False,False
mhz,mhz,mhz,mhz,PROPN,True,False
band,band,band,band,NOUN,True,False
in,in,in,in,ADP,True,True
cbrs,cbrs,cbr,cbr,NOUN,True,False
regulatory,regulatory,regulatory,regulatory,ADJ,True,False
regime,regime,regime,regime,NOUN,True,False
.,.,.,.,PUNCT,False,False
our,our,-PRON-,-pron-,DET,True,True
concern,concern,concern,concern,NOUN,True,False
be,be,be,be,AUX,True,True
summarize,summarize,summarize,summarize,VERB,True,False
in,in,in,in,ADP,True,True
the,the,the,the,DET,True,True
follow,follow,follow,follow,NOUN,True,False
paragraph,paragraph,paragraph,paragraph,NOUN,True,False
.,.,.,.,PUNCT,False,False
response,response,response,response,NOUN,True,False
to,to,to,to,ADP,True,True
fnprmpropose,fnprmpropose,fnprmpropose,fnprmpropose,VERB,True,False
rule,rule,rule,rule,NOUN,True,False
and,and,and,and,CCONJ,True,True
concept,concept,concept,concept,NOUN,True,False
be,be,be,be,AUX,True,True
untested,untested,untested,untested,ADJ,True,False
the,the,the,the,DET,True,True
need,need,need,need,NOUN,True,False
to,to,to,to,PART,True,True
promote,promote,promote,promote,VERB,True,False
innovation,innovation,innovation,innovation,NOUN,True,False
and,and,and,and,CCONJ,True,True
spectrum,spectrum,spectrum,spectrum,NOUN,True,False
sharing,sharing,sharing,sharing,NOUN,True,False
be,be,be,be,AUX,True,True
significant,significant,significant,significant,ADJ,True,False
.,.,.,.,PUNCT,False,False
however,however,however,however,ADV,True,True
",",",",",",",",PUNCT,False,False
iusa,iusa,iusa,iusa,PROPN,True,False
feel,feel,feel,feel,VERB,True,False
that,that,that,that,SCONJ,True,True
the,the,the,the,DET,True,True
commission,commission,commission,commission,NOUN,True,False
must,must,must,must,VERB,True,True
consider,consider,consider,consider,VERB,True,False
a,a,a,a,DET,True,True
non,non,non,non,ADJ,True,False
-,-,-,-,ADJ,False,False
impact,impact,impact,impact,ADJ,True,False
approach,approach,approach,approach,NOUN,True,False
to,to,to,to,PART,True,True
exist,exist,exist,exist,VERB,True,False
operation,operation,operation,operation,NOUN,True,False
in,in,in,in,ADP,True,True
the,the,the,the,DET,True,True
3650,3650,3650,3650,NUM,False,False
-,-,-,-,PUNCT,False,False
3700mhz,3700mhz,3700mhz,3700mhz,NOUN,False,False
operation,operation,operation,operation,NOUN,True,False
by,by,by,by,ADP,True,True
maintain,maintain,maintain,maintain,VERB,True,False
a,a,a,a,DET,True,True
separation,separation,separation,separation,NOUN,True,False
of,of,of,of,ADP,True,True
the,the,the,the,DET,True,True
spectrum,spectrum,spectrum,spectrum,NOUN,True,False
for,for,for,for,ADP,True,True
the,the,the,the,DET,True,True
3550,3550,3550,3550,NUM,False,False
-,-,-,-,SYM,False,False
3650mhz,3650mhz,3650mhz,3650mhz,VERB,False,False
innovation,innovation,innovation,innovation,NOUN,True,False
and,and,and,and,CCONJ,True,True
use,use,use,use,NOUN,True,False
.,.,.,.,PUNCT,False,False
the,the,the,the,DET,True,True
propose,propose,propose,propose,NOUN,True,False
rule,rule,rule,rule,NOUN,True,False
and,and,and,and,CCONJ,True,True
concept,concept,concept,concept,NOUN,True,False
",",",",",",",",PUNCT,False,False
as,as,as,as,ADV,True,True
revolutionary,revolutionary,revolutionary,revolutionary,ADJ,True,False
as,as,as,as,SCONJ,True,True
they,they,-PRON-,-pron-,PRON,True,True
be,be,be,be,VERB,True,True
",",",",",",",",PUNCT,False,False
must,must,must,must,VERB,True,True
prohibit,prohibit,prohibit,prohibit,VERB,True,False
harmful,harmful,harmful,harmful,ADJ,True,False
interference,interference,interference,interference,NOUN,True,False
or,or,or,or,CCONJ,True,True
operational,operational,operational,operational,ADJ,True,False
impact,impact,impact,impact,NOUN,True,False
to,to,to,to,PART,True,True
exist,exist,exist,exist,VERB,True,False
licensee,licensee,licensee,licensee,PROPN,True,False
.,.,.,.,PUNCT,False,False
iusa,iusa,iusa,iusa,PROPN,True,False
feel,feel,feel,feel,VERB,True,False
thatby,thatby,thatby,thatby,VERB,True,False
maintain,maintain,maintain,maintain,VERB,True,False
this,this,this,this,DET,True,True
separation,separation,separation,separation,NOUN,True,False
the,the,the,the,DET,True,True
full,full,full,full,ADJ,True,True
potential,potential,potential,potential,NOUN,True,False
for,for,for,for,ADP,True,True
innovation,innovation,innovation,innovation,NOUN,True,False
",",",",",",",",PUNCT,False,False
policy,policy,policy,policy,NOUN,True,False
and,and,and,and,CCONJ,True,True
technology,technology,technology,technology,NOUN,True,False
",",",",",",",",PUNCT,False,False
combine,combine,combine,combine,VERB,True,False
with,with,with,with,ADP,True,True
spectrum,spectrum,spectrum,spectrum,NOUN,True,False
sharing,sharing,sharing,sharing,NOUN,True,False
will,will,will,will,VERB,True,True
still,still,still,still,ADV,True,True
be,be,be,be,AUX,True,True
realize,realize,realize,realize,VERB,True,False
.,.,.,.,PUNCT,False,False
these,these,these,these,DET,True,True
methodology,methodology,methodology,methodology,NOUN,True,False
and,and,and,and,CCONJ,True,True
technology,technology,technology,technology,NOUN,True,False
will,will,will,will,VERB,True,True
be,be,be,be,AUX,True,True
provide,provide,provide,provide,VERB,True,False
an,an,an,an,DET,True,True
even,even,even,even,ADV,True,True
more,more,more,more,ADV,True,True
unique,unique,unique,unique,ADJ,True,False
opportunity,opportunity,opportunity,opportunity,NOUN,True,False
to,to,to,to,PART,True,True
mature,mature,mature,mature,VERB,True,False
and,and,and,and,CCONJ,True,True
flourish,flourish,flourish,flourish,VERB,True,False
",",",",",",",",PUNCT,False,False
create,create,create,create,VERB,True,False
a,a,a,a,DET,True,True
foundation,foundation,foundation,foundation,NOUN,True,False
for,for,for,for,ADP,True,True
future,future,future,future,ADJ,True,False
innovation,innovation,innovation,innovation,NOUN,True,False
and,and,and,and,CCONJ,True,True
policy,policy,policy,policy,NOUN,True,False
to,to,to,to,PART,True,True
be,be,be,be,AUX,True,True
more,more,more,more,ADV,True,True
readily,readily,readily,readily,ADV,True,False
realize,realize,realize,realize,VERB,True,False
.,.,.,.,PUNCT,False,False
five,five,five,five,NUM,True,True
-,-,-,-,PUNCT,False,False
year,year,year,year,NOUN,True,False
grandfather,grandfather,grandfather,grandfather,NOUN,True,False
period,period,period,period,NOUN,True,False
166iusa,166iusa,166iusa,166iusa,PROPN,False,False
believe,believe,believe,believe,VERB,True,False
that,that,that,that,SCONJ,True,True
the,the,the,the,DET,True,True
propose,propose,propose,propose,NOUN,True,False
five,five,five,five,NUM,True,True
year,year,year,year,NOUN,True,False
grandfather,grandfather,grandfather,grandfather,NOUN,True,False
period,period,period,period,NOUN,True,False
be,be,be,be,AUX,True,True
inappropriate,inappropriate,inappropriate,inappropriate,ADJ,True,False
.,.,.,.,PUNCT,False,False
iusa,iusa,iusa,iusa,PROPN,True,False
believe,believe,believe,believe,VERB,True,False
a,a,a,a,DET,True,True
typical,typical,typical,typical,ADJ,True,False
network,network,network,network,NOUN,True,False
planning,planning,planning,planning,NOUN,True,False
undertaking,undertaking,undertaking,undertaking,NOUN,True,False
be,be,be,be,AUX,True,True
a,a,a,a,DET,True,True
24,24,24,24,NUM,False,False
month,month,month,month,NOUN,True,False
period,period,period,period,NOUN,True,False
before,before,before,before,ADP,True,True
a,a,a,a,DET,True,True
production,production,production,production,NOUN,True,False
network,network,network,network,NOUN,True,False
could,could,could,could,VERB,True,True
be,be,be,be,AUX,True,True
fully,fully,fully,fully,ADV,True,False
realize,realize,realize,realize,VERB,True,False
from,from,from,from,ADP,True,True
start,start,start,start,NOUN,True,False
to,to,to,to,ADP,True,True
finish,finish,finish,finish,NOUN,True,False
.,.,.,.,PUNCT,False,False
many,many,many,many,ADJ,True,True
effort,effort,effort,effort,NOUN,True,False
come,come,come,come,VERB,True,False
into,into,into,into,ADP,True,True
play,play,play,play,NOUN,True,False
between,between,between,between,ADP,True,True
conception,conception,conception,conception,NOUN,True,False
to,to,to,to,ADP,True,True
realization,realization,realization,realization,NOUN,True,False
of,of,of,of,ADP,True,True
a,a,a,a,DET,True,True
network,network,network,network,NOUN,True,False
design,design,design,design,NOUN,True,False
and,and,and,and,CCONJ,True,True
build,build,build,build,NOUN,True,False
.,.,.,.,PUNCT,False,False
from,from,from,from,ADP,True,True
iusas,iusas,iusas,iusas,ADJ,True,False
experience,experience,experience,experience,NOUN,True,False
over,over,over,over,ADP,True,True
the,the,the,the,DET,True,True
past,past,past,past,ADJ,True,False
18,18,18,18,NUM,False,False
month,month,month,month,NOUN,True,False
for,for,for,for,ADP,True,True
budgeting,budgeting,budgeting,budgeting,NOUN,True,False
",",",",",",",",PUNCT,False,False
licensing,licensing,licensing,licensing,NOUN,True,False
",",",",",",",",PUNCT,False,False
equipment,equipment,equipment,equipment,NOUN,True,False
qualification,qualification,qualification,qualification,NOUN,True,False
",",",",",",",",PUNCT,False,False
lab,lab,lab,lab,NOUN,True,False
testing,testing,testing,testing,NOUN,True,False
",",",",",",",",PUNCT,False,False
infrastructure,infrastructure,infrastructure,infrastructure,NOUN,True,False
build,build,build,build,NOUN,True,False
backhaul,backhaul,backhaul,backhaul,NOUN,True,False
and,and,and,and,CCONJ,True,True
vertical,vertical,vertical,vertical,ADJ,True,False
",",",",",",",",PUNCT,False,False
network,network,network,network,NOUN,True,False
design,design,design,design,NOUN,True,False
",",",",",",",",PUNCT,False,False
compliance,compliance,compliance,compliance,NOUN,True,False
investigation,investigation,investigation,investigation,NOUN,True,False
",",",",",",",",PUNCT,False,False
interference,interference,interference,interference,NOUN,True,False
mitigation,mitigation,mitigation,mitigation,NOUN,True,False
",",",",",",",",PUNCT,False,False
coordination,coordination,coordination,coordination,NOUN,True,False
effort,effort,effort,effort,NOUN,True,False
",",",",",",",",PUNCT,False,False
equipment,equipment,equipment,equipment,NOUN,True,False
procurement,procurement,procurement,procurement,NOUN,True,False
",",",",",",",",PUNCT,False,False
historical,historical,historical,historical,ADJ,True,False
datum,datum,datum,datum,NOUN,True,False
gathering,gathering,gathering,gathering,NOUN,True,False
and,and,and,and,CCONJ,True,True
performance,performance,performance,performance,NOUN,True,False
review,review,review,review,NOUN,True,False
",",",",",",",",PUNCT,False,False
just,just,just,just,ADV,True,True
to,to,to,to,PART,True,True
name,name,name,name,VERB,True,True
a,a,a,a,DET,True,True
few,few,few,few,ADJ,True,True
come,come,come,come,NOUN,True,False
to,to,to,to,PART,True,True
play,play,play,play,VERB,True,False
in,in,in,in,ADP,True,True
a,a,a,a,DET,True,True
deployment,deployment,deployment,deployment,NOUN,True,False
for,for,for,for,ADP,True,True
a,a,a,a,DET,True,True
operational,operational,operational,operational,ADJ,True,False
network,network,network,network,NOUN,True,False
utilize,utilize,utilize,utilize,VERB,True,False
the,the,the,the,DET,True,True
exist,exist,exist,exist,ADJ,True,False
3650,3650,3650,3650,NUM,False,False
-,-,-,-,SYM,False,False
3700mhz,3700mhz,3700mhz,3700mhz,NOUN,False,False
spectrum,spectrum,spectrum,spectrum,NOUN,True,False
.,.,.,.,PUNCT,False,False
for,for,for,for,ADP,True,True
licensee,licensee,licensee,licensee,PROPN,True,False
a,a,a,a,DET,True,True
significant,significant,significant,significant,ADJ,True,False
investment,investment,investment,investment,NOUN,True,False
have,have,have,have,AUX,True,True
already,already,already,already,ADV,True,True
be,be,be,be,AUX,True,True
make,make,make,make,VERB,True,True
.,.,.,.,PUNCT,False,False
a,a,a,a,DET,True,True
five,five,five,five,NUM,True,True
year,year,year,year,NOUN,True,False
grandfather,grandfather,grandfather,grandfather,NOUN,True,False
clause,clause,clause,clause,NOUN,True,False
would,would,would,would,VERB,True,True
require,require,require,require,VERB,True,False
them,them,-PRON-,-pron-,PRON,True,True
to,to,to,to,PART,True,True
abandon,abandon,abandon,abandon,VERB,True,False
reliability,reliability,reliability,reliability,NOUN,True,False
investment,investment,investment,investment,NOUN,True,False
prematurely,prematurely,prematurely,prematurely,ADV,True,False
and,and,and,and,CCONJ,True,True
put,put,put,put,VERB,True,True
the,the,the,the,DET,True,True
public,public,public,public,NOUN,True,False
and,and,and,and,CCONJ,True,True
reliability,reliability,reliability,reliability,NOUN,True,False
of,of,of,of,ADP,True,True
infrastructure,infrastructure,infrastructure,infrastructure,NOUN,True,False
system,system,system,system,NOUN,True,False
significantly,significantly,significantly,significantly,ADV,True,False
at,at,at,at,ADP,True,True
risk,risk,risk,risk,NOUN,True,False
.,.,.,.,PUNCT,False,False
a,a,a,a,DET,True,True
five,five,five,five,NUM,True,True
year,year,year,year,NOUN,True,False
grandfather,grandfather,grandfather,grandfather,NOUN,True,False
clause,clause,clause,clause,NOUN,True,False
would,would,would,would,VERB,True,True
significantly,significantly,significantly,significantly,ADV,True,False
impact,impact,impact,impact,VERB,True,False
any,any,any,any,DET,True,True
licensee,licensee,licensee,licensee,NOUN,True,False
negatively,negatively,negatively,negatively,ADV,True,False
.,.,.,.,PUNCT,False,False
iusa,iusa,iusa,iusa,PROPN,True,False
feel,feel,feel,feel,VERB,True,False
that,that,that,that,SCONJ,True,True
the,the,the,the,DET,True,True
commission,commission,commission,commission,NOUN,True,False
must,must,must,must,VERB,True,True
avoid,avoid,avoid,avoid,VERB,True,False
any,any,any,any,DET,True,True
grandfather,grandfather,grandfather,grandfather,NOUN,True,False
clause,clause,clause,clause,NOUN,True,False
and,and,and,and,CCONJ,True,True
allow,allow,allow,allow,VERB,True,False
for,for,for,for,ADP,True,True
continued,continued,continued,continued,ADJ,True,False
operation,operation,operation,operation,NOUN,True,False
as,as,as,as,SCONJ,True,True
be,be,be,be,AUX,True,True
in,in,in,in,ADP,True,True
the,the,the,the,DET,True,True
3650,3650,3650,3650,NUM,False,False
3700mhz,3700mhz,3700mhz,3700mhz,NOUN,False,False
band,band,band,band,NOUN,True,False
.,.,.,.,PUNCT,False,False
any,any,any,any,DET,True,True
hardware,hardware,hardware,hardware,NOUN,True,False
or,or,or,or,CCONJ,True,True
firmware,firmware,firmware,firmware,NOUN,True,False
upgrade,upgrade,upgrade,upgrade,ADJ,True,False
requirement,requirement,requirement,requirement,NOUN,True,False
to,to,to,to,PART,True,True
bring,bring,bring,bring,VERB,True,False
device,device,device,device,NOUN,True,False
to,to,to,to,ADP,True,True
cbrs,cbrs,cbr,cbr,NOUN,True,False
operational,operational,operational,operational,ADJ,True,False
specification,specification,specification,specification,NOUN,True,False
surely,surely,surely,surely,ADV,True,False
will,will,will,will,VERB,True,True
have,have,have,have,AUX,True,True
a,a,a,a,DET,True,True
significant,significant,significant,significant,ADJ,True,False
cost,cost,cost,cost,NOUN,True,False
impact,impact,impact,impact,NOUN,True,False
to,to,to,to,ADP,True,True
any,any,any,any,DET,True,True
project,project,project,project,NOUN,True,False
.,.,.,.,PUNCT,False,False
exist,exist,exist,exist,VERB,True,False
utility,utility,utility,utility,NOUN,True,False
automation,automation,automation,automation,NOUN,True,False
equipment,equipment,equipment,equipment,NOUN,True,False
be,be,be,be,AUX,True,True
plan,plan,plan,plan,NOUN,True,False
for,for,for,for,ADP,True,True
a,a,a,a,DET,True,True
20,20,20,20,NUM,False,False
year,year,year,year,NOUN,True,False
plus,plus,plus,plus,CCONJ,True,False
lifecycle,lifecycle,lifecycle,lifecycle,NOUN,True,False
",",",",",",",",PUNCT,False,False
wireless,wireless,wireless,wireless,ADJ,True,False
communication,communication,communication,communication,NOUN,True,False
equipment,equipment,equipment,equipment,NOUN,True,False
to,to,to,to,PART,True,True
support,support,support,support,VERB,True,False
these,these,these,these,DET,True,True
device,device,device,device,NOUN,True,False
have,have,have,have,AUX,True,True
a,a,a,a,DET,True,True
mtbf,mtbf,mtbf,mtbf,NOUN,True,False
of,of,of,of,ADP,True,True
40,40,40,40,NUM,False,False
year,year,year,year,NOUN,True,False
",",",",",",",",PUNCT,False,False
this,this,this,this,DET,True,True
figure,figure,figure,figure,NOUN,True,False
have,have,have,have,AUX,True,True
be,be,be,be,AUX,True,True
quantify,quantify,quantify,quantify,ADJ,True,False
by,by,by,by,ADP,True,True
multiple,multiple,multiple,multiple,ADJ,True,False
manufacturer,manufacturer,manufacturer,manufacturer,NOUN,True,False
over,over,over,over,ADP,True,True
long,long,long,long,ADJ,True,False
term,term,term,term,NOUN,True,False
actual,actual,actual,actual,ADJ,True,False
product,product,product,product,NOUN,True,False
field,field,field,field,NOUN,True,False
return,return,return,return,NOUN,True,False
datum,datum,datum,datum,NOUN,True,False
evaluation,evaluation,evaluation,evaluation,NOUN,True,False
.,.,.,.,PUNCT,False,False
the,the,the,the,DET,True,True
typical,typical,typical,typical,PROPN,True,False
rf,rf,rf,rf,PROPN,True,False
hardware,hardware,hardware,hardware,NOUN,True,False
have,have,have,have,AUX,True,True
no,no,no,no,DET,True,True
internal,internal,internal,internal,ADJ,True,False
move,move,move,move,NOUN,True,True
part,part,part,part,NOUN,True,True
and,and,and,and,CCONJ,True,True
be,be,be,be,AUX,True,True
contain,contain,contain,contain,VERB,True,False
in,in,in,in,ADP,True,True
a,a,a,a,DET,True,True
ruggedizedhousing,ruggedizedhousing,ruggedizedhousing,ruggedizedhousing,NOUN,True,False
.,.,.,.,PUNCT,False,False
similar,similar,similar,similar,ADJ,True,False
land,land,land,land,NOUN,True,False
mobile,mobile,mobile,mobile,PROPN,True,False
radio,radio,radio,radio,PROPN,True,False
rf,rf,rf,rf,PROPN,True,False
equipment,equipment,equipment,equipment,NOUN,True,False
have,have,have,have,AUX,True,True
be,be,be,be,VERB,True,True
in,in,in,in,ADP,True,True
place,place,place,place,NOUN,True,False
throughout,throughout,throughout,throughout,ADP,True,True
iusa,iusa,iusa,iusa,PROPN,True,False
operate,operate,operate,operate,ADJ,True,False
company,company,company,company,NOUN,True,False
for,for,for,for,ADP,True,True
20,20,20,20,NUM,False,False
year,year,year,year,NOUN,True,False
of,of,of,of,ADP,True,True
continue,continue,continue,continue,VERB,True,False
reliable,reliable,reliable,reliable,ADJ,True,False
operation,operation,operation,operation,NOUN,True,False
.,.,.,.,PUNCT,False,False
competitive,competitive,competitive,competitive,ADJ,True,False
bidding,bidding,bidding,bidding,NOUN,True,False
for,for,for,for,ADP,True,True
pal,pal,pal,pal,ADJ,True,False
put,put,put,put,NOUN,True,True
utility,utility,utility,utility,NOUN,True,False
at,at,at,at,ADP,True,True
a,a,a,a,DET,True,True
disadvantage,disadvantage,disadvantage,disadvantage,NOUN,True,False
"118,119,120if","118,119,120if","118,119,120if","118,119,120if",NUM,False,False
the,the,the,the,DET,True,True
spectrum,spectrum,spectrum,spectrum,NOUN,True,False
be,be,be,be,AUX,True,True
auction,auction,auction,auction,NOUN,True,False
the,the,the,the,DET,True,True
utility,utility,utility,utility,NOUN,True,False
will,will,will,will,VERB,True,True
be,be,be,be,AUX,True,True
at,at,at,at,ADP,True,True
a,a,a,a,DET,True,True
huge,huge,huge,huge,ADJ,True,False
disadvantage,disadvantage,disadvantage,disadvantage,NOUN,True,False
to,to,to,to,PART,True,True
support,support,support,support,VERB,True,False
the,the,the,the,DET,True,True
reliability,reliability,reliability,reliability,NOUN,True,False
of,of,of,of,ADP,True,True
their,their,-PRON-,-pron-,DET,True,True
grid,grid,grid,grid,NOUN,True,False
automation,automation,automation,automation,NOUN,True,False
effort,effort,effort,effort,NOUN,True,False
and,and,and,and,CCONJ,True,True
the,the,the,the,DET,True,True
public,public,public,public,NOUN,True,False
will,will,will,will,VERB,True,True
be,be,be,be,AUX,True,True
put,put,put,put,VERB,True,True
at,at,at,at,ADP,True,True
risk,risk,risk,risk,NOUN,True,False
until,until,until,until,ADP,True,True
additional,additional,additional,additional,ADJ,True,False
spectrum,spectrum,spectrum,spectrum,NOUN,True,False
be,be,be,be,AUX,True,True
allot,allot,allot,allot,NOUN,True,False
to,to,to,to,PART,True,True
serve,serve,serve,serve,VERB,True,False
the,the,the,the,DET,True,True
need,need,need,need,NOUN,True,False
currently,currently,currently,currently,ADV,True,False
be,be,be,be,AUX,True,True
serve,serve,serve,serve,VERB,True,False
by,by,by,by,ADP,True,True
the,the,the,the,DET,True,True
exist,exist,exist,exist,ADJ,True,False
3650,3650,3650,3650,NUM,False,False
-,-,-,-,SYM,False,False
3700,3700,3700,3700,NUM,False,False
mhz,mhz,mhz,mhz,PROPN,True,False
band,band,band,band,NOUN,True,False
.,.,.,.,PUNCT,False,False
utility,utility,utility,utility,NOUN,True,False
use,use,use,use,NOUN,True,False
of,of,of,of,ADP,True,True
spectrum,spectrum,spectrum,spectrum,PROPN,True,False
do,do,do,do,AUX,True,True
not,not,not,not,PART,True,True
generate,generate,generate,generate,VERB,True,False
direct,direct,direct,direct,ADJ,True,False
revenue,revenue,revenue,revenue,NOUN,True,False
.,.,.,.,PUNCT,False,False
the,the,the,the,DET,True,True
spectrum,spectrum,spectrum,spectrum,NOUN,True,False
be,be,be,be,AUX,True,True
use,use,use,use,NOUN,True,False
for,for,for,for,ADP,True,True
many,many,many,many,ADJ,True,True
essential,essential,essential,essential,ADJ,True,False
service,service,service,service,NOUN,True,False
increase,increase,increase,increase,NOUN,True,False
reliability,reliability,reliability,reliability,NOUN,True,False
",",",",",",",",PUNCT,False,False
monitoring,monitoring,monitoring,monitoring,NOUN,True,False
and,and,and,and,CCONJ,True,True
control,control,control,control,NOUN,True,False
",",",",",",",",PUNCT,False,False
operation,operation,operation,operation,NOUN,True,False
and,and,and,and,CCONJ,True,True
maintenance,maintenance,maintenance,maintenance,NOUN,True,False
support,support,support,support,NOUN,True,False
",",",",",",",",PUNCT,False,False
and,and,and,and,CCONJ,True,True
security,security,security,security,NOUN,True,False
of,of,of,of,ADP,True,True
the,the,the,the,DET,True,True
grid,grid,grid,grid,NOUN,True,False
infrastructure,infrastructure,infrastructure,infrastructure,NOUN,True,False
.,.,.,.,PUNCT,False,False
iusa,iusa,iusa,iusa,PROPN,True,False
would,would,would,would,VERB,True,True
like,like,like,like,VERB,True,False
to,to,to,to,PART,True,True
note,note,note,note,VERB,True,False
that,that,that,that,SCONJ,True,True
as,as,as,as,SCONJ,True,True
a,a,a,a,DET,True,True
direct,direct,direct,direct,ADJ,True,False
result,result,result,result,NOUN,True,False
of,of,of,of,ADP,True,True
a,a,a,a,DET,True,True
similar,similar,similar,similar,ADJ,True,False
auction,auction,auction,auction,NOUN,True,False
effort,effort,effort,effort,NOUN,True,False
at,at,at,at,ADP,True,True
220,220,220,220,NUM,False,False
mhz,mhz,mhz,mhz,NOUN,True,False
",",",",",",",",PUNCT,False,False
iusa,iusa,iusa,iusa,ADJ,True,False
investigation,investigation,investigation,investigation,NOUN,True,False
into,into,into,into,ADP,True,True
the,the,the,the,DET,True,True
cost,cost,cost,cost,NOUN,True,False
of,of,of,of,ADP,True,True
lease,lease,lease,lease,NOUN,True,False
the,the,the,the,DET,True,True
spectrum,spectrum,spectrum,spectrum,NOUN,True,False
from,from,from,from,ADP,True,True
the,the,the,the,DET,True,True
license,license,license,license,NOUN,True,False
holder,holder,holder,holder,NOUN,True,False
",",",",",",",",PUNCT,False,False
so,so,so,so,ADV,True,True
severely,severely,severely,severely,ADV,True,False
impact,impact,impact,impact,VERB,True,False
the,the,the,the,DET,True,True
budget,budget,budget,budget,NOUN,True,False
that,that,that,that,DET,True,True
the,the,the,the,DET,True,True
spectrum,spectrum,spectrum,spectrum,NOUN,True,False
be,be,be,be,AUX,True,True
deem,deem,deem,deem,NOUN,True,False
unusable,unusable,unusable,unusable,ADJ,True,False
for,for,for,for,ADP,True,True
automation,automation,automation,automation,NOUN,True,False
need,need,need,need,VERB,True,False
across,across,across,across,ADP,True,True
all,all,all,all,DET,True,True
opco,opco,opco,opco,NOUN,True,False
nyseg,nyseg,nyseg,nyseg,ADJ,True,False
",",",",",",",",PUNCT,False,False
rge,rge,rge,rge,NOUN,True,False
",",",",",",",",PUNCT,False,False
cmp,cmp,cmp,cmp,INTJ,True,False
.,.,.,.,PUNCT,False,False
the,the,the,the,DET,True,True
area,area,area,area,NOUN,True,False
of,of,of,of,ADP,True,True
operation,operation,operation,operation,NOUN,True,False
available,available,available,available,ADJ,True,False
under,under,under,under,ADP,True,True
the,the,the,the,DET,True,True
license,license,license,license,NOUN,True,False
be,be,be,be,AUX,True,True
not,not,not,not,PART,True,True
congruent,congruent,congruent,congruent,ADJ,True,False
with,with,with,with,ADP,True,True
our,our,-PRON-,-pron-,DET,True,True
operate,operate,operate,operate,ADJ,True,False
territory,territory,territory,territory,NOUN,True,False
and,and,and,and,CCONJ,True,True
divisional,divisional,divisional,divisional,ADJ,True,False
area,area,area,area,NOUN,True,False
.,.,.,.,PUNCT,False,False
because,because,because,because,SCONJ,True,True
of,of,of,of,ADP,True,True
this,this,this,this,DET,True,True
lack,lack,lack,lack,NOUN,True,False
of,of,of,of,ADP,True,True
congruency,congruency,congruency,congruency,NOUN,True,False
even,even,even,even,ADV,True,True
more,more,more,more,ADV,True,True
additional,additional,additional,additional,ADJ,True,False
spectrum,spectrum,spectrum,spectrum,NOUN,True,False
procurement,procurement,procurement,procurement,NOUN,True,False
be,be,be,be,AUX,True,True
require,require,require,require,ADJ,True,False
for,for,for,for,ADP,True,True
operational,operational,operational,operational,ADJ,True,False
need,need,need,need,NOUN,True,False
that,that,that,that,DET,True,True
would,would,would,would,VERB,True,True
have,have,have,have,AUX,True,True
lead,lead,lead,lead,NOUN,True,False
to,to,to,to,ADP,True,True
large,large,large,large,ADJ,True,False
area,area,area,area,NOUN,True,False
of,of,of,of,ADP,True,True
spectral,spectral,spectral,spectral,ADJ,True,False
inefficiency,inefficiency,inefficiency,inefficiency,NOUN,True,False
",",",",",",",",PUNCT,False,False
and,and,and,and,CCONJ,True,True
large,large,large,large,ADJ,True,False
area,area,area,area,NOUN,True,False
of,of,of,of,ADP,True,True
operation,operation,operation,operation,NOUN,True,False
be,be,be,be,AUX,True,True
underserve,underserve,underserve,underserve,ADJ,True,False
.,.,.,.,PUNCT,False,False
one,one,one,one,NUM,True,True
-,-,-,-,PUNCT,False,False
year,year,year,year,NOUN,True,False
license,license,license,license,NOUN,True,False
term,term,term,term,NOUN,True,False
be,be,be,be,AUX,True,True
too,too,too,too,ADV,True,True
short,short,short,short,ADJ,True,False
49for,49for,49for,49for,NOUN,False,False
a,a,a,a,DET,True,True
20,20,20,20,NUM,False,False
plus,plus,plus,plus,ADJ,True,False
year,year,year,year,NOUN,True,False
investment,investment,investment,investment,NOUN,True,False
",",",",",",",",PUNCT,False,False
this,this,this,this,DET,True,True
lead,lead,lead,lead,NOUN,True,False
to,to,to,to,ADP,True,True
unnecessary,unnecessary,unnecessary,unnecessary,ADJ,True,False
administrative,administrative,administrative,administrative,ADJ,True,False
cost,cost,cost,cost,NOUN,True,False
by,by,by,by,ADP,True,True
the,the,the,the,DET,True,True
licensee,licensee,licensee,licensee,NOUN,True,False
.,.,.,.,PUNCT,False,False
a,a,a,a,DET,True,True
renewable,renewable,renewable,renewable,ADJ,True,False
7,7,7,7,NUM,False,False
-,-,-,-,SYM,False,False
10,10,10,10,NUM,False,False
year,year,year,year,NOUN,True,False
license,license,license,license,NOUN,True,False
term,term,term,term,NOUN,True,False
be,be,be,be,AUX,True,True
acceptable,acceptable,acceptable,acceptable,ADJ,True,False
.,.,.,.,PUNCT,False,False
geographic,geographic,geographic,geographic,ADJ,True,False
area,area,area,area,NOUN,True,False
for,for,for,for,ADP,True,True
pal,pal,pal,pal,PROPN,True,False
44iusa,44iusa,44iusa,44iusa,PROPN,False,False
do,do,do,do,AUX,True,True
not,not,not,not,PART,True,True
support,support,support,support,VERB,True,False
the,the,the,the,DET,True,True
use,use,use,use,NOUN,True,False
of,of,of,of,ADP,True,True
licensing,licensing,licensing,licensing,NOUN,True,False
by,by,by,by,ADP,True,True
census,census,census,census,NOUN,True,False
tract,tract,tract,tract,PROPN,True,False
.,.,.,.,PUNCT,False,False
a,a,a,a,DET,True,True
utility,utility,utility,utility,NOUN,True,False
can,can,can,can,VERB,True,True
have,have,have,have,AUX,True,True
distribution,distribution,distribution,distribution,NOUN,True,False
and,and,and,and,CCONJ,True,True
transmission,transmission,transmission,transmission,NOUN,True,False
asset,asset,asset,asset,NOUN,True,False
that,that,that,that,DET,True,True
transverse,transverse,transverse,transverse,VERB,True,False
across,across,across,across,ADP,True,True
a,a,a,a,DET,True,True
wide,wide,wide,wide,ADJ,True,False
diversity,diversity,diversity,diversity,NOUN,True,False
of,of,of,of,ADP,True,True
population,population,population,population,NOUN,True,False
density,density,density,density,NOUN,True,False
and,and,and,and,CCONJ,True,True
multiple,multiple,multiple,multiple,ADJ,True,False
slice,slice,slice,slice,NOUN,True,False
of,of,of,of,ADP,True,True
different,different,different,different,ADJ,True,False
census,census,census,census,NOUN,True,False
tract,tract,tract,tract,NOUN,True,False
.,.,.,.,PUNCT,False,False
these,these,these,these,DET,True,True
distribution,distribution,distribution,distribution,NOUN,True,False
and,and,and,and,CCONJ,True,True
transmission,transmission,transmission,transmission,NOUN,True,False
asset,asset,asset,asset,NOUN,True,False
be,be,be,be,AUX,True,True
expose,expose,expose,expose,ADJ,True,False
to,to,to,to,ADP,True,True
many,many,many,many,ADJ,True,True
potential,potential,potential,potential,ADJ,True,False
element,element,element,element,NOUN,True,False
of,of,of,of,ADP,True,True
harm,harm,harm,harm,NOUN,True,False
and,and,and,and,CCONJ,True,True
localized,localized,localized,localized,ADJ,True,False
event,event,event,event,NOUN,True,False
.,.,.,.,PUNCT,False,False
automation,automation,automation,automation,NOUN,True,False
device,device,device,device,NOUN,True,False
be,be,be,be,AUX,True,True
monitor,monitor,monitor,monitor,NOUN,True,False
could,could,could,could,VERB,True,True
support,support,support,support,VERB,True,False
one,one,one,one,NUM,True,True
user,user,user,user,NOUN,True,False
or,or,or,or,CCONJ,True,True
several,several,several,several,ADJ,True,True
hundred,hundred,hundred,hundred,NUM,True,True
thousand,thousand,thousand,thousand,NUM,True,False
user,user,user,user,NOUN,True,False
.,.,.,.,PUNCT,False,False
iusa,iusa,iusa,iusa,ADJ,True,False
recommend,recommend,recommend,recommend,VERB,True,False
that,that,that,that,SCONJ,True,True
the,the,the,the,DET,True,True
commission,commission,commission,commission,NOUN,True,False
use,use,use,use,VERB,True,False
a,a,a,a,DET,True,True
fix,fix,fix,fix,NOUN,True,False
point,point,point,point,NOUN,True,False
radius,radius,radius,radius,NOUN,True,False
method,method,method,method,PROPN,True,False
fordefine,fordefine,fordefine,fordefine,VERB,True,False
a,a,a,a,DET,True,True
geographical,geographical,geographical,geographical,ADJ,True,False
area,area,area,area,NOUN,True,False
of,of,of,of,ADP,True,True
operation,operation,operation,operation,NOUN,True,False
of,of,of,of,ADP,True,True
no,no,no,no,DET,True,True
great,great,great,great,ADJ,True,False
than,than,than,than,SCONJ,True,True
a,a,a,a,DET,True,True
32,32,32,32,NUM,False,False
km,km,km,km,NOUN,True,False
20,20,20,20,NUM,False,False
mile,mile,mile,mile,NOUN,True,False
radius,radius,radius,radius,NOUN,True,False
.,.,.,.,PUNCT,False,False
a,a,a,a,DET,True,True
technological,technological,technological,technological,ADJ,True,False
evaluation,evaluation,evaluation,evaluation,NOUN,True,False
method,method,method,method,NOUN,True,False
should,should,should,should,VERB,True,True
be,be,be,be,AUX,True,True
define,define,define,define,NOUN,True,False
to,to,to,to,PART,True,True
support,support,support,support,VERB,True,False
radius,radius,radius,radius,NOUN,True,False
border,border,border,border,NOUN,True,False
interference,interference,interference,interference,NOUN,True,False
limit,limit,limit,limit,NOUN,True,False
and,and,and,and,CCONJ,True,True
operational,operational,operational,operational,ADJ,True,False
restriction,restriction,restriction,restriction,NOUN,True,False
.,.,.,.,PUNCT,False,False
iusa,iusa,iusa,iusa,ADJ,True,False
recommend,recommend,recommend,recommend,VERB,True,False
that,that,that,that,SCONJ,True,True
the,the,the,the,DET,True,True
sas,sas,sas,sas,PROPN,True,False
require,require,require,require,VERB,True,False
input,input,input,input,NOUN,True,False
of,of,of,of,ADP,True,True
parameter,parameter,parameter,parameter,NOUN,True,False
for,for,for,for,ADP,True,True
a,a,a,a,DET,True,True
fix,fix,fix,fix,NOUN,True,False
point,point,point,point,NOUN,True,False
radius,radius,radius,radius,NOUN,True,False
license,license,license,license,NOUN,True,False
application,application,application,application,NOUN,True,False
for,for,for,for,ADP,True,True
proposed,proposed,propose,propose,VERB,True,False
system,system,system,system,NOUN,True,False
type,type,type,type,NOUN,True,False
with,with,with,with,ADP,True,True
operational,operational,operational,operational,ADJ,True,False
parameter,parameter,parameter,parameter,NOUN,True,False
",",",",",",",",PUNCT,False,False
transmitter,transmitter,transmitter,transmitter,PROPN,True,False
antenna,antenna,antenna,antenna,PROPN,True,False
and,and,and,and,CCONJ,True,True
pattern,pattern,pattern,pattern,NOUN,True,False
type,type,type,type,NOUN,True,False
",",",",",",",",PUNCT,False,False
height,height,height,height,NOUN,True,False
agl,agl,agl,agl,PROPN,True,False
",",",",",",",",PUNCT,False,False
eirp,eirp,eirp,eirp,PROPN,True,False
",",",",",",",",PUNCT,False,False
and,and,and,and,CCONJ,True,True
justification,justification,justification,justification,NOUN,True,False
of,of,of,of,ADP,True,True
service,service,service,service,NOUN,True,False
area,area,area,area,NOUN,True,False
radius,radius,radius,radius,NOUN,True,False
by,by,by,by,ADP,True,True
mean,mean,mean,mean,NOUN,True,False
of,of,of,of,ADP,True,True
a,a,a,a,DET,True,True
technical,technical,technical,technical,ADJ,True,False
demonstration,demonstration,demonstration,demonstration,NOUN,True,False
of,of,of,of,ADP,True,True
the,the,the,the,DET,True,True
signal,signal,signal,signal,NOUN,True,False
at,at,at,at,ADP,True,True
the,the,the,the,DET,True,True
edge,edge,edge,edge,NOUN,True,False
of,of,of,of,ADP,True,True
the,the,the,the,DET,True,True
radius,radius,radius,radius,NOUN,True,False
contour,contour,contour,contour,NOUN,True,False
.,.,.,.,PUNCT,False,False
the,the,the,the,DET,True,True
sas,sas,sas,sas,PROPN,True,False
should,should,should,should,VERB,True,True
also,also,also,also,ADV,True,True
capture,capture,capture,capture,VERB,True,False
characteristic,characteristic,characteristic,characteristic,NOUN,True,False
of,of,of,of,ADP,True,True
receiver,receiver,receiver,receiver,NOUN,True,False
for,for,for,for,ADP,True,True
remote,remote,remote,remote,ADJ,True,False
unit,unit,unit,unit,NOUN,True,False
that,that,that,that,DET,True,True
will,will,will,will,VERB,True,True
be,be,be,be,AUX,True,True
integrate,integrate,integrate,integrate,VERB,True,False
into,into,into,into,ADP,True,True
the,the,the,the,DET,True,True
system,system,system,system,NOUN,True,False
.,.,.,.,PUNCT,False,False
the,the,the,the,DET,True,True
system,system,system,system,NOUN,True,False
should,should,should,should,VERB,True,True
be,be,be,be,AUX,True,True
useful,useful,useful,useful,ADJ,True,False
in,in,in,in,ADP,True,True
border,border,border,border,NOUN,True,False
network,network,network,network,NOUN,True,False
planning,planning,planning,planning,NOUN,True,False
.,.,.,.,PUNCT,False,False
rule,rule,rule,rule,VERB,True,False
for,for,for,for,ADP,True,True
small,small,small,small,ADJ,True,False
cell,cell,cell,cell,NOUN,True,False
incompatible,incompatible,incompatible,incompatible,ADJ,True,False
with,with,with,with,ADP,True,True
smart,smart,smart,smart,ADJ,True,False
grid,grid,grid,grid,NOUN,True,False
70,70,70,70,NUM,False,False
-,-,-,-,PUNCT,False,False
76small,76small,76small,76small,ADJ,False,False
cell,cell,cell,cell,NOUN,True,False
application,application,application,application,NOUN,True,False
must,must,must,must,VERB,True,True
not,not,not,not,PART,True,True
contribute,contribute,contribute,contribute,VERB,True,False
spectral,spectral,spectral,spectral,ADJ,True,False
interference,interference,interference,interference,NOUN,True,False
towards,towards,towards,towards,ADP,True,True
smart,smart,smart,smart,ADJ,True,False
grid,grid,grid,grid,NOUN,True,False
or,or,or,or,CCONJ,True,True
other,other,other,other,ADJ,True,True
incumbent,incumbent,incumbent,incumbent,ADJ,True,False
communication,communication,communication,communication,NOUN,True,False
device,device,device,device,NOUN,True,False
.,.,.,.,PUNCT,False,False
careful,careful,careful,careful,ADJ,True,False
review,review,review,review,NOUN,True,False
of,of,of,of,ADP,True,True
the,the,the,the,DET,True,True
propose,propose,propose,propose,NOUN,True,False
exclusion,exclusion,exclusion,exclusion,NOUN,True,False
zone,zone,zone,zone,NOUN,True,False
and,and,and,and,CCONJ,True,True
the,the,the,the,DET,True,True
technical,technical,technical,technical,ADJ,True,False
parameter,parameter,parameter,parameter,NOUN,True,False
for,for,for,for,ADP,True,True
the,the,the,the,DET,True,True
technology,technology,technology,technology,NOUN,True,False
certify,certify,certify,certify,NOUN,True,False
for,for,for,for,ADP,True,True
operation,operation,operation,operation,NOUN,True,False
within,within,within,within,ADP,True,True
any,any,any,any,DET,True,True
exclusion,exclusion,exclusion,exclusion,NOUN,True,False
zone,zone,zone,zone,NOUN,True,False
should,should,should,should,VERB,True,True
be,be,be,be,AUX,True,True
give,give,give,give,VERB,True,True
utmost,utmost,utmost,utmost,ADJ,True,False
priority,priority,priority,priority,NOUN,True,False
consideration,consideration,consideration,consideration,NOUN,True,False
.,.,.,.,PUNCT,False,False
the,the,the,the,DET,True,True
exclusion,exclusion,exclusion,exclusion,NOUN,True,False
zone,zone,zone,zone,NOUN,True,False
as,as,as,as,SCONJ,True,True
propose,propose,propose,propose,NOUN,True,False
would,would,would,would,VERB,True,True
severely,severely,severely,severely,ADV,True,False
impact,impact,impact,impact,VERB,True,False
a,a,a,a,DET,True,True
build,build,build,build,NOUN,True,False
out,out,out,out,ADP,True,True
use,use,use,use,VERB,True,False
both,both,both,both,DET,True,True
spectral,spectral,spectral,spectral,ADJ,True,False
band,band,band,band,NOUN,True,False
.,.,.,.,PUNCT,False,False
the,the,the,the,DET,True,True
3550,3550,3550,3550,NUM,False,False
-,-,-,-,SYM,False,False
3650mhz,3650mhz,3650mhz,3650mhz,VERB,False,False
cbrs,cbrs,cbr,cbr,NOUN,True,False
spectrum,spectrum,spectrum,spectrum,NOUN,True,False
should,should,should,should,VERB,True,True
be,be,be,be,AUX,True,True
use,use,use,use,NOUN,True,False
to,to,to,to,PART,True,True
support,support,support,support,VERB,True,False
small,small,small,small,ADJ,True,False
cell,cell,cell,cell,NOUN,True,False
operation,operation,operation,operation,NOUN,True,False
.,.,.,.,PUNCT,False,False
the,the,the,the,DET,True,True
potential,potential,potential,potential,NOUN,True,False
to,to,to,to,PART,True,True
increase,increase,increase,increase,VERB,True,False
the,the,the,the,DET,True,True
maximum,maximum,maximum,maximum,ADJ,True,False
transmit,transmit,transmit,transmit,NOUN,True,False
power,power,power,power,NOUN,True,False
level,level,level,level,NOUN,True,False
",",",",",",",",PUNCT,False,False
use,use,use,use,NOUN,True,False
of,of,of,of,ADP,True,True
a,a,a,a,DET,True,True
guard,guard,guard,guard,NOUN,True,False
band,band,band,band,NOUN,True,False
should,should,should,should,VERB,True,True
be,be,be,be,AUX,True,True
require,require,require,require,ADJ,True,False
for,for,for,for,ADP,True,True
nearby,nearby,nearby,nearby,ADJ,True,False
utility,utility,utility,utility,NOUN,True,False
operation,operation,operation,operation,NOUN,True,False
and,and,and,and,CCONJ,True,True
incumbent,incumbent,incumbent,incumbent,ADJ,True,False
operation,operation,operation,operation,NOUN,True,False
.,.,.,.,PUNCT,False,False
a,a,a,a,DET,True,True
common,common,common,common,ADJ,True,False
technical,technical,technical,technical,ADJ,True,False
evaluation,evaluation,evaluation,evaluation,NOUN,True,False
should,should,should,should,VERB,True,True
be,be,be,be,AUX,True,True
develop,develop,develop,develop,VERB,True,False
to,to,to,to,PART,True,True
insure,insure,insure,insure,VERB,True,False
compliance,compliance,compliance,compliance,NOUN,True,False
and,and,and,and,CCONJ,True,True
be,be,be,be,AUX,True,True
available,available,available,available,ADJ,True,False
for,for,for,for,ADP,True,True
pre,pre,pre,pre,ADJ,True,False
-,-,-,-,ADJ,False,False
licensing,licensing,licensing,licensing,ADJ,True,False
determination,determination,determination,determination,NOUN,True,False
by,by,by,by,ADP,True,True
the,the,the,the,DET,True,True
sas.contained,sas.contained,sas.contained,sas.contained,PROPN,False,False
access,access,access,access,NOUN,True,False
be,be,be,be,AUX,True,True
restrict,restrict,restrict,restrict,ADJ,True,False
to,to,to,to,ADP,True,True
indoor,indoor,indoor,indoor,ADJ,True,False
only,only,only,only,ADV,True,True
58,58,58,58,NUM,False,False
-,-,-,-,SYM,False,False
60iusa,60iusa,60iusa,60iusa,PROPN,False,False
believe,believe,believe,believe,VERB,True,False
that,that,that,that,SCONJ,True,True
a,a,a,a,DET,True,True
pal,pal,pal,pal,NOUN,True,False
or,or,or,or,CCONJ,True,True
gaa,gaa,gaa,gaa,NOUN,True,False
licensee,licensee,licensee,licensee,NOUN,True,False
should,should,should,should,VERB,True,True
provide,provide,provide,provide,VERB,True,False
concurrence,concurrence,concurrence,concurrence,NOUN,True,False
for,for,for,for,ADP,True,True
contained,contained,contained,contained,ADJ,True,False
access,access,access,access,NOUN,True,False
use,use,use,use,NOUN,True,False
base,base,base,base,NOUN,True,False
on,on,on,on,ADP,True,True
developed,developed,develop,develop,VERB,True,False
technical,technical,technical,technical,ADJ,True,False
requirement,requirement,requirement,requirement,NOUN,True,False
and,and,and,and,CCONJ,True,True
standard,standard,standard,standard,NOUN,True,False
.,.,.,.,PUNCT,False,False
restriction,restriction,restriction,restriction,NOUN,True,False
should,should,should,should,VERB,True,True
be,be,be,be,AUX,True,True
limit,limit,limit,limit,NOUN,True,False
to,to,to,to,ADP,True,True
indoor,indoor,indoor,indoor,ADJ,True,False
only,only,only,only,ADJ,True,True
facility,facility,facility,facility,NOUN,True,False
",",",",",",",",PUNCT,False,False
but,but,but,but,CCONJ,True,True
outdoor,outdoor,outdoor,outdoor,ADJ,True,False
operation,operation,operation,operation,NOUN,True,False
extension,extension,extension,extension,NOUN,True,False
should,should,should,should,VERB,True,True
be,be,be,be,AUX,True,True
limit,limit,limit,limit,NOUN,True,False
to,to,to,to,PART,True,True
not,not,not,not,PART,True,True
exceed,exceed,exceed,exceed,VERB,True,False
more,more,more,more,ADJ,True,True
that,that,that,that,SCONJ,True,True
500,500,500,500,NUM,False,False
around,around,around,around,ADP,True,True
serve,serve,serve,serve,VERB,True,False
parcel,parcel,parcel,parcel,NOUN,True,False
.,.,.,.,PUNCT,False,False
iusa,iusa,iusa,iusa,PROPN,True,False
recommend,recommend,recommend,recommend,NOUN,True,False
contain,contain,contain,contain,NOUN,True,False
access,access,access,access,NOUN,True,False
user,user,user,user,NOUN,True,False
license,license,license,license,NOUN,True,False
should,should,should,should,VERB,True,True
have,have,have,have,AUX,True,True
an,an,an,an,DET,True,True
annual,annual,annual,annual,ADJ,True,False
renewal,renewal,renewal,renewal,NOUN,True,False
period,period,period,period,NOUN,True,False
.,.,.,.,PUNCT,False,False
few,few,few,few,ADJ,True,True
alternative,alternative,alternative,alternative,ADJ,True,False
spectrum,spectrum,spectrum,spectrum,NOUN,True,False
option,option,option,option,NOUN,True,False
for,for,for,for,ADP,True,True
smart,smart,smart,smart,ADJ,True,False
gridthere,gridthere,gridthere,gridthere,ADV,True,False
be,be,be,be,AUX,True,True
very,very,very,very,ADV,True,True
few,few,few,few,ADJ,True,True
spectral,spectral,spectral,spectral,ADJ,True,False
option,option,option,option,NOUN,True,False
available,available,available,available,ADJ,True,False
for,for,for,for,ADP,True,True
utility,utility,utility,utility,NOUN,True,False
use,use,use,use,NOUN,True,False
which,which,which,which,DET,True,True
address,address,address,address,VERB,True,False
essential,essential,essential,essential,ADJ,True,False
wireless,wireless,wireless,wireless,ADJ,True,False
broadband,broadband,broadband,broadband,NOUN,True,False
application,application,application,application,NOUN,True,False
need,need,need,need,NOUN,True,False
for,for,for,for,ADP,True,True
day,day,day,day,NOUN,True,False
-,-,-,-,PUNCT,False,False
to,to,to,to,ADP,True,True
-,-,-,-,PUNCT,False,False
day,day,day,day,NOUN,True,False
network,network,network,network,NOUN,True,False
operation,operation,operation,operation,NOUN,True,False
",",",",",",",",PUNCT,False,False
as,as,as,as,ADV,True,True
well,well,well,well,ADV,True,True
as,as,as,as,SCONJ,True,True
disaster,disaster,disaster,disaster,NOUN,True,False
recovery,recovery,recovery,recovery,NOUN,True,False
event,event,event,event,NOUN,True,False
.,.,.,.,PUNCT,False,False
iusa,iusa,iusa,iusa,PROPN,True,False
have,have,have,have,AUX,True,True
plan,plan,plan,plan,NOUN,True,False
for,for,for,for,ADP,True,True
wimax,wimax,wimax,wimax,PROPN,True,False
delivery,delivery,delivery,delivery,NOUN,True,False
capabilitie,capabilitie,capabilitie,capabilitie,PROPN,True,False
for,for,for,for,ADP,True,True
the,the,the,the,DET,True,True
50,50,50,50,NUM,False,False
mhz,mhz,mhz,mhz,NOUN,True,False
of,of,of,of,ADP,True,True
spectrum,spectrum,spectrum,spectrum,NOUN,True,False
available,available,available,available,ADJ,True,False
in,in,in,in,ADP,True,True
the,the,the,the,DET,True,True
3650,3650,3650,3650,NUM,False,False
-,-,-,-,PUNCT,False,False
3700mhz,3700mhz,3700mhz,3700mhz,NOUN,False,False
band,band,band,band,NOUN,True,False
.,.,.,.,PUNCT,False,False
iusa,iusa,iusa,iusa,PROPN,True,False
plan,plan,plan,plan,NOUN,True,False
to,to,to,to,PART,True,True
deliver,deliver,deliver,deliver,VERB,True,False
reliable,reliable,reliable,reliable,ADJ,True,False
and,and,and,and,CCONJ,True,True
secure,secure,secure,secure,ADJ,True,False
wireless,wireless,wireless,wireless,ADJ,True,False
communication,communication,communication,communication,NOUN,True,False
to,to,to,to,PART,True,True
support,support,support,support,VERB,True,False
gas,gas,gas,gas,NOUN,True,False
and,and,and,and,CCONJ,True,True
electric,electric,electric,electric,ADJ,True,False
service,service,service,service,NOUN,True,False
delivery,delivery,delivery,delivery,NOUN,True,False
",",",",",",",",PUNCT,False,False
grid,grid,grid,grid,NOUN,True,False
automation,automation,automation,automation,NOUN,True,False
effort,effort,effort,effort,NOUN,True,False
",",",",",",",",PUNCT,False,False
physical,physical,physical,physical,ADJ,True,False
and,and,and,and,CCONJ,True,True
network,network,network,network,NOUN,True,False
security,security,security,security,NOUN,True,False
",",",",",",",",PUNCT,False,False
and,and,and,and,CCONJ,True,True
storm,storm,storm,storm,NOUN,True,False
restoration,restoration,restoration,restoration,NOUN,True,False
of,of,of,of,ADP,True,True
network,network,network,network,NOUN,True,False
transmission,transmission,transmission,transmission,NOUN,True,False
and,and,and,and,CCONJ,True,True
distribution,distribution,distribution,distribution,NOUN,True,False
.,.,.,.,PUNCT,False,False
these,these,these,these,DET,True,True
effort,effort,effort,effort,NOUN,True,False
will,will,will,will,VERB,True,True
greatly,greatly,greatly,greatly,ADV,True,False
enhance,enhance,enhance,enhance,VERB,True,False
reliability,reliability,reliability,reliability,NOUN,True,False
and,and,and,and,CCONJ,True,True
provide,provide,provide,provide,VERB,True,False
for,for,for,for,ADP,True,True
fast,fast,fast,fast,ADJ,True,False
recovery,recovery,recovery,recovery,NOUN,True,False
effort,effort,effort,effort,NOUN,True,False
during,during,during,during,ADP,True,True
outage,outage,outage,outage,NOUN,True,False
situation,situation,situation,situation,NOUN,True,False
.,.,.,.,PUNCT,False,False
these,these,these,these,DET,True,True
effort,effort,effort,effort,NOUN,True,False
will,will,will,will,VERB,True,True
help,help,help,help,VERB,True,False
lower,lower,lower,lower,VERB,True,False
energy,energy,energy,energy,NOUN,True,False
cost,cost,cost,cost,NOUN,True,False
to,to,to,to,ADP,True,True
customer,customer,customer,customer,NOUN,True,False
.,.,.,.,PUNCT,False,False
geographical,geographical,geographical,geographical,ADJ,True,False
challenge,challenge,challenge,challenge,NOUN,True,False
for,for,for,for,ADP,True,True
iusa,iusa,iusa,iusa,PROPN,True,False
networksiusa,networksiusa,networksiusa,networksiusa,PROPN,True,False
operating,operating,operate,operate,VERB,True,False
company,company,company,company,NOUN,True,False
be,be,be,be,VERB,True,True
in,in,in,in,ADP,True,True
a,a,a,a,DET,True,True
challenging,challenging,challenging,challenging,ADJ,True,False
geographical,geographical,geographical,geographical,ADJ,True,False
area,area,area,area,NOUN,True,False
.,.,.,.,PUNCT,False,False
rge,rge,rge,rge,NOUN,True,False
",",",",",",",",PUNCT,False,False
cmp,cmp,cmp,cmp,INTJ,True,False
",",",",",",",",PUNCT,False,False
and,and,and,and,CCONJ,True,True
nyseg,nyseg,nyseg,nyseg,VERB,True,False
operate,operate,operate,operate,VERB,True,False
company,company,company,company,NOUN,True,False
border,border,border,border,NOUN,True,False
canada,canada,canada,canada,PROPN,True,False
.,.,.,.,PUNCT,False,False
nyseg,nyseg,nyseg,nyseg,ADJ,True,False
division,division,division,division,NOUN,True,False
be,be,be,be,AUX,True,True
largely,largely,largely,largely,ADV,True,False
encompass,encompass,encompass,encompass,NOUN,True,False
within,within,within,within,ADP,True,True
fss,fss,fss,fss,NOUN,True,False
exclusion,exclusion,exclusion,exclusion,NOUN,True,False
zone,zone,zone,zone,NOUN,True,False
.,.,.,.,PUNCT,False,False
iusa,iusa,iusa,iusa,PROPN,True,False
strongly,strongly,strongly,strongly,ADV,True,False
recommend,recommend,recommend,recommend,VERB,True,False
further,further,further,further,ADJ,True,True
review,review,review,review,NOUN,True,False
of,of,of,of,ADP,True,True
exclusion,exclusion,exclusion,exclusion,NOUN,True,False
zone,zone,zone,zone,NOUN,True,False
and,and,and,and,CCONJ,True,True
development,development,development,development,NOUN,True,False
of,of,of,of,ADP,True,True
acceptable,acceptable,acceptable,acceptable,ADJ,True,False
operational,operational,operational,operational,ADJ,True,False
parameter,parameter,parameter,parameter,NOUN,True,False
and,and,and,and,CCONJ,True,True
analysis,analysis,analysis,analysis,NOUN,True,False
method,method,method,method,NOUN,True,False
such,such,such,such,ADJ,True,True
as,as,as,as,SCONJ,True,True
a,a,a,a,DET,True,True
high,high,high,high,ADJ,True,False
point,point,point,point,NOUN,True,False
analysis,analysis,analysis,analysis,NOUN,True,False
",",",",",",",",PUNCT,False,False
use,use,use,use,NOUN,True,False
of,of,of,of,ADP,True,True
directional,directional,directional,directional,ADJ,True,False
antenna,antenna,antenna,antenna,NOUN,True,False
",",",",",",",",PUNCT,False,False
agl,agl,agl,agl,PROPN,True,False
erp,erp,erp,erp,PROPN,True,False
limitation,limitation,limitation,limitation,PROPN,True,False
to,to,to,to,PART,True,True
determine,determine,determine,determine,VERB,True,False
if,if,if,if,SCONJ,True,True
new,new,new,new,ADJ,True,False
operation,operation,operation,operation,NOUN,True,False
can,can,can,can,VERB,True,True
equally,equally,equally,equally,ADV,True,False
coexist,coexist,coexist,coexist,VERB,True,False
with,with,with,with,ADP,True,True
exist,exist,exist,exist,ADJ,True,False
incumbent,incumbent,incumbent,incumbent,ADJ,True,False
operation,operation,operation,operation,NOUN,True,False
.,.,.,.,PUNCT,False,False
a,a,a,a,DET,True,True
large,large,large,large,ADJ,True,False
number,number,number,number,NOUN,True,False
of,of,of,of,ADP,True,True
our,our,-PRON-,-pron-,DET,True,True
fix,fix,fix,fix,NOUN,True,False
station,station,station,station,NOUN,True,False
be,be,be,be,AUX,True,True
plan,plan,plan,plan,NOUN,True,False
for,for,for,for,ADP,True,True
height,height,height,height,NOUN,True,False
60,60,60,60,NUM,False,False
or,or,or,or,CCONJ,True,True
less,less,less,less,ADJ,True,True
.,.,.,.,PUNCT,False,False
even,even,even,even,ADV,True,True
at,at,at,at,ADP,True,True
60,60,60,60,NUM,False,False
there,there,there,there,PRON,True,True
be,be,be,be,AUX,True,True
safety,safety,safety,safety,NOUN,True,False
and,and,and,and,CCONJ,True,True
obstruction,obstruction,obstruction,obstruction,NOUN,True,False
challenge,challenge,challenge,challenge,NOUN,True,False
to,to,to,to,PART,True,True
utilize,utilize,utilize,utilize,VERB,True,False
distribution,distribution,distribution,distribution,NOUN,True,False
or,or,or,or,CCONJ,True,True
transmission,transmission,transmission,transmission,NOUN,True,False
infrastructure,infrastructure,infrastructure,infrastructure,NOUN,True,False
.,.,.,.,PUNCT,False,False
spectral,spectral,spectral,spectral,ADJ,True,False
power,power,power,power,PROPN,True,False
limitation,limitation,limitation,limitation,NOUN,True,False
should,should,should,should,VERB,True,True
be,be,be,be,AUX,True,True
consider,consider,consider,consider,VERB,True,False
and,and,and,and,CCONJ,True,True
iusa,iusa,iusa,iusa,VERB,True,False
support,support,support,support,NOUN,True,False
sas,sas,sas,sas,PROPN,True,False
assignment,assignment,assignment,assignment,NOUN,True,False
base,base,base,base,NOUN,True,False
on,on,on,on,ADP,True,True
flexible,flexible,flexible,flexible,ADJ,True,False
rule,rule,rule,rule,NOUN,True,False
for,for,for,for,ADP,True,True
license,license,license,license,NOUN,True,False
tier,tier,tier,tier,NOUN,True,False
priority,priority,priority,priority,NOUN,True,False
",",",",",",",",PUNCT,False,False
area,area,area,area,NOUN,True,False
of,of,of,of,ADP,True,True
operation,operation,operation,operation,NOUN,True,False
",",",",",",",",PUNCT,False,False
and,and,and,and,CCONJ,True,True
geographical,geographical,geographical,geographical,ADJ,True,False
restriction,restriction,restriction,restriction,NOUN,True,False
consideration,consideration,consideration,consideration,NOUN,True,False
.,.,.,.,PUNCT,False,False
summaryalthough,summaryalthough,summaryalthough,summaryalthough,PROPN,True,False
iusa,iusa,iusa,iusa,PROPN,True,False
see,see,see,see,VERB,True,True
many,many,many,many,ADJ,True,True
merit,merit,merit,merit,NOUN,True,False
in,in,in,in,ADP,True,True
the,the,the,the,DET,True,True
propose,propose,propose,propose,NOUN,True,False
rulemaking,rulemaking,rulemaking,rulemaking,NOUN,True,False
we,we,-PRON-,-pron-,PRON,True,True
have,have,have,have,AUX,True,True
serious,serious,serious,serious,ADJ,True,True
reservation,reservation,reservation,reservation,NOUN,True,False
about,about,about,about,ADP,True,True
the,the,the,the,DET,True,True
applicability,applicability,applicability,applicability,NOUN,True,False
of,of,of,of,ADP,True,True
many,many,many,many,ADJ,True,True
of,of,of,of,ADP,True,True
these,these,these,these,DET,True,True
rule,rule,rule,rule,NOUN,True,False
in,in,in,in,ADP,True,True
our,our,-PRON-,-pron-,DET,True,True
effort,effort,effort,effort,NOUN,True,False
to,to,to,to,PART,True,True
deploy,deploy,deploy,deploy,VERB,True,False
network,network,network,network,NOUN,True,False
to,to,to,to,PART,True,True
meet,meet,meet,meet,VERB,True,False
our,our,-PRON-,-pron-,DET,True,True
goal,goal,goal,goal,NOUN,True,False
for,for,for,for,ADP,True,True
a,a,a,a,DET,True,True
complete,complete,complete,complete,ADJ,True,False
end,end,end,end,NOUN,True,False
-,-,-,-,PUNCT,False,False
to,to,to,to,ADP,True,True
-,-,-,-,PUNCT,False,False
end,end,end,end,NOUN,True,False
smart,smart,smart,smart,ADJ,True,False
grid,grid,grid,grid,NOUN,True,False
network,network,network,network,NOUN,True,False
.,.,.,.,PUNCT,False,False
the,the,the,the,DET,True,True
exist,exist,exist,exist,ADJ,True,False
rule,rule,rule,rule,NOUN,True,False
and,and,and,and,CCONJ,True,True
policy,policy,policy,policy,NOUN,True,False
for,for,for,for,ADP,True,True
the,the,the,the,DET,True,True
3650,3650,3650,3650,NUM,False,False
-,-,-,-,SYM,False,False
3700,3700,3700,3700,NUM,False,False
mhz,mhz,mhz,mhz,PROPN,True,False
band,band,band,band,NOUN,True,False
be,be,be,be,AUX,True,True
quite,quite,quite,quite,ADV,True,True
suitable,suitable,suitable,suitable,ADJ,True,False
for,for,for,for,ADP,True,True
our,our,-PRON-,-pron-,DET,True,True
purpose,purpose,purpose,purpose,NOUN,True,False
.,.,.,.,PUNCT,False,False
on,on,on,on,ADP,True,True
the,the,the,the,DET,True,True
other,other,other,other,ADJ,True,True
hand,hand,hand,hand,NOUN,True,False
",",",",",",",",PUNCT,False,False
it,it,-PRON-,-pron-,PRON,True,True
be,be,be,be,AUX,True,True
our,our,-PRON-,-pron-,DET,True,True
view,view,view,view,NOUN,True,False
that,that,that,that,SCONJ,True,True
the,the,the,the,DET,True,True
rule,rule,rule,rule,NOUN,True,False
and,and,and,and,CCONJ,True,True
policy,policy,policy,policy,NOUN,True,False
be,be,be,be,AUX,True,True
consider,consider,consider,consider,VERB,True,False
for,for,for,for,ADP,True,True
the,the,the,the,DET,True,True
cbrs,cbrs,cbr,cbr,NOUN,True,False
regime,regime,regime,regime,NOUN,True,False
if,if,if,if,SCONJ,True,True
extend,extend,extend,extend,VERB,True,False
to,to,to,to,ADP,True,True
the,the,the,the,DET,True,True
3650,3650,3650,3650,NUM,False,False
-,-,-,-,SYM,False,False
3700,3700,3700,3700,NUM,False,False
mhz,mhz,mhz,mhz,PROPN,True,False
band,band,band,band,NOUN,True,False
would,would,would,would,VERB,True,True
be,be,be,be,AUX,True,True
detrimental,detrimental,detrimental,detrimental,ADJ,True,False
to,to,to,to,ADP,True,True
our,our,-PRON-,-pron-,DET,True,True
effort,effort,effort,effort,NOUN,True,False
to,to,to,to,PART,True,True
use,use,use,use,VERB,True,False
this,this,this,this,DET,True,True
spectrum,spectrum,spectrum,spectrum,NOUN,True,False
for,for,for,for,ADP,True,True
our,our,-PRON-,-pron-,DET,True,True
smart,smart,smart,smart,ADJ,True,False
grid,grid,grid,grid,NOUN,True,False
network,network,network,network,NOUN,True,False
.,.,.,.,PUNCT,False,False
we,we,-PRON-,-pron-,PRON,True,True
strongly,strongly,strongly,strongly,ADV,True,False
urge,urge,urge,urge,VERB,True,False
the,the,the,the,DET,True,True
commission,commission,commission,commission,NOUN,True,False
to,to,to,to,PART,True,True
consider,consider,consider,consider,VERB,True,False
the,the,the,the,DET,True,True
above,above,above,above,ADJ,True,True
comment,comment,comment,comment,NOUN,True,False
in,in,in,in,ADP,True,True
make,make,make,make,VERB,True,True
a,a,a,a,DET,True,True
final,final,final,final,ADJ,True,False
determination,determination,determination,determination,NOUN,True,False
for,for,for,for,ADP,True,True
the,the,the,the,DET,True,True
3650,3650,3650,3650,NUM,False,False
-,-,-,-,SYM,False,False
3700,3700,3700,3700,NUM,False,False
mhz,mhz,mhz,mhz,PROPN,True,False
band,band,band,band,NOUN,True,False
.,.,.,.,PUNCT,False,False
the,the,the,the,DET,True,True
implementation,implementation,implementation,implementation,NOUN,True,False
of,of,of,of,ADP,True,True
a,a,a,a,DET,True,True
nation,nation,nation,nation,NOUN,True,False
-,-,-,-,PUNCT,False,False
wide,wide,wide,wide,ADJ,True,False
smart,smart,smart,smart,ADJ,True,False
grid,grid,grid,grid,NOUN,True,False
network,network,network,network,NOUN,True,False
have,have,have,have,AUX,True,True
the,the,the,the,DET,True,True
potential,potential,potential,potential,NOUN,True,False
for,for,for,for,ADP,True,True
significant,significant,significant,significant,ADJ,True,False
public,public,public,public,ADJ,True,False
benefitleading,benefitleading,benefitleading,benefitleading,NOUN,True,False
to,to,to,to,PART,True,True
improve,improve,improve,improve,VERB,True,False
energy,energy,energy,energy,NOUN,True,False
efficiency,efficiency,efficiency,efficiency,NOUN,True,False
",",",",",",",",PUNCT,False,False
operational,operational,operational,operational,ADJ,True,False
efficiency,efficiency,efficiency,efficiency,NOUN,True,False
lead,lead,lead,lead,NOUN,True,False
to,to,to,to,ADP,True,True
low,low,low,low,ADJ,True,False
utility,utility,utility,utility,NOUN,True,False
cost,cost,cost,cost,NOUN,True,False
",",",",",",",",PUNCT,False,False
7improved,7improved,7improved,7improved,NUM,False,False
grid,grid,grid,grid,NOUN,True,False
reliability,reliability,reliability,reliability,NOUN,True,False
and,and,and,and,CCONJ,True,True
security,security,security,security,NOUN,True,False
",",",",",",",",PUNCT,False,False
and,and,and,and,CCONJ,True,True
fast,fast,fast,fast,ADJ,True,False
disaster,disaster,disaster,disaster,NOUN,True,False
recovery,recovery,recovery,recovery,NOUN,True,False
.,.,.,.,PUNCT,False,False
the,the,the,the,DET,True,True
commission,commission,commission,commission,NOUN,True,False
can,can,can,can,VERB,True,True
play,play,play,play,VERB,True,False
a,a,a,a,DET,True,True
key,key,key,key,ADJ,True,False
role,role,role,role,NOUN,True,False
by,by,by,by,ADP,True,True
implement,implement,implement,implement,VERB,True,False
a,a,a,a,DET,True,True
smart,smart,smart,smart,ADJ,True,False
grid,grid,grid,grid,NOUN,True,False
friendly,friendly,friendly,friendly,ADJ,True,False
regulatory,regulatory,regulatory,regulatory,ADJ,True,False
environment,environment,environment,environment,NOUN,True,False
.,.,.,.,PUNCT,False,False
