text,text_lower,lemma,lemma_lower,part_of_speech,is_alphabet,is_stopword
abstractan,abstractan,abstractan,abstractan,PROPN,True,False
efficient,efficient,efficient,efficient,ADJ,True,False
enforcement,enforcement,enforcement,enforcement,NOUN,True,False
mechanism,mechanism,mechanism,mechanism,NOUN,True,False
be,be,be,be,AUX,True,True
one,one,one,one,NUM,True,True
of,of,of,of,ADP,True,True
the,the,the,the,DET,True,True
pre,pre,pre,pre,ADJ,True,False
-,-,-,-,NOUN,False,False
requisite,requisite,requisite,requisite,ADJ,True,False
for,for,for,for,ADP,True,True
a,a,a,a,DET,True,True
spectrum,spectrum,spectrum,spectrum,NOUN,True,False
sharing,sharing,sharing,sharing,NOUN,True,False
system,system,system,system,NOUN,True,False
.,.,.,.,PUNCT,False,False
the,the,the,the,DET,True,True
enforcement,enforcement,enforcement,enforcement,NOUN,True,False
system,system,system,system,NOUN,True,False
should,should,should,should,VERB,True,True
be,be,be,be,AUX,True,True
able,able,able,able,ADJ,True,False
to,to,to,to,PART,True,True
verify,verify,verify,verify,VERB,True,False
conformance,conformance,conformance,conformance,NOUN,True,False
and,and,and,and,CCONJ,True,True
take,take,take,take,VERB,True,True
prompt,prompt,prompt,prompt,ADJ,True,False
action,action,action,action,NOUN,True,False
to,to,to,to,PART,True,True
ensure,ensure,ensure,ensure,VERB,True,False
compliance,compliance,compliance,compliance,NOUN,True,False
.,.,.,.,PUNCT,False,False
thus,thus,thus,thus,ADV,True,True
verification,verification,verification,verification,NOUN,True,False
be,be,be,be,AUX,True,True
the,the,the,the,DET,True,True
first,first,first,first,ADJ,True,True
step,step,step,step,NOUN,True,False
of,of,of,of,ADP,True,True
any,any,any,any,DET,True,True
enforcement,enforcement,enforcement,enforcement,NOUN,True,False
system,system,system,system,NOUN,True,False
.,.,.,.,PUNCT,False,False
verification,verification,verification,verification,NOUN,True,False
should,should,should,should,VERB,True,True
be,be,be,be,AUX,True,True
prompt,prompt,prompt,prompt,ADJ,True,False
to,to,to,to,PART,True,True
ensure,ensure,ensure,ensure,VERB,True,False
that,that,that,that,DET,True,True
license,license,license,license,NOUN,True,False
user,user,user,user,NOUN,True,False
can,can,can,can,VERB,True,True
use,use,use,use,VERB,True,False
the,the,the,the,DET,True,True
spectrum,spectrum,spectrum,spectrum,NOUN,True,False
access,access,access,access,NOUN,True,False
system,system,system,system,NOUN,True,False
with,with,with,with,ADP,True,True
a,a,a,a,DET,True,True
minimum,minimum,minimum,minimum,NOUN,True,False
of,of,of,of,ADP,True,True
delay,delay,delay,delay,NOUN,True,False
.,.,.,.,PUNCT,False,False
in,in,in,in,ADP,True,True
addition,addition,addition,addition,NOUN,True,False
the,the,the,the,DET,True,True
verification,verification,verification,verification,NOUN,True,False
system,system,system,system,NOUN,True,False
should,should,should,should,VERB,True,True
be,be,be,be,AUX,True,True
sensitive,sensitive,sensitive,sensitive,ADJ,True,False
and,and,and,and,CCONJ,True,True
able,able,able,able,ADJ,True,False
to,to,to,to,PART,True,True
ascertain,ascertain,ascertain,ascertain,VERB,True,False
with,with,with,with,ADP,True,True
high,high,high,high,ADJ,True,False
probability,probability,probability,probability,NOUN,True,False
whether,whether,whether,whether,SCONJ,True,True
the,the,the,the,DET,True,True
location,location,location,location,NOUN,True,False
information,information,information,information,NOUN,True,False
provide,provide,provide,provide,VERB,True,False
by,by,by,by,ADP,True,True
a,a,a,a,DET,True,True
user,user,user,user,NOUN,True,False
be,be,be,be,AUX,True,True
valid,valid,valid,valid,ADJ,True,False
or,or,or,or,CCONJ,True,True
not,not,not,not,PART,True,True
.,.,.,.,PUNCT,False,False
a,a,a,a,DET,True,True
basic,basic,basic,basic,ADJ,True,False
verification,verification,verification,verification,NOUN,True,False
approach,approach,approach,approach,NOUN,True,False
be,be,be,be,AUX,True,True
outline,outline,outline,outline,NOUN,True,False
here,here,here,here,ADV,True,True
",",",",",",",",PUNCT,False,False
base,base,base,base,NOUN,True,False
on,on,on,on,ADP,True,True
some,some,some,some,DET,True,True
anchor,anchor,anchor,anchor,NOUN,True,False
node,node,node,node,NOUN,True,False
and,and,and,and,CCONJ,True,True
a,a,a,a,DET,True,True
trust,trust,trust,trust,NOUN,True,False
transmitter,transmitter,transmitter,transmitter,NOUN,True,False
which,which,which,which,DET,True,True
may,may,may,may,VERB,True,True
itself,itself,-PRON-,-pron-,PRON,True,True
be,be,be,be,AUX,True,True
one,one,one,one,NUM,True,True
of,of,of,of,ADP,True,True
the,the,the,the,DET,True,True
anchor,anchor,anchor,anchor,NOUN,True,False
node,node,node,node,NOUN,True,False
.,.,.,.,PUNCT,False,False
the,the,the,the,DET,True,True
location,location,location,location,NOUN,True,False
of,of,of,of,ADP,True,True
the,the,the,the,DET,True,True
anchor,anchor,anchor,anchor,NOUN,True,False
node,node,node,node,NOUN,True,False
and,and,and,and,CCONJ,True,True
the,the,the,the,DET,True,True
transmitter,transmitter,transmitter,transmitter,NOUN,True,False
be,be,be,be,AUX,True,True
know,know,know,know,ADJ,True,False
.,.,.,.,PUNCT,False,False
to,to,to,to,PART,True,True
begin,begin,begin,begin,VERB,True,False
",",",",",",",",PUNCT,False,False
the,the,the,the,DET,True,True
receive,receive,receive,receive,ADJ,True,False
signal,signal,signal,signal,NOUN,True,False
strength,strength,strength,strength,NOUN,True,False
of,of,of,of,ADP,True,True
the,the,the,the,DET,True,True
know,know,know,know,NOUN,True,False
transmitter,transmitter,transmitter,transmitter,NOUN,True,False
be,be,be,be,AUX,True,True
record,record,record,record,NOUN,True,False
at,at,at,at,ADP,True,True
the,the,the,the,DET,True,True
different,different,different,different,ADJ,True,False
anchor,anchor,anchor,anchor,NOUN,True,False
point,point,point,point,NOUN,True,False
and,and,and,and,CCONJ,True,True
then,then,then,then,ADV,True,True
all,all,all,all,DET,True,True
pairwise,pairwise,pairwise,pairwise,VERB,True,False
difference,difference,difference,difference,NOUN,True,False
be,be,be,be,AUX,True,True
compute,compute,compute,compute,ADJ,True,False
.,.,.,.,PUNCT,False,False
from,from,from,from,ADP,True,True
these,these,these,these,DET,True,True
pairwise,pairwise,pairwise,pairwise,NOUN,True,False
value,value,value,value,NOUN,True,False
",",",",",",",",PUNCT,False,False
the,the,the,the,DET,True,True
correspond,correspond,correspond,correspond,NOUN,True,False
differential,differential,differential,differential,NOUN,True,False
quantity,quantity,quantity,quantity,NOUN,True,False
obtain,obtain,obtain,obtain,ADV,True,False
from,from,from,from,ADP,True,True
the,the,the,the,DET,True,True
log,log,log,log,NOUN,True,False
-,-,-,-,PUNCT,False,False
distance,distance,distance,distance,NOUN,True,False
relationship,relationship,relationship,relationship,NOUN,True,False
be,be,be,be,AUX,True,True
subtract,subtract,subtract,subtract,NOUN,True,False
",",",",",",",",PUNCT,False,False
result,result,result,result,VERB,True,False
in,in,in,in,ADP,True,True
residual,residual,residual,residual,PROPN,True,False
.,.,.,.,PUNCT,False,False
these,these,these,these,DET,True,True
residual,residual,residual,residual,ADJ,True,False
which,which,which,which,DET,True,True
be,be,be,be,VERB,True,True
model,model,model,model,NOUN,True,False
error,error,error,error,NOUN,True,False
in,in,in,in,ADP,True,True
the,the,the,the,DET,True,True
drss,drss,drss,drss,NOUN,True,False
differential,differential,differential,differential,NOUN,True,False
receive,receive,receive,receive,VERB,True,False
signal,signal,signal,signal,NOUN,True,False
strength,strength,strength,strength,PROPN,True,False
localization,localization,localization,localization,NOUN,True,False
criterion,criterion,criterion,criterion,NOUN,True,False
account,account,account,account,NOUN,True,False
for,for,for,for,ADP,True,True
the,the,the,the,DET,True,True
stochastic,stochastic,stochastic,stochastic,ADJ,True,False
characteristic,characteristic,characteristic,characteristic,NOUN,True,False
e.g.,e.g.,e.g.,e.g.,PROPN,False,False
shadow,shadow,shadow,shadow,NOUN,True,False
of,of,of,of,ADP,True,True
the,the,the,the,DET,True,True
environment,environment,environment,environment,NOUN,True,False
under,under,under,under,ADP,True,True
consideration,consideration,consideration,consideration,NOUN,True,False
and,and,and,and,CCONJ,True,True
act,act,act,act,VERB,True,False
as,as,as,as,SCONJ,True,True
a,a,a,a,DET,True,True
point,point,point,point,NOUN,True,False
of,of,of,of,ADP,True,True
reference,reference,reference,reference,NOUN,True,False
.,.,.,.,PUNCT,False,False
when,when,when,when,ADV,True,True
an,an,an,an,DET,True,True
untrusted,untrusted,untrusted,untrusted,ADJ,True,False
transmitter,transmitter,transmitter,transmitter,NOUN,True,False
announce,announce,announce,announce,VERB,True,False
its,its,-PRON-,-pron-,DET,True,True
location,location,location,location,NOUN,True,False
the,the,the,the,DET,True,True
above,above,above,above,ADJ,True,True
process,process,process,process,NOUN,True,False
be,be,be,be,AUX,True,True
use,use,use,use,NOUN,True,False
to,to,to,to,PART,True,True
compute,compute,compute,compute,VERB,True,False
a,a,a,a,DET,True,True
second,second,second,second,ADJ,True,False
set,set,set,set,NOUN,True,False
of,of,of,of,ADP,True,True
residual,residual,residual,residual,NOUN,True,False
and,and,and,and,CCONJ,True,True
the,the,the,the,DET,True,True
two,two,two,two,NUM,True,True
set,set,set,set,NOUN,True,False
of,of,of,of,ADP,True,True
residual,residual,residual,residual,NOUN,True,False
be,be,be,be,NOUN,True,True
compare,compare,compare,compare,VERB,True,False
use,use,use,use,NOUN,True,False
appropriate,appropriate,appropriate,appropriate,ADJ,True,False
statistical,statistical,statistical,statistical,ADJ,True,False
test,test,test,test,NOUN,True,False
in,in,in,in,ADP,True,True
order,order,order,order,NOUN,True,False
to,to,to,to,PART,True,True
arrive,arrive,arrive,arrive,VERB,True,False
at,at,at,at,ADP,True,True
the,the,the,the,DET,True,True
conclusion,conclusion,conclusion,conclusion,NOUN,True,False
that,that,that,that,SCONJ,True,True
they,they,-PRON-,-pron-,PRON,True,True
be,be,be,be,VERB,True,True
",",",",",",",",PUNCT,False,False
or,or,or,or,CCONJ,True,True
be,be,be,be,AUX,True,True
not,not,not,not,PART,True,True
",",",",",",",",PUNCT,False,False
draw,draw,draw,draw,VERB,True,False
from,from,from,from,ADP,True,True
the,the,the,the,DET,True,True
same,same,same,same,ADJ,True,True
distribution,distribution,distribution,distribution,NOUN,True,False
.,.,.,.,PUNCT,False,False
while,while,while,while,SCONJ,True,True
extensive,extensive,extensive,extensive,ADJ,True,False
simulation,simulation,simulation,simulation,NOUN,True,False
and,and,and,and,CCONJ,True,True
refinement,refinement,refinement,refinement,NOUN,True,False
of,of,of,of,ADP,True,True
the,the,the,the,DET,True,True
drss,drss,drss,drss,NOUN,True,False
residual,residual,residual,residual,ADJ,True,False
approach,approach,approach,approach,NOUN,True,False
be,be,be,be,AUX,True,True
in,in,in,in,ADP,True,True
progress,progress,progress,progress,NOUN,True,False
",",",",",",",",PUNCT,False,False
our,our,-PRON-,-pron-,DET,True,True
initial,initial,initial,initial,ADJ,True,False
simulation,simulation,simulation,simulation,NOUN,True,False
result,result,result,result,NOUN,True,False
show,show,show,show,VERB,True,True
that,that,that,that,SCONJ,True,True
this,this,this,this,DET,True,True
approach,approach,approach,approach,NOUN,True,False
can,can,can,can,VERB,True,True
detect,detect,detect,detect,VERB,True,False
difference,difference,difference,difference,NOUN,True,False
between,between,between,between,ADP,True,True
the,the,the,the,DET,True,True
announced,announced,announced,announced,ADJ,True,False
and,and,and,and,CCONJ,True,True
actual,actual,actual,actual,ADJ,True,False
location,location,location,location,NOUN,True,False
of,of,of,of,ADP,True,True
an,an,an,an,DET,True,True
untrusted,untrusted,untrusted,untrusted,ADJ,True,False
transmitter,transmitter,transmitter,transmitter,NOUN,True,False
down,down,down,down,ADV,True,True
to,to,to,to,ADP,True,True
as,as,as,as,ADV,True,True
low,low,low,low,ADJ,True,False
as,as,as,as,SCONJ,True,True
100,100,100,100,NUM,False,False
m.,m.,m.,m.,NOUN,False,False
it,it,-PRON-,-pron-,PRON,True,True
be,be,be,be,AUX,True,True
relevant,relevant,relevant,relevant,ADJ,True,False
to,to,to,to,ADP,True,True
further,further,further,further,ADV,True,True
note,note,note,note,VERB,True,False
that,that,that,that,SCONJ,True,True
evaluation,evaluation,evaluation,evaluation,NOUN,True,False
of,of,of,of,ADP,True,True
the,the,the,the,DET,True,True
modeling,modeling,modeling,modeling,ADJ,True,False
residual,residual,residual,residual,ADJ,True,False
be,be,be,be,AUX,True,True
base,base,base,base,NOUN,True,False
on,on,on,on,ADP,True,True
know,know,know,know,PROPN,True,False
location,location,location,location,NOUN,True,False
",",",",",",",",PUNCT,False,False
do,do,do,do,AUX,True,True
not,not,not,not,PART,True,True
require,require,require,require,VERB,True,False
any,any,any,any,DET,True,True
optimization,optimization,optimization,optimization,NOUN,True,False
",",",",",",",",PUNCT,False,False
and,and,and,and,CCONJ,True,True
be,be,be,be,AUX,True,True
therefore,therefore,therefore,therefore,ADV,True,True
a,a,a,a,DET,True,True
quick,quick,quick,quick,ADJ,True,False
process.1,process.1,process.1,process.1,X,False,False
.,.,.,.,PUNCT,False,False
introductionenforcement,introductionenforcement,introductionenforcement,introductionenforcement,NOUN,True,False
of,of,of,of,ADP,True,True
spectrum,spectrum,spectrum,spectrum,NOUN,True,False
sharing,sharing,sharing,sharing,NOUN,True,False
in,in,in,in,ADP,True,True
a,a,a,a,DET,True,True
database,database,database,database,NOUN,True,False
-,-,-,-,PUNCT,False,False
drive,drive,drive,drive,NOUN,True,False
dynamic,dynamic,dynamic,dynamic,ADJ,True,False
sas,sas,sas,sas,NOUN,True,False
require,require,require,require,VERB,True,False
verification,verification,verification,verification,NOUN,True,False
of,of,of,of,ADP,True,True
conformance,conformance,conformance,conformance,NOUN,True,False
to,to,to,to,PART,True,True
transmit,transmit,transmit,transmit,VERB,True,False
request,request,request,request,NOUN,True,False
that,that,that,that,DET,True,True
be,be,be,be,AUX,True,True
deem,deem,deem,deem,NOUN,True,False
acceptable,acceptable,acceptable,acceptable,ADJ,True,False
this,this,this,this,DET,True,True
include,include,include,include,VERB,True,False
characteristic,characteristic,characteristic,characteristic,NOUN,True,False
such,such,such,such,ADJ,True,True
as,as,as,as,SCONJ,True,True
transmit,transmit,transmit,transmit,NOUN,True,False
power,power,power,power,NOUN,True,False
",",",",",",",",PUNCT,False,False
modulation,modulation,modulation,modulation,NOUN,True,False
format,format,format,format,NOUN,True,False
",",",",",",",",PUNCT,False,False
etc,etc,etc,etc,X,True,False
..,..,..,..,PUNCT,False,False
the,the,the,the,DET,True,True
acceptability,acceptability,acceptability,acceptability,NOUN,True,False
of,of,of,of,ADP,True,True
one,one,one,one,NUM,True,True
or,or,or,or,CCONJ,True,True
more,more,more,more,ADJ,True,True
of,of,of,of,ADP,True,True
the,the,the,the,DET,True,True
latter,latter,latter,latter,ADJ,True,True
characteristic,characteristic,characteristic,characteristic,NOUN,True,False
may,may,may,may,VERB,True,True
be,be,be,be,AUX,True,True
location,location,location,location,NOUN,True,False
dependent,dependent,dependent,dependent,ADJ,True,False
",",",",",",",",PUNCT,False,False
thereby,thereby,thereby,thereby,ADV,True,True
require,require,require,require,VERB,True,False
that,that,that,that,SCONJ,True,True
a,a,a,a,DET,True,True
user,user,user,user,NOUN,True,False
report,report,report,report,VERB,True,False
its,its,-PRON-,-pron-,DET,True,True
location,location,location,location,NOUN,True,False
so,so,so,so,SCONJ,True,True
that,that,that,that,SCONJ,True,True
it,it,-PRON-,-pron-,PRON,True,True
can,can,can,can,VERB,True,True
be,be,be,be,AUX,True,True
verify,verify,verify,verify,ADJ,True,False
and,and,and,and,CCONJ,True,True
the,the,the,the,DET,True,True
transmit,transmit,transmit,transmit,NOUN,True,False
request,request,request,request,NOUN,True,False
can,can,can,can,VERB,True,True
be,be,be,be,AUX,True,True
declare,declare,declare,declare,NOUN,True,False
valid,valid,valid,valid,ADJ,True,False
or,or,or,or,CCONJ,True,True
conform,conform,conform,conform,VERB,True,False
.,.,.,.,PUNCT,False,False
a,a,a,a,DET,True,True
user,user,user,user,NOUN,True,False
-,-,-,-,PUNCT,False,False
with,with,with,with,ADP,True,True
otherwise,otherwise,otherwise,otherwise,ADV,True,True
conform,conform,conform,conform,NOUN,True,False
equipment,equipment,equipment,equipment,NOUN,True,False
and,and,and,and,CCONJ,True,True
transmit,transmit,transmit,transmit,VERB,True,False
request,request,request,request,NOUN,True,False
-,-,-,-,PUNCT,False,False
could,could,could,could,VERB,True,True
be,be,be,be,AUX,True,True
spoof,spoof,spoof,spoof,VERB,True,False
its,its,-PRON-,-pron-,DET,True,True
location,location,location,location,NOUN,True,False
in,in,in,in,ADP,True,True
order,order,order,order,NOUN,True,False
to,to,to,to,PART,True,True
get,get,get,get,AUX,True,True
more,more,more,more,ADV,True,True
advantageous,advantageous,advantageous,advantageous,ADJ,True,False
transmitcapability,transmitcapability,transmitcapability,transmitcapability,NOUN,True,False
.,.,.,.,PUNCT,False,False
location,location,location,location,NOUN,True,False
verification,verification,verification,verification,NOUN,True,False
work,work,work,work,NOUN,True,False
to,to,to,to,PART,True,True
quickly,quickly,quickly,quickly,ADV,True,False
avoidmitigate,avoidmitigate,avoidmitigate,avoidmitigate,VERB,True,False
such,such,such,such,ADJ,True,True
behavior,behavior,behavior,behavior,NOUN,True,False
that,that,that,that,DET,True,True
be,be,be,be,VERB,True,True
detrimental,detrimental,detrimental,detrimental,ADJ,True,False
to,to,to,to,ADP,True,True
network,network,network,network,NOUN,True,False
performance,performance,performance,performance,NOUN,True,False
",",",",",",",",PUNCT,False,False
by,by,by,by,ADP,True,True
declare,declare,declare,declare,NOUN,True,False
location,location,location,location,NOUN,True,False
-,-,-,-,PUNCT,False,False
spoof,spoof,spoof,spoof,NOUN,True,False
transmit,transmit,transmit,transmit,NOUN,True,False
request,request,request,request,NOUN,True,False
invalid,invalid,invalid,invalid,ADJ,True,False
.,.,.,.,PUNCT,False,False
if,if,if,if,SCONJ,True,True
there,there,there,there,PRON,True,True
be,be,be,be,AUX,True,True
a,a,a,a,DET,True,True
reach,reach,reach,reach,VERB,True,False
-,-,-,-,PUNCT,False,False
back,back,back,back,ADP,True,True
capability,capability,capability,capability,NOUN,True,False
build,build,build,build,NOUN,True,False
into,into,into,into,ADP,True,True
the,the,the,the,DET,True,True
sas,sas,sas,sas,PROPN,True,False
then,then,then,then,ADV,True,True
a,a,a,a,DET,True,True
user,user,user,user,NOUN,True,False
that,that,that,that,DET,True,True
be,be,be,be,VERB,True,True
non,non,non,non,ADJ,True,False
-,-,-,-,ADJ,False,False
conforming,conforming,conforming,conforming,ADJ,True,False
ncu,ncu,ncu,ncu,NOUN,True,False
due,due,due,due,ADP,True,True
to,to,to,to,ADP,True,True
faulty,faulty,faulty,faulty,ADJ,True,False
equipment,equipment,equipment,equipment,NOUN,True,False
can,can,can,can,VERB,True,True
be,be,be,be,AUX,True,True
turn,turn,turn,turn,VERB,True,False
off,off,off,off,ADP,True,True
remotely,remotely,remotely,remotely,ADV,True,False
and,and,and,and,CCONJ,True,True
quick,quick,quick,quick,ADJ,True,False
enforcement,enforcement,enforcement,enforcement,NOUN,True,False
be,be,be,be,AUX,True,True
possible,possible,possible,possible,ADJ,True,False
.,.,.,.,PUNCT,False,False
however,however,however,however,ADV,True,True
",",",",",",",",PUNCT,False,False
if,if,if,if,SCONJ,True,True
there,there,there,there,PRON,True,True
be,be,be,be,AUX,True,True
an,an,an,an,DET,True,True
ncu,ncu,ncu,ncu,NOUN,True,False
and,and,and,and,CCONJ,True,True
there,there,there,there,PRON,True,True
be,be,be,be,AUX,True,True
no,no,no,no,DET,True,True
reach,reach,reach,reach,NOUN,True,False
-,-,-,-,PUNCT,False,False
back,back,back,back,NOUN,True,True
possible,possible,possible,possible,ADJ,True,False
",",",",",",",",PUNCT,False,False
then,then,then,then,ADV,True,True
the,the,the,the,DET,True,True
location,location,location,location,NOUN,True,False
verification,verification,verification,verification,NOUN,True,False
step,step,step,step,NOUN,True,False
will,will,will,will,VERB,True,True
need,need,need,need,VERB,True,False
to,to,to,to,PART,True,True
be,be,be,be,AUX,True,True
follow,follow,follow,follow,VERB,True,False
or,or,or,or,CCONJ,True,True
replace,replace,replace,replace,VERB,True,False
with,with,with,with,ADP,True,True
a,a,a,a,DET,True,True
much,much,much,much,ADV,True,True
more,more,more,more,ADV,True,True
complex,complex,complex,complex,ADJ,True,False
localization,localization,localization,localization,NOUN,True,False
step,step,step,step,NOUN,True,False
in,in,in,in,ADP,True,True
order,order,order,order,NOUN,True,False
to,to,to,to,PART,True,True
facilitate,facilitate,facilitate,facilitate,VERB,True,False
enforcement,enforcement,enforcement,enforcement,NOUN,True,False
by,by,by,by,ADP,True,True
more,more,more,more,ADJ,True,True
time,time,time,time,NOUN,True,False
-,-,-,-,PUNCT,False,False
consume,consume,consume,consume,NOUN,True,False
mean,mean,mean,mean,PROPN,True,False
.,.,.,.,PUNCT,False,False
in,in,in,in,ADP,True,True
this,this,this,this,DET,True,True
work,work,work,work,NOUN,True,False
we,we,-PRON-,-pron-,PRON,True,True
give,give,give,give,VERB,True,True
a,a,a,a,DET,True,True
method,method,method,method,NOUN,True,False
for,for,for,for,ADP,True,True
location,location,location,location,NOUN,True,False
verification,verification,verification,verification,NOUN,True,False
use,use,use,use,NOUN,True,False
differential,differential,differential,differential,NOUN,True,False
received,received,receive,receive,VERB,True,False
signal,signal,signal,signal,NOUN,True,False
strength,strength,strength,strength,NOUN,True,False
drss,drss,drss,drss,NOUN,True,False
information,information,information,information,NOUN,True,False
.,.,.,.,PUNCT,False,False
signal,signal,signal,signal,NOUN,True,False
strength,strength,strength,strength,NOUN,True,False
information,information,information,information,NOUN,True,False
be,be,be,be,AUX,True,True
readily,readily,readily,readily,ADV,True,False
available,available,available,available,ADJ,True,False
and,and,and,and,CCONJ,True,True
the,the,the,the,DET,True,True
propose,propose,propose,propose,NOUN,True,False
method,method,method,method,NOUN,True,False
be,be,be,be,AUX,True,True
computationally,computationally,computationally,computationally,ADV,True,False
efficient,efficient,efficient,efficient,ADJ,True,False
",",",",",",",",PUNCT,False,False
which,which,which,which,DET,True,True
make,make,make,make,VERB,True,True
it,it,-PRON-,-pron-,PRON,True,True
fast,fast,fast,fast,ADJ,True,False
.,.,.,.,PUNCT,False,False
section,section,section,section,NOUN,True,False
2,2,2,2,NUM,False,False
give,give,give,give,VERB,True,True
an,an,an,an,DET,True,True
overview,overview,overview,overview,NOUN,True,False
of,of,of,of,ADP,True,True
the,the,the,the,DET,True,True
notation,notation,notation,notation,NOUN,True,False
and,and,and,and,CCONJ,True,True
equation,equation,equation,equation,NOUN,True,False
use,use,use,use,NOUN,True,False
and,and,and,and,CCONJ,True,True
then,then,then,then,ADV,True,True
proceed,proceed,proceed,proceed,VERB,True,False
to,to,to,to,PART,True,True
explain,explain,explain,explain,VERB,True,False
the,the,the,the,DET,True,True
propose,propose,propose,propose,NOUN,True,False
location,location,location,location,NOUN,True,False
verification,verification,verification,verification,NOUN,True,False
method,method,method,method,NOUN,True,False
.,.,.,.,PUNCT,False,False
section,section,section,section,NOUN,True,False
3,3,3,3,NUM,False,False
present,present,present,present,ADJ,True,False
initial,initial,initial,initial,ADJ,True,False
simulation,simulation,simulation,simulation,NOUN,True,False
result,result,result,result,NOUN,True,False
with,with,with,with,ADP,True,True
a,a,a,a,DET,True,True
brief,brief,brief,brief,ADJ,True,False
discussion,discussion,discussion,discussion,NOUN,True,False
.,.,.,.,PUNCT,False,False
the,the,the,the,DET,True,True
conclusion,conclusion,conclusion,conclusion,NOUN,True,False
and,and,and,and,CCONJ,True,True
direction,direction,direction,direction,NOUN,True,False
for,for,for,for,ADP,True,True
future,future,future,future,ADJ,True,False
work,work,work,work,NOUN,True,False
be,be,be,be,AUX,True,True
provide,provide,provide,provide,VERB,True,False
in,in,in,in,ADP,True,True
section,section,section,section,NOUN,True,False
4.2,4.2,4.2,4.2,NUM,False,False
.,.,.,.,PUNCT,False,False
overview,overview,overview,overview,NOUN,True,False
of,of,of,of,ADP,True,True
the,the,the,the,DET,True,True
method2.2,method2.2,method2.2,method2.2,PROPN,False,False
verification,verification,verification,verification,NOUN,True,False
approachin,approachin,approachin,approachin,VERB,True,False
the,the,the,the,DET,True,True
propose,propose,propose,propose,NOUN,True,False
verification,verification,verification,verification,NOUN,True,False
scheme,scheme,scheme,scheme,NOUN,True,False
we,we,-PRON-,-pron-,PRON,True,True
use,use,use,use,VERB,True,False
a,a,a,a,DET,True,True
reference,reference,reference,reference,NOUN,True,False
transmitter,transmitter,transmitter,transmitter,NOUN,True,False
",",",",",",",",PUNCT,False,False
i.e.,i.e.,i.e.,i.e.,X,False,False
a,a,a,a,DET,True,True
transmitter,transmitter,transmitter,transmitter,NOUN,True,False
for,for,for,for,ADP,True,True
which,which,which,which,DET,True,True
we,we,-PRON-,-pron-,PRON,True,True
know,know,know,know,VERB,True,False
the,the,the,the,DET,True,True
position,position,position,position,NOUN,True,False
.,.,.,.,PUNCT,False,False
this,this,this,this,DET,True,True
reference,reference,reference,reference,NOUN,True,False
transmitter,transmitter,transmitter,transmitter,NOUN,True,False
can,can,can,can,VERB,True,True
be,be,be,be,AUX,True,True
see,see,see,see,VERB,True,True
as,as,as,as,SCONJ,True,True
a,a,a,a,DET,True,True
trustworthy,trustworthy,trustworthy,trustworthy,ADJ,True,False
user,user,user,user,NOUN,True,False
.,.,.,.,PUNCT,False,False
in,in,in,in,ADP,True,True
fact,fact,fact,fact,NOUN,True,False
we,we,-PRON-,-pron-,PRON,True,True
can,can,can,can,VERB,True,True
take,take,take,take,VERB,True,True
one,one,one,one,NUM,True,True
of,of,of,of,ADP,True,True
the,the,the,the,DET,True,True
anchor,anchor,anchor,anchor,NOUN,True,False
node,node,node,node,NOUN,True,False
to,to,to,to,PART,True,True
be,be,be,be,AUX,True,True
a,a,a,a,DET,True,True
reference,reference,reference,reference,NOUN,True,False
node,node,node,node,NOUN,True,False
and,and,and,and,CCONJ,True,True
use,use,use,use,VERB,True,False
a,a,a,a,DET,True,True
beacon,beacon,beacon,beacon,NOUN,True,False
signal,signal,signal,signal,NOUN,True,False
to,to,to,to,PART,True,True
evaluate,evaluate,evaluate,evaluate,VERB,True,False
the,the,the,the,DET,True,True
ground,ground,ground,ground,NOUN,True,False
-,-,-,-,PUNCT,False,False
truth,truth,truth,truth,NOUN,True,False
residual,residual,residual,residual,NOUN,True,False
.,.,.,.,PUNCT,False,False
when,when,when,when,ADV,True,True
an,an,an,an,DET,True,True
unknown,unknown,unknown,unknown,ADJ,True,False
transmitter,transmitter,transmitter,transmitter,NOUN,True,False
announce,announce,announce,announce,VERB,True,False
its,its,-PRON-,-pron-,DET,True,True
location,location,location,location,NOUN,True,False
we,we,-PRON-,-pron-,PRON,True,True
assume,assume,assume,assume,VERB,True,False
it,it,-PRON-,-pron-,PRON,True,True
to,to,to,to,PART,True,True
be,be,be,be,AUX,True,True
true,true,true,true,ADJ,True,False
",",",",",",",",PUNCT,False,False
calculate,calculate,calculate,calculate,VERB,True,False
the,the,the,the,DET,True,True
residual,residual,residual,residual,NOUN,True,False
",",",",",",",",PUNCT,False,False
and,and,and,and,CCONJ,True,True
compare,compare,compare,compare,VERB,True,False
with,with,with,with,ADP,True,True
the,the,the,the,DET,True,True
residual,residual,residual,residual,ADJ,True,False
obtain,obtain,obtain,obtain,NOUN,True,False
from,from,from,from,ADP,True,True
the,the,the,the,DET,True,True
reference,reference,reference,reference,NOUN,True,False
case,case,case,case,NOUN,True,False
.,.,.,.,PUNCT,False,False
base,base,base,base,NOUN,True,False
on,on,on,on,ADP,True,True
an,an,an,an,DET,True,True
appropriate,appropriate,appropriate,appropriate,ADJ,True,False
comparison,comparison,comparison,comparison,NOUN,True,False
method,method,method,method,NOUN,True,False
we,we,-PRON-,-pron-,PRON,True,True
then,then,then,then,ADV,True,True
conclude,conclude,conclude,conclude,VERB,True,False
if,if,if,if,SCONJ,True,True
the,the,the,the,DET,True,True
announce,announce,announce,announce,NOUN,True,False
location,location,location,location,NOUN,True,False
of,of,of,of,ADP,True,True
the,the,the,the,DET,True,True
transmitter,transmitter,transmitter,transmitter,NOUN,True,False
be,be,be,be,AUX,True,True
true,true,true,true,ADJ,True,False
or,or,or,or,CCONJ,True,True
not,not,not,not,PART,True,True
.,.,.,.,PUNCT,False,False
we,we,-PRON-,-pron-,PRON,True,True
illustrate,illustrate,illustrate,illustrate,VERB,True,False
the,the,the,the,DET,True,True
point,point,point,point,NOUN,True,False
with,with,with,with,ADP,True,True
an,an,an,an,DET,True,True
example,example,example,example,NOUN,True,False
.,.,.,.,PUNCT,False,False
figure,figure,figure,figure,NOUN,True,False
1,1,1,1,NUM,False,False
show,show,show,show,VERB,True,True
the,the,the,the,DET,True,True
location,location,location,location,NOUN,True,False
of,of,of,of,ADP,True,True
the,the,the,the,DET,True,True
anchor,anchor,anchor,anchor,NOUN,True,False
node,node,node,node,PROPN,True,False
n,n,n,n,CCONJ,True,False
16,16,16,16,NUM,False,False
and,and,and,and,CCONJ,True,True
the,the,the,the,DET,True,True
reference,reference,reference,reference,NOUN,True,False
transmitter,transmitter,transmitter,transmitter,NOUN,True,False
",",",",",",",",PUNCT,False,False
as,as,as,as,ADV,True,True
well,well,well,well,ADV,True,True
as,as,as,as,SCONJ,True,True
the,the,the,the,DET,True,True
announced,announced,announced,announced,ADJ,True,False
and,and,and,and,CCONJ,True,True
the,the,the,the,DET,True,True
actual,actual,actual,actual,ADJ,True,False
location,location,location,location,NOUN,True,False
of,of,of,of,ADP,True,True
the,the,the,the,DET,True,True
unknown,unknown,unknown,unknown,ADJ,True,False
transmitter,transmitter,transmitter,transmitter,NOUN,True,False
in,in,in,in,ADP,True,True
a,a,a,a,DET,True,True
1000,1000,1000,1000,NUM,False,False
m,m,m,m,NOUN,True,False
by,by,by,by,ADP,True,True
1000,1000,1000,1000,NUM,False,False
m,m,m,m,PROPN,True,False
area,area,area,area,NOUN,True,False
.,.,.,.,PUNCT,False,False
thedistance,thedistance,thedistance,thedistance,NOUN,True,False
between,between,between,between,ADP,True,True
the,the,the,the,DET,True,True
actual,actual,actual,actual,ADJ,True,False
location,location,location,location,NOUN,True,False
and,and,and,and,CCONJ,True,True
the,the,the,the,DET,True,True
announce,announce,announce,announce,NOUN,True,False
location,location,location,location,NOUN,True,False
of,of,of,of,ADP,True,True
the,the,the,the,DET,True,True
unknown,unknown,unknown,unknown,ADJ,True,False
transmitter,transmitter,transmitter,transmitter,NOUN,True,False
which,which,which,which,DET,True,True
will,will,will,will,VERB,True,True
be,be,be,be,AUX,True,True
call,call,call,call,ADJ,True,True
thespoof,thespoof,thespoof,thespoof,NOUN,True,False
distance,distance,distance,distance,NOUN,True,False
be,be,be,be,AUX,True,True
100,100,100,100,NUM,False,False
m,m,m,m,NOUN,True,False
.,.,.,.,PUNCT,False,False
figure,figure,figure,figure,NOUN,True,False
2,2,2,2,NUM,False,False
indicate,indicate,indicate,indicate,VERB,True,False
the,the,the,the,DET,True,True
distribution,distribution,distribution,distribution,NOUN,True,False
of,of,of,of,ADP,True,True
residual,residual,residual,residual,NOUN,True,False
in,in,in,in,ADP,True,True
the,the,the,the,DET,True,True
form,form,form,form,NOUN,True,False
of,of,of,of,ADP,True,True
boxplot,boxplot,boxplot,boxplot,NOUN,True,False
the,the,the,the,DET,True,True
median,median,median,median,PROPN,True,False
in,in,in,in,ADP,True,True
red,red,red,red,PROPN,True,False
",",",",",",",",PUNCT,False,False
the,the,the,the,DET,True,True
blue,blue,blue,blue,PROPN,True,False
box,box,box,box,PROPN,True,False
indicate,indicate,indicate,indicate,VERB,True,False
the,the,the,the,DET,True,True
25,25,25,25,NUM,False,False
and,and,and,and,CCONJ,True,True
75,75,75,75,NUM,False,False
percentile,percentile,percentile,percentile,NOUN,True,False
",",",",",",",",PUNCT,False,False
and,and,and,and,CCONJ,True,True
the,the,the,the,DET,True,True
whisker,whisker,whisker,whisker,NOUN,True,False
indicate,indicate,indicate,indicate,VERB,True,False
r3v,r3v,r3v,r3v,PROPN,False,False
as,as,as,as,SCONJ,True,True
obtain,obtain,obtain,obtain,NOUN,True,False
for,for,for,for,ADP,True,True
the,the,the,the,DET,True,True
position,position,position,position,NOUN,True,False
of,of,of,of,ADP,True,True
the,the,the,the,DET,True,True
reference,reference,reference,reference,NOUN,True,False
transmitter,transmitter,transmitter,transmitter,NOUN,True,False
",",",",",",",",PUNCT,False,False
the,the,the,the,DET,True,True
announce,announce,announce,announce,NOUN,True,False
location,location,location,location,NOUN,True,False
of,of,of,of,ADP,True,True
the,the,the,the,DET,True,True
unknown,unknown,unknown,unknown,ADJ,True,False
transmitter,transmitter,transmitter,transmitter,NOUN,True,False
",",",",",",",",PUNCT,False,False
and,and,and,and,CCONJ,True,True
the,the,the,the,DET,True,True
actual,actual,actual,actual,ADJ,True,False
location,location,location,location,NOUN,True,False
of,of,of,of,ADP,True,True
the,the,the,the,DET,True,True
transmitter,transmitter,transmitter,transmitter,NOUN,True,False
.,.,.,.,PUNCT,False,False
while,while,while,while,SCONJ,True,True
in,in,in,in,ADP,True,True
reality,reality,reality,reality,NOUN,True,False
the,the,the,the,DET,True,True
actual,actual,actual,actual,ADJ,True,False
location,location,location,location,NOUN,True,False
of,of,of,of,ADP,True,True
the,the,the,the,DET,True,True
unknown,unknown,unknown,unknown,ADJ,True,False
transmitter,transmitter,transmitter,transmitter,NOUN,True,False
will,will,will,will,VERB,True,True
not,not,not,not,PART,True,True
be,be,be,be,AUX,True,True
know,know,know,know,VERB,True,False
to,to,to,to,ADP,True,True
us,us,-PRON-,-pron-,PRON,True,True
",",",",",",",",PUNCT,False,False
that,that,that,that,DET,True,True
particular,particular,particular,particular,ADJ,True,False
case,case,case,case,NOUN,True,False
be,be,be,be,AUX,True,True
show,show,show,show,NOUN,True,True
here,here,here,here,ADV,True,True
for,for,for,for,ADP,True,True
illustrative,illustrative,illustrative,illustrative,ADJ,True,False
purpose,purpose,purpose,purpose,NOUN,True,False
note,note,note,note,NOUN,True,False
that,that,that,that,DET,True,True
figure,figure,figure,figure,NOUN,True,False
2,2,2,2,NUM,False,False
show,show,show,show,VERB,True,True
that,that,that,that,SCONJ,True,True
the,the,the,the,DET,True,True
distribution,distribution,distribution,distribution,NOUN,True,False
of,of,of,of,ADP,True,True
residual,residual,residual,residual,ADJ,True,False
obtain,obtain,obtain,obtain,NOUN,True,False
use,use,use,use,VERB,True,False
the,the,the,the,DET,True,True
location,location,location,location,NOUN,True,False
of,of,of,of,ADP,True,True
the,the,the,the,DET,True,True
reference,reference,reference,reference,NOUN,True,False
transmitter,transmitter,transmitter,transmitter,NOUN,True,False
and,and,and,and,CCONJ,True,True
the,the,the,the,DET,True,True
distribution,distribution,distribution,distribution,NOUN,True,False
of,of,of,of,ADP,True,True
residual,residual,residual,residual,ADJ,True,False
obtain,obtain,obtain,obtain,NOUN,True,False
use,use,use,use,VERB,True,False
the,the,the,the,DET,True,True
actual,actual,actual,actual,ADJ,True,False
location,location,location,location,NOUN,True,False
of,of,of,of,ADP,True,True
the,the,the,the,DET,True,True
unknown,unknown,unknown,unknown,ADJ,True,False
transmitter,transmitter,transmitter,transmitter,NOUN,True,False
have,have,have,have,AUX,True,True
comparable,comparable,comparable,comparable,ADJ,True,False
spread,spread,spread,spread,NOUN,True,False
.,.,.,.,PUNCT,False,False
on,on,on,on,ADP,True,True
the,the,the,the,DET,True,True
other,other,other,other,ADJ,True,True
hand,hand,hand,hand,NOUN,True,False
",",",",",",",",PUNCT,False,False
for,for,for,for,ADP,True,True
a,a,a,a,DET,True,True
spoof,spoof,spoof,spoof,ADJ,True,False
distance,distance,distance,distance,NOUN,True,False
of,of,of,of,ADP,True,True
100,100,100,100,NUM,False,False
m,m,m,m,NOUN,True,False
the,the,the,the,DET,True,True
spread,spread,spread,spread,NOUN,True,False
of,of,of,of,ADP,True,True
the,the,the,the,DET,True,True
distribution,distribution,distribution,distribution,NOUN,True,False
of,of,of,of,ADP,True,True
residual,residual,residual,residual,NOUN,True,False
be,be,be,be,VERB,True,True
markedly,markedly,markedly,markedly,ADV,True,False
different,different,different,different,ADJ,True,False
.,.,.,.,PUNCT,False,False
to,to,to,to,PART,True,True
illustrate,illustrate,illustrate,illustrate,VERB,True,False
this,this,this,this,DET,True,True
point,point,point,point,NOUN,True,False
far,far,far,far,ADV,True,False
",",",",",",",",PUNCT,False,False
we,we,-PRON-,-pron-,PRON,True,True
look,look,look,look,VERB,True,False
at,at,at,at,ADP,True,True
a,a,a,a,DET,True,True
second,second,second,second,ADJ,True,False
case,case,case,case,NOUN,True,False
",",",",",",",",PUNCT,False,False
with,with,with,with,ADP,True,True
a,a,a,a,DET,True,True
spoof,spoof,spoof,spoof,ADJ,True,False
distance,distance,distance,distance,NOUN,True,False
of,of,of,of,ADP,True,True
10,10,10,10,NUM,False,False
m.,m.,m.,m.,NOUN,False,False
figure,figure,figure,figure,NOUN,True,False
3,3,3,3,NUM,False,False
show,show,show,show,VERB,True,True
the,the,the,the,DET,True,True
configuration,configuration,configuration,configuration,NOUN,True,False
of,of,of,of,ADP,True,True
the,the,the,the,DET,True,True
anchor,anchor,anchor,anchor,NOUN,True,False
node,node,node,node,NOUN,True,False
and,and,and,and,CCONJ,True,True
the,the,the,the,DET,True,True
transmitter,transmitter,transmitter,transmitter,NOUN,True,False
and,and,and,and,CCONJ,True,True
figure,figure,figure,figure,NOUN,True,False
4,4,4,4,NUM,False,False
show,show,show,show,VERB,True,True
the,the,the,the,DET,True,True
boxplot,boxplot,boxplot,boxplot,NOUN,True,False
of,of,of,of,ADP,True,True
the,the,the,the,DET,True,True
various,various,various,various,ADJ,True,True
residual,residual,residual,residual,NOUN,True,False
.,.,.,.,PUNCT,False,False
from,from,from,from,ADP,True,True
figure,figure,figure,figure,NOUN,True,False
4,4,4,4,NUM,False,False
we,we,-PRON-,-pron-,PRON,True,True
see,see,see,see,VERB,True,True
that,that,that,that,SCONJ,True,True
the,the,the,the,DET,True,True
spread,spread,spread,spread,NOUN,True,False
of,of,of,of,ADP,True,True
all,all,all,all,DET,True,True
three,three,three,three,NUM,True,True
distribution,distribution,distribution,distribution,NOUN,True,False
be,be,be,be,AUX,True,True
comparable,comparable,comparable,comparable,ADJ,True,False
",",",",",",",",PUNCT,False,False
unlike,unlike,unlike,unlike,ADP,True,False
in,in,in,in,ADP,True,True
the,the,the,the,DET,True,True
previous,previous,previous,previous,ADJ,True,False
case,case,case,case,NOUN,True,False
.,.,.,.,PUNCT,False,False
the,the,the,the,DET,True,True
two,two,two,two,NUM,True,True
example,example,example,example,NOUN,True,False
above,above,above,above,ADP,True,True
indicate,indicate,indicate,indicate,VERB,True,False
that,that,that,that,SCONJ,True,True
the,the,the,the,DET,True,True
spread,spread,spread,spread,NOUN,True,False
of,of,of,of,ADP,True,True
the,the,the,the,DET,True,True
distribution,distribution,distribution,distribution,NOUN,True,False
of,of,of,of,ADP,True,True
the,the,the,the,DET,True,True
residual,residual,residual,residual,NOUN,True,False
give,give,give,give,VERB,True,True
an,an,an,an,DET,True,True
idea,idea,idea,idea,NOUN,True,False
about,about,about,about,ADP,True,True
the,the,the,the,DET,True,True
spoof,spoof,spoof,spoof,ADJ,True,False
distance,distance,distance,distance,NOUN,True,False
.,.,.,.,PUNCT,False,False
while,while,while,while,SCONJ,True,True
the,the,the,the,DET,True,True
boxplot,boxplot,boxplot,boxplot,NOUN,True,False
show,show,show,show,VERB,True,True
in,in,in,in,ADP,True,True
figures,figures,figure,figure,NOUN,True,False
2,2,2,2,NUM,False,False
and,and,and,and,CCONJ,True,True
4,4,4,4,NUM,False,False
provide,provide,provide,provide,VERB,True,False
a,a,a,a,DET,True,True
qualitative,qualitative,qualitative,qualitative,ADJ,True,False
comparison,comparison,comparison,comparison,NOUN,True,False
between,between,between,between,ADP,True,True
the,the,the,the,DET,True,True
spread,spread,spread,spread,NOUN,True,False
of,of,of,of,ADP,True,True
the,the,the,the,DET,True,True
two,two,two,two,NUM,True,True
distribution,distribution,distribution,distribution,NOUN,True,False
",",",",",",",",PUNCT,False,False
it,it,-PRON-,-pron-,PRON,True,True
be,be,be,be,AUX,True,True
desirable,desirable,desirable,desirable,ADJ,True,False
to,to,to,to,PART,True,True
have,have,have,have,AUX,True,True
a,a,a,a,DET,True,True
quantitative,quantitative,quantitative,quantitative,ADJ,True,False
measure,measure,measure,measure,NOUN,True,False
to,to,to,to,PART,True,True
compare,compare,compare,compare,VERB,True,False
the,the,the,the,DET,True,True
spread,spread,spread,spread,NOUN,True,False
of,of,of,of,ADP,True,True
two,two,two,two,NUM,True,True
distribution,distribution,distribution,distribution,NOUN,True,False
.,.,.,.,PUNCT,False,False
for,for,for,for,ADP,True,True
such,such,such,such,DET,True,True
a,a,a,a,DET,True,True
quantitative,quantitative,quantitative,quantitative,ADJ,True,False
measure,measure,measure,measure,NOUN,True,False
we,we,-PRON-,-pron-,PRON,True,True
define,define,define,define,VERB,True,False
the,the,the,the,DET,True,True
contrast,contrast,contrast,contrast,NOUN,True,False
index,index,index,index,NOUN,True,False
ci,ci,ci,ci,PROPN,True,False
as,as,as,as,SCONJ,True,True
follow,follow,follow,follow,NOUN,True,False
where,where,where,where,ADV,True,True
m,m,m,m,PROPN,True,False
.,.,.,.,PUNCT,False,False
represent,represent,represent,represent,VERB,True,False
an,an,an,an,DET,True,True
appropriate,appropriate,appropriate,appropriate,ADJ,True,False
measure,measure,measure,measure,NOUN,True,False
of,of,of,of,ADP,True,True
dispersion,dispersion,dispersion,dispersion,NOUN,True,False
",",",",",",",",PUNCT,False,False
[,[,[,[,PUNCT,False,False
ij,ij,ij,ij,VERB,True,False
be,be,be,be,AUX,True,True
the,the,the,the,DET,True,True
residual,residual,residual,residual,ADJ,True,False
obtain,obtain,obtain,obtain,NOUN,True,False
use,use,use,use,VERB,True,False
the,the,the,the,DET,True,True
announce,announce,announce,announce,NOUN,True,False
location,location,location,location,NOUN,True,False
of,of,of,of,ADP,True,True
the,the,the,the,DET,True,True
unknown,unknown,unknown,unknown,ADJ,True,False
transmitter,transmitter,transmitter,transmitter,NOUN,True,False
",",",",",",",",PUNCT,False,False
and,and,and,and,CCONJ,True,True
[,[,[,[,PUNCT,False,False
ij,ij,ij,ij,VERB,True,False
be,be,be,be,AUX,True,True
the,the,the,the,DET,True,True
residual,residual,residual,residual,ADJ,True,False
compute,compute,compute,compute,NOUN,True,False
use,use,use,use,VERB,True,False
the,the,the,the,DET,True,True
location,location,location,location,NOUN,True,False
of,of,of,of,ADP,True,True
the,the,the,the,DET,True,True
reference,reference,reference,reference,NOUN,True,False
transmitter,transmitter,transmitter,transmitter,NOUN,True,False
.,.,.,.,PUNCT,False,False
the,the,the,the,DET,True,True
next,next,next,next,ADJ,True,True
task,task,task,task,NOUN,True,False
be,be,be,be,AUX,True,True
to,to,to,to,PART,True,True
choose,choose,choose,choose,VERB,True,False
a,a,a,a,DET,True,True
measure,measure,measure,measure,NOUN,True,False
of,of,of,of,ADP,True,True
dispersion,dispersion,dispersion,dispersion,NOUN,True,False
.,.,.,.,PUNCT,False,False
variance,variance,variance,variance,NOUN,True,False
be,be,be,be,AUX,True,True
by,by,by,by,ADP,True,True
far,far,far,far,ADV,True,False
the,the,the,the,DET,True,True
most,most,most,most,ADV,True,True
common,common,common,common,ADJ,True,False
measure,measure,measure,measure,NOUN,True,False
of,of,of,of,ADP,True,True
dispersion,dispersion,dispersion,dispersion,NOUN,True,False
",",",",",",",",PUNCT,False,False
with,with,with,with,ADP,True,True
variant,variant,variant,variant,ADJ,True,False
available,available,available,available,ADJ,True,False
that,that,that,that,DET,True,True
be,be,be,be,AUX,True,True
robust,robust,robust,robust,ADJ,True,False
against,against,against,against,ADP,True,True
outlier,outlier,outlier,outlier,NOUN,True,False
.,.,.,.,PUNCT,False,False
however,however,however,however,ADV,True,True
",",",",",",",",PUNCT,False,False
for,for,for,for,ADP,True,True
our,our,-PRON-,-pron-,DET,True,True
purpose,purpose,purpose,purpose,NOUN,True,False
it,it,-PRON-,-pron-,PRON,True,True
be,be,be,be,AUX,True,True
desire,desire,desire,desire,NOUN,True,False
to,to,to,to,PART,True,True
highlight,highlight,highlight,highlight,VERB,True,False
the,the,the,the,DET,True,True
contrast,contrast,contrast,contrast,NOUN,True,False
.,.,.,.,PUNCT,False,False
hence,hence,hence,hence,ADV,True,True
we,we,-PRON-,-pron-,PRON,True,True
choose,choose,choose,choose,VERB,True,False
range,range,range,range,NOUN,True,False
",",",",",",",",PUNCT,False,False
i.e.,i.e.,i.e.,i.e.,X,False,False
the,the,the,the,DET,True,True
difference,difference,difference,difference,NOUN,True,False
between,between,between,between,ADP,True,True
the,the,the,the,DET,True,True
maximum,maximum,maximum,maximum,NOUN,True,False
and,and,and,and,CCONJ,True,True
the,the,the,the,DET,True,True
minimum,minimum,minimum,minimum,ADJ,True,False
value,value,value,value,NOUN,True,False
of,of,of,of,ADP,True,True
the,the,the,the,DET,True,True
residual,residual,residual,residual,ADJ,True,False
",",",",",",",",PUNCT,False,False
as,as,as,as,SCONJ,True,True
the,the,the,the,DET,True,True
measure,measure,measure,measure,NOUN,True,False
of,of,of,of,ADP,True,True
dispersion.3,dispersion.3,dispersion.3,dispersion.3,NOUN,False,False
.,.,.,.,PROPN,False,False
results,results,result,result,NOUN,True,False
and,and,and,and,CCONJ,True,True
discussion3.1,discussion3.1,discussion3.1,discussion3.1,PROPN,False,False
simulation,simulation,simulation,simulation,NOUN,True,False
resultsfor,resultsfor,resultsfor,resultsfor,PROPN,True,False
simulation,simulation,simulation,simulation,NOUN,True,False
purpose,purpose,purpose,purpose,NOUN,True,False
we,we,-PRON-,-pron-,PRON,True,True
define,define,define,define,VERB,True,False
an,an,an,an,DET,True,True
environment,environment,environment,environment,NOUN,True,False
which,which,which,which,DET,True,True
have,have,have,have,AUX,True,True
dimension,dimension,dimension,dimension,NOUN,True,False
of,of,of,of,ADP,True,True
1000,1000,1000,1000,NUM,False,False
m,m,m,m,NOUN,True,False
by,by,by,by,ADP,True,True
1000,1000,1000,1000,NUM,False,False
m.,m.,m.,m.,NOUN,False,False
for,for,for,for,ADP,True,True
each,each,each,each,DET,True,True
realization,realization,realization,realization,NOUN,True,False
",",",",",",",",PUNCT,False,False
within,within,within,within,ADP,True,True
that,that,that,that,DET,True,True
box,box,box,box,NOUN,True,False
we,we,-PRON-,-pron-,PRON,True,True
randomly,randomly,randomly,randomly,ADV,True,False
distribute,distribute,distribute,distribute,VERB,True,False
the,the,the,the,DET,True,True
anchor,anchor,anchor,anchor,NOUN,True,False
node,node,node,node,NOUN,True,False
",",",",",",",",PUNCT,False,False
the,the,the,the,DET,True,True
reference,reference,reference,reference,NOUN,True,False
",",",",",",",",PUNCT,False,False
and,and,and,and,CCONJ,True,True
the,the,the,the,DET,True,True
unknown,unknown,unknown,unknown,ADJ,True,False
transmitter,transmitter,transmitter,transmitter,NOUN,True,False
.,.,.,.,PUNCT,False,False
a,a,a,a,DET,True,True
particular,particular,particular,particular,ADJ,True,False
spoof,spoof,spoof,spoof,NOUN,True,False
distance,distance,distance,distance,NOUN,True,False
be,be,be,be,AUX,True,True
set,set,set,set,VERB,True,False
and,and,and,and,CCONJ,True,True
use,use,use,use,VERB,True,False
to,to,to,to,PART,True,True
generate,generate,generate,generate,VERB,True,False
an,an,an,an,DET,True,True
announce,announce,announce,announce,NOUN,True,False
location,location,location,location,NOUN,True,False
for,for,for,for,ADP,True,True
the,the,the,the,DET,True,True
unknown,unknown,unknown,unknown,ADJ,True,False
transmitter,transmitter,transmitter,transmitter,NOUN,True,False
.,.,.,.,PUNCT,False,False
as,as,as,as,SCONJ,True,True
mention,mention,mention,mention,VERB,True,False
early,early,early,early,ADV,True,False
",",",",",",",",PUNCT,False,False
we,we,-PRON-,-pron-,PRON,True,True
be,be,be,be,VERB,True,True
simulate,simulate,simulate,simulate,VERB,True,False
an,an,an,an,DET,True,True
environment,environment,environment,environment,NOUN,True,False
with,with,with,with,ADP,True,True
spatially,spatially,spatially,spatially,ADV,True,False
correlate,correlate,correlate,correlate,ADJ,True,False
shadowing,shadowing,shadowing,shadowing,NOUN,True,False
.,.,.,.,PUNCT,False,False
table,table,table,table,NOUN,True,False
1,1,1,1,NUM,False,False
show,show,show,show,VERB,True,True
the,the,the,the,DET,True,True
relevant,relevant,relevant,relevant,ADJ,True,False
simulation,simulation,simulation,simulation,NOUN,True,False
parameter,parameter,parameter,parameter,NOUN,True,False
figure,figure,figure,figure,NOUN,True,False
5,5,5,5,NUM,False,False
show,show,show,show,VERB,True,True
the,the,the,the,DET,True,True
histogram,histogram,histogram,histogram,NOUN,True,False
of,of,of,of,ADP,True,True
the,the,the,the,DET,True,True
contrast,contrast,contrast,contrast,NOUN,True,False
index,index,index,index,NOUN,True,False
for,for,for,for,ADP,True,True
a,a,a,a,DET,True,True
spoof,spoof,spoof,spoof,ADJ,True,False
distance,distance,distance,distance,NOUN,True,False
of,of,of,of,ADP,True,True
0,0,0,0,NUM,False,False
m,m,m,m,PROPN,True,False
",",",",",",",",PUNCT,False,False
i.e.,i.e.,i.e.,i.e.,X,False,False
the,the,the,the,DET,True,True
histogram,histogram,histogram,histogram,PROPN,True,False
for,for,for,for,ADP,True,True
ground,ground,ground,ground,PROPN,True,False
truth,truth,truth,truth,NOUN,True,False
behavior,behavior,behavior,behavior,NOUN,True,False
",",",",",",",",PUNCT,False,False
when,when,when,when,ADV,True,True
use,use,use,use,VERB,True,False
n16,n16,n16,n16,NOUN,False,False
anchor,anchor,anchor,anchor,NOUN,True,False
nodes.3.2,nodes.3.2,nodes.3.2,nodes.3.2,PROPN,False,False
discussionfigure,discussionfigure,discussionfigure,discussionfigure,NOUN,True,False
5,5,5,5,NUM,False,False
show,show,show,show,NOUN,True,True
that,that,that,that,SCONJ,True,True
the,the,the,the,DET,True,True
range,range,range,range,NOUN,True,False
of,of,of,of,ADP,True,True
the,the,the,the,DET,True,True
residual,residual,residual,residual,ADJ,True,False
be,be,be,be,AUX,True,True
generally,generally,generally,generally,ADV,True,False
distribute,distribute,distribute,distribute,VERB,True,False
around,around,around,around,ADP,True,True
the,the,the,the,DET,True,True
value,value,value,value,NOUN,True,False
of,of,of,of,ADP,True,True
1,1,1,1,NUM,False,False
when,when,when,when,ADV,True,True
the,the,the,the,DET,True,True
spoof,spoof,spoof,spoof,ADJ,True,False
distance,distance,distance,distance,NOUN,True,False
be,be,be,be,AUX,True,True
0,0,0,0,PUNCT,False,False
m,m,m,m,NOUN,True,False
",",",",",",",",PUNCT,False,False
which,which,which,which,DET,True,True
be,be,be,be,AUX,True,True
express,express,express,express,ADJ,True,False
in,in,in,in,ADP,True,True
fig,fig,fig,fig,NOUN,True,False
.,.,.,.,PUNCT,False,False
2,2,2,2,NUM,False,False
by,by,by,by,ADP,True,True
the,the,the,the,DET,True,True
similarity,similarity,similarity,similarity,NOUN,True,False
in,in,in,in,ADP,True,True
the,the,the,the,DET,True,True
box,box,box,box,NOUN,True,False
plot,plot,plot,plot,NOUN,True,False
for,for,for,for,ADP,True,True
the,the,the,the,DET,True,True
reference,reference,reference,reference,NOUN,True,False
and,and,and,and,CCONJ,True,True
actual,actual,actual,actual,ADJ,True,False
location,location,location,location,NOUN,True,False
.,.,.,.,PUNCT,False,False
as,as,as,as,SCONJ,True,True
expect,expect,expect,expect,VERB,True,False
",",",",",",",",PUNCT,False,False
the,the,the,the,DET,True,True
contrast,contrast,contrast,contrast,NOUN,True,False
index,index,index,index,NOUN,True,False
increase,increase,increase,increase,NOUN,True,False
as,as,as,as,SCONJ,True,True
the,the,the,the,DET,True,True
spoof,spoof,spoof,spoof,ADJ,True,False
distance,distance,distance,distance,NOUN,True,False
increase,increase,increase,increase,VERB,True,False
this,this,this,this,DET,True,True
be,be,be,be,AUX,True,True
observe,observe,observe,observe,ADJ,True,False
in,in,in,in,ADP,True,True
fig,fig,fig,fig,NOUN,True,False
.,.,.,.,PUNCT,False,False
6,6,6,6,NUM,False,False
.,.,.,.,PUNCT,False,False
as,as,as,as,SCONJ,True,True
a,a,a,a,DET,True,True
result,result,result,result,NOUN,True,False
",",",",",",",",PUNCT,False,False
the,the,the,the,DET,True,True
contrast,contrast,contrast,contrast,NOUN,True,False
index,index,index,index,NOUN,True,False
can,can,can,can,VERB,True,True
be,be,be,be,AUX,True,True
use,use,use,use,NOUN,True,False
for,for,for,for,ADP,True,True
location,location,location,location,NOUN,True,False
verification,verification,verification,verification,NOUN,True,False
.,.,.,.,PUNCT,False,False
figure,figure,figure,figure,NOUN,True,False
5,5,5,5,NUM,False,False
and,and,and,and,CCONJ,True,True
6,6,6,6,NUM,False,False
suggest,suggest,suggest,suggest,VERB,True,False
that,that,that,that,SCONJ,True,True
a,a,a,a,DET,True,True
threshold,threshold,threshold,threshold,NOUN,True,False
can,can,can,can,VERB,True,True
be,be,be,be,AUX,True,True
determine,determine,determine,determine,VERB,True,False
to,to,to,to,PART,True,True
decide,decide,decide,decide,VERB,True,False
between,between,between,between,ADP,True,True
the,the,the,the,DET,True,True
hypothesis,hypothesis,hypothesis,hypothesis,NOUN,True,False
announced,announced,announce,announce,VERB,True,False
location,location,location,location,NOUN,True,False
be,be,be,be,AUX,True,True
true,true,true,true,ADJ,True,False
and,and,and,and,CCONJ,True,True
announced,announced,announced,announced,ADJ,True,False
location,location,location,location,NOUN,True,False
be,be,be,be,AUX,True,True
false,false,false,false,ADJ,True,False
in,in,in,in,ADP,True,True
a,a,a,a,DET,True,True
trade,trade,trade,trade,NOUN,True,False
-,-,-,-,PUNCT,False,False
off,off,off,off,NOUN,True,True
between,between,between,between,ADP,True,True
the,the,the,the,DET,True,True
probability,probability,probability,probability,NOUN,True,False
of,of,of,of,ADP,True,True
false,false,false,false,ADJ,True,False
alarm,alarm,alarm,alarm,NOUN,True,False
and,and,and,and,CCONJ,True,True
miss,miss,miss,miss,VERB,True,False
alarm,alarm,alarm,alarm,NOUN,True,False
.,.,.,.,PUNCT,False,False
fig,fig,fig,fig,PROPN,True,False
.,.,.,.,PROPN,False,False
7,7,7,7,NUM,False,False
show,show,show,show,VERB,True,True
the,the,the,the,DET,True,True
sample,sample,sample,sample,NOUN,True,False
cdf,cdf,cdf,cdf,PROPN,True,False
cumulative,cumulative,cumulative,cumulative,ADJ,True,False
distribution,distribution,distribution,distribution,NOUN,True,False
function,function,function,function,NOUN,True,False
base,base,base,base,NOUN,True,False
on,on,on,on,ADP,True,True
the,the,the,the,DET,True,True
raw,raw,raw,raw,ADJ,True,False
datum,datum,datum,datum,NOUN,True,False
that,that,that,that,DET,True,True
produce,produce,produce,produce,VERB,True,False
the,the,the,the,DET,True,True
histogram,histogram,histogram,histogram,PROPN,True,False
in,in,in,in,ADP,True,True
figs,figs,fig,fig,NOUN,True,False
.,.,.,.,PUNCT,False,False
5,5,5,5,NUM,False,False
and,and,and,and,CCONJ,True,True
6,6,6,6,NUM,False,False
.,.,.,.,PUNCT,False,False
the,the,the,the,DET,True,True
ground,ground,ground,ground,NOUN,True,False
truth,truth,truth,truth,NOUN,True,False
be,be,be,be,AUX,True,True
actually,actually,actually,actually,ADV,True,False
show,show,show,show,VERB,True,True
as,as,as,as,SCONJ,True,True
1-cdf,1-cdf,1-cdf,1-cdf,NUM,False,False
",",",",",",",",PUNCT,False,False
in,in,in,in,ADP,True,True
order,order,order,order,NOUN,True,False
to,to,to,to,PART,True,True
make,make,make,make,VERB,True,True
an,an,an,an,DET,True,True
equal,equal,equal,equal,ADJ,True,False
-,-,-,-,PUNCT,False,False
error,error,error,error,NOUN,True,False
comparison,comparison,comparison,comparison,NOUN,True,False
easy,easy,easy,easy,ADJ,True,False
.,.,.,.,PUNCT,False,False
the,the,the,the,DET,True,True
illustrative,illustrative,illustrative,illustrative,ADJ,True,False
example,example,example,example,NOUN,True,False
arise,arise,arise,arise,VERB,True,False
from,from,from,from,ADP,True,True
fig,fig,fig,fig,NOUN,True,False
.,.,.,.,PUNCT,False,False
7,7,7,7,NUM,False,False
occur,occur,occur,occur,NOUN,True,False
at,at,at,at,ADP,True,True
the,the,the,the,DET,True,True
equal,equal,equal,equal,ADJ,True,False
-,-,-,-,PUNCT,False,False
error,error,error,error,NOUN,True,False
intersection,intersection,intersection,intersection,NOUN,True,False
of,of,of,of,ADP,True,True
the,the,the,the,DET,True,True
two,two,two,two,NUM,True,True
graph,graph,graph,graph,NOUN,True,False
for,for,for,for,ADP,True,True
a,a,a,a,DET,True,True
ci,ci,ci,ci,PROPN,True,False
threshold,threshold,threshold,threshold,NOUN,True,False
of,of,of,of,ADP,True,True
1.8,1.8,1.8,1.8,NUM,False,False
there,there,there,there,PRON,True,True
be,be,be,be,AUX,True,True
a,a,a,a,DET,True,True
5,5,5,5,NUM,False,False
probability,probability,probability,probability,NOUN,True,False
of,of,of,of,ADP,True,True
miss,miss,miss,miss,PROPN,True,False
a,a,a,a,DET,True,True
spoof,spoof,spoof,spoof,ADJ,True,False
distance,distance,distance,distance,NOUN,True,False
of,of,of,of,ADP,True,True
100,100,100,100,NUM,False,False
m,m,m,m,NOUN,True,False
",",",",",",",",PUNCT,False,False
while,while,while,while,SCONJ,True,True
there,there,there,there,PRON,True,True
be,be,be,be,AUX,True,True
also,also,also,also,ADV,True,True
a,a,a,a,DET,True,True
5,5,5,5,NUM,False,False
probability,probability,probability,probability,NOUN,True,False
of,of,of,of,ADP,True,True
false,false,false,false,ADJ,True,False
alarm,alarm,alarm,alarm,NOUN,True,False
.,.,.,.,PUNCT,False,False
note,note,note,note,VERB,True,False
that,that,that,that,SCONJ,True,True
94,94,94,94,NUM,False,False
or,or,or,or,CCONJ,True,True
more,more,more,more,ADJ,True,True
of,of,of,of,ADP,True,True
spoof,spoof,spoof,spoof,ADJ,True,False
distance,distance,distance,distance,NOUN,True,False
of,of,of,of,ADP,True,True
100,100,100,100,NUM,False,False
m,m,m,m,NOUN,True,False
or,or,or,or,CCONJ,True,True
more,more,more,more,ADJ,True,True
will,will,will,will,VERB,True,True
be,be,be,be,AUX,True,True
detect,detect,detect,detect,ADJ,True,False
with,with,with,with,ADP,True,True
the,the,the,the,DET,True,True
ci,ci,ci,ci,PROPN,True,False
threshold,threshold,threshold,threshold,NOUN,True,False
set,set,set,set,VERB,True,False
to,to,to,to,ADP,True,True
2.4,2.4,2.4,2.4,NUM,False,False
.,.,.,.,PUNCT,False,False
while,while,while,while,SCONJ,True,True
the,the,the,the,DET,True,True
5,5,5,5,NUM,False,False
false,false,false,false,ADJ,True,False
alarm,alarm,alarm,alarm,NOUN,True,False
rate,rate,rate,rate,NOUN,True,False
in,in,in,in,ADP,True,True
this,this,this,this,DET,True,True
example,example,example,example,NOUN,True,False
may,may,may,may,VERB,True,True
be,be,be,be,AUX,True,True
high,high,high,high,ADJ,True,False
",",",",",",",",PUNCT,False,False
use,use,use,use,VERB,True,False
for,for,for,for,ADP,True,True
example,example,example,example,NOUN,True,False
a,a,a,a,DET,True,True
different,different,different,different,ADJ,True,False
contrast,contrast,contrast,contrast,NOUN,True,False
index,index,index,index,NOUN,True,False
or,or,or,or,CCONJ,True,True
more,more,more,more,ADJ,True,True
anchor,anchor,anchor,anchor,NOUN,True,False
node,node,node,node,NOUN,True,False
couldreduce,couldreduce,couldreduce,couldreduce,VERB,True,False
the,the,the,the,DET,True,True
false,false,false,false,ADJ,True,False
alarm,alarm,alarm,alarm,NOUN,True,False
probability,probability,probability,probability,NOUN,True,False
.,.,.,.,PUNCT,False,False
note,note,note,note,VERB,True,False
also,also,also,also,ADV,True,True
that,that,that,that,SCONJ,True,True
for,for,for,for,ADP,True,True
the,the,the,the,DET,True,True
example,example,example,example,NOUN,True,False
above,above,above,above,ADV,True,True
",",",",",",",",PUNCT,False,False
use,use,use,use,VERB,True,False
a,a,a,a,DET,True,True
ci,ci,ci,ci,NOUN,True,False
of,of,of,of,ADP,True,True
2.4,2.4,2.4,2.4,NUM,False,False
reduce,reduce,reduce,reduce,VERB,True,False
the,the,the,the,DET,True,True
false,false,false,false,ADJ,True,False
alarm,alarm,alarm,alarm,NOUN,True,False
probability,probability,probability,probability,NOUN,True,False
to,to,to,to,ADP,True,True
zero,zero,zero,zero,NUM,True,False
",",",",",",",",PUNCT,False,False
while,while,while,while,SCONJ,True,True
still,still,still,still,ADV,True,True
detect,detect,detect,detect,VERB,True,False
94,94,94,94,NUM,False,False
of,of,of,of,ADP,True,True
spoof,spoof,spoof,spoof,ADJ,True,False
distance,distance,distance,distance,NOUN,True,False
of,of,of,of,ADP,True,True
100,100,100,100,NUM,False,False
m,m,m,m,NOUN,True,False
or,or,or,or,CCONJ,True,True
more,more,more,more,ADJ,True,True
.,.,.,.,PUNCT,False,False
while,while,while,while,SCONJ,True,True
spoof,spoof,spoof,spoof,NOUN,True,False
of,of,of,of,ADP,True,True
location,location,location,location,NOUN,True,False
may,may,may,may,VERB,True,True
provide,provide,provide,provide,VERB,True,False
benefit,benefit,benefit,benefit,NOUN,True,False
to,to,to,to,ADP,True,True
an,an,an,an,DET,True,True
individual,individual,individual,individual,ADJ,True,False
user,user,user,user,NOUN,True,False
",",",",",",",",PUNCT,False,False
allow,allow,allow,allow,VERB,True,False
location,location,location,location,NOUN,True,False
spoof,spoof,spoof,spoof,VERB,True,False
to,to,to,to,PART,True,True
happen,happen,happen,happen,VERB,True,False
take,take,take,take,VERB,True,True
away,away,away,away,ADV,True,False
capacity,capacity,capacity,capacity,NOUN,True,False
from,from,from,from,ADP,True,True
the,the,the,the,DET,True,True
network,network,network,network,NOUN,True,False
",",",",",",",",PUNCT,False,False
i.e.,i.e.,i.e.,i.e.,X,False,False
it,it,-PRON-,-pron-,PRON,True,True
would,would,would,would,VERB,True,True
be,be,be,be,AUX,True,True
at,at,at,at,ADP,True,True
the,the,the,the,DET,True,True
expense,expense,expense,expense,NOUN,True,False
of,of,of,of,ADP,True,True
other,other,other,other,ADJ,True,True
user,user,user,user,NOUN,True,False
",",",",",",",",PUNCT,False,False
and,and,and,and,CCONJ,True,True
therefore,therefore,therefore,therefore,ADV,True,True
can,can,can,can,VERB,True,True
not,not,not,not,PART,True,True
be,be,be,be,AUX,True,True
tolerate,tolerate,tolerate,tolerate,ADJ,True,False
.,.,.,.,PUNCT,False,False
fortunately,fortunately,fortunately,fortunately,ADV,True,False
",",",",",",",",PUNCT,False,False
the,the,the,the,DET,True,True
approach,approach,approach,approach,NOUN,True,False
outline,outline,outline,outline,NOUN,True,False
here,here,here,here,ADV,True,True
could,could,could,could,VERB,True,True
be,be,be,be,AUX,True,True
an,an,an,an,DET,True,True
effective,effective,effective,effective,ADJ,True,False
mechanism,mechanism,mechanism,mechanism,NOUN,True,False
of,of,of,of,ADP,True,True
enforcement,enforcement,enforcement,enforcement,NOUN,True,False
that,that,that,that,DET,True,True
could,could,could,could,VERB,True,True
be,be,be,be,AUX,True,True
quite,quite,quite,quite,ADV,True,True
inexpensive,inexpensive,inexpensive,inexpensive,ADJ,True,False
to,to,to,to,PART,True,True
implement,implement,implement,implement,VERB,True,False
as,as,as,as,ADV,True,True
well,well,well,well,ADV,True,True
.,.,.,.,PUNCT,False,False
the,the,the,the,DET,True,True
latter,latter,latter,latter,ADJ,True,True
be,be,be,be,AUX,True,True
due,due,due,due,ADJ,True,True
to,to,to,to,PART,True,True
be,be,be,be,AUX,True,True
computationally,computationally,computationally,computationally,ADV,True,False
fast,fast,fast,fast,ADJ,True,False
",",",",",",",",PUNCT,False,False
not,not,not,not,PART,True,True
involve,involve,involve,involve,VERB,True,False
optimization,optimization,optimization,optimization,NOUN,True,False
",",",",",",",",PUNCT,False,False
and,and,and,and,CCONJ,True,True
be,be,be,be,AUX,True,True
base,base,base,base,NOUN,True,False
on,on,on,on,ADP,True,True
rss,rss,rss,rss,PROPN,True,False
measurement,measurement,measurement,measurement,NOUN,True,False
.,.,.,.,PUNCT,False,False
this,this,this,this,DET,True,True
work,work,work,work,NOUN,True,False
be,be,be,be,AUX,True,True
be,be,be,be,AUX,True,True
extend,extend,extend,extend,VERB,True,False
in,in,in,in,ADP,True,True
the,the,the,the,DET,True,True
direction,direction,direction,direction,NOUN,True,False
of,of,of,of,ADP,True,True
find,find,find,find,VERB,True,False
well,well,well,well,ADJ,True,True
measure,measure,measure,measure,NOUN,True,False
of,of,of,of,ADP,True,True
dispersion,dispersion,dispersion,dispersion,NOUN,True,False
",",",",",",",",PUNCT,False,False
automate,automate,automate,automate,VERB,True,False
the,the,the,the,DET,True,True
process,process,process,process,NOUN,True,False
of,of,of,of,ADP,True,True
choose,choose,choose,choose,VERB,True,False
a,a,a,a,DET,True,True
suitable,suitable,suitable,suitable,ADJ,True,False
threshold,threshold,threshold,threshold,NOUN,True,False
",",",",",",",",PUNCT,False,False
and,and,and,and,CCONJ,True,True
determine,determine,determine,determine,VERB,True,False
the,the,the,the,DET,True,True
effect,effect,effect,effect,NOUN,True,False
of,of,of,of,ADP,True,True
the,the,the,the,DET,True,True
number,number,number,number,NOUN,True,False
of,of,of,of,ADP,True,True
anchor,anchor,anchor,anchor,NOUN,True,False
used.4,used.4,used.4,used.4,PROPN,False,False
.,.,.,.,PUNCT,False,False
conclusiona,conclusiona,conclusiona,conclusiona,PROPN,True,False
framework,framework,framework,framework,NOUN,True,False
for,for,for,for,ADP,True,True
location,location,location,location,NOUN,True,False
verification,verification,verification,verification,NOUN,True,False
be,be,be,be,AUX,True,True
present,present,present,present,ADJ,True,False
which,which,which,which,DET,True,True
have,have,have,have,AUX,True,True
low,low,low,low,ADJ,True,False
latency,latency,latency,latency,NOUN,True,False
and,and,and,and,CCONJ,True,True
yet,yet,yet,yet,ADV,True,True
be,be,be,be,AUX,True,True
effective,effective,effective,effective,ADJ,True,False
in,in,in,in,ADP,True,True
detect,detect,detect,detect,ADJ,True,False
spoof,spoof,spoof,spoof,ADJ,True,False
distance,distance,distance,distance,NOUN,True,False
great,great,great,great,ADJ,True,False
than,than,than,than,SCONJ,True,True
100,100,100,100,NUM,False,False
m.,m.,m.,m.,NOUN,False,False
the,the,the,the,DET,True,True
approach,approach,approach,approach,NOUN,True,False
be,be,be,be,AUX,True,True
base,base,base,base,NOUN,True,False
on,on,on,on,ADP,True,True
readily,readily,readily,readily,ADV,True,False
available,available,available,available,ADJ,True,False
receive,receive,receive,receive,ADJ,True,False
signal,signal,signal,signal,NOUN,True,False
strength,strength,strength,strength,NOUN,True,False
measurement,measurement,measurement,measurement,NOUN,True,False
and,and,and,and,CCONJ,True,True
the,the,the,the,DET,True,True
behavior,behavior,behavior,behavior,NOUN,True,False
of,of,of,of,ADP,True,True
the,the,the,the,DET,True,True
residual,residual,residual,residual,NOUN,True,False
in,in,in,in,ADP,True,True
a,a,a,a,DET,True,True
model,model,model,model,NOUN,True,False
that,that,that,that,DET,True,True
incorporate,incorporate,incorporate,incorporate,VERB,True,False
correlate,correlate,correlate,correlate,ADJ,True,False
shadow,shadow,shadow,shadow,NOUN,True,False
.,.,.,.,PUNCT,False,False
acknowledgmentthis,acknowledgmentthis,acknowledgmentthis,acknowledgmentthis,DET,True,False
work,work,work,work,NOUN,True,False
be,be,be,be,AUX,True,True
support,support,support,support,NOUN,True,False
by,by,by,by,ADP,True,True
the,the,the,the,DET,True,True
national,national,national,national,PROPN,True,False
science,science,science,science,PROPN,True,False
foundation,foundation,foundation,foundation,PROPN,True,False
under,under,under,under,ADP,True,True
grant,grant,grant,grant,PROPN,True,False
1247928,1247928,1247928,1247928,NUM,False,False
.,.,.,.,PUNCT,False,False
any,any,any,any,DET,True,True
opinion,opinion,opinion,opinion,NOUN,True,False
",",",",",",",",PUNCT,False,False
finding,finding,finding,finding,NOUN,True,False
",",",",",",",",PUNCT,False,False
and,and,and,and,CCONJ,True,True
conclusion,conclusion,conclusion,conclusion,NOUN,True,False
or,or,or,or,CCONJ,True,True
recommendation,recommendation,recommendation,recommendation,NOUN,True,False
express,express,express,express,PROPN,True,False
in,in,in,in,ADP,True,True
this,this,this,this,DET,True,True
material,material,material,material,NOUN,True,False
be,be,be,be,AUX,True,True
those,those,those,those,DET,True,True
of,of,of,of,ADP,True,True
the,the,the,the,DET,True,True
author,author,author,author,NOUN,True,False
and,and,and,and,CCONJ,True,True
do,do,do,do,AUX,True,True
not,not,not,not,PART,True,True
necessarily,necessarily,necessarily,necessarily,ADV,True,False
reflect,reflect,reflect,reflect,VERB,True,False
the,the,the,the,DET,True,True
view,view,view,view,NOUN,True,False
of,of,of,of,ADP,True,True
the,the,the,the,DET,True,True
national,national,national,national,PROPN,True,False
science,science,science,science,PROPN,True,False
foundation,foundation,foundation,foundation,PROPN,True,False
.,.,.,.,PUNCT,False,False
