text,text_lower,lemma,lemma_lower,part_of_speech,is_alphabet,is_stopword
i,i,i,i,PRON,True,True
be,be,be,be,VERB,True,True
write,write,write,write,VERB,True,False
on,on,on,on,ADP,True,True
behalf,behalf,behalf,behalf,NOUN,True,False
of,of,of,of,ADP,True,True
our,our,-PRON-,-pron-,DET,True,True
company,company,company,company,NOUN,True,False
",",",",",",",",PUNCT,False,False
new,new,new,new,ADJ,True,False
wave,wave,wave,wave,PROPN,True,False
net,net,net,net,PROPN,True,False
corp,corp,corp,corp,PROPN,True,False
.,.,.,.,PROPN,False,False
nwnc,nwnc,nwnc,nwnc,PROPN,True,False
in,in,in,in,ADP,True,True
opposition,opposition,opposition,opposition,NOUN,True,False
to,to,to,to,ADP,True,True
the,the,the,the,DET,True,True
petition,petition,petition,petition,NOUN,True,False
file,file,file,file,NOUN,True,False
by,by,by,by,ADP,True,True
t,t,t,t,NOUN,True,False
-,-,-,-,PUNCT,False,False
mobile,mobile,mobile,mobile,PROPN,True,False
and,and,and,and,CCONJ,True,True
ctia,ctia,ctia,ctia,PROPN,True,False
regard,regard,regard,regard,NOUN,True,False
change,change,change,change,NOUN,True,False
the,the,the,the,DET,True,True
fcc,fcc,fcc,fcc,PROPN,True,False
's,'s,'s,'s,PART,False,True
innovative,innovative,innovative,innovative,ADJ,True,False
citizens,citizens,citizen,citizen,NOUN,True,False
broadband,broadband,broadband,broadband,NOUN,True,False
radio,radio,radio,radio,NOUN,True,False
service,service,service,service,NOUN,True,False
into,into,into,into,ADP,True,True
another,another,another,another,DET,True,True
band,band,band,band,NOUN,True,False
monopolize,monopolize,monopolize,monopolize,NOUN,True,False
by,by,by,by,ADP,True,True
large,large,large,large,ADJ,True,False
cell,cell,cell,cell,NOUN,True,False
company,company,company,company,NOUN,True,False
that,that,that,that,DET,True,True
do,do,do,do,AUX,True,True
not,not,not,not,PART,True,True
care,care,care,care,VERB,True,False
about,about,about,about,ADP,True,True
provide,provide,provide,provide,VERB,True,False
affordable,affordable,affordable,affordable,ADJ,True,False
broadband,broadband,broadband,broadband,NOUN,True,False
to,to,to,to,ADP,True,True
rural,rural,rural,rural,PROPN,True,False
america,america,america,america,PROPN,True,False
.,.,.,.,PUNCT,False,False
nwnc,nwnc,nwnc,nwnc,PROPN,True,False
be,be,be,be,AUX,True,True
a,a,a,a,DET,True,True
wireless,wireless,wireless,wireless,ADJ,True,False
internet,internet,internet,internet,NOUN,True,False
service,service,service,service,NOUN,True,False
provider,provider,provider,provider,NOUN,True,False
wisp,wisp,wisp,wisp,ADP,True,False
base,base,base,base,NOUN,True,False
in,in,in,in,ADP,True,True
central,central,central,central,ADJ,True,False
illinois,illinois,illinois,illinois,PROPN,True,False
",",",",",",",",PUNCT,False,False
provide,provide,provide,provide,VERB,True,False
high,high,high,high,ADJ,True,False
-,-,-,-,PUNCT,False,False
speed,speed,speed,speed,NOUN,True,False
internet,internet,internet,internet,NOUN,True,False
service,service,service,service,NOUN,True,False
to,to,to,to,ADP,True,True
approx,approx,approx,approx,NOUN,True,False
500,500,500,500,NUM,False,False
mostly,mostly,mostly,mostly,ADV,True,True
residential,residential,residential,residential,ADJ,True,False
customer,customer,customer,customer,NOUN,True,False
in,in,in,in,ADP,True,True
rural,rural,rural,rural,ADJ,True,False
area,area,area,area,NOUN,True,False
.,.,.,.,PUNCT,False,False
the,the,the,the,DET,True,True
majority,majority,majority,majority,NOUN,True,False
of,of,of,of,ADP,True,True
these,these,these,these,DET,True,True
customer,customer,customer,customer,NOUN,True,False
have,have,have,have,AUX,True,True
only,only,only,only,ADV,True,True
the,the,the,the,DET,True,True
option,option,option,option,NOUN,True,False
of,of,of,of,ADP,True,True
fixed,fixed,fixed,fixed,ADJ,True,False
wireless,wireless,wireless,wireless,ADJ,True,False
internet,internet,internet,internet,NOUN,True,False
from,from,from,from,ADP,True,True
a,a,a,a,DET,True,True
wisp,wisp,wisp,wisp,NOUN,True,False
or,or,or,or,CCONJ,True,True
satellite,satellite,satellite,satellite,NOUN,True,False
base,base,base,base,NOUN,True,False
internet,internet,internet,internet,NOUN,True,False
which,which,which,which,DET,True,True
have,have,have,have,AUX,True,True
datum,datum,datum,datum,NOUN,True,False
cap,cap,cap,cap,NOUN,True,False
that,that,that,that,DET,True,True
make,make,make,make,VERB,True,True
it,it,-PRON-,-pron-,PRON,True,True
too,too,too,too,ADV,True,True
expensive,expensive,expensive,expensive,ADJ,True,False
for,for,for,for,ADP,True,True
many,many,many,many,ADJ,True,True
family,family,family,family,NOUN,True,False
.,.,.,.,PUNCT,False,False
dsl,dsl,dsl,dsl,PROPN,True,False
and,and,and,and,CCONJ,True,True
the,the,the,the,DET,True,True
mobile,mobile,mobile,mobile,ADJ,True,False
cellular,cellular,cellular,cellular,ADJ,True,False
carrier,carrier,carrier,carrier,NOUN,True,False
have,have,have,have,AUX,True,True
choose,choose,choose,choose,VERB,True,False
not,not,not,not,PART,True,True
to,to,to,to,PART,True,True
invest,invest,invest,invest,VERB,True,False
in,in,in,in,ADP,True,True
most,most,most,most,ADJ,True,True
of,of,of,of,ADP,True,True
the,the,the,the,DET,True,True
low,low,low,low,ADJ,True,False
density,density,density,density,NOUN,True,False
rural,rural,rural,rural,ADJ,True,False
area,area,area,area,NOUN,True,False
we,we,-PRON-,-pron-,PRON,True,True
serve,serve,serve,serve,VERB,True,False
.,.,.,.,PUNCT,False,False
historically,historically,historically,historically,ADV,True,False
we,we,-PRON-,-pron-,PRON,True,True
have,have,have,have,AUX,True,True
offer,offer,offer,offer,NOUN,True,False
speed,speed,speed,speed,NOUN,True,False
plan,plan,plan,plan,NOUN,True,False
from,from,from,from,ADP,True,True
4,4,4,4,NUM,False,False
-10,-10,-10,-10,PROPN,False,False
mbps,mbps,mbps,mbps,PROPN,True,False
",",",",",",",",PUNCT,False,False
but,but,but,but,CCONJ,True,True
this,this,this,this,DET,True,True
year,year,year,year,NOUN,True,False
have,have,have,have,AUX,True,True
be,be,be,be,AUX,True,True
invest,invest,invest,invest,VERB,True,False
our,our,-PRON-,-pron-,DET,True,True
own,own,own,own,ADJ,True,True
capital,capital,capital,capital,NOUN,True,False
in,in,in,in,ADP,True,True
upgrade,upgrade,upgrade,upgrade,VERB,True,False
our,our,-PRON-,-pron-,DET,True,True
base,base,base,base,NOUN,True,False
station,station,station,station,NOUN,True,False
to,to,to,to,PART,True,True
support,support,support,support,VERB,True,False
25,25,25,25,NUM,False,False
mbps,mbps,mbps,mbps,PROPN,True,False
speed,speed,speed,speed,NOUN,True,False
to,to,to,to,PART,True,True
meet,meet,meet,meet,VERB,True,False
the,the,the,the,DET,True,True
fcc,fcc,fcc,fcc,PROPN,True,False
new,new,new,new,ADJ,True,False
definition,definition,definition,definition,NOUN,True,False
of,of,of,of,ADP,True,True
broadband,broadband,broadband,broadband,NOUN,True,False
.,.,.,.,PUNCT,False,False
we,we,-PRON-,-pron-,PRON,True,True
have,have,have,have,AUX,True,True
be,be,be,be,VERB,True,True
a,a,a,a,DET,True,True
long,long,long,long,ADJ,True,False
time,time,time,time,NOUN,True,False
nn,nn,nn,nn,CCONJ,True,False
3650,3650,3650,3650,NUM,False,False
-,-,-,-,SYM,False,False
3700,3700,3700,3700,NUM,False,False
licensee,licensee,licensee,licensee,NOUN,True,False
and,and,and,and,CCONJ,True,True
early,early,early,early,ADV,True,False
on,on,on,on,ADV,True,True
have,have,have,have,AUX,True,True
invest,invest,invest,invest,VERB,True,False
over,over,over,over,ADP,True,True
100,100,100,100,NUM,False,False
k,k,k,k,NOUN,True,False
in,in,in,in,ADP,True,True
wimax,wimax,wimax,wimax,PROPN,True,False
equipment,equipment,equipment,equipment,NOUN,True,False
to,to,to,to,PART,True,True
serve,serve,serve,serve,VERB,True,False
non,non,non,non,ADJ,True,False
-,-,-,-,NOUN,False,False
line,line,line,line,NOUN,True,False
of,of,of,of,ADP,True,True
site,site,site,site,NOUN,True,False
customer,customer,customer,customer,NOUN,True,False
.,.,.,.,PUNCT,False,False
when,when,when,when,ADV,True,True
the,the,the,the,DET,True,True
fcc,fcc,fcc,fcc,PROPN,True,False
announce,announce,announce,announce,VERB,True,False
the,the,the,the,DET,True,True
creation,creation,creation,creation,NOUN,True,False
of,of,of,of,ADP,True,True
the,the,the,the,DET,True,True
cbrs,cbrs,cbr,cbr,NOUN,True,False
band,band,band,band,NOUN,True,False
and,and,and,and,CCONJ,True,True
add,add,add,add,VERB,True,False
an,an,an,an,DET,True,True
additional,additional,additional,additional,ADJ,True,False
100,100,100,100,NUM,False,False
mhz,mhz,mhz,mhz,NOUN,True,False
of,of,of,of,ADP,True,True
spectrum,spectrum,spectrum,spectrum,NOUN,True,False
with,with,with,with,ADP,True,True
the,the,the,the,DET,True,True
possibility,possibility,possibility,possibility,NOUN,True,False
to,to,to,to,PART,True,True
bid,bid,bid,bid,VERB,True,False
and,and,and,and,CCONJ,True,True
obtain,obtain,obtain,obtain,VERB,True,False
interference,interference,interference,interference,NOUN,True,False
free,free,free,free,ADJ,True,False
pal,pal,pal,pal,NOUN,True,False
we,we,-PRON-,-pron-,PRON,True,True
be,be,be,be,VERB,True,True
pleased,pleased,pleased,pleased,ADJ,True,False
that,that,that,that,SCONJ,True,True
the,the,the,the,DET,True,True
fcc,fcc,fcc,fcc,PROPN,True,False
be,be,be,be,AUX,True,True
finally,finally,finally,finally,ADV,True,False
give,give,give,give,VERB,True,True
us,us,-PRON-,-pron-,PRON,True,True
the,the,the,the,DET,True,True
tool,tool,tool,tool,NOUN,True,False
we,we,-PRON-,-pron-,PRON,True,True
need,need,need,need,VERB,True,False
to,to,to,to,PART,True,True
increase,increase,increase,increase,VERB,True,False
speed,speed,speed,speed,NOUN,True,False
and,and,and,and,CCONJ,True,True
capacity,capacity,capacity,capacity,NOUN,True,False
to,to,to,to,ADP,True,True
our,our,-PRON-,-pron-,DET,True,True
nlos,nlos,nlo,nlo,NOUN,True,False
rural,rural,rural,rural,ADJ,True,False
customer,customer,customer,customer,NOUN,True,False
.,.,.,.,PUNCT,False,False
base,base,base,base,NOUN,True,False
on,on,on,on,ADP,True,True
the,the,the,the,DET,True,True
fcc,fcc,fcc,fcc,PROPN,True,False
announce,announce,announce,announce,NOUN,True,False
rule,rule,rule,rule,NOUN,True,False
we,we,-PRON-,-pron-,PRON,True,True
have,have,have,have,AUX,True,True
already,already,already,already,ADV,True,True
spend,spend,spend,spend,VERB,True,False
over,over,over,over,ADP,True,True
100,100,100,100,NUM,False,False
k,k,k,k,NOUN,True,False
in,in,in,in,ADP,True,True
the,the,the,the,DET,True,True
last,last,last,last,ADJ,True,True
year,year,year,year,NOUN,True,False
upgrade,upgrade,upgrade,upgrade,VERB,True,False
our,our,-PRON-,-pron-,DET,True,True
3650,3650,3650,3650,NUM,False,False
wimax,wimax,wimax,wimax,PROPN,True,False
base,base,base,base,PROPN,True,False
station,station,station,station,NOUN,True,False
to,to,to,to,ADP,True,True
lte,lte,lte,lte,PROPN,True,False
gear,gear,gear,gear,NOUN,True,False
that,that,that,that,DET,True,True
be,be,be,be,VERB,True,True
software,software,software,software,NOUN,True,False
upgradeable,upgradeable,upgradeable,upgradeable,ADJ,True,False
to,to,to,to,PART,True,True
work,work,work,work,VERB,True,False
with,with,with,with,ADP,True,True
the,the,the,the,DET,True,True
sas.so,sas.so,sas.so,sas.so,PROPN,False,False
the,the,the,the,DET,True,True
proposal,proposal,proposal,proposal,NOUN,True,False
by,by,by,by,ADP,True,True
t,t,t,t,NOUN,True,False
-,-,-,-,PUNCT,False,False
mobile,mobile,mobile,mobile,PROPN,True,False
and,and,and,and,CCONJ,True,True
ctia,ctia,ctia,ctia,VERB,True,False
this,this,this,this,DET,True,True
late,late,late,late,ADJ,True,False
in,in,in,in,ADP,True,True
the,the,the,the,DET,True,True
game,game,game,game,NOUN,True,False
be,be,be,be,AUX,True,True
very,very,very,very,ADV,True,True
troubling,troubling,troubling,troubling,ADJ,True,False
to,to,to,to,ADP,True,True
a,a,a,a,DET,True,True
local,local,local,local,ADJ,True,False
service,service,service,service,NOUN,True,False
provider,provider,provider,provider,NOUN,True,False
that,that,that,that,DET,True,True
have,have,have,have,AUX,True,True
invest,invest,invest,invest,VERB,True,False
heavily,heavily,heavily,heavily,ADV,True,False
in,in,in,in,ADP,True,True
this,this,this,this,DET,True,True
band,band,band,band,NOUN,True,False
.,.,.,.,PUNCT,False,False
first,first,first,first,ADV,True,True
the,the,the,the,DET,True,True
idea,idea,idea,idea,NOUN,True,False
of,of,of,of,ADP,True,True
change,change,change,change,NOUN,True,False
from,from,from,from,ADP,True,True
census,census,census,census,NOUN,True,False
tract,tract,tract,tract,NOUN,True,False
to,to,to,to,ADP,True,True
huge,huge,huge,huge,ADJ,True,False
pea,pea,pea,pea,NOUN,True,False
be,be,be,be,AUX,True,True
especially,especially,especially,especially,ADV,True,False
troubling,troubling,troubling,troubling,ADJ,True,False
for,for,for,for,ADP,True,True
small,small,small,small,ADJ,True,False
local,local,local,local,ADJ,True,False
provider,provider,provider,provider,NOUN,True,False
like,like,like,like,SCONJ,True,False
us,us,-PRON-,-pron-,PRON,True,True
as,as,as,as,ADV,True,True
well,well,well,well,ADV,True,True
as,as,as,as,SCONJ,True,True
other,other,other,other,ADJ,True,True
potential,potential,potential,potential,ADJ,True,False
user,user,user,user,NOUN,True,False
like,like,like,like,SCONJ,True,False
local,local,local,local,ADJ,True,False
school,school,school,school,NOUN,True,False
district,district,district,district,NOUN,True,False
or,or,or,or,CCONJ,True,True
government,government,government,government,NOUN,True,False
for,for,for,for,ADP,True,True
private,private,private,private,ADJ,True,False
network,network,network,network,NOUN,True,False
.,.,.,.,PUNCT,False,False
please,please,please,please,INTJ,True,True
leave,leave,leave,leave,VERB,True,False
the,the,the,the,DET,True,True
define,define,define,define,NOUN,True,False
area,area,area,area,NOUN,True,False
at,at,at,at,ADP,True,True
the,the,the,the,DET,True,True
small,small,small,small,ADJ,True,False
census,census,census,census,NOUN,True,False
tract,tract,tract,tract,NOUN,True,False
level,level,level,level,NOUN,True,False
to,to,to,to,PART,True,True
change,change,change,change,VERB,True,False
them,them,-PRON-,-pron-,PRON,True,True
to,to,to,to,ADP,True,True
large,large,large,large,ADJ,True,False
area,area,area,area,NOUN,True,False
that,that,that,that,DET,True,True
encompass,encompass,encompass,encompass,VERB,True,False
multiple,multiple,multiple,multiple,ADJ,True,False
city,city,city,city,NOUN,True,False
will,will,will,will,VERB,True,True
make,make,make,make,VERB,True,True
pal,pal,pal,pal,NOUN,True,False
unaffordable,unaffordable,unaffordable,unaffordable,ADJ,True,False
for,for,for,for,ADP,True,True
small,small,small,small,ADJ,True,False
operator,operator,operator,operator,NOUN,True,False
and,and,and,and,CCONJ,True,True
really,really,really,really,ADV,True,True
remove,remove,remove,remove,VERB,True,False
the,the,the,the,DET,True,True
citizen,citizen,citizen,citizen,NOUN,True,False
aspect,aspect,aspect,aspect,NOUN,True,False
from,from,from,from,ADP,True,True
cbrs,cbrs,cbr,cbr,NOUN,True,False
.,.,.,.,PUNCT,False,False
second,second,second,second,ADJ,True,False
the,the,the,the,DET,True,True
idea,idea,idea,idea,NOUN,True,False
of,of,of,of,ADP,True,True
also,also,also,also,ADV,True,True
include,include,include,include,VERB,True,False
3650,3650,3650,3650,NUM,False,False
-,-,-,-,SYM,False,False
3700,3700,3700,3700,NUM,False,False
in,in,in,in,ADP,True,True
the,the,the,the,DET,True,True
pal,pal,pal,pal,NOUN,True,False
allocation,allocation,allocation,allocation,NOUN,True,False
and,and,and,and,CCONJ,True,True
let,let,let,let,VERB,True,False
each,each,each,each,DET,True,True
pal,pal,pal,pal,ADJ,True,False
bidder,bidder,bidder,bidder,NOUN,True,False
buy,buy,buy,buy,VERB,True,False
50,50,50,50,NUM,False,False
mhz,mhz,mhz,mhz,NOUN,True,False
wide,wide,wide,wide,ADJ,True,False
block,block,block,block,NOUN,True,False
of,of,of,of,ADP,True,True
spectrum,spectrum,spectrum,spectrum,NOUN,True,False
",",",",",",",",PUNCT,False,False
could,could,could,could,VERB,True,True
effectively,effectively,effectively,effectively,ADV,True,False
eliminate,eliminate,eliminate,eliminate,VERB,True,False
all,all,all,all,DET,True,True
the,the,the,the,DET,True,True
legacy,legacy,legacy,legacy,PROPN,True,False
nngaa,nngaa,nngaa,nngaa,NOUN,True,False
user,user,user,user,NOUN,True,False
currently,currently,currently,currently,ADV,True,False
in,in,in,in,ADP,True,True
the,the,the,the,DET,True,True
spectrum,spectrum,spectrum,spectrum,NOUN,True,False
.,.,.,.,PUNCT,False,False
when,when,when,when,ADV,True,True
the,the,the,the,DET,True,True
fcc,fcc,fcc,fcc,PROPN,True,False
recently,recently,recently,recently,ADV,True,False
auction,auction,auction,auction,VERB,True,False
the,the,the,the,DET,True,True
tv,tv,tv,tv,NOUN,True,False
band,band,band,band,VERB,True,False
it,it,-PRON-,-pron-,PRON,True,True
at,at,at,at,ADP,True,True
least,least,least,least,ADJ,True,True
have,have,have,have,AUX,True,True
a,a,a,a,DET,True,True
plan,plan,plan,plan,NOUN,True,False
for,for,for,for,ADP,True,True
relocate,relocate,relocate,relocate,NOUN,True,False
the,the,the,the,DET,True,True
current,current,current,current,ADJ,True,False
license,license,license,license,NOUN,True,False
user,user,user,user,NOUN,True,False
at,at,at,at,ADP,True,True
the,the,the,the,DET,True,True
new,new,new,new,ADJ,True,False
win,win,win,win,PROPN,True,False
bidder,bidder,bidder,bidder,NOUN,True,False
expense,expense,expense,expense,NOUN,True,False
.,.,.,.,PUNCT,False,False
t,t,t,t,PROPN,True,False
-,-,-,-,PUNCT,False,False
mobiles,mobiles,mobile,mobile,NOUN,True,False
proposal,proposal,proposal,proposal,NOUN,True,False
be,be,be,be,AUX,True,True
silent,silent,silent,silent,ADJ,True,False
on,on,on,on,ADP,True,True
where,where,where,where,ADV,True,True
to,to,to,to,PART,True,True
relocate,relocate,relocate,relocate,VERB,True,False
current,current,current,current,ADJ,True,False
3650,3650,3650,3650,NUM,False,False
-,-,-,-,SYM,False,False
3700,3700,3700,3700,NUM,False,False
user,user,user,user,NOUN,True,False
and,and,and,and,CCONJ,True,True
how,how,how,how,ADV,True,True
operator,operator,operator,operator,NOUN,True,False
in,in,in,in,ADP,True,True
that,that,that,that,DET,True,True
band,band,band,band,NOUN,True,False
would,would,would,would,VERB,True,True
be,be,be,be,AUX,True,True
compensate,compensate,compensate,compensate,ADJ,True,False
for,for,for,for,ADP,True,True
the,the,the,the,DET,True,True
expense,expense,expense,expense,NOUN,True,False
in,in,in,in,ADP,True,True
relocate,relocate,relocate,relocate,NOUN,True,False
if,if,if,if,SCONJ,True,True
the,the,the,the,DET,True,True
entire,entire,entire,entire,ADJ,True,False
150,150,150,150,NUM,False,False
mhz,mhz,mhz,mhz,NOUN,True,False
of,of,of,of,ADP,True,True
the,the,the,the,DET,True,True
band,band,band,band,NOUN,True,False
become,become,become,become,VERB,True,True
pal,pal,pal,pal,PROPN,True,False
.,.,.,.,PUNCT,False,False
to,to,to,to,PART,True,True
not,not,not,not,PART,True,True
find,find,find,find,VERB,True,False
a,a,a,a,DET,True,True
solution,solution,solution,solution,NOUN,True,False
for,for,for,for,ADP,True,True
continue,continue,continue,continue,VERB,True,False
to,to,to,to,PART,True,True
be,be,be,be,AUX,True,True
able,able,able,able,ADJ,True,False
to,to,to,to,PART,True,True
provide,provide,provide,provide,VERB,True,False
service,service,service,service,NOUN,True,False
for,for,for,for,ADP,True,True
current,current,current,current,ADJ,True,False
nn,nn,nn,nn,NOUN,True,False
3750,3750,3750,3750,NUM,False,False
user,user,user,user,NOUN,True,False
would,would,would,would,VERB,True,True
result,result,result,result,VERB,True,False
in,in,in,in,ADP,True,True
100s,100s,100s,100s,PROPN,False,False
of,of,of,of,ADP,True,True
our,our,-PRON-,-pron-,DET,True,True
rural,rural,rural,rural,ADJ,True,False
customer,customer,customer,customer,NOUN,True,False
lose,lose,lose,lose,VERB,True,False
their,their,-PRON-,-pron-,DET,True,True
only,only,only,only,ADJ,True,True
option,option,option,option,NOUN,True,False
for,for,for,for,ADP,True,True
fast,fast,fast,fast,ADJ,True,False
affordable,affordable,affordable,affordable,ADJ,True,False
internet,internet,internet,internet,NOUN,True,False
servicethe,servicethe,servicethe,servicethe,DET,True,False
only,only,only,only,ADJ,True,True
part,part,part,part,NOUN,True,True
of,of,of,of,ADP,True,True
the,the,the,the,DET,True,True
t,t,t,t,NOUN,True,False
-,-,-,-,PUNCT,False,False
mobile,mobile,mobile,mobile,NOUN,True,False
proposal,proposal,proposal,proposal,NOUN,True,False
that,that,that,that,SCONJ,True,True
i,i,i,i,PRON,True,True
would,would,would,would,VERB,True,True
support,support,support,support,VERB,True,False
would,would,would,would,VERB,True,True
be,be,be,be,AUX,True,True
to,to,to,to,PART,True,True
increase,increase,increase,increase,VERB,True,False
the,the,the,the,DET,True,True
term,term,term,term,NOUN,True,False
of,of,of,of,ADP,True,True
pal,pal,pal,pal,NOUN,True,False
to,to,to,to,ADP,True,True
more,more,more,more,ADJ,True,True
than,than,than,than,SCONJ,True,True
3,3,3,3,NUM,False,False
year,year,year,year,NOUN,True,False
.,.,.,.,PUNCT,False,False
however,however,however,however,ADV,True,True
my,my,-PRON-,-pron-,DET,True,True
preference,preference,preference,preference,NOUN,True,False
would,would,would,would,VERB,True,True
be,be,be,be,AUX,True,True
5,5,5,5,NUM,False,False
yrs,yrs,yrs,yrs,NOUN,True,False
instead,instead,instead,instead,ADV,True,False
of,of,of,of,ADP,True,True
10.in,10.in,10.in,10.in,NUM,False,False
conclusion,conclusion,conclusion,conclusion,NOUN,True,False
i,i,i,i,PRON,True,True
would,would,would,would,VERB,True,True
encourage,encourage,encourage,encourage,VERB,True,False
the,the,the,the,DET,True,True
fcc,fcc,fcc,fcc,PROPN,True,False
to,to,to,to,PART,True,True
stop,stop,stop,stop,VERB,True,False
t,t,t,t,NOUN,True,False
-,-,-,-,PUNCT,False,False
mobiles,mobiles,mobile,mobile,NOUN,True,False
attempt,attempt,attempt,attempt,NOUN,True,False
to,to,to,to,PART,True,True
kill,kill,kill,kill,VERB,True,False
the,the,the,the,DET,True,True
citizens,citizens,citizen,citizen,NOUN,True,False
broadband,broadband,broadband,broadband,NOUN,True,False
service,service,service,service,NOUN,True,False
at,at,at,at,ADP,True,True
this,this,this,this,DET,True,True
late,late,late,late,ADJ,True,False
stage,stage,stage,stage,NOUN,True,False
in,in,in,in,ADP,True,True
the,the,the,the,DET,True,True
process,process,process,process,NOUN,True,False
when,when,when,when,ADV,True,True
thousand,thousand,thousand,thousand,NUM,True,False
of,of,of,of,ADP,True,True
operator,operator,operator,operator,NOUN,True,False
like,like,like,like,SCONJ,True,False
us,us,-PRON-,-pron-,PRON,True,True
have,have,have,have,AUX,True,True
already,already,already,already,ADV,True,True
make,make,make,make,VERB,True,True
and,and,and,and,CCONJ,True,True
continue,continue,continue,continue,VERB,True,False
to,to,to,to,PART,True,True
make,make,make,make,VERB,True,True
million,million,million,million,NUM,True,False
of,of,of,of,ADP,True,True
dollar,dollar,dollar,dollar,NOUN,True,False
in,in,in,in,ADP,True,True
private,private,private,private,ADJ,True,False
capital,capital,capital,capital,NOUN,True,False
investment,investment,investment,investment,NOUN,True,False
base,base,base,base,NOUN,True,False
on,on,on,on,ADP,True,True
the,the,the,the,DET,True,True
fcc,fcc,fcc,fcc,PROPN,True,False
previously,previously,previously,previously,ADV,True,False
publish,publish,publish,publish,VERB,True,False
rule,rule,rule,rule,NOUN,True,False
for,for,for,for,ADP,True,True
this,this,this,this,DET,True,True
band,band,band,band,NOUN,True,False
.,.,.,.,PUNCT,False,False
