text,text_lower,lemma,lemma_lower,part_of_speech,is_alphabet,is_stopword
the,the,the,the,DET,True,True
telecommunications,telecommunications,telecommunication,telecommunication,NOUN,True,False
industry,industry,industry,industry,PROPN,True,False
association,association,association,association,PROPN,True,False
tia,tia,tia,tia,PROPN,True,False
hereby,hereby,hereby,hereby,PROPN,True,True
submit,submit,submit,submit,PROPN,True,False
comment,comment,comment,comment,NOUN,True,False
to,to,to,to,ADP,True,True
the,the,the,the,DET,True,True
federal,federal,federal,federal,PROPN,True,False
communications,communications,communications,communications,PROPN,True,False
commission,commission,commission,commission,PROPN,True,False
commission,commission,commission,commission,PROPN,True,False
in,in,in,in,ADP,True,True
the,the,the,the,DET,True,True
above,above,above,above,ADJ,True,True
-,-,-,-,PUNCT,False,False
caption,caption,caption,caption,NOUN,True,False
proceeding,proceeding,proceeding,proceeding,NOUN,True,False
.,.,.,.,PUNCT,False,False
tia,tia,tia,tia,PROPN,True,False
strongly,strongly,strongly,strongly,ADV,True,False
support,support,support,support,VERB,True,False
the,the,the,the,DET,True,True
fcc,fcc,fcc,fcc,PROPN,True,False
initiative,initiative,initiative,initiative,NOUN,True,False
to,to,to,to,PART,True,True
implement,implement,implement,implement,VERB,True,False
the,the,the,the,DET,True,True
recommendation,recommendation,recommendation,recommendation,NOUN,True,False
of,of,of,of,ADP,True,True
the,the,the,the,DET,True,True
national,national,national,national,ADJ,True,False
broadband,broadband,broadband,broadband,NOUN,True,False
plan,plan,plan,plan,NOUN,True,False
call,call,call,call,NOUN,True,True
for,for,for,for,ADP,True,True
the,the,the,the,DET,True,True
availability,availability,availability,availability,NOUN,True,False
of,of,of,of,ADP,True,True
300,300,300,300,NUM,False,False
mhz,mhz,mhz,mhz,NOUN,True,False
of,of,of,of,ADP,True,True
spectrum,spectrum,spectrum,spectrum,NOUN,True,False
by,by,by,by,ADP,True,True
2015,2015,2015,2015,NUM,False,False
and,and,and,and,CCONJ,True,True
a,a,a,a,DET,True,True
total,total,total,total,NOUN,True,False
of,of,of,of,ADP,True,True
500mhz,500mhz,500mhz,500mhz,NUM,False,False
available,available,available,available,ADJ,True,False
by,by,by,by,ADP,True,True
2020,2020,2020,2020,NUM,False,False
.,.,.,.,PUNCT,False,False
the,the,the,the,DET,True,True
initial,initial,initial,initial,ADJ,True,False
round,round,round,round,NOUN,True,False
of,of,of,of,ADP,True,True
comment,comment,comment,comment,NOUN,True,False
in,in,in,in,ADP,True,True
this,this,this,this,DET,True,True
proceeding,proceeding,proceeding,proceeding,NOUN,True,False
provide,provide,provide,provide,VERB,True,False
aconstructive,aconstructive,aconstructive,aconstructive,ADJ,True,False
record,record,record,record,NOUN,True,False
for,for,for,for,ADP,True,True
the,the,the,the,DET,True,True
commission,commission,commission,commission,NOUN,True,False
.,.,.,.,PUNCT,False,False
strkike,strkike,strkike,strkike,VERB,True,False
a,a,a,a,DET,True,True
balance,balance,balance,balance,NOUN,True,False
between,between,between,between,ADP,True,True
certainty,certainty,certainty,certainty,NOUN,True,False
and,and,and,and,CCONJ,True,True
flexibility,flexibility,flexibility,flexibility,NOUN,True,False
in,in,in,in,ADP,True,True
spectrum,spectrum,spectrum,spectrum,PROPN,True,False
managementperhap,managementperhap,managementperhap,managementperhap,PROPN,True,False
the,the,the,the,DET,True,True
central,central,central,central,ADJ,True,False
challenge,challenge,challenge,challenge,NOUN,True,False
face,face,face,face,VERB,True,False
the,the,the,the,DET,True,True
commission,commission,commission,commission,NOUN,True,False
in,in,in,in,ADP,True,True
this,this,this,this,DET,True,True
proceeding,proceeding,proceeding,proceeding,NOUN,True,False
be,be,be,be,AUX,True,True
in,in,in,in,ADP,True,True
strike,strike,strike,strike,NOUN,True,False
an,an,an,an,DET,True,True
appropriate,appropriate,appropriate,appropriate,ADJ,True,False
balance,balance,balance,balance,NOUN,True,False
between,between,between,between,ADP,True,True
provide,provide,provide,provide,VERB,True,False
sufficient,sufficient,sufficient,sufficient,ADJ,True,False
certainty,certainty,certainty,certainty,NOUN,True,False
to,to,to,to,PART,True,True
encourage,encourage,encourage,encourage,VERB,True,False
investment,investment,investment,investment,NOUN,True,False
in,in,in,in,ADP,True,True
technology,technology,technology,technology,NOUN,True,False
use,use,use,use,NOUN,True,False
this,this,this,this,DET,True,True
spectrum,spectrum,spectrum,spectrum,NOUN,True,False
",",",",",",",",PUNCT,False,False
with,with,with,with,ADP,True,True
the,the,the,the,DET,True,True
need,need,need,need,NOUN,True,False
to,to,to,to,PART,True,True
allow,allow,allow,allow,VERB,True,False
enough,enough,enough,enough,ADJ,True,True
flexibility,flexibility,flexibility,flexibility,NOUN,True,False
to,to,to,to,PART,True,True
allow,allow,allow,allow,VERB,True,False
potential,potential,potential,potential,ADJ,True,False
use,use,use,use,NOUN,True,False
case,case,case,case,NOUN,True,False
to,to,to,to,PART,True,True
evolve,evolve,evolve,evolve,VERB,True,False
.,.,.,.,PUNCT,False,False
this,this,this,this,DET,True,True
challenge,challenge,challenge,challenge,NOUN,True,False
be,be,be,be,AUX,True,True
further,further,far,far,ADV,True,True
complicate,complicate,complicate,complicate,NOUN,True,False
by,by,by,by,ADP,True,True
the,the,the,the,DET,True,True
presence,presence,presence,presence,NOUN,True,False
of,of,of,of,ADP,True,True
incumbent,incumbent,incumbent,incumbent,ADJ,True,False
use,use,use,use,NOUN,True,False
",",",",",",",",PUNCT,False,False
necessitate,necessitate,necessitate,necessitate,ADJ,True,False
exclusion,exclusion,exclusion,exclusion,NOUN,True,False
zone,zone,zone,zone,NOUN,True,False
cover,cover,cover,cover,NOUN,True,False
large,large,large,large,ADJ,True,False
",",",",",",",",PUNCT,False,False
densely,densely,densely,densely,ADV,True,False
populated,populated,populated,populated,ADJ,True,False
area,area,area,area,NOUN,True,False
.,.,.,.,PUNCT,False,False
this,this,this,this,DET,True,True
inevitably,inevitably,inevitably,inevitably,ADV,True,False
create,create,create,create,VERB,True,False
barrier,barrier,barrier,barrier,NOUN,True,False
to,to,to,to,ADP,True,True
investment,investment,investment,investment,NOUN,True,False
in,in,in,in,ADP,True,True
this,this,this,this,DET,True,True
spectrum,spectrum,spectrum,spectrum,NOUN,True,False
.,.,.,.,PUNCT,False,False
as,as,as,as,SCONJ,True,True
the,the,the,the,DET,True,True
commission,commission,commission,commission,NOUN,True,False
note,note,note,note,NOUN,True,False
",",",",",",",",PUNCT,False,False
multiple,multiple,multiple,multiple,ADJ,True,False
commenter,commenter,commenter,commenter,NOUN,True,False
have,have,have,have,AUX,True,True
advocate,advocate,advocate,advocate,NOUN,True,False
approach,approach,approach,approach,NOUN,True,False
generally,generally,generally,generally,ADV,True,False
reflect,reflect,reflect,reflect,VERB,True,False
the,the,the,the,DET,True,True
priority,priority,priority,priority,NOUN,True,False
access,access,access,access,NOUN,True,False
licenses,licenses,license,license,VERB,True,False
pal,pal,pal,pal,PROPN,True,False
model,model,model,model,NOUN,True,False
propose,propose,propose,propose,NOUN,True,False
in,in,in,in,ADP,True,True
the,the,the,the,DET,True,True
pn,pn,pn,pn,PROPN,True,False
.,.,.,.,PUNCT,False,False
the,the,the,the,DET,True,True
pal,pal,pal,pal,PROPN,True,False
model,model,model,model,NOUN,True,False
represent,represent,represent,represent,VERB,True,False
an,an,an,an,DET,True,True
approach,approach,approach,approach,NOUN,True,False
towards,towards,towards,towards,ADP,True,True
implement,implement,implement,implement,VERB,True,False
the,the,the,the,DET,True,True
next,next,next,next,ADJ,True,True
generation,generation,generation,generation,NOUN,True,False
of,of,of,of,ADP,True,True
spectrum,spectrum,spectrum,spectrum,NOUN,True,False
management,management,management,management,NOUN,True,False
system,system,system,system,NOUN,True,False
in,in,in,in,ADP,True,True
light,light,light,light,NOUN,True,False
of,of,of,of,ADP,True,True
the,the,the,the,DET,True,True
proposal,proposal,proposal,proposal,NOUN,True,False
and,and,and,and,CCONJ,True,True
alternative,alternative,alternative,alternative,ADJ,True,False
proposal,proposal,proposal,proposal,NOUN,True,False
set,set,set,set,VERB,True,False
forth,forth,forth,forth,ADP,True,False
in,in,in,in,ADP,True,True
this,this,this,this,DET,True,True
proceeding,proceeding,proceeding,proceeding,NOUN,True,False
.,.,.,.,PUNCT,False,False
tia,tia,tia,tia,PROPN,True,False
also,also,also,also,ADV,True,True
share,share,share,share,VERB,True,False
the,the,the,the,DET,True,True
commissions,commissions,commission,commission,NOUN,True,False
interest,interest,interest,interest,NOUN,True,False
in,in,in,in,ADP,True,True
encourage,encourage,encourage,encourage,VERB,True,False
small,small,small,small,ADJ,True,False
cell,cell,cell,cell,NOUN,True,False
technology,technology,technology,technology,NOUN,True,False
--,--,--,--,PUNCT,False,False
outdoor,outdoor,outdoor,outdoor,ADJ,True,False
femto,femto,femto,femto,NOUN,True,False
cell,cell,cell,cell,NOUN,True,False
",",",",",",",",PUNCT,False,False
metro,metro,metro,metro,PROPN,True,False
cell,cell,cell,cell,NOUN,True,False
and,and,and,and,CCONJ,True,True
pico,pico,pico,pico,NOUN,True,False
cell,cell,cell,cell,NOUN,True,False
",",",",",",",",PUNCT,False,False
in,in,in,in,ADP,True,True
addition,addition,addition,addition,NOUN,True,False
to,to,to,to,ADP,True,True
small,small,small,small,ADJ,True,False
cell,cell,cell,cell,NOUN,True,False
that,that,that,that,DET,True,True
use,use,use,use,VERB,True,False
wi,wi,wi,wi,PROPN,True,False
-,-,-,-,PUNCT,False,False
fi,fi,fi,fi,NOUN,True,False
technology,technology,technology,technology,NOUN,True,False
.,.,.,.,PUNCT,False,False
heterogeneous,heterogeneous,heterogeneous,heterogeneous,ADJ,True,False
network,network,network,network,NOUN,True,False
or,or,or,or,CCONJ,True,True
hetnet,hetnet,hetnet,hetnet,NOUN,True,False
promise,promise,promise,promise,VERB,True,False
a,a,a,a,DET,True,True
network,network,network,network,NOUN,True,False
architecture,architecture,architecture,architecture,NOUN,True,False
that,that,that,that,DET,True,True
manage,manage,manage,manage,VERB,True,False
high,high,high,high,ADJ,True,False
demand,demand,demand,demand,NOUN,True,False
growth,growth,growth,growth,NOUN,True,False
without,without,without,without,ADP,True,True
new,new,new,new,ADJ,True,False
cmrs,cmrs,cmrs,cmrs,PROPN,True,False
spectrum,spectrum,spectrum,spectrum,PROPN,True,False
by,by,by,by,ADP,True,True
divert,divert,divert,divert,NOUN,True,False
traffic,traffic,traffic,traffic,NOUN,True,False
at,at,at,at,ADP,True,True
the,the,the,the,DET,True,True
edge,edge,edge,edge,NOUN,True,False
of,of,of,of,ADP,True,True
the,the,the,the,DET,True,True
network,network,network,network,NOUN,True,False
.,.,.,.,PUNCT,False,False
this,this,this,this,DET,True,True
band,band,band,band,NOUN,True,False
",",",",",",",",PUNCT,False,False
even,even,even,even,ADV,True,True
encumbered,encumbered,encumbered,encumbered,ADJ,True,False
",",",",",",",",PUNCT,False,False
may,may,may,may,VERB,True,True
be,be,be,be,AUX,True,True
a,a,a,a,DET,True,True
helpful,helpful,helpful,helpful,ADJ,True,False
addition,addition,addition,addition,NOUN,True,False
to,to,to,to,ADP,True,True
the,the,the,the,DET,True,True
inventory,inventory,inventory,inventory,NOUN,True,False
of,of,of,of,ADP,True,True
spectrum,spectrum,spectrum,spectrum,NOUN,True,False
that,that,that,that,DET,True,True
could,could,could,could,VERB,True,True
support,support,support,support,VERB,True,False
such,such,such,such,ADJ,True,True
heterogeneous,heterogeneous,heterogeneous,heterogeneous,ADJ,True,False
network,network,network,network,NOUN,True,False
.,.,.,.,PUNCT,False,False
collectively,collectively,collectively,collectively,ADV,True,False
these,these,these,these,DET,True,True
technology,technology,technology,technology,NOUN,True,False
present,present,present,present,ADJ,True,False
potential,potential,potential,potential,ADJ,True,False
option,option,option,option,NOUN,True,False
for,for,for,for,ADP,True,True
address,address,address,address,NOUN,True,False
wireless,wireless,wireless,wireless,NOUN,True,False
network,network,network,network,NOUN,True,False
capacity,capacity,capacity,capacity,NOUN,True,False
issue,issue,issue,issue,NOUN,True,False
by,by,by,by,ADP,True,True
shift,shift,shift,shift,NOUN,True,False
traffic,traffic,traffic,traffic,NOUN,True,False
away,away,away,away,ADV,True,False
from,from,from,from,ADP,True,True
mobile,mobile,mobile,mobile,ADJ,True,False
network,network,network,network,NOUN,True,False
.,.,.,.,PUNCT,False,False
cellular,cellular,cellular,cellular,ADJ,True,False
small,small,small,small,ADJ,True,False
cell,cell,cell,cell,NOUN,True,False
",",",",",",",",PUNCT,False,False
to,to,to,to,PART,True,True
be,be,be,be,AUX,True,True
clear,clear,clear,clear,ADJ,True,False
",",",",",",",",PUNCT,False,False
depend,depend,depend,depend,VERB,True,False
on,on,on,on,ADP,True,True
licensed,licensed,licensed,licensed,ADJ,True,False
spectrum,spectrum,spectrum,spectrum,NOUN,True,False
",",",",",",",",PUNCT,False,False
while,while,while,while,SCONJ,True,True
wi,wi,wi,wi,PROPN,True,False
-,-,-,-,PUNCT,False,False
fi,fi,fi,fi,ADP,True,False
small,small,small,small,ADJ,True,False
cell,cell,cell,cell,NOUN,True,False
can,can,can,can,VERB,True,True
operate,operate,operate,operate,VERB,True,False
in,in,in,in,ADP,True,True
unlicensed,unlicensed,unlicensed,unlicensed,ADJ,True,False
spectrum,spectrum,spectrum,spectrum,NOUN,True,False
.,.,.,.,PUNCT,False,False
where,where,where,where,ADV,True,True
small,small,small,small,ADJ,True,False
cell,cell,cell,cell,NOUN,True,False
technology,technology,technology,technology,NOUN,True,False
be,be,be,be,AUX,True,True
appropriate,appropriate,appropriate,appropriate,ADJ,True,False
under,under,under,under,ADP,True,True
an,an,an,an,DET,True,True
exclusive,exclusive,exclusive,exclusive,ADJ,True,False
licensed,licensed,licensed,licensed,ADJ,True,False
regime,regime,regime,regime,NOUN,True,False
",",",",",",",",PUNCT,False,False
market,market,market,market,NOUN,True,False
participant,participant,participant,participant,NOUN,True,False
will,will,will,will,VERB,True,True
deploy,deploy,deploy,deploy,VERB,True,False
them,them,-PRON-,-pron-,PRON,True,True
.,.,.,.,PUNCT,False,False
indeed,indeed,indeed,indeed,ADV,True,True
",",",",",",",",PUNCT,False,False
it,it,-PRON-,-pron-,PRON,True,True
may,may,may,may,VERB,True,True
be,be,be,be,AUX,True,True
most,most,most,most,ADV,True,True
appropriate,appropriate,appropriate,appropriate,ADJ,True,False
to,to,to,to,PART,True,True
deploy,deploy,deploy,deploy,VERB,True,False
a,a,a,a,DET,True,True
mix,mix,mix,mix,NOUN,True,False
of,of,of,of,ADP,True,True
small,small,small,small,ADJ,True,False
cell,cell,cell,cell,NOUN,True,False
and,and,and,and,CCONJ,True,True
macro,macro,macro,macro,ADJ,True,False
cell,cell,cell,cell,NOUN,True,False
technology,technology,technology,technology,NOUN,True,False
in,in,in,in,ADP,True,True
a,a,a,a,DET,True,True
band,band,band,band,NOUN,True,False
like,like,like,like,SCONJ,True,False
3.5,3.5,3.5,3.5,NUM,False,False
ghz,ghz,ghz,ghz,NOUN,True,False
and,and,and,and,CCONJ,True,True
that,that,that,that,SCONJ,True,True
partitioning,partitioning,partitioning,partitioning,NOUN,True,False
may,may,may,may,VERB,True,True
be,be,be,be,AUX,True,True
different,different,different,different,ADJ,True,False
for,for,for,for,ADP,True,True
different,different,different,different,ADJ,True,False
region,region,region,region,NOUN,True,False
or,or,or,or,CCONJ,True,True
for,for,for,for,ADP,True,True
different,different,different,different,ADJ,True,False
network,network,network,network,NOUN,True,False
operator,operator,operator,operator,NOUN,True,False
.,.,.,.,PUNCT,False,False
the,the,the,the,DET,True,True
commission,commission,commission,commission,NOUN,True,False
should,should,should,should,VERB,True,True
not,not,not,not,PART,True,True
require,require,require,require,VERB,True,False
small,small,small,small,ADJ,True,False
cell,cell,cell,cell,NOUN,True,False
",",",",",",",",PUNCT,False,False
it,it,-PRON-,-pron-,PRON,True,True
should,should,should,should,VERB,True,True
simply,simply,simply,simply,ADV,True,False
permit,permit,permit,permit,VERB,True,False
them,them,-PRON-,-pron-,PRON,True,True
.,.,.,.,PUNCT,False,False
tia,tia,tia,tia,PROPN,True,False
have,have,have,have,AUX,True,True
not,not,not,not,PART,True,True
take,take,take,take,VERB,True,True
a,a,a,a,DET,True,True
specific,specific,specific,specific,ADJ,True,False
position,position,position,position,NOUN,True,False
regard,regard,regard,regard,VERB,True,False
a,a,a,a,DET,True,True
particular,particular,particular,particular,ADJ,True,False
access,access,access,access,NOUN,True,False
or,or,or,or,CCONJ,True,True
usage,usage,usage,usage,NOUN,True,False
control,control,control,control,NOUN,True,False
method,method,method,method,NOUN,True,False
",",",",",",",",PUNCT,False,False
such,such,such,such,ADJ,True,True
as,as,as,as,SCONJ,True,True
the,the,the,the,DET,True,True
authorized,authorized,authorize,authorize,VERB,True,False
shared,shared,shared,shared,ADJ,True,False
access,access,access,access,NOUN,True,False
approach,approach,approach,approach,NOUN,True,False
advance,advance,advance,advance,NOUN,True,False
by,by,by,by,ADP,True,True
qualcomm,qualcomm,qualcomm,qualcomm,PROPN,True,False
and,and,and,and,CCONJ,True,True
nokia,nokia,nokia,nokia,PROPN,True,False
",",",",",",",",PUNCT,False,False
or,or,or,or,CCONJ,True,True
the,the,the,the,DET,True,True
licensed,licensed,license,license,VERB,True,False
shared,shared,share,share,VERB,True,False
access,access,access,access,NOUN,True,False
approach,approach,approach,approach,NOUN,True,False
be,be,be,be,AUX,True,True
standardize,standardize,standardize,standardize,VERB,True,False
by,by,by,by,ADP,True,True
european,european,european,european,ADJ,True,False
telecommunications,telecommunications,telecommunications,telecommunications,PROPN,True,False
standards,standards,standards,standards,PROPN,True,False
institute,institute,institute,institute,PROPN,True,False
etsi,etsi,etsi,etsi,PROPN,True,False
and,and,and,and,CCONJ,True,True
the,the,the,the,DET,True,True
european,european,european,european,PROPN,True,False
conference,conference,conference,conference,PROPN,True,False
of,of,of,of,ADP,True,True
postal,postal,postal,postal,ADJ,True,False
and,and,and,and,CCONJ,True,True
telecommunications,telecommunications,telecommunication,telecommunication,NOUN,True,False
administrations,administrations,administration,administration,NOUN,True,False
cept,cept,cept,cept,PROPN,True,False
.,.,.,.,PUNCT,False,False
license,license,license,license,NOUN,True,False
share,share,share,share,NOUN,True,False
access,access,access,access,NOUN,True,False
offer,offer,offer,offer,VERB,True,False
a,a,a,a,DET,True,True
number,number,number,number,NOUN,True,False
advantage,advantage,advantage,advantage,NOUN,True,False
for,for,for,for,ADP,True,True
promote,promote,promote,promote,VERB,True,False
the,the,the,the,DET,True,True
efficient,efficient,efficient,efficient,ADJ,True,False
use,use,use,use,NOUN,True,False
of,of,of,of,ADP,True,True
spectrum,spectrum,spectrum,spectrum,PROPN,True,False
.,.,.,.,PUNCT,False,False
tia,tia,tia,tia,PROPN,True,False
encourage,encourage,encourage,encourage,VERB,True,False
the,the,the,the,DET,True,True
commission,commission,commission,commission,NOUN,True,False
to,to,to,to,PART,True,True
actively,actively,actively,actively,ADV,True,False
consider,consider,consider,consider,VERB,True,False
these,these,these,these,DET,True,True
potential,potential,potential,potential,ADJ,True,False
alternative,alternative,alternative,alternative,NOUN,True,False
and,and,and,and,CCONJ,True,True
to,to,to,to,PART,True,True
not,not,not,not,PART,True,True
act,act,act,act,VERB,True,False
prematurely,prematurely,prematurely,prematurely,ADV,True,False
in,in,in,in,ADP,True,True
a,a,a,a,DET,True,True
manner,manner,manner,manner,NOUN,True,False
that,that,that,that,DET,True,True
would,would,would,would,VERB,True,True
foreclose,foreclose,foreclose,foreclose,VERB,True,False
their,their,-PRON-,-pron-,DET,True,True
eventual,eventual,eventual,eventual,ADJ,True,False
adoption,adoption,adoption,adoption,NOUN,True,False
.,.,.,.,PUNCT,False,False
this,this,this,this,DET,True,True
be,be,be,be,AUX,True,True
particularly,particularly,particularly,particularly,ADV,True,False
true,true,true,true,ADJ,True,False
if,if,if,if,SCONJ,True,True
palasalsa,palasalsa,palasalsa,palasalsa,PROPN,True,False
be,be,be,be,VERB,True,True
implement,implement,implement,implement,ADJ,True,False
as,as,as,as,SCONJ,True,True
envision,envision,envision,envision,NOUN,True,False
to,to,to,to,PART,True,True
enable,enable,enable,enable,VERB,True,False
a,a,a,a,DET,True,True
two,two,two,two,NUM,True,True
-,-,-,-,PUNCT,False,False
tier,tier,tier,tier,NOUN,True,False
spectrum,spectrum,spectrum,spectrum,NOUN,True,False
access,access,access,access,NOUN,True,False
approach,approach,approach,approach,NOUN,True,False
.,.,.,.,PUNCT,False,False
tia,tia,tia,tia,PROPN,True,False
be,be,be,be,VERB,True,True
broadly,broadly,broadly,broadly,ADV,True,False
supportive,supportive,supportive,supportive,ADJ,True,False
of,of,of,of,ADP,True,True
the,the,the,the,DET,True,True
fccs,fccs,fccs,fccs,NOUN,True,False
revised,revised,revise,revise,VERB,True,False
framework,framework,framework,framework,NOUN,True,False
as,as,as,as,SCONJ,True,True
reflect,reflect,reflect,reflect,NOUN,True,False
with,with,with,with,ADP,True,True
the,the,the,the,DET,True,True
priority,priority,priority,priority,NOUN,True,False
access,access,access,access,NOUN,True,False
licenses,licenses,license,license,NOUN,True,False
proposal,proposal,proposal,proposal,NOUN,True,False
",",",",",",",",PUNCT,False,False
which,which,which,which,DET,True,True
apply,apply,apply,apply,VERB,True,False
an,an,an,an,DET,True,True
integrated,integrated,integrated,integrated,ADJ,True,False
approach,approach,approach,approach,NOUN,True,False
to,to,to,to,PART,True,True
authorize,authorize,authorize,authorize,VERB,True,False
access,access,access,access,NOUN,True,False
to,to,to,to,ADP,True,True
the,the,the,the,DET,True,True
priority,priority,priority,priority,NOUN,True,False
access,access,access,access,NOUN,True,False
and,and,and,and,CCONJ,True,True
general,general,general,general,ADJ,True,False
authorized,authorized,authorize,authorize,VERB,True,False
access,access,access,access,NOUN,True,False
gaa,gaa,gaa,gaa,NOUN,True,False
tier,tier,tier,tier,NOUN,True,False
.,.,.,.,PUNCT,False,False
for,for,for,for,ADP,True,True
example,example,example,example,NOUN,True,False
",",",",",",",",PUNCT,False,False
a,a,a,a,DET,True,True
pal,pal,pal,pal,ADJ,True,False
framework,framework,framework,framework,NOUN,True,False
could,could,could,could,VERB,True,True
facilitate,facilitate,facilitate,facilitate,VERB,True,False
the,the,the,the,DET,True,True
use,use,use,use,NOUN,True,False
spectrum,spectrum,spectrum,spectrum,NOUN,True,False
for,for,for,for,ADP,True,True
backhaul,backhaul,backhaul,backhaul,PROPN,True,False
.,.,.,.,PUNCT,False,False
additionally,additionally,additionally,additionally,ADV,True,False
the,the,the,the,DET,True,True
pal,pal,pal,pal,ADJ,True,False
approach,approach,approach,approach,NOUN,True,False
could,could,could,could,VERB,True,True
enhance,enhance,enhance,enhance,VERB,True,False
the,the,the,the,DET,True,True
3.5,3.5,3.5,3.5,NUM,False,False
ghz,ghz,ghz,ghz,PROPN,True,False
bands,bands,band,band,NOUN,True,False
attractiveness,attractiveness,attractiveness,attractiveness,ADJ,True,False
to,to,to,to,ADP,True,True
a,a,a,a,DET,True,True
broad,broad,broad,broad,ADJ,True,False
range,range,range,range,NOUN,True,False
of,of,of,of,ADP,True,True
user,user,user,user,NOUN,True,False
with,with,with,with,ADP,True,True
qos,qos,qos,qos,PROPN,True,False
requirement,requirement,requirement,requirement,NOUN,True,False
",",",",",",",",PUNCT,False,False
include,include,include,include,VERB,True,False
mobile,mobile,mobile,mobile,PROPN,True,False
operator,operator,operator,operator,NOUN,True,False
",",",",",",",",PUNCT,False,False
which,which,which,which,DET,True,True
in,in,in,in,ADP,True,True
turn,turn,turn,turn,NOUN,True,False
will,will,will,will,VERB,True,True
help,help,help,help,VERB,True,False
drive,drive,drive,drive,VERB,True,False
the,the,the,the,DET,True,True
scale,scale,scale,scale,NOUN,True,False
necessary,necessary,necessary,necessary,ADJ,True,False
for,for,for,for,ADP,True,True
the,the,the,the,DET,True,True
development,development,development,development,NOUN,True,False
of,of,of,of,ADP,True,True
an,an,an,an,DET,True,True
end,end,end,end,NOUN,True,False
-,-,-,-,PUNCT,False,False
to,to,to,to,ADP,True,True
-,-,-,-,PUNCT,False,False
end,end,end,end,NOUN,True,False
ecosystem,ecosystem,ecosystem,ecosystem,NOUN,True,False
.,.,.,.,PUNCT,False,False
however,however,however,however,ADV,True,True
",",",",",",",",PUNCT,False,False
more,more,more,more,ADJ,True,True
clarification,clarification,clarification,clarification,NOUN,True,False
be,be,be,be,AUX,True,True
require,require,require,require,VERB,True,False
regard,regard,regard,regard,NOUN,True,False
the,the,the,the,DET,True,True
extent,extent,extent,extent,NOUN,True,False
to,to,to,to,PART,True,True
which,which,which,which,DET,True,True
a,a,a,a,DET,True,True
pal,pal,pal,pal,ADJ,True,False
approach,approach,approach,approach,NOUN,True,False
would,would,would,would,VERB,True,True
permit,permit,permit,permit,VERB,True,False
underutilize,underutilize,underutilize,underutilize,NOUN,True,False
spectrum,spectrum,spectrum,spectrum,NOUN,True,False
to,to,to,to,PART,True,True
be,be,be,be,AUX,True,True
employ,employ,employ,employ,NOUN,True,False
for,for,for,for,ADP,True,True
unlicensed,unlicensed,unlicensed,unlicensed,ADJ,True,False
use,use,use,use,NOUN,True,False
.,.,.,.,PUNCT,False,False
for,for,for,for,ADP,True,True
example,example,example,example,NOUN,True,False
",",",",",",",",PUNCT,False,False
a,a,a,a,DET,True,True
key,key,key,key,ADJ,True,False
question,question,question,question,NOUN,True,False
be,be,be,be,AUX,True,True
",",",",",",",",PUNCT,False,False
how,how,how,how,ADV,True,True
would,would,would,would,VERB,True,True
priority,priority,priority,priority,VERB,True,False
access,access,access,access,NOUN,True,False
licenses,licenses,license,license,NOUN,True,False
co,co,co,co,NOUN,True,False
-,-,-,-,NOUN,False,False
exist,exist,exist,exist,VERB,True,False
with,with,with,with,ADP,True,True
microcell,microcell,microcell,microcell,NOUN,True,False
solution,solution,solution,solution,NOUN,True,False
use,use,use,use,NOUN,True,False
unlicensed,unlicensed,unlicense,unlicense,VERB,True,False
spectrum,spectrum,spectrum,spectrum,NOUN,True,False
within,within,within,within,ADP,True,True
a,a,a,a,DET,True,True
building,building,building,building,NOUN,True,False
or,or,or,or,CCONJ,True,True
operate,operate,operate,operate,VERB,True,False
at,at,at,at,ADP,True,True
short,short,short,short,ADJ,True,False
distance,distance,distance,distance,PROPN,True,False
.,.,.,.,PUNCT,False,False
tia,tia,tia,tia,PROPN,True,False
believe,believe,believe,believe,VERB,True,False
that,that,that,that,SCONJ,True,True
the,the,the,the,DET,True,True
fcc,fcc,fcc,fcc,PROPN,True,False
should,should,should,should,VERB,True,True
permit,permit,permit,permit,VERB,True,False
long,long,long,long,ADJ,True,False
term,term,term,term,NOUN,True,False
evolution,evolution,evolution,evolution,NOUN,True,False
of,of,of,of,ADP,True,True
the,the,the,the,DET,True,True
3.5,3.5,3.5,3.5,NUM,False,False
ghz,ghz,ghz,ghz,PROPN,True,False
band,band,band,band,NOUN,True,False
and,and,and,and,CCONJ,True,True
not,not,not,not,PART,True,True
depend,depend,depend,depend,VERB,True,False
solely,solely,solely,solely,ADV,True,False
on,on,on,on,ADP,True,True
current,current,current,current,ADJ,True,False
technology,technology,technology,technology,NOUN,True,False
assumption,assumption,assumption,assumption,NOUN,True,False
",",",",",",",",PUNCT,False,False
especially,especially,especially,especially,ADV,True,False
assumption,assumption,assumption,assumption,NOUN,True,False
about,about,about,about,ADP,True,True
future,future,future,future,ADJ,True,False
technology,technology,technology,technology,NOUN,True,False
or,or,or,or,CCONJ,True,True
regard,regard,regard,regard,VERB,True,False
potential,potential,potential,potential,ADJ,True,False
unlicense,unlicense,unlicense,unlicense,NOUN,True,False
use,use,use,use,NOUN,True,False
.,.,.,.,PUNCT,False,False
the,the,the,the,DET,True,True
commission,commission,commission,commission,NOUN,True,False
must,must,must,must,VERB,True,True
maintain,maintain,maintain,maintain,VERB,True,False
its,its,-PRON-,-pron-,DET,True,True
longstanding,longstanding,longstanding,longstanding,ADJ,True,False
position,position,position,position,NOUN,True,False
in,in,in,in,ADP,True,True
favor,favor,favor,favor,NOUN,True,False
of,of,of,of,ADP,True,True
technology,technology,technology,technology,NOUN,True,False
neutrality,neutrality,neutrality,neutrality,NOUN,True,False
",",",",",",",",PUNCT,False,False
and,and,and,and,CCONJ,True,True
must,must,must,must,VERB,True,True
not,not,not,not,PART,True,True
create,create,create,create,VERB,True,False
rule,rule,rule,rule,NOUN,True,False
which,which,which,which,DET,True,True
inflexibly,inflexibly,inflexibly,inflexibly,ADV,True,False
limit,limit,limit,limit,VERB,True,False
deployable,deployable,deployable,deployable,ADJ,True,False
technology,technology,technology,technology,NOUN,True,False
andor,andor,andor,andor,NOUN,True,False
various,various,various,various,ADJ,True,True
form,form,form,form,NOUN,True,False
of,of,of,of,ADP,True,True
share,share,share,share,NOUN,True,False
in,in,in,in,ADP,True,True
the,the,the,the,DET,True,True
time,time,time,time,NOUN,True,False
",",",",",",",",PUNCT,False,False
frequency,frequency,frequency,frequency,NOUN,True,False
",",",",",",",",PUNCT,False,False
and,and,and,and,CCONJ,True,True
spatial,spatial,spatial,spatial,ADJ,True,False
domain,domain,domain,domain,NOUN,True,False
.,.,.,.,PUNCT,False,False
marketplace,marketplace,marketplace,marketplace,PROPN,True,False
considerationsas,considerationsas,considerationsas,considerationsas,PROPN,True,False
tia,tia,tia,tia,PROPN,True,False
have,have,have,have,AUX,True,True
previously,previously,previously,previously,ADV,True,False
note,note,note,note,NOUN,True,False
",",",",",",",",PUNCT,False,False
policymaker,policymaker,policymaker,policymaker,PROPN,True,False
should,should,should,should,VERB,True,True
not,not,not,not,PART,True,True
divorce,divorce,divorce,divorce,VERB,True,False
the,the,the,the,DET,True,True
operational,operational,operational,operational,ADJ,True,False
",",",",",",",",PUNCT,False,False
effective,effective,effective,effective,ADJ,True,False
",",",",",",",",PUNCT,False,False
and,and,and,and,CCONJ,True,True
economic,economic,economic,economic,ADJ,True,False
case,case,case,case,NOUN,True,False
from,from,from,from,ADP,True,True
an,an,an,an,DET,True,True
evaluation,evaluation,evaluation,evaluation,NOUN,True,False
of,of,of,of,ADP,True,True
technical,technical,technical,technical,ADJ,True,False
capability,capability,capability,capability,NOUN,True,False
the,the,the,the,DET,True,True
existence,existence,existence,existence,NOUN,True,False
of,of,of,of,ADP,True,True
a,a,a,a,DET,True,True
share,share,share,share,NOUN,True,False
technology,technology,technology,technology,NOUN,True,False
should,should,should,should,VERB,True,True
not,not,not,not,PART,True,True
",",",",",",",",PUNCT,False,False
by,by,by,by,ADP,True,True
itself,itself,-PRON-,-pron-,PRON,True,True
",",",",",",",",PUNCT,False,False
justify,justify,justify,justify,VERB,True,False
regulatory,regulatory,regulatory,regulatory,ADJ,True,False
action,action,action,action,NOUN,True,False
",",",",",",",",PUNCT,False,False
but,but,but,but,CCONJ,True,True
should,should,should,should,VERB,True,True
be,be,be,be,AUX,True,True
one,one,one,one,NUM,True,True
of,of,of,of,ADP,True,True
multiple,multiple,multiple,multiple,ADJ,True,False
factor,factor,factor,factor,NOUN,True,False
for,for,for,for,ADP,True,True
each,each,each,each,DET,True,True
specific,specific,specific,specific,ADJ,True,False
service,service,service,service,NOUN,True,False
and,and,and,and,CCONJ,True,True
band,band,band,band,NOUN,True,False
.,.,.,.,PUNCT,False,False
license,license,license,license,PROPN,True,False
structurethe,structurethe,structurethe,structurethe,PROPN,True,False
commission,commission,commission,commission,PROPN,True,False
ask,ask,ask,ask,VERB,True,False
critical,critical,critical,critical,ADJ,True,False
question,question,question,question,NOUN,True,False
in,in,in,in,ADP,True,True
the,the,the,the,DET,True,True
pn,pn,pn,pn,NOUN,True,False
regard,regard,regard,regard,VERB,True,False
the,the,the,the,DET,True,True
requirement,requirement,requirement,requirement,NOUN,True,False
necessary,necessary,necessary,necessary,ADJ,True,False
for,for,for,for,ADP,True,True
attract,attract,attract,attract,NOUN,True,False
investment,investment,investment,investment,NOUN,True,False
to,to,to,to,ADP,True,True
a,a,a,a,DET,True,True
pal,pal,pal,pal,ADJ,True,False
model,model,model,model,NOUN,True,False
.,.,.,.,PUNCT,False,False
in,in,in,in,ADP,True,True
general,general,general,general,ADJ,True,False
",",",",",",",",PUNCT,False,False
in,in,in,in,ADP,True,True
order,order,order,order,NOUN,True,False
to,to,to,to,PART,True,True
encourage,encourage,encourage,encourage,VERB,True,False
investment,investment,investment,investment,NOUN,True,False
",",",",",",",",PUNCT,False,False
license,license,license,license,NOUN,True,False
time,time,time,time,NOUN,True,False
frame,frame,frame,frame,NOUN,True,False
should,should,should,should,VERB,True,True
be,be,be,be,AUX,True,True
long,long,long,long,ADJ,True,False
enough,enough,enough,enough,ADV,True,True
to,to,to,to,PART,True,True
permit,permit,permit,permit,VERB,True,False
an,an,an,an,DET,True,True
attractive,attractive,attractive,attractive,ADJ,True,False
return,return,return,return,NOUN,True,False
on,on,on,on,ADP,True,True
investment,investment,investment,investment,NOUN,True,False
.,.,.,.,PUNCT,False,False
the,the,the,the,DET,True,True
commission,commission,commission,commission,NOUN,True,False
also,also,also,also,ADV,True,True
seek,seek,seek,seek,VERB,True,False
comment,comment,comment,comment,NOUN,True,False
on,on,on,on,ADP,True,True
whether,whether,whether,whether,SCONJ,True,True
to,to,to,to,PART,True,True
accommodate,accommodate,accommodate,accommodate,VERB,True,False
the,the,the,the,DET,True,True
ability,ability,ability,ability,NOUN,True,False
of,of,of,of,ADP,True,True
licensee,licensee,licensee,licensee,NOUN,True,False
to,to,to,to,PART,True,True
aggregate,aggregate,aggregate,aggregate,VERB,True,False
consecutive,consecutive,consecutive,consecutive,ADJ,True,False
one,one,one,one,NUM,True,True
-,-,-,-,PUNCT,False,False
year,year,year,year,NOUN,True,False
term,term,term,term,NOUN,True,False
",",",",",",",",PUNCT,False,False
and,and,and,and,CCONJ,True,True
whether,whether,whether,whether,SCONJ,True,True
to,to,to,to,PART,True,True
offer,offer,offer,offer,VERB,True,False
multiple,multiple,multiple,multiple,ADJ,True,False
consecutive,consecutive,consecutive,consecutive,ADJ,True,False
year,year,year,year,NOUN,True,False
of,of,of,of,ADP,True,True
pal,pal,pal,pal,PROPN,True,False
right,right,right,right,ADV,True,False
simultaneously,simultaneously,simultaneously,simultaneously,ADV,True,False
.,.,.,.,PUNCT,False,False
as,as,as,as,SCONJ,True,True
note,note,note,note,NOUN,True,False
above,above,above,above,ADV,True,True
",",",",",",",",PUNCT,False,False
the,the,the,the,DET,True,True
commission,commission,commission,commission,NOUN,True,False
must,must,must,must,VERB,True,True
balance,balance,balance,balance,VERB,True,False
provide,provide,provide,provide,VERB,True,False
enough,enough,enough,enough,ADJ,True,True
certainty,certainty,certainty,certainty,NOUN,True,False
to,to,to,to,PART,True,True
attract,attract,attract,attract,VERB,True,False
investment,investment,investment,investment,NOUN,True,False
with,with,with,with,ADP,True,True
enough,enough,enough,enough,ADJ,True,True
flexibility,flexibility,flexibility,flexibility,NOUN,True,False
to,to,to,to,PART,True,True
allow,allow,allow,allow,VERB,True,False
potential,potential,potential,potential,ADJ,True,False
use,use,use,use,NOUN,True,False
case,case,case,case,NOUN,True,False
to,to,to,to,PART,True,True
evolve,evolve,evolve,evolve,VERB,True,False
.,.,.,.,PUNCT,False,False
in,in,in,in,ADP,True,True
addition,addition,addition,addition,NOUN,True,False
to,to,to,to,PART,True,True
allow,allow,allow,allow,VERB,True,False
licensee,licensee,licensee,licensee,PROPN,True,False
aggregation,aggregation,aggregation,aggregation,NOUN,True,False
and,and,and,and,CCONJ,True,True
extended,extended,extended,extended,ADJ,True,False
term,term,term,term,NOUN,True,False
",",",",",",",",PUNCT,False,False
the,the,the,the,DET,True,True
commission,commission,commission,commission,NOUN,True,False
could,could,could,could,VERB,True,True
make,make,make,make,VERB,True,True
incumbent,incumbent,incumbent,incumbent,ADJ,True,False
subject,subject,subject,subject,NOUN,True,False
to,to,to,to,ADP,True,True
a,a,a,a,DET,True,True
right,right,right,right,NOUN,True,False
of,of,of,of,ADP,True,True
first,first,first,first,ADJ,True,True
refusal,refusal,refusal,refusal,NOUN,True,False
regime,regime,regime,regime,NOUN,True,False
",",",",",",",",PUNCT,False,False
require,require,require,require,VERB,True,False
them,them,-PRON-,-pron-,PRON,True,True
to,to,to,to,ADP,True,True
either,either,either,either,CCONJ,True,True
match,match,match,match,VERB,True,False
a,a,a,a,DET,True,True
compete,compete,compete,compete,NOUN,True,False
bid,bid,bid,bid,NOUN,True,False
or,or,or,or,CCONJ,True,True
else,else,else,else,ADV,True,True
relinquish,relinquish,relinquish,relinquish,VERB,True,False
spectrum,spectrum,spectrum,spectrum,NOUN,True,False
to,to,to,to,ADP,True,True
a,a,a,a,DET,True,True
compete,compete,compete,compete,ADJ,True,False
bid,bid,bid,bid,NOUN,True,False
to,to,to,to,PART,True,True
pay,pay,pay,pay,VERB,True,False
a,a,a,a,DET,True,True
high,high,high,high,ADJ,True,False
annual,annual,annual,annual,ADJ,True,False
fee,fee,fee,fee,NOUN,True,False
.,.,.,.,PUNCT,False,False
in,in,in,in,ADP,True,True
tias,tias,tias,tias,PROPN,True,False
initial,initial,initial,initial,ADJ,True,False
comment,comment,comment,comment,NOUN,True,False
we,we,-PRON-,-pron-,PRON,True,True
observe,observe,observe,observe,VERB,True,False
that,that,that,that,SCONJ,True,True
although,although,although,although,SCONJ,True,True
the,the,the,the,DET,True,True
commission,commission,commission,commission,NOUN,True,False
appropriately,appropriately,appropriately,appropriately,ADV,True,False
request,request,request,request,VERB,True,False
costbenefit,costbenefit,costbenefit,costbenefit,NOUN,True,False
analysis,analysis,analysis,analysis,NOUN,True,False
for,for,for,for,ADP,True,True
alternative,alternative,alternative,alternative,NOUN,True,False
to,to,to,to,ADP,True,True
its,its,-PRON-,-pron-,DET,True,True
3-tier,3-tier,3-tier,3-tier,NUM,False,False
proposal,proposal,proposal,proposal,NOUN,True,False
",",",",",",",",PUNCT,False,False
no,no,no,no,DET,True,True
comparable,comparable,comparable,comparable,ADJ,True,False
costbenefit,costbenefit,costbenefit,costbenefit,NOUN,True,False
analysis,analysis,analysis,analysis,NOUN,True,False
for,for,for,for,ADP,True,True
the,the,the,the,DET,True,True
propose,propose,propose,propose,NOUN,True,False
3-tier,3-tier,3-tier,3-tier,NUM,False,False
approach,approach,approach,approach,NOUN,True,False
exist,exist,exist,exist,VERB,True,False
with,with,with,with,ADP,True,True
which,which,which,which,DET,True,True
to,to,to,to,PART,True,True
enable,enable,enable,enable,VERB,True,False
comparison,comparison,comparison,comparison,NOUN,True,False
among,among,among,among,ADP,True,True
alternative,alternative,alternative,alternative,NOUN,True,False
.,.,.,.,PUNCT,False,False
in,in,in,in,ADP,True,True
view,view,view,view,NOUN,True,False
of,of,of,of,ADP,True,True
the,the,the,the,DET,True,True
concern,concern,concern,concern,NOUN,True,False
raise,raise,raise,raise,NOUN,True,False
regard,regard,regard,regard,NOUN,True,False
the,the,the,the,DET,True,True
propose,propose,propose,propose,NOUN,True,False
3-tier,3-tier,3-tier,3-tier,NUM,False,False
approach,approach,approach,approach,NOUN,True,False
",",",",",",",",PUNCT,False,False
substantive,substantive,substantive,substantive,ADJ,True,False
datum,datum,datum,datum,NOUN,True,False
on,on,on,on,ADP,True,True
both,both,both,both,CCONJ,True,True
the,the,the,the,DET,True,True
general,general,general,general,ADJ,True,False
access,access,access,access,NOUN,True,False
and,and,and,and,CCONJ,True,True
priority,priority,priority,priority,NOUN,True,False
tier,tier,tier,tier,NOUN,True,False
seem,seem,seem,seem,VERB,True,True
all,all,all,all,DET,True,True
the,the,the,the,DET,True,True
more,more,more,more,ADV,True,True
imperative,imperative,imperative,imperative,ADJ,True,False
.,.,.,.,PUNCT,False,False
multiple,multiple,multiple,multiple,ADJ,True,False
factor,factor,factor,factor,NOUN,True,False
need,need,need,need,VERB,True,False
to,to,to,to,PART,True,True
be,be,be,be,AUX,True,True
consider,consider,consider,consider,VERB,True,False
",",",",",",",",PUNCT,False,False
include,include,include,include,VERB,True,False
impact,impact,impact,impact,NOUN,True,False
on,on,on,on,ADP,True,True
license,license,license,license,NOUN,True,False
user,user,user,user,NOUN,True,False
to,to,to,to,PART,True,True
continue,continue,continue,continue,VERB,True,False
to,to,to,to,PART,True,True
provide,provide,provide,provide,VERB,True,False
service,service,service,service,NOUN,True,False
to,to,to,to,ADP,True,True
its,its,-PRON-,-pron-,DET,True,True
customer,customer,customer,customer,NOUN,True,False
.,.,.,.,PUNCT,False,False
flexibility,flexibility,flexibility,flexibility,NOUN,True,False
should,should,should,should,VERB,True,True
permit,permit,permit,permit,VERB,True,False
market,market,market,market,NOUN,True,False
force,force,force,force,NOUN,True,False
",",",",",",",",PUNCT,False,False
rather,rather,rather,rather,ADV,True,True
than,than,than,than,SCONJ,True,True
often,often,often,often,ADV,True,True
archaic,archaic,archaic,archaic,ADJ,True,False
regulation,regulation,regulation,regulation,NOUN,True,False
",",",",",",",",PUNCT,False,False
to,to,to,to,PART,True,True
determine,determine,determine,determine,VERB,True,False
how,how,how,how,ADV,True,True
spectrum,spectrum,spectrum,spectrum,PROPN,True,False
will,will,will,will,VERB,True,True
be,be,be,be,AUX,True,True
use,use,use,use,NOUN,True,False
.,.,.,.,PUNCT,False,False
thus,thus,thus,thus,ADV,True,True
",",",",",",",",PUNCT,False,False
if,if,if,if,SCONJ,True,True
there,there,there,there,PRON,True,True
be,be,be,be,AUX,True,True
demand,demand,demand,demand,NOUN,True,False
for,for,for,for,ADP,True,True
wireless,wireless,wireless,wireless,ADJ,True,False
broadband,broadband,broadband,broadband,NOUN,True,False
",",",",",",",",PUNCT,False,False
spectrum,spectrum,spectrum,spectrum,NOUN,True,False
subject,subject,subject,subject,NOUN,True,False
to,to,to,to,ADP,True,True
a,a,a,a,DET,True,True
flexible,flexible,flexible,flexible,ADJ,True,False
use,use,use,use,NOUN,True,False
regime,regime,regime,regime,NOUN,True,False
can,can,can,can,VERB,True,True
be,be,be,be,AUX,True,True
easily,easily,easily,easily,ADV,True,False
repurpose,repurpose,repurpose,repurpose,ADJ,True,False
for,for,for,for,ADP,True,True
that,that,that,that,DET,True,True
use,use,use,use,NOUN,True,False
without,without,without,without,ADP,True,True
the,the,the,the,DET,True,True
need,need,need,need,NOUN,True,False
for,for,for,for,ADP,True,True
a,a,a,a,DET,True,True
lengthy,lengthy,lengthy,lengthy,ADJ,True,False
",",",",",",",",PUNCT,False,False
contentious,contentious,contentious,contentious,ADJ,True,False
rulemaking,rulemaking,rulemaking,rulemaking,NOUN,True,False
.,.,.,.,PUNCT,False,False
wireless,wireless,wireless,wireless,PROPN,True,False
backhaulthe,backhaulthe,backhaulthe,backhaulthe,PROPN,True,False
3.5,3.5,3.5,3.5,NUM,False,False
ghz,ghz,ghz,ghz,PROPN,True,False
band,band,band,band,NOUN,True,False
could,could,could,could,VERB,True,True
be,be,be,be,AUX,True,True
utilize,utilize,utilize,utilize,ADJ,True,False
for,for,for,for,ADP,True,True
fix,fix,fix,fix,PROPN,True,False
wireless,wireless,wireless,wireless,ADJ,True,False
broadband,broadband,broadband,broadband,NOUN,True,False
access,access,access,access,NOUN,True,False
in,in,in,in,ADP,True,True
rural,rural,rural,rural,ADJ,True,False
and,and,and,and,CCONJ,True,True
semi,semi,semi,semi,ADJ,True,False
-,-,-,-,ADJ,False,False
urban,urban,urban,urban,ADJ,True,False
area,area,area,area,NOUN,True,False
",",",",",",",",PUNCT,False,False
leverage,leverage,leverage,leverage,NOUN,True,False
outdoor,outdoor,outdoor,outdoor,ADJ,True,False
small,small,small,small,ADJ,True,False
cell,cell,cell,cell,NOUN,True,False
",",",",",",",",PUNCT,False,False
for,for,for,for,ADP,True,True
small,small,small,small,ADJ,True,False
cell,cell,cell,cell,NOUN,True,False
",",",",",",",",PUNCT,False,False
indoor,indoor,indoor,indoor,ADJ,True,False
small,small,small,small,ADJ,True,False
cell,cell,cell,cell,NOUN,True,False
",",",",",",",",PUNCT,False,False
or,or,or,or,CCONJ,True,True
perhaps,perhaps,perhaps,perhaps,ADV,True,True
even,even,even,even,ADV,True,True
macrocellular,macrocellular,macrocellular,macrocellular,ADJ,True,False
use,use,use,use,NOUN,True,False
.,.,.,.,PUNCT,False,False
where,where,where,where,ADV,True,True
technology,technology,technology,technology,NOUN,True,False
such,such,such,such,ADJ,True,True
as,as,as,as,SCONJ,True,True
dsl,dsl,dsl,dsl,NOUN,True,False
or,or,or,or,CCONJ,True,True
fiber,fiber,fiber,fiber,NOUN,True,False
-,-,-,-,PUNCT,False,False
to,to,to,to,ADP,True,True
-,-,-,-,PUNCT,False,False
the,the,the,the,DET,True,True
-,-,-,-,PUNCT,False,False
node,node,node,node,NOUN,True,False
",",",",",",",",PUNCT,False,False
curb,curb,curb,curb,NOUN,True,False
",",",",",",",",PUNCT,False,False
or,or,or,or,CCONJ,True,True
home,home,home,home,NOUN,True,False
fttx,fttx,fttx,fttx,NOUN,True,False
may,may,may,may,VERB,True,True
not,not,not,not,PART,True,True
be,be,be,be,AUX,True,True
cost,cost,cost,cost,NOUN,True,False
-,-,-,-,PUNCT,False,False
effective,effective,effective,effective,ADJ,True,False
or,or,or,or,CCONJ,True,True
feasible,feasible,feasible,feasible,ADJ,True,False
",",",",",",",",PUNCT,False,False
wireless,wireless,wireless,wireless,ADJ,True,False
solution,solution,solution,solution,NOUN,True,False
offer,offer,offer,offer,VERB,True,False
another,another,another,another,DET,True,True
tool,tool,tool,tool,NOUN,True,False
for,for,for,for,ADP,True,True
bolster,bolster,bolst,bolst,ADJ,True,False
broadband,broadband,broadband,broadband,NOUN,True,False
access,access,access,access,NOUN,True,False
.,.,.,.,PUNCT,False,False
any,any,any,any,DET,True,True
strategy,strategy,strategy,strategy,NOUN,True,False
for,for,for,for,ADP,True,True
the,the,the,the,DET,True,True
3.5,3.5,3.5,3.5,NUM,False,False
ghz,ghz,ghz,ghz,PROPN,True,False
band,band,band,band,NOUN,True,False
",",",",",",",",PUNCT,False,False
include,include,include,include,VERB,True,False
one,one,one,one,NUM,True,True
use,use,use,use,VERB,True,False
a,a,a,a,DET,True,True
pal,pal,pal,pal,ADJ,True,False
approach,approach,approach,approach,NOUN,True,False
",",",",",",",",PUNCT,False,False
need,need,need,need,VERB,True,False
to,to,to,to,PART,True,True
be,be,be,be,AUX,True,True
consistent,consistent,consistent,consistent,ADJ,True,False
with,with,with,with,ADP,True,True
facilitate,facilitate,facilitate,facilitate,NOUN,True,False
this,this,this,this,DET,True,True
use,use,use,use,NOUN,True,False
case,case,case,case,NOUN,True,False
.,.,.,.,PUNCT,False,False
localized,localized,localized,localized,ADJ,True,False
critical,critical,critical,critical,ADJ,True,False
access,access,access,access,NOUN,True,False
usethe,usethe,usethe,usethe,PROPN,True,False
commission,commission,commission,commission,PROPN,True,False
seek,seek,seek,seek,VERB,True,False
comment,comment,comment,comment,NOUN,True,False
on,on,on,on,ADP,True,True
the,the,the,the,DET,True,True
proposal,proposal,proposal,proposal,NOUN,True,False
that,that,that,that,DET,True,True
support,support,support,support,VERB,True,False
localize,localize,localize,localize,VERB,True,False
",",",",",",",",PUNCT,False,False
protect,protect,protect,protect,VERB,True,False
spectrum,spectrum,spectrum,spectrum,NOUN,True,False
access,access,access,access,NOUN,True,False
by,by,by,by,ADP,True,True
entity,entity,entity,entity,NOUN,True,False
with,with,with,with,ADP,True,True
a,a,a,a,DET,True,True
specialized,specialized,specialized,specialized,ADJ,True,False
need,need,need,need,NOUN,True,False
for,for,for,for,ADP,True,True
reliable,reliable,reliable,reliable,ADJ,True,False
",",",",",",",",PUNCT,False,False
interference,interference,interference,interference,NOUN,True,False
protect,protect,protect,protect,NOUN,True,False
spectrum,spectrum,spectrum,spectrum,NOUN,True,False
access,access,access,access,NOUN,True,False
.,.,.,.,PUNCT,False,False
these,these,these,these,DET,True,True
qualified,qualified,qualified,qualified,ADJ,True,False
critical,critical,critical,critical,ADJ,True,False
access,access,access,access,NOUN,True,False
facility,facility,facility,facility,NOUN,True,False
e.g.,e.g.,e.g.,e.g.,ADV,False,False
",",",",",",",",PUNCT,False,False
hospital,hospital,hospital,hospital,NOUN,True,False
generally,generally,generally,generally,ADV,True,False
only,only,only,only,ADV,True,True
need,need,need,need,VERB,True,False
access,access,access,access,NOUN,True,False
within,within,within,within,ADP,True,True
specific,specific,specific,specific,ADJ,True,False
building,building,building,building,NOUN,True,False
and,and,and,and,CCONJ,True,True
may,may,may,may,VERB,True,True
not,not,not,not,PART,True,True
require,require,require,require,VERB,True,False
a,a,a,a,DET,True,True
full,full,full,full,ADJ,True,True
census,census,census,census,NOUN,True,False
tract,tract,tract,tract,NOUN,True,False
.,.,.,.,PUNCT,False,False
a,a,a,a,DET,True,True
target,target,target,target,NOUN,True,False
",",",",",",",",PUNCT,False,False
geography,geography,geography,geography,NOUN,True,False
specific,specific,specific,specific,ADJ,True,False
approach,approach,approach,approach,NOUN,True,False
have,have,have,have,AUX,True,True
appeal,appeal,appeal,appeal,NOUN,True,False
over,over,over,over,ADP,True,True
a,a,a,a,DET,True,True
separate,separate,separate,separate,ADJ,True,False
special,special,special,special,ADJ,True,False
privileged,privileged,privileged,privileged,ADJ,True,False
accessing,accessing,accessing,accessing,NOUN,True,False
approach,approach,approach,approach,NOUN,True,False
.,.,.,.,PUNCT,False,False
the,the,the,the,DET,True,True
commission,commission,commission,commission,NOUN,True,False
should,should,should,should,VERB,True,True
not,not,not,not,PART,True,True
prescribe,prescribe,prescribe,prescribe,VERB,True,False
an,an,an,an,DET,True,True
arbitrary,arbitrary,arbitrary,arbitrary,ADJ,True,False
class,class,class,class,NOUN,True,False
of,of,of,of,ADP,True,True
entity,entity,entity,entity,NOUN,True,False
that,that,that,that,DET,True,True
be,be,be,be,VERB,True,True
eligible,eligible,eligible,eligible,ADJ,True,False
for,for,for,for,ADP,True,True
priority,priority,priority,priority,NOUN,True,False
use,use,use,use,NOUN,True,False
of,of,of,of,ADP,True,True
the,the,the,the,DET,True,True
band,band,band,band,NOUN,True,False
",",",",",",",",PUNCT,False,False
but,but,but,but,CCONJ,True,True
rather,rather,rather,rather,ADV,True,True
should,should,should,should,VERB,True,True
permit,permit,permit,permit,VERB,True,False
any,any,any,any,DET,True,True
entity,entity,entity,entity,NOUN,True,False
that,that,that,that,DET,True,True
desire,desire,desire,desire,VERB,True,False
a,a,a,a,DET,True,True
high,high,high,high,ADJ,True,False
-,-,-,-,PUNCT,False,False
quality,quality,quality,quality,NOUN,True,False
of,of,of,of,ADP,True,True
service,service,service,service,NOUN,True,False
in,in,in,in,ADP,True,True
the,the,the,the,DET,True,True
band,band,band,band,NOUN,True,False
to,to,to,to,PART,True,True
seek,seek,seek,seek,VERB,True,False
that,that,that,that,SCONJ,True,True
priority,priority,priority,priority,NOUN,True,False
access,access,access,access,NOUN,True,False
.,.,.,.,PUNCT,False,False
the,the,the,the,DET,True,True
commission,commission,commission,commission,NOUN,True,False
should,should,should,should,VERB,True,True
allow,allow,allow,allow,VERB,True,False
the,the,the,the,DET,True,True
market,market,market,market,NOUN,True,False
to,to,to,to,PART,True,True
unfold,unfold,unfold,unfold,VERB,True,False
without,without,without,without,ADP,True,True
place,place,place,place,NOUN,True,False
undue,undue,undue,undue,ADJ,True,False
restriction,restriction,restriction,restriction,NOUN,True,False
on,on,on,on,ADP,True,True
use,use,use,use,NOUN,True,False
of,of,of,of,ADP,True,True
the,the,the,the,DET,True,True
band,band,band,band,NOUN,True,False
and,and,and,and,CCONJ,True,True
formulate,formulate,formulate,formulate,ADJ,True,False
rule,rule,rule,rule,NOUN,True,False
that,that,that,that,DET,True,True
allow,allow,allow,allow,VERB,True,False
experimentation,experimentation,experimentation,experimentation,NOUN,True,False
with,with,with,with,ADP,True,True
multiple,multiple,multiple,multiple,ADJ,True,False
use,use,use,use,NOUN,True,False
case,case,case,case,NOUN,True,False
.,.,.,.,PUNCT,False,False
band,band,band,band,PROPN,True,False
planthe,planthe,planthe,planthe,PROPN,True,False
commissions,commissions,commission,commission,NOUN,True,False
pn,pn,pn,pn,NOUN,True,False
propose,propose,propose,propose,VERB,True,False
10,10,10,10,NUM,False,False
mhz,mhz,mhz,mhz,PROPN,True,False
unpaired,unpaired,unpaired,unpaired,ADJ,True,False
channel,channel,channel,channel,NOUN,True,False
as,as,as,as,SCONJ,True,True
a,a,a,a,DET,True,True
pal,pal,pal,pal,ADJ,True,False
standard,standard,standard,standard,NOUN,True,False
.,.,.,.,PUNCT,False,False
tia,tia,tia,tia,PROPN,True,False
note,note,note,note,VERB,True,False
that,that,that,that,SCONJ,True,True
other,other,other,other,ADJ,True,True
commenter,commenter,commenter,commenter,NOUN,True,False
suggest,suggest,suggest,suggest,VERB,True,False
that,that,that,that,SCONJ,True,True
the,the,the,the,DET,True,True
3.5,3.5,3.5,3.5,NUM,False,False
ghz,ghz,ghz,ghz,PROPN,True,False
band,band,band,band,NOUN,True,False
use,use,use,use,VERB,True,False
20,20,20,20,NUM,False,False
mhz,mhz,mhz,mhz,NOUN,True,False
-,-,-,-,PUNCT,False,False
wide,wide,wide,wide,ADJ,True,False
channel,channel,channel,channel,NOUN,True,False
and,and,and,and,CCONJ,True,True
that,that,that,that,SCONJ,True,True
",",",",",",",",PUNCT,False,False
because,because,because,because,SCONJ,True,True
of,of,of,of,ADP,True,True
unique,unique,unique,unique,ADJ,True,False
factor,factor,factor,factor,NOUN,True,False
arise,arise,arise,arise,VERB,True,False
from,from,from,from,ADP,True,True
the,the,the,the,DET,True,True
presence,presence,presence,presence,NOUN,True,False
of,of,of,of,ADP,True,True
government,government,government,government,NOUN,True,False
incumbent,incumbent,incumbent,incumbent,NOUN,True,False
",",",",",",",",PUNCT,False,False
tdd,tdd,tdd,tdd,NOUN,True,False
time,time,time,time,NOUN,True,False
-,-,-,-,PUNCT,False,False
division,division,division,division,NOUN,True,False
-,-,-,-,PUNCT,False,False
duplex,duplex,duplex,duplex,NOUN,True,False
technology,technology,technology,technology,NOUN,True,False
would,would,would,would,VERB,True,True
be,be,be,be,AUX,True,True
prefer,prefer,prefer,prefer,VERB,True,False
for,for,for,for,ADP,True,True
this,this,this,this,DET,True,True
band,band,band,band,NOUN,True,False
.,.,.,.,PUNCT,False,False
this,this,this,this,DET,True,True
approach,approach,approach,approach,NOUN,True,False
may,may,may,may,VERB,True,True
have,have,have,have,AUX,True,True
have,have,have,have,AUX,True,True
potential,potential,potential,potential,ADJ,True,False
to,to,to,to,ADP,True,True
the,the,the,the,DET,True,True
extent,extent,extent,extent,NOUN,True,False
that,that,that,that,SCONJ,True,True
10,10,10,10,NUM,False,False
mhz,mhz,mhz,mhz,NOUN,True,False
channel,channel,channel,channel,NOUN,True,False
can,can,can,can,VERB,True,True
be,be,be,be,AUX,True,True
readily,readily,readily,readily,ADV,True,False
aggregate,aggregate,aggregate,aggregate,ADJ,True,False
into,into,into,into,ADP,True,True
large,large,large,large,ADJ,True,False
block,block,block,block,NOUN,True,False
.,.,.,.,PUNCT,False,False
as,as,as,as,SCONJ,True,True
previously,previously,previously,previously,ADV,True,False
note,note,note,note,NOUN,True,False
",",",",",",",",PUNCT,False,False
the,the,the,the,DET,True,True
presence,presence,presence,presence,NOUN,True,False
of,of,of,of,ADP,True,True
incumbent,incumbent,incumbent,incumbent,ADJ,True,False
operation,operation,operation,operation,NOUN,True,False
in,in,in,in,ADP,True,True
this,this,this,this,DET,True,True
band,band,band,band,NOUN,True,False
",",",",",",",",PUNCT,False,False
such,such,such,such,ADJ,True,True
as,as,as,as,SCONJ,True,True
the,the,the,the,DET,True,True
department,department,department,department,NOUN,True,False
ofdefense,ofdefense,ofdefense,ofdefense,NOUN,True,False
and,and,and,and,CCONJ,True,True
fss,fss,fss,fss,VERB,True,False
incumbent,incumbent,incumbent,incumbent,NOUN,True,False
",",",",",",",",PUNCT,False,False
complicate,complicate,complicate,complicate,VERB,True,False
the,the,the,the,DET,True,True
development,development,development,development,NOUN,True,False
of,of,of,of,ADP,True,True
a,a,a,a,DET,True,True
framework,framework,framework,framework,NOUN,True,False
or,or,or,or,CCONJ,True,True
system,system,system,system,NOUN,True,False
to,to,to,to,PART,True,True
permit,permit,permit,permit,VERB,True,False
additional,additional,additional,additional,ADJ,True,False
use,use,use,use,NOUN,True,False
.,.,.,.,PUNCT,False,False
as,as,as,as,SCONJ,True,True
the,the,the,the,DET,True,True
commission,commission,commission,commission,NOUN,True,False
note,note,note,note,NOUN,True,False
",",",",",",",",PUNCT,False,False
beyond,beyond,beyond,beyond,ADP,True,True
the,the,the,the,DET,True,True
bad,bad,bad,bad,ADJ,True,False
-,-,-,-,PUNCT,False,False
case,case,case,case,NOUN,True,False
exclusion,exclusion,exclusion,exclusion,NOUN,True,False
zone,zone,zone,zone,NOUN,True,False
propose,propose,propose,propose,NOUN,True,False
by,by,by,by,ADP,True,True
ntia,ntia,ntia,ntia,NOUN,True,False
in,in,in,in,ADP,True,True
their,their,-PRON-,-pron-,DET,True,True
macrocell,macrocell,macrocell,macrocell,NOUN,True,False
analysis,analysis,analysis,analysis,NOUN,True,False
",",",",",",",",PUNCT,False,False
large,large,large,large,ADJ,True,False
geographic,geographic,geographic,geographic,ADJ,True,False
area,area,area,area,NOUN,True,False
of,of,of,of,ADP,True,True
the,the,the,the,DET,True,True
country,country,country,country,NOUN,True,False
remain,remain,remain,remain,VERB,True,False
available,available,available,available,ADJ,True,False
.,.,.,.,PUNCT,False,False
these,these,these,these,DET,True,True
area,area,area,area,NOUN,True,False
could,could,could,could,VERB,True,True
all,all,all,all,DET,True,True
be,be,be,be,AUX,True,True
exclusively,exclusively,exclusively,exclusively,ADV,True,False
license,license,license,license,VERB,True,False
by,by,by,by,ADP,True,True
geographic,geographic,geographic,geographic,ADJ,True,False
area,area,area,area,NOUN,True,False
as,as,as,as,SCONJ,True,True
they,they,-PRON-,-pron-,PRON,True,True
would,would,would,would,VERB,True,True
not,not,not,not,PART,True,True
have,have,have,have,AUX,True,True
any,any,any,any,DET,True,True
encumbrance,encumbrance,encumbrance,encumbrance,NOUN,True,False
.,.,.,.,PUNCT,False,False
secondary,secondary,secondary,secondary,ADJ,True,False
markets,markets,market,market,NOUN,True,False
.,.,.,.,PUNCT,False,False
the,the,the,the,DET,True,True
commission,commission,commission,commission,NOUN,True,False
should,should,should,should,VERB,True,True
apply,apply,apply,apply,VERB,True,False
the,the,the,the,DET,True,True
secondary,secondary,secondary,secondary,ADJ,True,False
market,market,market,market,NOUN,True,False
rule,rule,rule,rule,NOUN,True,False
to,to,to,to,ADP,True,True
the,the,the,the,DET,True,True
3550,3550,3550,3550,NUM,False,False
-,-,-,-,SYM,False,False
3650,3650,3650,3650,NUM,False,False
band,band,band,band,NOUN,True,False
and,and,and,and,CCONJ,True,True
permit,permit,permit,permit,VERB,True,False
the,the,the,the,DET,True,True
market,market,market,market,NOUN,True,False
to,to,to,to,PART,True,True
decide,decide,decide,decide,VERB,True,False
on,on,on,on,ADP,True,True
the,the,the,the,DET,True,True
value,value,value,value,NOUN,True,False
of,of,of,of,ADP,True,True
various,various,various,various,ADJ,True,True
leasing,leasing,leasing,leasing,NOUN,True,False
arrangement,arrangement,arrangement,arrangement,NOUN,True,False
define,define,define,define,NOUN,True,False
by,by,by,by,ADP,True,True
those,those,those,those,DET,True,True
rule,rule,rule,rule,NOUN,True,False
.,.,.,.,PUNCT,False,False
further,further,far,far,ADV,True,True
",",",",",",",",PUNCT,False,False
the,the,the,the,DET,True,True
commission,commission,commission,commission,NOUN,True,False
should,should,should,should,VERB,True,True
clarify,clarify,clarify,clarify,VERB,True,False
if,if,if,if,SCONJ,True,True
change,change,change,change,NOUN,True,False
need,need,need,need,VERB,True,False
to,to,to,to,PART,True,True
be,be,be,be,AUX,True,True
make,make,make,make,VERB,True,True
to,to,to,to,ADP,True,True
the,the,the,the,DET,True,True
incumbent,incumbent,incumbent,incumbent,ADJ,True,False
service,service,service,service,NOUN,True,False
classification,classification,classification,classification,NOUN,True,False
in,in,in,in,ADP,True,True
particular,particular,particular,particular,ADJ,True,False
",",",",",",",",PUNCT,False,False
federal,federal,federal,federal,ADJ,True,False
incumbent,incumbent,incumbent,incumbent,NOUN,True,False
in,in,in,in,ADP,True,True
order,order,order,order,NOUN,True,False
for,for,for,for,ADP,True,True
mobile,mobile,mobile,mobile,ADJ,True,False
broadband,broadband,broadband,broadband,NOUN,True,False
to,to,to,to,PART,True,True
be,be,be,be,AUX,True,True
deploy,deploy,deploy,deploy,VERB,True,False
under,under,under,under,ADP,True,True
such,such,such,such,ADJ,True,True
leasing,leasing,leasing,leasing,NOUN,True,False
arrangement,arrangement,arrangement,arrangement,NOUN,True,False
",",",",",",",",PUNCT,False,False
and,and,and,and,CCONJ,True,True
make,make,make,make,VERB,True,True
such,such,such,such,ADJ,True,True
change,change,change,change,NOUN,True,False
as,as,as,as,SCONJ,True,True
require,require,require,require,NOUN,True,False
.,.,.,.,PUNCT,False,False
secondary,secondary,secondary,secondary,ADJ,True,False
leasing,leasing,leasing,leasing,NOUN,True,False
arrangement,arrangement,arrangement,arrangement,NOUN,True,False
",",",",",",",",PUNCT,False,False
use,use,use,use,VERB,True,False
the,the,the,the,DET,True,True
commissions,commissions,commission,commission,NOUN,True,False
secondary,secondary,secondary,secondary,ADJ,True,False
market,market,market,market,NOUN,True,False
rule,rule,rule,rule,NOUN,True,False
",",",",",",",",PUNCT,False,False
will,will,will,will,VERB,True,True
allow,allow,allow,allow,VERB,True,False
provider,provider,provider,provider,NOUN,True,False
to,to,to,to,PART,True,True
adjust,adjust,adjust,adjust,VERB,True,False
to,to,to,to,PART,True,True
change,change,change,change,VERB,True,False
market,market,market,market,NOUN,True,False
circumstance,circumstance,circumstance,circumstance,NOUN,True,False
in,in,in,in,ADP,True,True
order,order,order,order,NOUN,True,False
to,to,to,to,PART,True,True
enhance,enhance,enhance,enhance,VERB,True,False
their,their,-PRON-,-pron-,DET,True,True
service,service,service,service,NOUN,True,False
quality,quality,quality,quality,NOUN,True,False
.,.,.,.,PUNCT,False,False
market,market,market,market,NOUN,True,False
can,can,can,can,VERB,True,True
efficiently,efficiently,efficiently,efficiently,ADV,True,False
allocate,allocate,allocate,allocate,VERB,True,False
spectrum,spectrum,spectrum,spectrum,NOUN,True,False
in,in,in,in,ADP,True,True
response,response,response,response,NOUN,True,False
to,to,to,to,PART,True,True
emerge,emerge,emerge,emerge,VERB,True,False
technology,technology,technology,technology,NOUN,True,False
",",",",",",",",PUNCT,False,False
and,and,and,and,CCONJ,True,True
spectrum,spectrum,spectrum,spectrum,NOUN,True,False
right,right,right,right,ADV,True,False
should,should,should,should,VERB,True,True
be,be,be,be,AUX,True,True
flexible,flexible,flexible,flexible,ADJ,True,False
.,.,.,.,PUNCT,False,False
tia,tia,tia,tia,PROPN,True,False
note,note,note,note,NOUN,True,False
that,that,that,that,SCONJ,True,True
in,in,in,in,ADP,True,True
general,general,general,general,ADJ,True,False
",",",",",",",",PUNCT,False,False
exclusive,exclusive,exclusive,exclusive,ADJ,True,False
licensed,licensed,licensed,licensed,ADJ,True,False
spectrum,spectrum,spectrum,spectrum,PROPN,True,False
model,model,model,model,NOUN,True,False
offer,offer,offer,offer,VERB,True,False
a,a,a,a,DET,True,True
superior,superior,superior,superior,ADJ,True,False
user,user,user,user,NOUN,True,False
experience,experience,experience,experience,NOUN,True,False
base,base,base,base,NOUN,True,False
on,on,on,on,ADP,True,True
predictable,predictable,predictable,predictable,ADJ,True,False
service,service,service,service,NOUN,True,False
quality,quality,quality,quality,NOUN,True,False
",",",",",",",",PUNCT,False,False
compare,compare,compare,compare,VERB,True,False
to,to,to,to,ADP,True,True
the,the,the,the,DET,True,True
propose,propose,propose,propose,NOUN,True,False
license,license,license,license,NOUN,True,False
-,-,-,-,PUNCT,False,False
by,by,by,by,ADP,True,True
-,-,-,-,PUNCT,False,False
rule,rule,rule,rule,NOUN,True,False
approach,approach,approach,approach,NOUN,True,False
.,.,.,.,PUNCT,False,False
we,we,-PRON-,-pron-,PRON,True,True
note,note,note,note,VERB,True,False
that,that,that,that,SCONJ,True,True
generally,generally,generally,generally,ADV,True,False
these,these,these,these,DET,True,True
type,type,type,type,NOUN,True,False
of,of,of,of,ADP,True,True
service,service,service,service,NOUN,True,False
can,can,can,can,VERB,True,True
only,only,only,only,ADV,True,True
be,be,be,be,AUX,True,True
consider,consider,consider,consider,VERB,True,False
a,a,a,a,DET,True,True
complement,complement,complement,complement,NOUN,True,False
to,to,to,to,PART,True,True
license,license,license,license,NOUN,True,False
spectrum,spectrum,spectrum,spectrum,NOUN,True,False
.,.,.,.,PUNCT,False,False
for,for,for,for,ADP,True,True
example,example,example,example,NOUN,True,False
",",",",",",",",PUNCT,False,False
good,good,good,good,ADJ,True,False
effort,effort,effort,effort,NOUN,True,False
service,service,service,service,NOUN,True,False
be,be,be,be,AUX,True,True
unable,unable,unable,unable,ADJ,True,False
to,to,to,to,PART,True,True
support,support,support,support,VERB,True,False
commission,commission,commission,commission,PROPN,True,False
service,service,service,service,NOUN,True,False
expectation,expectation,expectation,expectation,NOUN,True,False
",",",",",",",",PUNCT,False,False
as,as,as,as,SCONJ,True,True
envision,envision,envision,envision,NOUN,True,False
by,by,by,by,ADP,True,True
the,the,the,the,DET,True,True
national,national,national,national,PROPN,True,False
broadband,broadband,broadband,broadband,NOUN,True,False
plan,plan,plan,plan,NOUN,True,False
.,.,.,.,PUNCT,False,False
conclusionfor,conclusionfor,conclusionfor,conclusionfor,VERB,True,False
the,the,the,the,DET,True,True
foregoing,foregoing,foregoing,foregoing,NOUN,True,False
reason,reason,reason,reason,NOUN,True,False
",",",",",",",",PUNCT,False,False
tia,tia,tia,tia,PROPN,True,False
urge,urge,urge,urge,VERB,True,False
the,the,the,the,DET,True,True
commission,commission,commission,commission,NOUN,True,False
to,to,to,to,PART,True,True
adopt,adopt,adopt,adopt,VERB,True,False
policy,policy,policy,policy,NOUN,True,False
consistent,consistent,consistent,consistent,ADJ,True,False
with,with,with,with,ADP,True,True
the,the,the,the,DET,True,True
recommendation,recommendation,recommendation,recommendation,NOUN,True,False
above,above,above,above,ADV,True,True
.,.,.,.,PUNCT,False,False
