text,text_lower,lemma,lemma_lower,part_of_speech,is_alphabet,is_stopword
national,national,national,national,PROPN,True,False
public,public,public,public,PROPN,True,False
radio,radio,radio,radio,PROPN,True,False
",",",",",",",",PUNCT,False,False
inc,inc,inc,inc,PROPN,True,False
.,.,.,.,PROPN,False,False
npr,npr,npr,npr,PROPN,True,False
hereby,hereby,hereby,hereby,PROPN,True,True
respond,respond,respond,respond,PROPN,True,False
to,to,to,to,ADP,True,True
the,the,the,the,DET,True,True
public,public,public,public,ADJ,True,False
notice,notice,notice,notice,NOUN,True,False
in,in,in,in,ADP,True,True
the,the,the,the,DET,True,True
above,above,above,above,ADJ,True,True
-,-,-,-,PUNCT,False,False
caption,caption,caption,caption,NOUN,True,False
proceeding,proceeding,proceeding,proceeding,NOUN,True,False
seek,seek,seek,seek,VERB,True,False
comment,comment,comment,comment,NOUN,True,False
on,on,on,on,ADP,True,True
licensing,licensing,license,license,VERB,True,False
model,model,model,model,NOUN,True,False
and,and,and,and,CCONJ,True,True
technical,technical,technical,technical,ADJ,True,False
requirement,requirement,requirement,requirement,NOUN,True,False
for,for,for,for,ADP,True,True
use,use,use,use,NOUN,True,False
spectrum,spectrum,spectrum,spectrum,NOUN,True,False
in,in,in,in,ADP,True,True
the,the,the,the,DET,True,True
3550,3550,3550,3550,NUM,False,False
-,-,-,-,SYM,False,False
3650,3650,3650,3650,NUM,False,False
mhz,mhz,mhz,mhz,PROPN,True,False
3.5,3.5,3.5,3.5,NUM,False,False
ghz,ghz,ghz,ghz,PROPN,True,False
band,band,band,band,NOUN,True,False
for,for,for,for,ADP,True,True
a,a,a,a,DET,True,True
propose,propose,propose,propose,NOUN,True,False
citizens,citizens,citizen,citizen,NOUN,True,False
broadband,broadband,broadband,broadband,NOUN,True,False
service,service,service,service,NOUN,True,False
cbs.npr,cbs.npr,cbs.npr,cbs.npr,VERB,False,False
be,be,be,be,AUX,True,True
a,a,a,a,DET,True,True
non,non,non,non,ADJ,True,False
-,-,-,-,ADJ,False,False
profit,profit,profit,profit,ADJ,True,False
membership,membership,membership,membership,NOUN,True,False
corporation,corporation,corporation,corporation,NOUN,True,False
that,that,that,that,DET,True,True
produce,produce,produce,produce,VERB,True,False
and,and,and,and,CCONJ,True,True
distribute,distribute,distribute,distribute,VERB,True,False
noncommercial,noncommercial,noncommercial,noncommercial,ADJ,True,False
educational,educational,educational,educational,ADJ,True,False
nce,nce,nce,nce,NOUN,True,False
programming,programming,program,program,VERB,True,False
through,through,through,through,ADP,True,True
975,975,975,975,NUM,False,False
public,public,public,public,ADJ,True,False
radio,radio,radio,radio,NOUN,True,False
station,station,station,station,NOUN,True,False
nationwide,nationwide,nationwide,nationwide,ADV,True,False
.,.,.,.,PUNCT,False,False
in,in,in,in,ADP,True,True
addition,addition,addition,addition,NOUN,True,False
to,to,to,to,ADP,True,True
broadcasting,broadcasting,broadcasting,broadcasting,PROPN,True,False
award,award,award,award,PROPN,True,False
win,win,win,win,PROPN,True,False
npr,npr,npr,npr,PROPN,True,False
programming,programming,programming,programming,PROPN,True,False
",",",",",",",",PUNCT,False,False
include,include,include,include,VERB,True,False
all,all,all,all,DET,True,True
thing,thing,thing,thing,NOUN,True,False
consider,consider,consider,consider,NOUN,True,False
and,and,and,and,CCONJ,True,True
morning,morning,morning,morning,NOUN,True,False
edition,edition,edition,edition,NOUN,True,False
",",",",",",",",PUNCT,False,False
npr,npr,npr,npr,PROPN,True,False
member,member,member,member,NOUN,True,False
station,station,station,station,NOUN,True,False
be,be,be,be,AUX,True,True
themselves,themselves,-PRON-,-pron-,PRON,True,True
significant,significant,significant,significant,ADJ,True,False
program,program,program,program,NOUN,True,False
producer,producer,producer,producer,NOUN,True,False
and,and,and,and,CCONJ,True,True
community,community,community,community,NOUN,True,False
institution,institution,institution,institution,NOUN,True,False
.,.,.,.,PUNCT,False,False
npr,npr,npr,npr,PROPN,True,False
also,also,also,also,ADV,True,True
operate,operate,operate,operate,VERB,True,False
the,the,the,the,DET,True,True
public,public,public,public,ADJ,True,False
radio,radio,radio,radio,NOUN,True,False
satellite,satellite,satellite,satellite,NOUN,True,False
system,system,system,system,NOUN,True,False
prss,prss,prss,prss,NOUN,True,False
",",",",",",",",PUNCT,False,False
which,which,which,which,DET,True,True
enable,enable,enable,enable,VERB,True,False
a,a,a,a,DET,True,True
broad,broad,broad,broad,ADJ,True,False
and,and,and,and,CCONJ,True,True
diverse,diverse,diverse,diverse,ADJ,True,False
array,array,array,array,NOUN,True,False
of,of,of,of,ADP,True,True
public,public,public,public,ADJ,True,False
radio,radio,radio,radio,NOUN,True,False
program,program,program,program,NOUN,True,False
producer,producer,producer,producer,NOUN,True,False
and,and,and,and,CCONJ,True,True
radio,radio,radio,radio,NOUN,True,False
station,station,station,station,NOUN,True,False
to,to,to,to,PART,True,True
distribute,distribute,distribute,distribute,VERB,True,False
programming,programming,programming,programming,NOUN,True,False
for,for,for,for,ADP,True,True
broadcast,broadcast,broadcast,broadcast,NOUN,True,False
.,.,.,.,PUNCT,False,False
visionary,visionary,visionary,visionary,ADJ,True,False
pioneer,pioneer,pioneer,pioneer,NOUN,True,False
at,at,at,at,ADP,True,True
npr,npr,npr,npr,PROPN,True,False
establish,establish,establish,establish,VERB,True,False
this,this,this,this,DET,True,True
first,first,first,first,ADJ,True,True
of,of,of,of,ADP,True,True
its,its,-PRON-,-pron-,DET,True,True
kind,kind,kind,kind,NOUN,True,False
satellite,satellite,satellite,satellite,NOUN,True,False
-,-,-,-,PUNCT,False,False
base,base,base,base,NOUN,True,False
interconnection,interconnection,interconnection,interconnection,NOUN,True,False
system,system,system,system,NOUN,True,False
in,in,in,in,ADP,True,True
the,the,the,the,DET,True,True
late,late,late,late,ADJ,True,False
1970,1970,1970,1970,NUM,False,False
.,.,.,.,PUNCT,False,False
today,today,today,today,NOUN,True,False
",",",",",",",",PUNCT,False,False
all,all,all,all,DET,True,True
public,public,public,public,ADJ,True,False
radiolistener,radiolistener,radiolistener,radiolistener,NOUN,True,False
",",",",",",",",PUNCT,False,False
number,number,number,number,NOUN,True,False
36,36,36,36,NUM,False,False
million,million,million,million,NUM,True,False
on,on,on,on,ADP,True,True
a,a,a,a,DET,True,True
weekly,weekly,weekly,weekly,ADJ,True,False
basis,basis,basis,basis,NOUN,True,False
",",",",",",",",PUNCT,False,False
depend,depend,depend,depend,VERB,True,False
on,on,on,on,ADP,True,True
the,the,the,the,DET,True,True
prss,prss,prss,prss,NOUN,True,False
for,for,for,for,ADP,True,True
access,access,access,access,NOUN,True,False
to,to,to,to,ADP,True,True
public,public,public,public,ADJ,True,False
radio,radio,radio,radio,NOUN,True,False
programming,programming,programming,programming,NOUN,True,False
.,.,.,.,PUNCT,False,False
npr,npr,npr,npr,PROPN,True,False
and,and,and,and,CCONJ,True,True
public,public,public,public,ADJ,True,False
radio,radio,radio,radio,NOUN,True,False
be,be,be,be,AUX,True,True
particularly,particularly,particularly,particularly,ADV,True,False
affect,affect,affect,affect,VERB,True,False
by,by,by,by,ADP,True,True
the,the,the,the,DET,True,True
cbs,cbs,cbs,cbs,PROPN,True,False
proposal,proposal,proposal,proposal,NOUN,True,False
because,because,because,because,SCONJ,True,True
distribution,distribution,distribution,distribution,NOUN,True,False
of,of,of,of,ADP,True,True
public,public,public,public,ADJ,True,False
radio,radio,radio,radio,NOUN,True,False
audio,audio,audio,audio,NOUN,True,False
content,content,content,content,NOUN,True,False
via,via,via,via,ADP,True,True
the,the,the,the,DET,True,True
prss,prss,prss,prss,NOUN,True,False
depend,depend,depend,depend,VERB,True,False
on,on,on,on,ADP,True,True
continued,continued,continued,continued,ADJ,True,False
use,use,use,use,NOUN,True,False
of,of,of,of,ADP,True,True
spectrum,spectrum,spectrum,spectrum,NOUN,True,False
adjacent,adjacent,adjacent,adjacent,ADJ,True,False
to,to,to,to,ADP,True,True
the3550,the3550,the3550,the3550,PROPN,False,False
-,-,-,-,PUNCT,False,False
3650,3650,3650,3650,NUM,False,False
mhz,mhz,mhz,mhz,PROPN,True,False
band,band,band,band,NOUN,True,False
propose,propose,propose,propose,NOUN,True,False
for,for,for,for,ADP,True,True
cbs,cbs,cbs,cbs,PROPN,True,False
use,use,use,use,PROPN,True,False
.,.,.,.,PUNCT,False,False
public,public,public,public,ADJ,True,False
radio,radio,radio,radio,NOUN,True,False
station,station,station,station,NOUN,True,False
throughout,throughout,throughout,throughout,ADP,True,True
the,the,the,the,DET,True,True
united,united,united,united,PROPN,True,False
states,states,states,states,PROPN,True,False
utilize,utilize,utilize,utilize,VERB,True,False
prss,prss,prss,prss,NOUN,True,False
-,-,-,-,PUNCT,False,False
interconnect,interconnect,interconnect,interconnect,NOUN,True,False
receive,receive,receive,receive,NOUN,True,False
-,-,-,-,PUNCT,False,False
only,only,only,only,ADJ,True,True
and,and,and,and,CCONJ,True,True
transmit,transmit,transmit,transmit,VERB,True,False
-,-,-,-,PUNCT,False,False
and,and,and,and,CCONJ,True,True
-,-,-,-,PUNCT,False,False
receive,receive,receive,receive,VERB,True,False
earth,earth,earth,earth,NOUN,True,False
terminal,terminal,terminal,terminal,NOUN,True,False
to,to,to,to,PART,True,True
distribute,distribute,distribute,distribute,VERB,True,False
and,and,and,and,CCONJ,True,True
obtain,obtain,obtain,obtain,VERB,True,False
prss,prss,prss,prss,NOUN,True,False
distribute,distribute,distribute,distribute,VERB,True,False
content,content,content,content,NOUN,True,False
for,for,for,for,ADP,True,True
over,over,over,over,ADP,True,True
-,-,-,-,PUNCT,False,False
the,the,the,the,DET,True,True
-,-,-,-,PUNCT,False,False
air,air,air,air,NOUN,True,False
broadcast,broadcast,broadcast,broadcast,NOUN,True,False
",",",",",",",",PUNCT,False,False
and,and,and,and,CCONJ,True,True
these,these,these,these,DET,True,True
earth,earth,earth,earth,NOUN,True,False
terminal,terminal,terminal,terminal,NOUN,True,False
all,all,all,all,DET,True,True
use,use,use,use,VERB,True,False
the,the,the,the,DET,True,True
3700,3700,3700,3700,NUM,False,False
-,-,-,-,SYM,False,False
4200,4200,4200,4200,NUM,False,False
mhz,mhz,mhz,mhz,PROPN,True,False
",",",",",",",",PUNCT,False,False
or,or,or,or,CCONJ,True,True
c,c,c,c,PROPN,True,False
-,-,-,-,PUNCT,False,False
band,band,band,band,NOUN,True,False
",",",",",",",",PUNCT,False,False
spectrum,spectrum,spectrum,spectrum,PROPN,True,False
.,.,.,.,PUNCT,False,False
indeed,indeed,indeed,indeed,ADV,True,True
",",",",",",",",PUNCT,False,False
npr,npr,npr,npr,PROPN,True,False
submit,submit,submit,submit,PROPN,True,False
comment,comment,comment,comment,NOUN,True,False
in,in,in,in,ADP,True,True
response,response,response,response,NOUN,True,False
to,to,to,to,ADP,True,True
the,the,the,the,DET,True,True
notice,notice,notice,notice,NOUN,True,False
of,of,of,of,ADP,True,True
propose,propose,propose,propose,NOUN,True,False
rulemaking,rulemaking,rulemaking,rulemaking,NOUN,True,False
nprm,nprm,nprm,nprm,NOUN,True,False
in,in,in,in,ADP,True,True
this,this,this,this,DET,True,True
proceeding,proceeding,proceeding,proceeding,NOUN,True,False
specifically,specifically,specifically,specifically,ADV,True,False
because,because,because,because,SCONJ,True,True
the,the,the,the,DET,True,True
nprm,nprm,nprm,nprm,NOUN,True,False
lack,lack,lack,lack,VERB,True,False
the,the,the,the,DET,True,True
technical,technical,technical,technical,ADJ,True,False
datum,datum,datum,datum,NOUN,True,False
or,or,or,or,CCONJ,True,True
analysis,analysis,analysis,analysis,NOUN,True,False
necessary,necessary,necessary,necessary,ADJ,True,False
to,to,to,to,PART,True,True
assess,assess,assess,assess,VERB,True,False
the,the,the,the,DET,True,True
potential,potential,potential,potential,NOUN,True,False
for,for,for,for,ADP,True,True
interference,interference,interference,interference,NOUN,True,False
to,to,to,to,PART,True,True
exist,exist,exist,exist,VERB,True,False
use,use,use,use,NOUN,True,False
of,of,of,of,ADP,True,True
adjacent,adjacent,adjacent,adjacent,ADJ,True,False
spectrum,spectrum,spectrum,spectrum,NOUN,True,False
and,and,and,and,CCONJ,True,True
to,to,to,to,PART,True,True
assure,assure,assure,assure,VERB,True,False
adequate,adequate,adequate,adequate,ADJ,True,False
protection,protection,protection,protection,NOUN,True,False
for,for,for,for,ADP,True,True
those,those,those,those,DET,True,True
use,use,use,use,NOUN,True,False
.,.,.,.,PUNCT,False,False
npr,npr,npr,npr,PROPN,True,False
be,be,be,be,AUX,True,True
continue,continue,continue,continue,VERB,True,False
to,to,to,to,PART,True,True
assess,assess,assess,assess,VERB,True,False
the,the,the,the,DET,True,True
potential,potential,potential,potential,NOUN,True,False
for,for,for,for,ADP,True,True
interference,interference,interference,interference,NOUN,True,False
to,to,to,to,PART,True,True
prss,prss,prss,prss,VERB,True,False
earth,earth,earth,earth,NOUN,True,False
terminal,terminal,terminal,terminal,NOUN,True,False
",",",",",",",",PUNCT,False,False
include,include,include,include,VERB,True,False
through,through,through,through,ADP,True,True
lab,lab,lab,lab,NOUN,True,False
and,and,and,and,CCONJ,True,True
field,field,field,field,NOUN,True,False
test,test,test,test,NOUN,True,False
.,.,.,.,PUNCT,False,False
npr,npr,npr,npr,PROPN,True,False
be,be,be,be,AUX,True,True
therefore,therefore,therefore,therefore,ADV,True,True
concern,concern,concern,concern,NOUN,True,False
by,by,by,by,ADP,True,True
the,the,the,the,DET,True,True
commissions,commissions,commission,commission,NOUN,True,False
apparent,apparent,apparent,apparent,ADJ,True,False
decision,decision,decision,decision,NOUN,True,False
to,to,to,to,PART,True,True
move,move,move,move,VERB,True,True
forward,forward,forward,forward,ADV,True,False
with,with,with,with,ADP,True,True
develop,develop,develop,develop,VERB,True,False
an,an,an,an,DET,True,True
administrative,administrative,administrative,administrative,ADJ,True,False
process,process,process,process,NOUN,True,False
to,to,to,to,PART,True,True
govern,govern,govern,govern,VERB,True,False
the,the,the,the,DET,True,True
use,use,use,use,NOUN,True,False
of,of,of,of,ADP,True,True
the,the,the,the,DET,True,True
3550,3550,3550,3550,NUM,False,False
-,-,-,-,SYM,False,False
3650,3650,3650,3650,NUM,False,False
mhz,mhz,mhz,mhz,PROPN,True,False
band,band,band,band,NOUN,True,False
without,without,without,without,ADP,True,True
also,also,also,also,ADV,True,True
assess,assess,assess,assess,VERB,True,False
how,how,how,how,ADV,True,True
it,it,-PRON-,-pron-,PRON,True,True
will,will,will,will,VERB,True,True
avoid,avoid,avoid,avoid,VERB,True,False
interference,interference,interference,interference,NOUN,True,False
to,to,to,to,PART,True,True
exist,exist,exist,exist,VERB,True,False
adjacent,adjacent,adjacent,adjacent,ADJ,True,False
spectrum,spectrum,spectrum,spectrum,NOUN,True,False
use,use,use,use,NOUN,True,False
.,.,.,.,PUNCT,False,False
in,in,in,in,ADP,True,True
fact,fact,fact,fact,NOUN,True,False
",",",",",",",",PUNCT,False,False
the,the,the,the,DET,True,True
public,public,public,public,ADJ,True,False
notice,notice,notice,notice,NOUN,True,False
be,be,be,be,AUX,True,True
equivocal,equivocal,equivocal,equivocal,ADJ,True,False
about,about,about,about,ADP,True,True
when,when,when,when,ADV,True,True
and,and,and,and,CCONJ,True,True
whether,whether,whether,whether,SCONJ,True,True
the,the,the,the,DET,True,True
commission,commission,commission,commission,NOUN,True,False
intend,intend,intend,intend,VERB,True,False
to,to,to,to,PART,True,True
consider,consider,consider,consider,VERB,True,False
adjacentspectrum,adjacentspectrum,adjacentspectrum,adjacentspectrum,PROPN,True,False
interference,interference,interference,interference,NOUN,True,False
issue,issue,issue,issue,NOUN,True,False
at,at,at,at,ADV,True,True
all,all,all,all,ADV,True,True
.,.,.,.,PUNCT,False,False
in,in,in,in,ADP,True,True
addition,addition,addition,addition,NOUN,True,False
",",",",",",",",PUNCT,False,False
and,and,and,and,CCONJ,True,True
while,while,while,while,SCONJ,True,True
defer,defer,defer,defer,NOUN,True,False
consideration,consideration,consideration,consideration,NOUN,True,False
of,of,of,of,ADP,True,True
potentialinterference,potentialinterference,potentialinterference,potentialinterference,NOUN,True,False
issue,issue,issue,issue,NOUN,True,False
",",",",",",",",PUNCT,False,False
the,the,the,the,DET,True,True
public,public,public,public,ADJ,True,False
notice,notice,notice,notice,NOUN,True,False
expressly,expressly,expressly,expressly,ADV,True,False
solicit,solicit,solicit,solicit,VERB,True,False
comment,comment,comment,comment,NOUN,True,False
on,on,on,on,ADP,True,True
a,a,a,a,DET,True,True
number,number,number,number,NOUN,True,False
of,of,of,of,ADP,True,True
technical,technical,technical,technical,ADJ,True,False
matter,matter,matter,matter,NOUN,True,False
concern,concern,concern,concern,NOUN,True,False
the,the,the,the,DET,True,True
potential,potential,potential,potential,ADJ,True,False
use,use,use,use,NOUN,True,False
of,of,of,of,ADP,True,True
the,the,the,the,DET,True,True
3550,3550,3550,3550,NUM,False,False
-,-,-,-,SYM,False,False
3650,3650,3650,3650,NUM,False,False
mhz,mhz,mhz,mhz,PROPN,True,False
spectrum,spectrum,spectrum,spectrum,NOUN,True,False
.,.,.,.,PUNCT,False,False
while,while,while,while,SCONJ,True,True
the,the,the,the,DET,True,True
technicalmatter,technicalmatter,technicalmatter,technicalmatter,NOUN,True,False
appear,appear,appear,appear,VERB,True,False
intend,intend,intend,intend,NOUN,True,False
to,to,to,to,PART,True,True
maximize,maximize,maximize,maximize,VERB,True,False
the,the,the,the,DET,True,True
operational,operational,operational,operational,ADJ,True,False
capability,capability,capability,capability,NOUN,True,False
of,of,of,of,ADP,True,True
cbs,cbs,cbs,cbs,PROPN,True,False
operation,operation,operation,operation,NOUN,True,False
",",",",",",",",PUNCT,False,False
which,which,which,which,DET,True,True
be,be,be,be,VERB,True,True
animportant,animportant,animportant,animportant,ADJ,True,False
matter,matter,matter,matter,NOUN,True,False
",",",",",",",",PUNCT,False,False
the,the,the,the,DET,True,True
commission,commission,commission,commission,NOUN,True,False
should,should,should,should,VERB,True,True
take,take,take,take,VERB,True,True
into,into,into,into,ADP,True,True
account,account,account,account,NOUN,True,False
the,the,the,the,DET,True,True
potential,potential,potential,potential,ADJ,True,False
interference,interference,interference,interference,NOUN,True,False
to,to,to,to,PART,True,True
adjacentspectrum,adjacentspectrum,adjacentspectrum,adjacentspectrum,VERB,True,False
use,use,use,use,NOUN,True,False
in,in,in,in,ADP,True,True
determine,determine,determine,determine,NOUN,True,False
what,what,what,what,PRON,True,True
the,the,the,the,DET,True,True
technical,technical,technical,technical,ADJ,True,False
parameter,parameter,parameter,parameter,NOUN,True,False
should,should,should,should,VERB,True,True
be,be,be,be,AUX,True,True
.,.,.,.,PUNCT,False,False
finally,finally,finally,finally,ADV,True,False
",",",",",",",",PUNCT,False,False
the,the,the,the,DET,True,True
public,public,public,public,ADJ,True,False
notice,notice,notice,notice,NOUN,True,False
seek,seek,seek,seek,VERB,True,False
comment,comment,comment,comment,NOUN,True,False
on,on,on,on,ADP,True,True
extend,extend,extend,extend,VERB,True,False
the,the,the,the,DET,True,True
use,use,use,use,NOUN,True,False
of,of,of,of,ADP,True,True
the,the,the,the,DET,True,True
3.5,3.5,3.5,3.5,NUM,False,False
ghz,ghz,ghz,ghz,PROPN,True,False
band,band,band,band,NOUN,True,False
tothe,tothe,tothe,tothe,DET,True,False
3650,3650,3650,3650,NUM,False,False
-,-,-,-,SYM,False,False
3700,3700,3700,3700,NUM,False,False
mhz,mhz,mhz,mhz,PROPN,True,False
band,band,band,band,NOUN,True,False
",",",",",",",",PUNCT,False,False
and,and,and,and,CCONJ,True,True
it,it,-PRON-,-pron-,PRON,True,True
specifically,specifically,specifically,specifically,ADV,True,False
ask,ask,ask,ask,VERB,True,False
",",",",",",",",PUNCT,False,False
[,[,[,[,PUNCT,False,False
w]hat,w]hat,w]hat,w]hat,ADP,False,False
provision,provision,provision,provision,NOUN,True,False
would,would,would,would,VERB,True,True
need,need,need,need,VERB,True,False
to,to,to,to,PART,True,True
be,be,be,be,AUX,True,True
madefor,madefor,madefor,madefor,NOUN,True,False
incumbent,incumbent,incumbent,incumbent,ADJ,True,False
operator,operator,operator,operator,NOUN,True,False
because,because,because,because,SCONJ,True,True
the,the,the,the,DET,True,True
public,public,public,public,ADJ,True,False
notice,notice,notice,notice,NOUN,True,False
defer,defer,defer,defer,NOUN,True,False
consideration,consideration,consideration,consideration,NOUN,True,False
of,of,of,of,ADP,True,True
issue,issue,issue,issue,NOUN,True,False
relate,relate,relate,relate,NOUN,True,False
toshare,toshare,toshare,toshare,NOUN,True,False
operation,operation,operation,operation,NOUN,True,False
with,with,with,with,ADP,True,True
incumbent,incumbent,incumbent,incumbent,NOUN,True,False
.,.,.,.,PUNCT,False,False
.,.,.,.,PUNCT,False,False
.,.,.,.,PUNCT,False,False
fss,fss,fss,fss,PROPN,True,False
user,user,user,user,NOUN,True,False
",",",",",",",",PUNCT,False,False
the,the,the,the,DET,True,True
reference,reference,reference,reference,NOUN,True,False
to,to,to,to,PART,True,True
incumbent,incumbent,incumbent,incumbent,ADJ,True,False
operator,operator,operator,operator,NOUN,True,False
ispresumably,ispresumably,ispresumably,ispresumably,ADV,True,False
not,not,not,not,PART,True,True
intend,intend,intend,intend,VERB,True,False
to,to,to,to,PART,True,True
address,address,address,address,VERB,True,False
fss,fss,fss,fss,VERB,True,False
operation,operation,operation,operation,NOUN,True,False
on,on,on,on,ADP,True,True
the,the,the,the,DET,True,True
3400,3400,3400,3400,NUM,False,False
-,-,-,-,SYM,False,False
3700,3700,3700,3700,NUM,False,False
mhz,mhz,mhz,mhz,PROPN,True,False
band,band,band,band,NOUN,True,False
.,.,.,.,PUNCT,False,False
in,in,in,in,ADP,True,True
that,that,that,that,DET,True,True
case,case,case,case,NOUN,True,False
",",",",",",",",PUNCT,False,False
npr,npr,npr,npr,PROPN,True,False
would,would,would,would,VERB,True,True
only,only,only,only,ADV,True,True
note,note,note,note,VERB,True,False
that,that,that,that,SCONJ,True,True
cbs,cbs,cbs,cbs,PROPN,True,False
operation,operation,operation,operation,NOUN,True,False
in,in,in,in,ADP,True,True
the,the,the,the,DET,True,True
3650,3650,3650,3650,NUM,False,False
-,-,-,-,SYM,False,False
3700,3700,3700,3700,NUM,False,False
mhz,mhz,mhz,mhz,PROPN,True,False
spectrum,spectrum,spectrum,spectrum,NOUN,True,False
be,be,be,be,AUX,True,True
as,as,as,as,SCONJ,True,True
",",",",",",",",PUNCT,False,False
if,if,if,if,SCONJ,True,True
not,not,not,not,PART,True,True
more,more,more,more,ADJ,True,True
",",",",",",",",PUNCT,False,False
likely,likely,likely,likely,ADJ,True,False
to,to,to,to,PART,True,True
disrupt,disrupt,disrupt,disrupt,VERB,True,False
public,public,public,public,ADJ,True,False
radio,radio,radio,radio,NOUN,True,False
and,and,and,and,CCONJ,True,True
other,other,other,other,ADJ,True,True
fss,fss,fss,fss,NOUN,True,False
spectrum,spectrum,spectrum,spectrum,NOUN,True,False
use,use,use,use,NOUN,True,False
than,than,than,than,SCONJ,True,True
cbs,cbs,cbs,cbs,PROPN,True,False
operation,operation,operation,operation,NOUN,True,False
farther,farther,far,far,ADV,True,False
removedfrom,removedfrom,removedfrom,removedfrom,ADP,True,False
the,the,the,the,DET,True,True
c,c,c,c,PROPN,True,False
-,-,-,-,PUNCT,False,False
band,band,band,band,NOUN,True,False
spectrum,spectrum,spectrum,spectrum,NOUN,True,False
.,.,.,.,PUNCT,False,False
in,in,in,in,ADP,True,True
closing,closing,closing,closing,NOUN,True,False
",",",",",",",",PUNCT,False,False
while,while,while,while,SCONJ,True,True
the,the,the,the,DET,True,True
commission,commission,commission,commission,NOUN,True,False
",",",",",",",",PUNCT,False,False
like,like,like,like,SCONJ,True,False
other,other,other,other,ADJ,True,True
federal,federal,federal,federal,ADJ,True,False
agency,agency,agency,agency,NOUN,True,False
",",",",",",",",PUNCT,False,False
be,be,be,be,AUX,True,True
entitle,entitle,entitle,entitle,ADJ,True,False
to,to,to,to,PART,True,True
somediscretion,somediscretion,somediscretion,somediscretion,VERB,True,False
in,in,in,in,ADP,True,True
prioritize,prioritize,prioritize,prioritize,NOUN,True,False
the,the,the,the,DET,True,True
issue,issue,issue,issue,NOUN,True,False
raise,raise,raise,raise,VERB,True,False
in,in,in,in,ADP,True,True
a,a,a,a,DET,True,True
rulemaking,rulemaking,rulemaking,rulemaking,NOUN,True,False
proceeding,proceeding,proceeding,proceeding,NOUN,True,False
",",",",",",",",PUNCT,False,False
npr,npr,npr,npr,PROPN,True,False
urge,urge,urge,urge,VERB,True,False
thecommission,thecommission,thecommission,thecommission,NOUN,True,False
to,to,to,to,PART,True,True
address,address,address,address,VERB,True,False
the,the,the,the,DET,True,True
fss,fss,fss,fss,ADJ,True,False
interference,interference,interference,interference,NOUN,True,False
issue,issue,issue,issue,NOUN,True,False
promptly,promptly,promptly,promptly,ADV,True,False
.,.,.,.,PUNCT,False,False
the,the,the,the,DET,True,True
commissions,commissions,commission,commission,NOUN,True,False
effort,effort,effort,effort,NOUN,True,False
to,to,to,to,PART,True,True
makespectrum,makespectrum,makespectrum,makespectrum,VERB,True,False
available,available,available,available,ADJ,True,False
for,for,for,for,ADP,True,True
publicly,publicly,publicly,publicly,ADV,True,False
beneficial,beneficial,beneficial,beneficial,ADJ,True,False
use,use,use,use,NOUN,True,False
be,be,be,be,AUX,True,True
certainly,certainly,certainly,certainly,ADV,True,False
commendable,commendable,commendable,commendable,ADJ,True,False
",",",",",",",",PUNCT,False,False
but,but,but,but,CCONJ,True,True
it,it,-PRON-,-pron-,PRON,True,True
must,must,must,must,VERB,True,True
be,be,be,be,AUX,True,True
donewithout,donewithout,donewithout,donewithout,ADP,True,False
harm,harm,harm,harm,NOUN,True,False
public,public,public,public,ADJ,True,False
radio,radio,radio,radio,NOUN,True,False
and,and,and,and,CCONJ,True,True
other,other,other,other,ADJ,True,True
exist,exist,exist,exist,VERB,True,False
user,user,user,user,NOUN,True,False
of,of,of,of,ADP,True,True
adjacent,adjacent,adjacent,adjacent,ADJ,True,False
spectrum,spectrum,spectrum,spectrum,NOUN,True,False
.,.,.,.,PUNCT,False,False
conclusionfor,conclusionfor,conclusionfor,conclusionfor,VERB,True,False
the,the,the,the,DET,True,True
foregoing,foregoing,foregoing,foregoing,NOUN,True,False
reason,reason,reason,reason,NOUN,True,False
",",",",",",",",PUNCT,False,False
and,and,and,and,CCONJ,True,True
as,as,as,as,SCONJ,True,True
demonstrate,demonstrate,demonstrate,demonstrate,VERB,True,False
above,above,above,above,ADP,True,True
",",",",",",",",PUNCT,False,False
npr,npr,npr,npr,PROPN,True,False
urge,urge,urge,urge,VERB,True,False
the,the,the,the,DET,True,True
commission,commission,commission,commission,NOUN,True,False
torefrain,torefrain,torefrain,torefrain,NOUN,True,False
from,from,from,from,ADP,True,True
establish,establish,establish,establish,VERB,True,False
the,the,the,the,DET,True,True
propose,propose,propose,propose,NOUN,True,False
citizens,citizens,citizen,citizen,NOUN,True,False
broadband,broadband,broadband,broadband,NOUN,True,False
service,service,service,service,NOUN,True,False
or,or,or,or,CCONJ,True,True
finalize,finalize,finalize,finalize,VERB,True,False
the,the,the,the,DET,True,True
licensingmodel,licensingmodel,licensingmodel,licensingmodel,NOUN,True,False
until,until,until,until,ADP,True,True
appropriate,appropriate,appropriate,appropriate,ADJ,True,False
interference,interference,interference,interference,NOUN,True,False
protection,protection,protection,protection,NOUN,True,False
for,for,for,for,ADP,True,True
adjacent,adjacent,adjacent,adjacent,ADJ,True,False
spectrum,spectrum,spectrum,spectrum,NOUN,True,False
uses,uses,use,use,NOUN,True,False
be,be,be,be,AUX,True,True
assure,assure,assure,assure,NOUN,True,False
.,.,.,.,PUNCT,False,False
