text,text_lower,lemma,lemma_lower,part_of_speech,is_alphabet,is_stopword
att,att,att,att,PROPN,True,False
services,services,services,services,PROPN,True,False
inc,inc,inc,inc,PROPN,True,False
.,.,.,.,PROPN,False,False
att,att,att,att,PROPN,True,False
hereby,hereby,hereby,hereby,PROPN,True,True
offer,offer,offer,offer,VERB,True,False
comment,comment,comment,comment,NOUN,True,False
in,in,in,in,ADP,True,True
the,the,the,the,DET,True,True
proceeding,proceeding,proceeding,proceeding,NOUN,True,False
caption,caption,caption,caption,NOUN,True,False
above,above,above,above,ADV,True,True
.,.,.,.,PUNCT,False,False
in,in,in,in,ADP,True,True
december,december,december,december,PROPN,True,False
2012,2012,2012,2012,NUM,False,False
",",",",",",",",PUNCT,False,False
the,the,the,the,DET,True,True
commission,commission,commission,commission,NOUN,True,False
release,release,release,release,VERB,True,False
a,a,a,a,DET,True,True
notice,notice,notice,notice,NOUN,True,False
of,of,of,of,ADP,True,True
propose,propose,propose,propose,NOUN,True,False
rulemaking,rulemaking,rulemaking,rulemaking,NOUN,True,False
nprm,nprm,nprm,nprm,NOUN,True,False
seek,seek,seek,seek,VERB,True,False
comment,comment,comment,comment,NOUN,True,False
on,on,on,on,ADP,True,True
a,a,a,a,DET,True,True
new,new,new,new,ADJ,True,False
citizens,citizens,citizen,citizen,NOUN,True,False
broadband,broadband,broadband,broadband,NOUN,True,False
service,service,service,service,NOUN,True,False
in,in,in,in,ADP,True,True
the,the,the,the,DET,True,True
3550,3550,3550,3550,NUM,False,False
-,-,-,-,SYM,False,False
3650,3650,3650,3650,NUM,False,False
mhz,mhz,mhz,mhz,PROPN,True,False
band,band,band,band,NOUN,True,False
3.5,3.5,3.5,3.5,NUM,False,False
ghz,ghz,ghz,ghz,PROPN,True,False
band,band,band,band,NOUN,True,False
for,for,for,for,ADP,True,True
shared,shared,shared,shared,ADJ,True,False
",",",",",",",",PUNCT,False,False
commercial,commercial,commercial,commercial,ADJ,True,False
use,use,use,use,NOUN,True,False
",",",",",",",",PUNCT,False,False
include,include,include,include,VERB,True,False
small,small,small,small,ADJ,True,False
cell,cell,cell,cell,NOUN,True,False
network,network,network,network,NOUN,True,False
.,.,.,.,PUNCT,False,False
the,the,the,the,DET,True,True
nprm,nprm,nprm,nprm,NOUN,True,False
propose,propose,propose,propose,VERB,True,False
a,a,a,a,DET,True,True
three,three,three,three,NUM,True,True
-,-,-,-,PUNCT,False,False
tier,tier,tier,tier,NOUN,True,False
",",",",",",",",PUNCT,False,False
framework,framework,framework,framework,NOUN,True,False
intend,intend,intend,intend,VERB,True,False
to,to,to,to,PART,True,True
facilitate,facilitate,facilitate,facilitate,VERB,True,False
rapid,rapid,rapid,rapid,ADJ,True,False
broadband,broadband,broadband,broadband,NOUN,True,False
deployment,deployment,deployment,deployment,NOUN,True,False
while,while,while,while,SCONJ,True,True
protect,protect,protect,protect,ADJ,True,False
exist,exist,exist,exist,VERB,True,False
incumbent,incumbent,incumbent,incumbent,ADJ,True,False
user,user,user,user,NOUN,True,False
of,of,of,of,ADP,True,True
the,the,the,the,DET,True,True
3.5,3.5,3.5,3.5,NUM,False,False
ghz,ghz,ghz,ghz,PROPN,True,False
band,band,band,band,NOUN,True,False
.,.,.,.,PUNCT,False,False
on,on,on,on,ADP,True,True
november,november,november,november,PROPN,True,False
1,1,1,1,NUM,False,False
",",",",",",",",PUNCT,False,False
2013,2013,2013,2013,NUM,False,False
",",",",",",",",PUNCT,False,False
the,the,the,the,DET,True,True
commission,commission,commission,commission,NOUN,True,False
release,release,release,release,VERB,True,False
a,a,a,a,DET,True,True
pub,pub,pub,pub,NOUN,True,False
-,-,-,-,PUNCT,False,False
lic,lic,lic,lic,ADJ,True,False
notice,notice,notice,notice,NOUN,True,False
solicit,solicit,solicit,solicit,NOUN,True,False
further,further,further,further,ADJ,True,True
comment,comment,comment,comment,NOUN,True,False
on,on,on,on,ADP,True,True
specific,specific,specific,specific,ADJ,True,False
alternative,alternative,alternative,alternative,ADJ,True,False
licensing,licensing,licensing,licensing,NOUN,True,False
proposal,proposal,proposal,proposal,NOUN,True,False
that,that,that,that,DET,True,True
comment,comment,comment,comment,NOUN,True,False
-,-,-,-,PUNCT,False,False
er,er,er,er,NOUN,True,False
on,on,on,on,ADP,True,True
the,the,the,the,DET,True,True
nprm,nprm,nprm,nprm,NOUN,True,False
have,have,have,have,AUX,True,True
suggest,suggest,suggest,suggest,VERB,True,False
.,.,.,.,PUNCT,False,False
in,in,in,in,ADP,True,True
general,general,general,general,ADJ,True,False
",",",",",",",",PUNCT,False,False
att,att,att,att,ADV,True,False
support,support,support,support,VERB,True,False
the,the,the,the,DET,True,True
commissions,commissions,commission,commission,NOUN,True,False
tiere,tiere,tiere,tiere,PROPN,True,False
approach,approach,approach,approach,NOUN,True,False
.,.,.,.,PUNCT,False,False
the,the,the,the,DET,True,True
propose,propose,propose,propose,NOUN,True,False
regime,regime,regime,regime,NOUN,True,False
protect,protect,protect,protect,VERB,True,False
incumbent,incumbent,incumbent,incumbent,ADJ,True,False
user,user,user,user,NOUN,True,False
while,while,while,while,SCONJ,True,True
offer,offer,offer,offer,VERB,True,False
priority,priority,priority,priority,NOUN,True,False
access,access,access,access,NOUN,True,False
and,and,and,and,CCONJ,True,True
general,general,general,general,ADJ,True,False
ac,ac,ac,ac,ADV,True,False
-,-,-,-,PUNCT,False,False
cess,cess,cess,cess,PROPN,True,False
user,user,user,user,NOUN,True,False
opportunity,opportunity,opportunity,opportunity,NOUN,True,False
for,for,for,for,ADP,True,True
a,a,a,a,DET,True,True
variety,variety,variety,variety,NOUN,True,False
of,of,of,of,ADP,True,True
innovative,innovative,innovative,innovative,ADJ,True,False
broadband,broadband,broadband,broadband,NOUN,True,False
service,service,service,service,PROPN,True,False
.,.,.,.,PUNCT,False,False
the,the,the,the,DET,True,True
expansion,expansion,expansion,expansion,NOUN,True,False
of,of,of,of,ADP,True,True
the,the,the,the,DET,True,True
eligibility,eligibility,eligibility,eligibility,NOUN,True,False
for,for,for,for,ADP,True,True
the,the,the,the,DET,True,True
priority,priority,priority,priority,NOUN,True,False
access,access,access,access,NOUN,True,False
tier,tier,tier,tier,NOUN,True,False
will,will,will,will,VERB,True,True
be,be,be,be,AUX,True,True
particularly,particularly,particularly,particularly,ADV,True,False
important,important,important,important,ADJ,True,False
to,to,to,to,PART,True,True
facilitate,facilitate,facilitate,facilitate,VERB,True,False
rapid,rapid,rapid,rapid,ADJ,True,False
deployment,deployment,deployment,deployment,NOUN,True,False
by,by,by,by,ADP,True,True
commercial,commercial,commercial,commercial,ADJ,True,False
operator,operator,operator,operator,NOUN,True,False
and,and,and,and,CCONJ,True,True
other,other,other,other,ADJ,True,True
who,who,who,who,PRON,True,True
require,require,require,require,VERB,True,False
quality,quality,quality,quality,NOUN,True,False
of,of,of,of,ADP,True,True
service,service,service,service,NOUN,True,False
.,.,.,.,PUNCT,False,False
att,att,att,att,PROPN,True,False
appreciate,appreciate,appreciate,appreciate,VERB,True,False
the,the,the,the,DET,True,True
creative,creative,creative,creative,ADJ,True,False
licensing,licensing,licensing,licensing,NOUN,True,False
proposal,proposal,proposal,proposal,NOUN,True,False
in,in,in,in,ADP,True,True
the,the,the,the,DET,True,True
public,public,public,public,ADJ,True,False
notice,notice,notice,notice,NOUN,True,False
",",",",",",",",PUNCT,False,False
but,but,but,but,CCONJ,True,True
there,there,there,there,PRON,True,True
be,be,be,be,AUX,True,True
some,some,some,some,DET,True,True
area,area,area,area,NOUN,True,False
where,where,where,where,ADV,True,True
these,these,these,these,DET,True,True
proposal,proposal,proposal,proposal,NOUN,True,False
should,should,should,should,VERB,True,True
be,be,be,be,AUX,True,True
improve,improve,improve,improve,VERB,True,False
.,.,.,.,PUNCT,False,False
one,one,one,one,NUM,True,True
of,of,of,of,ADP,True,True
the,the,the,the,DET,True,True
commissions,commissions,commission,commission,NOUN,True,False
principal,principal,principal,principal,ADJ,True,False
goal,goal,goal,goal,NOUN,True,False
be,be,be,be,AUX,True,True
to,to,to,to,PART,True,True
facilitate,facilitate,facilitate,facilitate,VERB,True,False
rapid,rapid,rapid,rapid,ADJ,True,False
deployment,deployment,deployment,deployment,NOUN,True,False
.,.,.,.,PUNCT,False,False
there,there,there,there,PRON,True,True
be,be,be,be,AUX,True,True
a,a,a,a,DET,True,True
number,number,number,number,NOUN,True,False
of,of,of,of,ADP,True,True
aspect,aspect,aspect,aspect,NOUN,True,False
of,of,of,of,ADP,True,True
the,the,the,the,DET,True,True
priority,priority,priority,priority,NOUN,True,False
access,access,access,access,NOUN,True,False
licen,licen,licen,licen,PROPN,True,False
-,-,-,-,PUNCT,False,False
e,e,e,e,PROPN,True,False
proposal,proposal,proposal,proposal,NOUN,True,False
that,that,that,that,DET,True,True
would,would,would,would,VERB,True,True
do,do,do,do,AUX,True,True
so,so,so,so,ADV,True,True
",",",",",",",",PUNCT,False,False
but,but,but,but,CCONJ,True,True
potential,potential,potential,potential,ADJ,True,False
licensee,licensee,licensee,licensee,NOUN,True,False
may,may,may,may,VERB,True,True
be,be,be,be,AUX,True,True
reluctant,reluctant,reluctant,reluctant,ADJ,True,False
to,to,to,to,PART,True,True
incur,incur,incur,incur,VERB,True,False
the,the,the,the,DET,True,True
substantial,substantial,substantial,substantial,ADJ,True,False
capital,capital,capital,capital,NOUN,True,False
investment,investment,investment,investment,NOUN,True,False
need,need,need,need,VERB,True,False
to,to,to,to,PART,True,True
deploy,deploy,deploy,deploy,VERB,True,False
small,small,small,small,ADJ,True,False
cell,cell,cell,cell,NOUN,True,False
system,system,system,system,NOUN,True,False
and,and,and,and,CCONJ,True,True
other,other,other,other,ADJ,True,True
innovative,innovative,innovative,innovative,ADJ,True,False
broadband,broadband,broadband,broadband,NOUN,True,False
facility,facility,facility,facility,NOUN,True,False
without,without,without,without,ADP,True,True
more,more,more,more,ADJ,True,True
certainty,certainty,certainty,certainty,NOUN,True,False
that,that,that,that,SCONJ,True,True
their,their,-PRON-,-pron-,DET,True,True
investment,investment,investment,investment,NOUN,True,False
would,would,would,would,VERB,True,True
not,not,not,not,PART,True,True
be,be,be,be,AUX,True,True
strand,strand,strand,strand,ADJ,True,False
.,.,.,.,PUNCT,False,False
more,more,more,more,ADJ,True,True
thought,thought,thought,thought,NOUN,True,False
must,must,must,must,VERB,True,True
be,be,be,be,AUX,True,True
giv,giv,giv,giv,NOUN,True,False
-,-,-,-,PUNCT,False,False
en,en,en,en,NOUN,True,False
to,to,to,to,ADP,True,True
the,the,the,the,DET,True,True
issue,issue,issue,issue,NOUN,True,False
of,of,of,of,ADP,True,True
how,how,how,how,ADV,True,True
those,those,those,those,DET,True,True
who,who,who,who,PRON,True,True
may,may,may,may,VERB,True,True
invest,invest,invest,invest,VERB,True,False
and,and,and,and,CCONJ,True,True
provide,provide,provide,provide,VERB,True,False
service,service,service,service,NOUN,True,False
in,in,in,in,ADP,True,True
the,the,the,the,DET,True,True
band,band,band,band,NOUN,True,False
can,can,can,can,VERB,True,True
be,be,be,be,AUX,True,True
more,more,more,more,ADV,True,True
cer,cer,cer,cer,NOUN,True,False
-,-,-,-,PUNCT,False,False
tain,tain,tain,tain,NOUN,True,False
of,of,of,of,ADP,True,True
their,their,-PRON-,-pron-,DET,True,True
continue,continue,continue,continue,VERB,True,False
access,access,access,access,NOUN,True,False
to,to,to,to,ADP,True,True
spectrum,spectrum,spectrum,spectrum,NOUN,True,False
and,and,and,and,CCONJ,True,True
of,of,of,of,ADP,True,True
the,the,the,the,DET,True,True
cost,cost,cost,cost,NOUN,True,False
of,of,of,of,ADP,True,True
such,such,such,such,ADJ,True,True
continued,continued,continued,continued,ADJ,True,False
access,access,access,access,NOUN,True,False
.,.,.,.,PUNCT,False,False
also,also,also,also,ADV,True,True
",",",",",",",",PUNCT,False,False
the,the,the,the,DET,True,True
general,general,general,general,ADJ,True,False
access,access,access,access,NOUN,True,False
gaa,gaa,gaa,gaa,NOUN,True,False
tier,tier,tier,tier,NOUN,True,False
should,should,should,should,VERB,True,True
be,be,be,be,AUX,True,True
unlicensed,unlicensed,unlicensed,unlicensed,ADJ,True,False
.,.,.,.,PUNCT,False,False
the,the,the,the,DET,True,True
suggestion,suggestion,suggestion,suggestion,NOUN,True,False
that,that,that,that,SCONJ,True,True
gaa,gaa,gaa,gaa,NOUN,True,False
user,user,user,user,NOUN,True,False
be,be,be,be,AUX,True,True
deem,deem,deem,deem,NOUN,True,False
license,license,license,license,NOUN,True,False
by,by,by,by,ADP,True,True
rule,rule,rule,rule,NOUN,True,False
would,would,would,would,VERB,True,True
attempt,attempt,attempt,attempt,VERB,True,False
to,to,to,to,PART,True,True
extend,extend,extend,extend,VERB,True,False
a,a,a,a,DET,True,True
narrow,narrow,narrow,narrow,ADJ,True,False
exception,exception,exception,exception,NOUN,True,False
to,to,to,to,ADP,True,True
statutory,statutory,statutory,statutory,ADJ,True,False
licensing,licensing,licensing,licensing,NOUN,True,False
authority,authority,authority,authority,NOUN,True,False
much,much,much,much,ADV,True,True
far,far,far,far,ADV,True,False
than,than,than,than,SCONJ,True,True
congress,congress,congress,congress,PROPN,True,False
intend,intend,intend,intend,VERB,True,False
.,.,.,.,PUNCT,False,False
there,there,there,there,PRON,True,True
be,be,be,be,AUX,True,True
no,no,no,no,DET,True,True
objective,objective,objective,objective,ADJ,True,False
regard,regard,regard,regard,NOUN,True,False
development,development,development,development,NOUN,True,False
or,or,or,or,CCONJ,True,True
use,use,use,use,NOUN,True,False
of,of,of,of,ADP,True,True
the,the,the,the,DET,True,True
general,general,general,general,ADJ,True,False
access,access,access,access,NOUN,True,False
tier,tier,tier,tier,NOUN,True,False
that,that,that,that,DET,True,True
would,would,would,would,VERB,True,True
require,require,require,require,VERB,True,False
user,user,user,user,NOUN,True,False
to,to,to,to,PART,True,True
obtain,obtain,obtain,obtain,VERB,True,False
license,license,license,license,NOUN,True,False
",",",",",",",",PUNCT,False,False
and,and,and,and,CCONJ,True,True
therefore,therefore,therefore,therefore,ADV,True,True
no,no,no,no,DET,True,True
need,need,need,need,NOUN,True,False
to,to,to,to,PART,True,True
call,call,call,call,VERB,True,True
gaa,gaa,gaa,gaa,NOUN,True,False
device,device,device,device,NOUN,True,False
cb,cb,cb,cb,NOUN,True,False
radio,radio,radio,radio,NOUN,True,False
just,just,just,just,ADV,True,True
to,to,to,to,PART,True,True
get,get,get,get,AUX,True,True
around,around,around,around,ADP,True,True
such,such,such,such,DET,True,True
a,a,a,a,DET,True,True
requirement,requirement,requirement,requirement,NOUN,True,False
.,.,.,.,PUNCT,False,False
still,still,still,still,ADV,True,True
",",",",",",",",PUNCT,False,False
the,the,the,the,DET,True,True
proposal,proposal,proposal,proposal,NOUN,True,False
in,in,in,in,ADP,True,True
the,the,the,the,DET,True,True
public,public,public,public,ADJ,True,False
notice,notice,notice,notice,NOUN,True,False
be,be,be,be,AUX,True,True
",",",",",",",",PUNCT,False,False
on,on,on,on,ADP,True,True
the,the,the,the,DET,True,True
whole,whole,whole,whole,ADJ,True,True
",",",",",",",",PUNCT,False,False
creative,creative,creative,creative,ADJ,True,False
and,and,and,and,CCONJ,True,True
constructive,constructive,constructive,constructive,ADJ,True,False
",",",",",",",",PUNCT,False,False
and,and,and,and,CCONJ,True,True
att,att,att,att,ADV,True,False
largely,largely,largely,largely,ADV,True,False
support,support,support,support,VERB,True,False
them,them,-PRON-,-pron-,PRON,True,True
.,.,.,.,PUNCT,False,False
as,as,as,as,SCONJ,True,True
att,att,att,att,PROPN,True,False
have,have,have,have,AUX,True,True
explain,explain,explain,explain,VERB,True,False
",",",",",",",",PUNCT,False,False
the,the,the,the,DET,True,True
fast,fast,fast,fast,ADJ,True,False
way,way,way,way,NOUN,True,False
to,to,to,to,PART,True,True
implement,implement,implement,implement,VERB,True,False
the,the,the,the,DET,True,True
com,com,com,com,NOUN,True,False
-,-,-,-,PUNCT,False,False
mission,mission,mission,mission,NOUN,True,False
2010,2010,2010,2010,NUM,False,False
national,national,national,national,ADJ,True,False
broadband,broadband,broadband,broadband,NOUN,True,False
plan,plan,plan,plan,NOUN,True,False
be,be,be,be,AUX,True,True
to,to,to,to,PART,True,True
identify,identify,identify,identify,VERB,True,False
",",",",",",",",PUNCT,False,False
clear,clear,clear,clear,ADJ,True,False
",",",",",",",",PUNCT,False,False
and,and,and,and,CCONJ,True,True
auction,auction,auction,auction,VERB,True,False
additional,additional,additional,additional,ADJ,True,False
spectrum,spectrum,spectrum,spectrum,NOUN,True,False
below,below,below,below,ADP,True,True
3,3,3,3,NUM,False,False
ghz,ghz,ghz,ghz,PROPN,True,False
for,for,for,for,ADP,True,True
exclusive,exclusive,exclusive,exclusive,ADJ,True,False
",",",",",",",",PUNCT,False,False
licensed,licensed,licensed,licensed,ADJ,True,False
use,use,use,use,NOUN,True,False
.,.,.,.,PUNCT,False,False
but,but,but,but,CCONJ,True,True
while,while,while,while,SCONJ,True,True
exclusive,exclusive,exclusive,exclusive,ADJ,True,False
use,use,use,use,NOUN,True,False
licensing,licensing,licensing,licensing,NOUN,True,False
must,must,must,must,VERB,True,True
be,be,be,be,AUX,True,True
the,the,the,the,DET,True,True
primary,primary,primary,primary,ADJ,True,False
way,way,way,way,NOUN,True,False
to,to,to,to,PART,True,True
address,address,address,address,VERB,True,False
the,the,the,the,DET,True,True
spectrum,spectrum,spectrum,spectrum,PROPN,True,False
crunch,crunch,crunch,crunch,PROPN,True,False
",",",",",",",",PUNCT,False,False
att,att,att,att,ADV,True,False
recognize,recognize,recognize,recognize,VERB,True,False
that,that,that,that,SCONJ,True,True
there,there,there,there,PRON,True,True
may,may,may,may,VERB,True,True
be,be,be,be,AUX,True,True
a,a,a,a,DET,True,True
role,role,role,role,NOUN,True,False
",",",",",",",",PUNCT,False,False
as,as,as,as,ADV,True,True
well,well,well,well,ADV,True,True
",",",",",",",",PUNCT,False,False
for,for,for,for,ADP,True,True
spectrum,spectrum,spectrum,spectrum,NOUN,True,False
sharing,sharing,sharing,sharing,NOUN,True,False
in,in,in,in,ADP,True,True
certain,certain,certain,certain,ADJ,True,False
contexts,contexts,contexts,contexts,PROPN,True,False
.,.,.,.,PUNCT,False,False
the,the,the,the,DET,True,True
3.5,3.5,3.5,3.5,NUM,False,False
ghz,ghz,ghz,ghz,PROPN,True,False
band,band,band,band,NOUN,True,False
present,present,present,present,VERB,True,False
a,a,a,a,DET,True,True
good,good,good,good,ADJ,True,False
opportunity,opportunity,opportunity,opportunity,NOUN,True,False
for,for,for,for,ADP,True,True
such,such,such,such,ADJ,True,True
spectrum,spectrum,spectrum,spectrum,NOUN,True,False
sharing,sharing,sharing,sharing,NOUN,True,False
",",",",",",",",PUNCT,False,False
in,in,in,in,ADP,True,True
accordance,accordance,accordance,accordance,NOUN,True,False
with,with,with,with,ADP,True,True
the,the,the,the,DET,True,True
pcast,pcast,pcast,pcast,NOUN,True,False
recommendation,recommendation,recommendation,recommendation,NOUN,True,False
.,.,.,.,PUNCT,False,False
accordingly,accordingly,accordingly,accordingly,ADV,True,False
",",",",",",",",PUNCT,False,False
att,att,att,att,PROPN,True,False
sup,sup,sup,sup,NOUN,True,False
-,-,-,-,PUNCT,False,False
port,port,port,port,VERB,True,False
the,the,the,the,DET,True,True
commissions,commissions,commission,commission,NOUN,True,False
proposal,proposal,proposal,proposal,NOUN,True,False
to,to,to,to,PART,True,True
use,use,use,use,VERB,True,False
the,the,the,the,DET,True,True
3.5,3.5,3.5,3.5,NUM,False,False
ghz,ghz,ghz,ghz,PROPN,True,False
band,band,band,band,NOUN,True,False
for,for,for,for,ADP,True,True
small,small,small,small,ADJ,True,False
cell,cell,cell,cell,NOUN,True,False
deployment,deployment,deployment,deployment,NOUN,True,False
.,.,.,.,PUNCT,False,False
licensingthe,licensingthe,licensingthe,licensingthe,PROPN,True,False
nprm,nprm,nprm,nprm,PROPN,True,False
propose,propose,propose,propose,PROPN,True,False
establish,establish,establish,establish,VERB,True,False
three,three,three,three,NUM,True,True
service,service,service,service,NOUN,True,False
tier,tier,tier,tier,NOUN,True,False
1,1,1,1,NUM,False,False
incumbent,incumbent,incumbent,incumbent,ADJ,True,False
access,access,access,access,NOUN,True,False
2,2,2,2,NUM,False,False
priorityaccess,priorityaccess,priorityaccess,priorityaccess,NOUN,True,False
and,and,and,and,CCONJ,True,True
3,3,3,3,NUM,False,False
general,general,general,general,ADJ,True,False
authorized,authorized,authorized,authorized,ADJ,True,False
access,access,access,access,NOUN,True,False
.,.,.,.,PUNCT,False,False
incumbent,incumbent,incumbent,incumbent,ADJ,True,False
access,access,access,access,NOUN,True,False
user,user,user,user,NOUN,True,False
would,would,would,would,VERB,True,True
include,include,include,include,VERB,True,False
authorize,authorize,authorize,authorize,VERB,True,False
federal,federal,federal,federal,ADJ,True,False
and,and,and,and,CCONJ,True,True
grandfathered,grandfathered,grandfathered,grandfathered,ADJ,True,False
fss,fss,fss,fss,NOUN,True,False
user,user,user,user,NOUN,True,False
currently,currently,currently,currently,ADV,True,False
operate,operate,operate,operate,VERB,True,False
in,in,in,in,ADP,True,True
the,the,the,the,DET,True,True
3.5,3.5,3.5,3.5,NUM,False,False
ghz,ghz,ghz,ghz,PROPN,True,False
band,band,band,band,NOUN,True,False
.,.,.,.,PUNCT,False,False
these,these,these,these,DET,True,True
user,user,user,user,NOUN,True,False
would,would,would,would,VERB,True,True
have,have,have,have,AUX,True,True
protection,protection,protection,protection,NOUN,True,False
from,from,from,from,ADP,True,True
harm,harm,harm,harm,NOUN,True,False
-,-,-,-,PUNCT,False,False
ful,ful,ful,ful,ADJ,True,False
interference,interference,interference,interference,NOUN,True,False
from,from,from,from,ADP,True,True
all,all,all,all,DET,True,True
other,other,other,other,ADJ,True,True
user,user,user,user,NOUN,True,False
in,in,in,in,ADP,True,True
the,the,the,the,DET,True,True
3.5,3.5,3.5,3.5,NUM,False,False
ghz,ghz,ghz,ghz,PROPN,True,False
band,band,band,band,NOUN,True,False
.,.,.,.,PUNCT,False,False
in,in,in,in,ADP,True,True
the,the,the,the,DET,True,True
priority,priority,priority,priority,NOUN,True,False
access,access,access,access,NOUN,True,False
tier,tier,tier,tier,NOUN,True,False
",",",",",",",",PUNCT,False,False
the,the,the,the,DET,True,True
nprm,nprm,nprm,nprm,NOUN,True,False
propose,propose,propose,propose,NOUN,True,False
that,that,that,that,SCONJ,True,True
the,the,the,the,DET,True,True
commission,commission,commission,commission,NOUN,True,False
authorize,authorize,authorize,authorize,VERB,True,False
certain,certain,certain,certain,ADJ,True,False
user,user,user,user,NOUN,True,False
with,with,with,with,ADP,True,True
critical,critical,critical,critical,ADJ,True,False
quality,quality,quality,quality,NOUN,True,False
of,of,of,of,ADP,True,True
-,-,-,-,PUNCT,False,False
service,service,service,service,NOUN,True,False
need,need,need,need,NOUN,True,False
such,such,such,such,ADJ,True,True
as,as,as,as,SCONJ,True,True
hospital,hospital,hospital,hospital,NOUN,True,False
",",",",",",",",PUNCT,False,False
utility,utility,utility,utility,NOUN,True,False
",",",",",",",",PUNCT,False,False
and,and,and,and,CCONJ,True,True
public,public,public,public,ADJ,True,False
safety,safety,safety,safety,NOUN,True,False
entity,entity,entity,entity,NOUN,True,False
to,to,to,to,PART,True,True
operate,operate,operate,operate,VERB,True,False
with,with,with,with,ADP,True,True
some,some,some,some,DET,True,True
interference,interference,interference,interference,NOUN,True,False
protection,protection,protection,protection,NOUN,True,False
in,in,in,in,ADP,True,True
portion,portion,portion,portion,NOUN,True,False
of,of,of,of,ADP,True,True
the,the,the,the,DET,True,True
3.5,3.5,3.5,3.5,NUM,False,False
ghz,ghz,ghz,ghz,PROPN,True,False
band,band,band,band,NOUN,True,False
at,at,at,at,ADP,True,True
specific,specific,specific,specific,ADJ,True,False
location,location,location,location,NOUN,True,False
.,.,.,.,PUNCT,False,False
finally,finally,finally,finally,ADV,True,False
",",",",",",",",PUNCT,False,False
in,in,in,in,ADP,True,True
the,the,the,the,DET,True,True
gaa,gaa,gaa,gaa,NOUN,True,False
tier,tier,tier,tier,NOUN,True,False
",",",",",",",",PUNCT,False,False
user,user,user,user,NOUN,True,False
would,would,would,would,VERB,True,True
be,be,be,be,AUX,True,True
authorize,authorize,authorize,authorize,VERB,True,False
to,to,to,to,PART,True,True
use,use,use,use,VERB,True,False
the,the,the,the,DET,True,True
3.5,3.5,3.5,3.5,NUM,False,False
ghz,ghz,ghz,ghz,PROPN,True,False
band,band,band,band,NOUN,True,False
opportunistically,opportunistically,opportunistically,opportunistically,ADV,True,False
with,with,with,with,ADV,True,True
-,-,-,-,PUNCT,False,False
in,in,in,in,NOUN,True,True
designate,designate,designate,designate,ADJ,True,False
geographic,geographic,geographic,geographic,ADJ,True,False
area,area,area,area,NOUN,True,False
.,.,.,.,PUNCT,False,False
priority,priority,priority,priority,NOUN,True,False
access,access,access,access,NOUN,True,False
license,license,license,license,NOUN,True,False
pal,pal,pal,pal,NOUN,True,False
.,.,.,.,PUNCT,False,False
att,att,att,att,PROPN,True,False
and,and,and,and,CCONJ,True,True
other,other,other,other,ADJ,True,True
commenter,commenter,commenter,commenter,NOUN,True,False
to,to,to,to,ADP,True,True
the,the,the,the,DET,True,True
nprm,nprm,nprm,nprm,NOUN,True,False
suggest,suggest,suggest,suggest,NOUN,True,False
-,-,-,-,PUNCT,False,False
ed,ed,ed,ed,NOUN,True,False
",",",",",",",",PUNCT,False,False
and,and,and,and,CCONJ,True,True
the,the,the,the,DET,True,True
fcc,fcc,fcc,fcc,PROPN,True,False
agree,agree,agree,agree,VERB,True,False
",",",",",",",",PUNCT,False,False
that,that,that,that,SCONJ,True,True
the,the,the,the,DET,True,True
priority,priority,priority,priority,NOUN,True,False
access,access,access,access,NOUN,True,False
tier,tier,tier,tier,NOUN,True,False
should,should,should,should,VERB,True,True
not,not,not,not,PART,True,True
be,be,be,be,AUX,True,True
limit,limit,limit,limit,NOUN,True,False
only,only,only,only,ADV,True,True
to,to,to,to,PART,True,True
mission,mission,mission,mission,VERB,True,False
criti,criti,criti,criti,PROPN,True,False
-,-,-,-,PUNCT,False,False
cal,cal,cal,cal,PROPN,True,False
use,use,use,use,NOUN,True,False
att,att,att,att,ADV,True,False
commend,commend,commend,commend,VERB,True,False
the,the,the,the,DET,True,True
commission,commission,commission,commission,NOUN,True,False
for,for,for,for,ADP,True,True
make,make,make,make,VERB,True,True
this,this,this,this,DET,True,True
change,change,change,change,NOUN,True,False
",",",",",",",",PUNCT,False,False
and,and,and,and,CCONJ,True,True
the,the,the,the,DET,True,True
company,company,company,company,NOUN,True,False
urgesthe,urgesthe,urgesthe,urgesthe,VERB,True,False
fcc,fcc,fcc,fcc,PROPN,True,False
to,to,to,to,PART,True,True
open,open,open,open,VERB,True,False
the,the,the,the,DET,True,True
priority,priority,priority,priority,NOUN,True,False
access,access,access,access,NOUN,True,False
tier,tier,tier,tier,NOUN,True,False
to,to,to,to,ADP,True,True
any,any,any,any,DET,True,True
applicant,applicant,applicant,applicant,NOUN,True,False
meeting,meeting,meeting,meeting,NOUN,True,False
the,the,the,the,DET,True,True
basic,basic,basic,basic,ADJ,True,False
licensee,licensee,licensee,licensee,NOUN,True,False
qualification,qualification,qualification,qualification,NOUN,True,False
",",",",",",",",PUNCT,False,False
as,as,as,as,SCONJ,True,True
propose,propose,propose,propose,NOUN,True,False
in,in,in,in,ADP,True,True
the,the,the,the,DET,True,True
revised,revised,revised,revised,ADJ,True,False
framework,framework,framework,framework,NOUN,True,False
.,.,.,.,PUNCT,False,False
under,under,under,under,ADP,True,True
the,the,the,the,DET,True,True
revised,revised,revised,revised,ADJ,True,False
framework,framework,framework,framework,NOUN,True,False
",",",",",",",",PUNCT,False,False
pals,pals,pal,pal,NOUN,True,False
would,would,would,would,VERB,True,True
beone,beone,beone,beone,NOUN,True,False
-,-,-,-,PUNCT,False,False
year,year,year,year,NOUN,True,False
",",",",",",",",PUNCT,False,False
non,non,non,non,ADJ,True,False
-,-,-,-,ADJ,False,False
renewable,renewable,renewable,renewable,ADJ,True,False
license,license,license,license,NOUN,True,False
cover,cover,cover,cover,NOUN,True,False
10,10,10,10,NUM,False,False
mhz,mhz,mhz,mhz,NOUN,True,False
of,of,of,of,ADP,True,True
unpaired,unpaired,unpaired,unpaired,ADJ,True,False
spectrum,spectrum,spectrum,spectrum,NOUN,True,False
in,in,in,in,ADP,True,True
a,a,a,a,DET,True,True
census,census,census,census,NOUN,True,False
tract,tract,tract,tract,NOUN,True,False
.,.,.,.,PUNCT,False,False
li,li,li,li,PROPN,True,False
-,-,-,-,PUNCT,False,False
censees,censees,censees,censees,PROPN,True,False
could,could,could,could,VERB,True,True
aggregate,aggregate,aggregate,aggregate,VERB,True,False
multiple,multiple,multiple,multiple,ADJ,True,False
one,one,one,one,NUM,True,True
year,year,year,year,NOUN,True,False
term,term,term,term,NOUN,True,False
and,and,and,and,CCONJ,True,True
obtain,obtain,obtain,obtain,VERB,True,False
multiple,multiple,multiple,multiple,ADJ,True,False
census,census,census,census,PROPN,True,False
tract,tract,tract,tract,NOUN,True,False
area,area,area,area,NOUN,True,False
if,if,if,if,SCONJ,True,True
need,need,need,need,NOUN,True,False
be,be,be,be,AUX,True,True
.,.,.,.,PUNCT,False,False
in,in,in,in,ADP,True,True
the,the,the,the,DET,True,True
case,case,case,case,NOUN,True,False
of,of,of,of,ADP,True,True
mutually,mutually,mutually,mutually,ADV,True,False
exclusive,exclusive,exclusive,exclusive,ADJ,True,False
application,application,application,application,NOUN,True,False
for,for,for,for,ADP,True,True
the,the,the,the,DET,True,True
same,same,same,same,ADJ,True,True
census,census,census,census,NOUN,True,False
tract,tract,tract,tract,NOUN,True,False
",",",",",",",",PUNCT,False,False
the,the,the,the,DET,True,True
pal,pal,pal,pal,NOUN,True,False
would,would,would,would,VERB,True,True
be,be,be,be,AUX,True,True
assign,assign,assign,assign,ADJ,True,False
by,by,by,by,ADP,True,True
auction,auction,auction,auction,NOUN,True,False
.,.,.,.,PUNCT,False,False
att,att,att,att,ADV,True,False
agree,agree,agree,agree,VERB,True,False
with,with,with,with,ADP,True,True
most,most,most,most,ADJ,True,True
of,of,of,of,ADP,True,True
these,these,these,these,DET,True,True
proposal,proposal,proposal,proposal,NOUN,True,False
.,.,.,.,PUNCT,False,False
while,while,while,while,SCONJ,True,True
",",",",",",",",PUNCT,False,False
as,as,as,as,SCONJ,True,True
the,the,the,the,DET,True,True
pn,pn,pn,pn,NOUN,True,False
note,note,note,note,NOUN,True,False
",",",",",",",",PUNCT,False,False
more,more,more,more,ADV,True,True
thought,thought,think,think,VERB,True,False
mustbe,mustbe,mustbe,mustbe,PROPN,True,False
give,give,give,give,VERB,True,True
to,to,to,to,ADP,True,True
the,the,the,the,DET,True,True
technical,technical,technical,technical,ADJ,True,False
requirement,requirement,requirement,requirement,NOUN,True,False
to,to,to,to,PART,True,True
avoid,avoid,avoid,avoid,VERB,True,False
co,co,co,co,NOUN,True,False
-,-,-,-,NOUN,False,False
channel,channel,channel,channel,ADJ,True,False
and,and,and,and,CCONJ,True,True
adjacent,adjacent,adjacent,adjacent,ADJ,True,False
channel,channel,channel,channel,PROPN,True,False
"interference,10","interference,10","interference,10","interference,10",PROPN,False,False
mhz,mhz,mhz,mhz,PROPN,True,False
unpaired,unpaired,unpaired,unpaired,ADJ,True,False
channel,channel,channel,channel,PROPN,True,False
would,would,would,would,VERB,True,True
allow,allow,allow,allow,VERB,True,False
for,for,for,for,ADP,True,True
flexible,flexible,flexible,flexible,ADJ,True,False
use,use,use,use,NOUN,True,False
",",",",",",",",PUNCT,False,False
include,include,include,include,VERB,True,False
wimax,wimax,wimax,wimax,PROPN,True,False
",",",",",",",",PUNCT,False,False
td,td,td,td,PROPN,True,False
-,-,-,-,PUNCT,False,False
lte,lte,lte,lte,PROPN,True,False
",",",",",",",",PUNCT,False,False
non,non,non,non,ADJ,True,False
-,-,-,-,ADJ,False,False
lineof,lineof,lineof,lineof,ADJ,True,False
sight,sight,sight,sight,NOUN,True,False
backhaul,backhaul,backhaul,backhaul,PROPN,True,False
and,and,and,and,CCONJ,True,True
other,other,other,other,ADJ,True,True
innovative,innovative,innovative,innovative,ADJ,True,False
use,use,use,use,NOUN,True,False
.,.,.,.,PUNCT,False,False
in,in,in,in,ADP,True,True
addition,addition,addition,addition,NOUN,True,False
",",",",",",",",PUNCT,False,False
one,one,one,one,NUM,True,True
year,year,year,year,NOUN,True,False
license,license,license,license,NOUN,True,False
term,term,term,term,NOUN,True,False
and,and,and,and,CCONJ,True,True
census,census,census,census,NOUN,True,False
tract,tract,tract,tract,NOUN,True,False
-,-,-,-,PUNCT,False,False
sized,sized,sized,sized,ADJ,True,False
pal,pal,pal,pal,NOUN,True,False
may,may,may,may,VERB,True,True
permit,permit,permit,permit,VERB,True,False
more,more,more,more,ADJ,True,True
flexibility,flexibility,flexibility,flexibility,NOUN,True,False
in,in,in,in,ADP,True,True
business,business,business,business,NOUN,True,False
plan,plan,plan,plan,NOUN,True,False
",",",",",",",",PUNCT,False,False
provide,provide,provide,provide,VERB,True,False
that,that,that,that,DET,True,True
applicant,applicant,applicant,applicant,NOUN,True,False
also,also,also,also,ADV,True,True
can,can,can,can,VERB,True,True
ag,ag,ag,ag,X,True,False
-,-,-,-,PUNCT,False,False
gregate,gregate,gregate,gregate,VERB,True,False
multiple,multiple,multiple,multiple,ADJ,True,False
one,one,one,one,NUM,True,True
year,year,year,year,NOUN,True,False
term,term,term,term,NOUN,True,False
and,and,and,and,CCONJ,True,True
apply,apply,apply,apply,VERB,True,False
for,for,for,for,ADP,True,True
multiple,multiple,multiple,multiple,ADJ,True,False
contiguous,contiguous,contiguous,contiguous,ADJ,True,False
census,census,census,census,NOUN,True,False
tract,tract,tract,tract,NOUN,True,False
.,.,.,.,PUNCT,False,False
att,att,att,att,ADV,True,False
believe,believe,believe,believe,VERB,True,False
that,that,that,that,SCONJ,True,True
flexibility,flexibility,flexibility,flexibility,NOUN,True,False
in,in,in,in,ADP,True,True
the,the,the,the,DET,True,True
deployment,deployment,deployment,deployment,NOUN,True,False
of,of,of,of,ADP,True,True
pal,pal,pal,pal,PROPN,True,False
will,will,will,will,VERB,True,True
be,be,be,be,AUX,True,True
important,important,important,important,ADJ,True,False
to,to,to,to,PART,True,True
commer,commer,commer,commer,VERB,True,False
-,-,-,-,PUNCT,False,False
cial,cial,cial,cial,ADJ,True,False
operator,operator,operator,operator,NOUN,True,False
and,and,and,and,CCONJ,True,True
other,other,other,other,ADJ,True,True
priority,priority,priority,priority,NOUN,True,False
access,access,access,access,NOUN,True,False
licensee,licensee,licensee,licensee,NOUN,True,False
.,.,.,.,PUNCT,False,False
some,some,some,some,DET,True,True
pal,pal,pal,pal,NOUN,True,False
may,may,may,may,VERB,True,True
be,be,be,be,AUX,True,True
of,of,of,of,ADP,True,True
a,a,a,a,DET,True,True
short,short,short,short,ADJ,True,False
term,term,term,term,NOUN,True,False
",",",",",",",",PUNCT,False,False
such,such,such,such,ADJ,True,True
as,as,as,as,SCONJ,True,True
coverage,coverage,coverage,coverage,NOUN,True,False
for,for,for,for,ADP,True,True
a,a,a,a,DET,True,True
large,large,large,large,ADJ,True,False
event,event,event,event,NOUN,True,False
",",",",",",",",PUNCT,False,False
while,while,while,while,SCONJ,True,True
other,other,other,other,ADJ,True,True
may,may,may,may,VERB,True,True
be,be,be,be,AUX,True,True
of,of,of,of,ADP,True,True
a,a,a,a,DET,True,True
long,long,long,long,ADJ,True,False
term,term,term,term,NOUN,True,False
if,if,if,if,SCONJ,True,True
they,they,-PRON-,-pron-,PRON,True,True
be,be,be,be,VERB,True,True
use,use,use,use,NOUN,True,False
for,for,for,for,ADP,True,True
access,access,access,access,NOUN,True,False
or,or,or,or,CCONJ,True,True
backhaul,backhaul,backhaul,backhaul,NOUN,True,False
",",",",",",",",PUNCT,False,False
for,for,for,for,ADP,True,True
example,example,example,example,NOUN,True,False
.,.,.,.,PUNCT,False,False
furthermore,furthermore,furthermore,furthermore,ADV,True,False
",",",",",",",",PUNCT,False,False
pa,pa,pa,pa,PROPN,True,False
licensee,licensee,licensee,licensee,PROPN,True,False
should,should,should,should,VERB,True,True
not,not,not,not,PART,True,True
be,be,be,be,AUX,True,True
preclude,preclude,preclude,preclude,ADJ,True,False
from,from,from,from,ADP,True,True
gain,gain,gain,gain,ADJ,True,False
access,access,access,access,NOUN,True,False
to,to,to,to,ADP,True,True
additional,additional,additional,additional,ADJ,True,False
spectrum,spectrum,spectrum,spectrum,NOUN,True,False
if,if,if,if,SCONJ,True,True
future,future,future,future,ADJ,True,False
need,need,need,need,NOUN,True,False
arise,arise,arise,arise,VERB,True,False
.,.,.,.,PUNCT,False,False
because,because,because,because,SCONJ,True,True
the,the,the,the,DET,True,True
small,small,small,small,ADJ,True,False
cell,cell,cell,cell,NOUN,True,False
envision,envision,envision,envision,NOUN,True,False
by,by,by,by,ADP,True,True
commercial,commercial,commercial,commercial,ADJ,True,False
network,network,network,network,NOUN,True,False
operator,operator,operator,operator,NOUN,True,False
for,for,for,for,ADP,True,True
this,this,this,this,DET,True,True
spectrum,spectrum,spectrum,spectrum,NOUN,True,False
block,block,block,block,NOUN,True,False
will,will,will,will,VERB,True,True
be,be,be,be,AUX,True,True
deploy,deploy,deploy,deploy,VERB,True,False
for,for,for,for,ADP,True,True
both,both,both,both,DET,True,True
capacity,capacity,capacity,capacity,NOUN,True,False
and,and,and,and,CCONJ,True,True
coverage,coverage,coverage,coverage,NOUN,True,False
en,en,en,en,NOUN,True,False
-,-,-,-,PUNCT,False,False
hancement,hancement,hancement,hancement,NOUN,True,False
",",",",",",",",PUNCT,False,False
licensee,licensee,licensee,licensee,PROPN,True,False
will,will,will,will,VERB,True,True
need,need,need,need,VERB,True,False
flexibility,flexibility,flexibility,flexibility,NOUN,True,False
in,in,in,in,ADP,True,True
how,how,how,how,ADV,True,True
the,the,the,the,DET,True,True
spectrum,spectrum,spectrum,spectrum,NOUN,True,False
be,be,be,be,AUX,True,True
license,license,license,license,NOUN,True,False
.,.,.,.,PUNCT,False,False
the,the,the,the,DET,True,True
census,census,census,census,NOUN,True,False
tract,tract,tract,tract,PROPN,True,False
present,present,present,present,VERB,True,False
a,a,a,a,DET,True,True
good,good,good,good,ADJ,True,False
starting,starting,starting,starting,NOUN,True,False
point,point,point,point,NOUN,True,False
",",",",",",",",PUNCT,False,False
but,but,but,but,CCONJ,True,True
the,the,the,the,DET,True,True
commission,commission,commission,commission,NOUN,True,False
may,may,may,may,VERB,True,True
want,want,want,want,VERB,True,False
to,to,to,to,PART,True,True
review,review,review,review,VERB,True,False
this,this,this,this,DET,True,True
choice,choice,choice,choice,NOUN,True,False
when,when,when,when,ADV,True,True
more,more,more,more,ADJ,True,True
datum,datum,datum,datum,NOUN,True,False
be,be,be,be,VERB,True,True
availableto,availableto,availableto,availableto,NOUN,True,False
determine,determine,determine,determine,VERB,True,False
the,the,the,the,DET,True,True
ideal,ideal,ideal,ideal,PROPN,True,False
geographic,geographic,geographic,geographic,PROPN,True,False
area,area,area,area,NOUN,True,False
.,.,.,.,PUNCT,False,False
for,for,for,for,ADP,True,True
example,example,example,example,NOUN,True,False
the,the,the,the,DET,True,True
census,census,census,census,NOUN,True,False
tract,tract,tract,tract,NOUN,True,False
may,may,may,may,VERB,True,True
prove,prove,prove,prove,VERB,True,False
difficult,difficult,difficult,difficult,ADJ,True,False
in,in,in,in,ADP,True,True
dense,dense,dense,dense,ADJ,True,False
urban,urban,urban,urban,ADJ,True,False
area,area,area,area,NOUN,True,False
.,.,.,.,PUNCT,False,False
in,in,in,in,ADP,True,True
the,the,the,the,DET,True,True
meanwhile,meanwhile,meanwhile,meanwhile,NOUN,True,True
",",",",",",",",PUNCT,False,False
the,the,the,the,DET,True,True
fcc,fcc,fcc,fcc,PROPN,True,False
should,should,should,should,VERB,True,True
permit,permit,permit,permit,VERB,True,False
partitioning,partitioning,partitioning,partitioning,NOUN,True,False
and,and,and,and,CCONJ,True,True
secondary,secondary,secondary,secondary,ADJ,True,False
market,market,market,market,NOUN,True,False
mechanism,mechanism,mechanism,mechanism,NOUN,True,False
to,to,to,to,PART,True,True
develop,develop,develop,develop,VERB,True,False
.,.,.,.,PUNCT,False,False
att,att,att,att,ADV,True,False
agree,agree,agree,agree,VERB,True,False
with,with,with,with,ADP,True,True
the,the,the,the,DET,True,True
use,use,use,use,NOUN,True,False
of,of,of,of,ADP,True,True
auction,auction,auction,auction,NOUN,True,False
to,to,to,to,PART,True,True
resolve,resolve,resolve,resolve,VERB,True,False
mutually,mutually,mutually,mutually,ADV,True,False
exclusive,exclusive,exclusive,exclusive,ADJ,True,False
application,application,application,application,NOUN,True,False
",",",",",",",",PUNCT,False,False
and,and,and,and,CCONJ,True,True
with,with,with,with,ADP,True,True
an,an,an,an,DET,True,True
annual,annual,annual,annual,ADJ,True,False
filing,filing,filing,filing,NOUN,True,False
window,window,window,window,NOUN,True,False
for,for,for,for,ADP,True,True
available,available,available,available,ADJ,True,False
license,license,license,license,NOUN,True,False
.,.,.,.,PUNCT,False,False
att,att,att,att,ADV,True,False
believe,believe,believe,believe,VERB,True,False
that,that,that,that,SCONJ,True,True
third,third,third,third,ADJ,True,True
party,party,party,party,NOUN,True,False
participation,participation,participation,participation,NOUN,True,False
may,may,may,may,VERB,True,True
be,be,be,be,AUX,True,True
beneficial,beneficial,beneficial,beneficial,ADJ,True,False
in,in,in,in,ADP,True,True
connection,connection,connection,connection,NOUN,True,False
with,with,with,with,ADP,True,True
the,the,the,the,DET,True,True
de,de,de,de,ADJ,True,False
-,-,-,-,NOUN,False,False
velopment,velopment,velopment,velopment,NOUN,True,False
of,of,of,of,ADP,True,True
the,the,the,the,DET,True,True
sas,sas,sas,sas,PROPN,True,False
and,and,and,and,CCONJ,True,True
any,any,any,any,DET,True,True
electronic,electronic,electronic,electronic,ADJ,True,False
auction,auction,auction,auction,NOUN,True,False
process,process,process,process,NOUN,True,False
.,.,.,.,PUNCT,False,False
the,the,the,the,DET,True,True
commission,commission,commission,commission,NOUN,True,False
have,have,have,have,AUX,True,True
ask,ask,ask,ask,VERB,True,False
how,how,how,how,ADV,True,True
such,such,such,such,ADJ,True,True
third,third,third,third,ADJ,True,True
party,party,party,party,NOUN,True,False
participation,participation,participation,participation,NOUN,True,False
should,should,should,should,VERB,True,True
be,be,be,be,AUX,True,True
administer,administer,administer,administer,NOUN,True,False
.,.,.,.,PUNCT,False,False
it,it,-PRON-,-pron-,PRON,True,True
should,should,should,should,VERB,True,True
be,be,be,be,AUX,True,True
clear,clear,clear,clear,ADJ,True,False
that,that,that,that,SCONJ,True,True
any,any,any,any,DET,True,True
third,third,third,third,ADJ,True,True
party,party,party,party,NOUN,True,False
serv,serv,serv,serv,PROPN,True,False
-,-,-,-,PUNCT,False,False
ing,ing,ing,ing,PROPN,True,False
as,as,as,as,SCONJ,True,True
the,the,the,the,DET,True,True
sas,sas,sas,sas,PROPN,True,False
or,or,or,or,CCONJ,True,True
an,an,an,an,DET,True,True
electronic,electronic,electronic,electronic,ADJ,True,False
auction,auction,auction,auction,NOUN,True,False
system,system,system,system,NOUN,True,False
provider,provider,provider,provider,NOUN,True,False
would,would,would,would,VERB,True,True
be,be,be,be,AUX,True,True
act,act,act,act,VERB,True,False
on,on,on,on,ADP,True,True
behalf,behalf,behalf,behalf,NOUN,True,False
of,of,of,of,ADP,True,True
the,the,the,the,DET,True,True
com,com,com,com,NOUN,True,False
-,-,-,-,PUNCT,False,False
mission,mission,mission,mission,NOUN,True,False
.,.,.,.,PUNCT,False,False
all,all,all,all,DET,True,True
datum,datum,datum,datum,NOUN,True,False
",",",",",",",",PUNCT,False,False
software,software,software,software,NOUN,True,False
system,system,system,system,NOUN,True,False
",",",",",",",",PUNCT,False,False
auction,auction,auction,auction,NOUN,True,False
methodology,methodology,methodology,methodology,NOUN,True,False
and,and,and,and,CCONJ,True,True
other,other,other,other,ADJ,True,True
information,information,information,information,NOUN,True,False
would,would,would,would,VERB,True,True
belong,belong,belong,belong,VERB,True,False
to,to,to,to,ADP,True,True
the,the,the,the,DET,True,True
fcc.at,fcc.at,fcc.at,fcc.at,PROPN,False,False
least,least,least,least,ADJ,True,True
two,two,two,two,NUM,True,True
pal,pal,pal,pal,ADJ,True,False
assignment,assignment,assignment,assignment,NOUN,True,False
issue,issue,issue,issue,NOUN,True,False
require,require,require,require,VERB,True,False
more,more,more,more,ADV,True,True
thought,thought,think,think,VERB,True,False
",",",",",",",",PUNCT,False,False
however,however,however,however,ADV,True,True
.,.,.,.,PUNCT,False,False
the,the,the,the,DET,True,True
commission,commission,commission,commission,NOUN,True,False
propose,propose,propose,propose,VERB,True,False
that,that,that,that,SCONJ,True,True
priority,priority,priority,priority,NOUN,True,False
access,access,access,access,NOUN,True,False
licensee,licensee,licensee,licensee,NOUN,True,False
should,should,should,should,VERB,True,True
be,be,be,be,AUX,True,True
entitle,entitle,entitle,entitle,ADJ,True,False
to,to,to,to,ADP,True,True
no,no,no,no,DET,True,True
renewal,renewal,renewal,renewal,NOUN,True,False
expectancy,expectancy,expectancy,expectancy,NOUN,True,False
and,and,and,and,CCONJ,True,True
that,that,that,that,SCONJ,True,True
pal,pal,pal,pal,NOUN,True,False
should,should,should,should,VERB,True,True
be,be,be,be,AUX,True,True
non,non,non,non,ADJ,True,False
-,-,-,-,ADJ,False,False
renewable,renewable,renewable,renewable,ADJ,True,False
.,.,.,.,PUNCT,False,False
as,as,as,as,SCONJ,True,True
a,a,a,a,DET,True,True
practical,practical,practical,practical,ADJ,True,False
matter,matter,matter,matter,NOUN,True,False
",",",",",",",",PUNCT,False,False
this,this,this,this,DET,True,True
mean,mean,mean,mean,VERB,True,False
that,that,that,that,SCONJ,True,True
regardless,regardless,regardless,regardless,ADV,True,False
of,of,of,of,ADP,True,True
what,what,what,what,PRON,True,True
a,a,a,a,DET,True,True
licen,licen,licen,licen,NOUN,True,False
-,-,-,-,PUNCT,False,False
see,see,see,see,PROPN,True,True
may,may,may,may,VERB,True,True
deploy,deploy,deploy,deploy,VERB,True,False
or,or,or,or,CCONJ,True,True
how,how,how,how,ADV,True,True
many,many,many,many,ADJ,True,True
one,one,one,one,NUM,True,True
year,year,year,year,NOUN,True,False
term,term,term,term,NOUN,True,False
it,it,-PRON-,-pron-,PRON,True,True
may,may,may,may,VERB,True,True
obtain,obtain,obtain,obtain,VERB,True,False
initially,initially,initially,initially,ADV,True,False
",",",",",",",",PUNCT,False,False
there,there,there,there,PRON,True,True
will,will,will,will,VERB,True,True
be,be,be,be,AUX,True,True
uncertainty,uncertainty,uncertainty,uncertainty,NOUN,True,False
as,as,as,as,SCONJ,True,True
to,to,to,to,ADP,True,True
whether,whether,whether,whether,SCONJ,True,True
it,it,-PRON-,-pron-,PRON,True,True
will,will,will,will,VERB,True,True
continue,continue,continue,continue,VERB,True,False
to,to,to,to,PART,True,True
have,have,have,have,AUX,True,True
access,access,access,access,NOUN,True,False
to,to,to,to,ADP,True,True
the,the,the,the,DET,True,True
spectrum,spectrum,spectrum,spectrum,NOUN,True,False
it,it,-PRON-,-pron-,PRON,True,True
use,use,use,use,VERB,True,False
to,to,to,to,PART,True,True
serve,serve,serve,serve,VERB,True,False
its,its,-PRON-,-pron-,DET,True,True
customer,customer,customer,customer,NOUN,True,False
after,after,after,after,ADP,True,True
its,its,-PRON-,-pron-,DET,True,True
term,term,term,term,NOUN,True,False
be,be,be,be,VERB,True,True
over,over,over,over,ADV,True,True
",",",",",",",",PUNCT,False,False
and,and,and,and,CCONJ,True,True
if,if,if,if,SCONJ,True,True
so,so,so,so,ADV,True,True
",",",",",",",",PUNCT,False,False
at,at,at,at,ADP,True,True
what,what,what,what,DET,True,True
cost,cost,cost,cost,NOUN,True,False
.,.,.,.,PUNCT,False,False
it,it,-PRON-,-pron-,PRON,True,True
may,may,may,may,VERB,True,True
be,be,be,be,AUX,True,True
outbid,outbid,outbid,outbid,NOUN,True,False
in,in,in,in,ADP,True,True
a,a,a,a,DET,True,True
new,new,new,new,ADJ,True,False
auction,auction,auction,auction,NOUN,True,False
at,at,at,at,ADP,True,True
the,the,the,the,DET,True,True
end,end,end,end,NOUN,True,False
of,of,of,of,ADP,True,True
the,the,the,the,DET,True,True
term,term,term,term,NOUN,True,False
",",",",",",",",PUNCT,False,False
or,or,or,or,CCONJ,True,True
be,be,be,be,AUX,True,True
require,require,require,require,ADJ,True,False
to,to,to,to,PART,True,True
bid,bid,bid,bid,VERB,True,False
so,so,so,so,ADV,True,True
much,much,much,much,ADV,True,True
to,to,to,to,PART,True,True
continue,continue,continue,continue,VERB,True,False
to,to,to,to,PART,True,True
have,have,have,have,AUX,True,True
access,access,access,access,NOUN,True,False
that,that,that,that,SCONJ,True,True
its,its,-PRON-,-pron-,DET,True,True
investment,investment,investment,investment,NOUN,True,False
would,would,would,would,VERB,True,True
be,be,be,be,AUX,True,True
render,render,render,render,VERB,True,False
une,une,une,une,ADJ,True,False
-,-,-,-,PUNCT,False,False
conomical,conomical,conomical,conomical,ADJ,True,False
.,.,.,.,PUNCT,False,False
this,this,this,this,DET,True,True
uncertainty,uncertainty,uncertainty,uncertainty,NOUN,True,False
will,will,will,will,VERB,True,True
deter,deter,deter,deter,VERB,True,False
innovation,innovation,innovation,innovation,NOUN,True,False
and,and,and,and,CCONJ,True,True
investment,investment,investment,investment,NOUN,True,False
in,in,in,in,ADP,True,True
the,the,the,the,DET,True,True
band,band,band,band,NOUN,True,False
.,.,.,.,PUNCT,False,False
second,second,second,second,ADV,True,False
",",",",",",",",PUNCT,False,False
there,there,there,there,PRON,True,True
would,would,would,would,VERB,True,True
appear,appear,appear,appear,VERB,True,False
to,to,to,to,PART,True,True
be,be,be,be,AUX,True,True
no,no,no,no,DET,True,True
disincentive,disincentive,disincentive,disincentive,ADJ,True,False
to,to,to,to,ADP,True,True
warehousing,warehousing,warehousing,warehousing,ADJ,True,False
spectrum,spectrum,spectrum,spectrum,PROPN,True,False
in,in,in,in,ADP,True,True
prime,prime,prime,prime,ADJ,True,False
area,area,area,area,NOUN,True,False
by,by,by,by,ADP,True,True
obtain,obtain,obtain,obtain,VERB,True,False
multi,multi,multi,multi,ADJ,True,False
-,-,-,-,ADJ,False,False
ple,ple,ple,ple,ADJ,True,False
census,census,census,census,NOUN,True,False
tract,tract,tract,tract,NOUN,True,False
for,for,for,for,ADP,True,True
multiple,multiple,multiple,multiple,ADJ,True,False
year,year,year,year,NOUN,True,False
term,term,term,term,NOUN,True,False
.,.,.,.,PUNCT,False,False
this,this,this,this,DET,True,True
present,present,present,present,ADJ,True,False
the,the,the,the,DET,True,True
potential,potential,potential,potential,NOUN,True,False
for,for,for,for,ADP,True,True
priority,priority,priority,priority,NOUN,True,False
access,access,access,access,NOUN,True,False
spectrum,spectrum,spectrum,spectrum,NOUN,True,False
to,to,to,to,PART,True,True
lie,lie,lie,lie,VERB,True,False
fallow,fallow,fallow,fallow,ADJ,True,False
.,.,.,.,PUNCT,False,False
att,att,att,att,ADV,True,False
believe,believe,believe,believe,VERB,True,False
that,that,that,that,SCONJ,True,True
the,the,the,the,DET,True,True
second,second,second,second,ADJ,True,False
concern,concern,concern,concern,NOUN,True,False
can,can,can,can,VERB,True,True
be,be,be,be,AUX,True,True
address,address,address,address,NOUN,True,False
by,by,by,by,ADP,True,True
require,require,require,require,VERB,True,False
the,the,the,the,DET,True,True
pa,pa,pa,pa,PROPN,True,False
licensee,licensee,licensee,licensee,PROPN,True,False
to,to,to,to,PART,True,True
commit,commit,commit,commit,VERB,True,False
to,to,to,to,PART,True,True
deploy,deploy,deploy,deploy,VERB,True,False
equipment,equipment,equipment,equipment,NOUN,True,False
and,and,and,and,CCONJ,True,True
to,to,to,to,PART,True,True
be,be,be,be,AUX,True,True
provide,provide,provide,provide,VERB,True,False
service,service,service,service,NOUN,True,False
in,in,in,in,ADP,True,True
the,the,the,the,DET,True,True
applicable,applicable,applicable,applicable,ADJ,True,False
geographic,geographic,geographic,geographic,ADJ,True,False
area,area,area,area,NOUN,True,False
by,by,by,by,ADP,True,True
the,the,the,the,DET,True,True
end,end,end,end,NOUN,True,False
of,of,of,of,ADP,True,True
the,the,the,the,DET,True,True
first,first,first,first,ADJ,True,True
pal,pal,pal,pal,ADJ,True,False
year,year,year,year,NOUN,True,False
.,.,.,.,PUNCT,False,False
the,the,the,the,DET,True,True
licensee,licensee,licensee,licensee,NOUN,True,False
could,could,could,could,VERB,True,True
attest,attest,attest,attest,VERB,True,False
to,to,to,to,ADP,True,True
its,its,-PRON-,-pron-,DET,True,True
use,use,use,use,NOUN,True,False
of,of,of,of,ADP,True,True
the,the,the,the,DET,True,True
priority,priority,priority,priority,NOUN,True,False
access,access,access,access,NOUN,True,False
spectrum,spectrum,spectrum,spectrum,NOUN,True,False
up,up,up,up,ADV,True,True
-,-,-,-,PUNCT,False,False
on,on,on,on,ADP,True,True
registration,registration,registration,registration,NOUN,True,False
of,of,of,of,ADP,True,True
its,its,-PRON-,-pron-,DET,True,True
deployment,deployment,deployment,deployment,NOUN,True,False
in,in,in,in,ADP,True,True
the,the,the,the,DET,True,True
sas,sas,sas,sas,PROPN,True,False
database,database,database,database,NOUN,True,False
.,.,.,.,PUNCT,False,False
such,such,such,such,DET,True,True
a,a,a,a,DET,True,True
registration,registration,registration,registration,NOUN,True,False
process,process,process,process,NOUN,True,False
also,also,also,also,ADV,True,True
would,would,would,would,VERB,True,True
contribute,contribute,contribute,contribute,VERB,True,False
to,to,to,to,PART,True,True
remove,remove,remove,remove,VERB,True,False
the,the,the,the,DET,True,True
disincentive,disincentive,disincentive,disincentive,NOUN,True,False
to,to,to,to,ADP,True,True
investment,investment,investment,investment,NOUN,True,False
.,.,.,.,PUNCT,False,False
the,the,the,the,DET,True,True
fact,fact,fact,fact,NOUN,True,False
that,that,that,that,SCONJ,True,True
license,license,license,license,NOUN,True,False
be,be,be,be,VERB,True,True
not,not,not,not,PART,True,True
renewable,renewable,renewable,renewable,ADJ,True,False
raise,raise,raise,raise,NOUN,True,False
the,the,the,the,DET,True,True
prospect,prospect,prospect,prospect,NOUN,True,False
of,of,of,of,ADP,True,True
strand,strand,strand,strand,ADJ,True,False
investment,investment,investment,investment,NOUN,True,False
",",",",",",",",PUNCT,False,False
which,which,which,which,DET,True,True
be,be,be,be,VERB,True,True
likely,likely,likely,likely,ADJ,True,False
to,to,to,to,PART,True,True
deter,deter,deter,deter,VERB,True,False
investment,investment,investment,investment,NOUN,True,False
in,in,in,in,ADP,True,True
the,the,the,the,DET,True,True
first,first,first,first,ADJ,True,True
place,place,place,place,NOUN,True,False
.,.,.,.,PUNCT,False,False
any,any,any,any,DET,True,True
applicant,applicant,applicant,applicant,NOUN,True,False
would,would,would,would,VERB,True,True
know,know,know,know,VERB,True,False
go,go,go,go,VERB,True,True
in,in,in,in,ADP,True,True
that,that,that,that,SCONJ,True,True
they,they,-PRON-,-pron-,PRON,True,True
may,may,may,may,VERB,True,True
lose,lose,lose,lose,VERB,True,False
access,access,access,access,NOUN,True,False
to,to,to,to,ADP,True,True
the,the,the,the,DET,True,True
spectrum,spectrum,spectrum,spectrum,NOUN,True,False
at,at,at,at,ADP,True,True
the,the,the,the,DET,True,True
end,end,end,end,NOUN,True,False
of,of,of,of,ADP,True,True
the,the,the,the,DET,True,True
term,term,term,term,NOUN,True,False
.,.,.,.,PUNCT,False,False
the,the,the,the,DET,True,True
commission,commission,commission,commission,NOUN,True,False
should,should,should,should,VERB,True,True
adopt,adopt,adopt,adopt,VERB,True,False
a,a,a,a,DET,True,True
keep,keep,keep,keep,VERB,True,True
what,what,what,what,PRON,True,True
you,you,-PRON-,-pron-,PRON,True,True
use,use,use,use,VERB,True,False
type,type,type,type,NOUN,True,False
rule,rule,rule,rule,NOUN,True,False
that,that,that,that,DET,True,True
would,would,would,would,VERB,True,True
allow,allow,allow,allow,VERB,True,False
pals,pals,pal,pal,NOUN,True,False
to,to,to,to,PART,True,True
obtain,obtain,obtain,obtain,VERB,True,False
a,a,a,a,DET,True,True
preference,preference,preference,preference,NOUN,True,False
to,to,to,to,PART,True,True
obtain,obtain,obtain,obtain,VERB,True,False
additional,additional,additional,additional,ADJ,True,False
multi,multi,multi,multi,ADJ,True,False
-,-,-,-,ADJ,False,False
year,year,year,year,ADJ,True,False
pal,pal,pal,pal,NOUN,True,False
to,to,to,to,ADP,True,True
the,the,the,the,DET,True,True
extent,extent,extent,extent,NOUN,True,False
that,that,that,that,SCONJ,True,True
the,the,the,the,DET,True,True
deployment,deployment,deployment,deployment,NOUN,True,False
be,be,be,be,AUX,True,True
reg,reg,reg,reg,NOUN,True,False
-,-,-,-,PUNCT,False,False
istere,istere,istere,istere,NOUN,True,False
with,with,with,with,ADP,True,True
the,the,the,the,DET,True,True
sas,sas,sas,sas,PROPN,True,False
and,and,and,and,CCONJ,True,True
certify,certify,certify,certify,VERB,True,False
by,by,by,by,ADP,True,True
the,the,the,the,DET,True,True
licensee,licensee,licensee,licensee,NOUN,True,False
as,as,as,as,SCONJ,True,True
provide,provide,provide,provide,VERB,True,False
service,service,service,service,NOUN,True,False
.,.,.,.,PUNCT,False,False
att,att,att,att,PROPN,True,False
also,also,also,also,ADV,True,True
propose,propose,propose,propose,VERB,True,False
that,that,that,that,SCONJ,True,True
pal,pal,pal,pal,NOUN,True,False
be,be,be,be,AUX,True,True
associate,associate,associate,associate,ADJ,True,False
with,with,with,with,ADP,True,True
specific,specific,specific,specific,ADJ,True,False
spectrum,spectrum,spectrum,spectrum,NOUN,True,False
assignment,assignment,assignment,assignment,NOUN,True,False
",",",",",",",",PUNCT,False,False
rather,rather,rather,rather,ADV,True,True
than,than,than,than,SCONJ,True,True
allow,allow,allow,allow,VERB,True,False
the,the,the,the,DET,True,True
sas,sas,sas,sas,PROPN,True,False
to,to,to,to,PART,True,True
allocate,allocate,allocate,allocate,VERB,True,False
pa,pa,pa,pa,PROPN,True,False
licensee,licensee,licensee,licensee,PROPN,True,False
spectrum,spectrum,spectrum,spectrum,PROPN,True,False
dynamically,dynamically,dynamically,dynamically,ADV,True,False
.,.,.,.,PUNCT,False,False
small,small,small,small,ADJ,True,False
cell,cell,cell,cell,NOUN,True,False
deployment,deployment,deployment,deployment,NOUN,True,False
may,may,may,may,VERB,True,True
be,be,be,be,AUX,True,True
integrate,integrate,integrate,integrate,VERB,True,False
into,into,into,into,ADP,True,True
hetnets,hetnets,hetnet,hetnet,NOUN,True,False
.,.,.,.,PUNCT,False,False
allow,allow,allow,allow,VERB,True,False
the,the,the,the,DET,True,True
sas,sas,sas,sas,PROPN,True,False
to,to,to,to,PART,True,True
change,change,change,change,VERB,True,False
the,the,the,the,DET,True,True
spectrum,spectrum,spectrum,spectrum,NOUN,True,False
assignment,assignment,assignment,assignment,NOUN,True,False
for,for,for,for,ADP,True,True
such,such,such,such,DET,True,True
a,a,a,a,DET,True,True
pal,pal,pal,pal,NOUN,True,False
be,be,be,be,AUX,True,True
likely,likely,likely,likely,ADJ,True,False
to,to,to,to,PART,True,True
impair,impair,impair,impair,VERB,True,False
the,the,the,the,DET,True,True
ability,ability,ability,ability,NOUN,True,False
of,of,of,of,ADP,True,True
the,the,the,the,DET,True,True
licensee,licensee,licensee,licensee,NOUN,True,False
to,to,to,to,PART,True,True
manage,manage,manage,manage,VERB,True,False
such,such,such,such,DET,True,True
an,an,an,an,DET,True,True
integrated,integrated,integrated,integrated,ADJ,True,False
network,network,network,network,NOUN,True,False
.,.,.,.,PUNCT,False,False
moreover,moreover,moreover,moreover,ADV,True,True
",",",",",",",",PUNCT,False,False
pals,pals,pal,pal,NOUN,True,False
issue,issue,issue,issue,NOUN,True,False
to,to,to,to,ADP,True,True
the,the,the,the,DET,True,True
same,same,same,same,ADJ,True,True
licensee,licensee,licensee,licensee,NOUN,True,False
in,in,in,in,ADP,True,True
adjacent,adjacent,adjacent,adjacent,ADJ,True,False
census,census,census,census,NOUN,True,False
tract,tract,tract,tract,NOUN,True,False
should,should,should,should,VERB,True,True
be,be,be,be,AUX,True,True
assign,assign,assign,assign,VERB,True,False
the,the,the,the,DET,True,True
same,same,same,same,ADJ,True,True
10,10,10,10,NUM,False,False
mhz,mhz,mhz,mhz,PROPN,True,False
block,block,block,block,NOUN,True,False
in,in,in,in,ADP,True,True
contiguous,contiguous,contiguous,contiguous,ADJ,True,False
license,license,license,license,NOUN,True,False
area,area,area,area,NOUN,True,False
if,if,if,if,SCONJ,True,True
it,it,-PRON-,-pron-,PRON,True,True
be,be,be,be,VERB,True,True
at,at,at,at,ADV,True,True
all,all,all,all,ADV,True,True
possible,possible,possible,possible,ADJ,True,False
to,to,to,to,PART,True,True
do,do,do,do,AUX,True,True
so,so,so,so,ADV,True,True
.,.,.,.,PUNCT,False,False
finally,finally,finally,finally,ADV,True,False
",",",",",",",",PUNCT,False,False
att,att,att,att,INTJ,True,False
recommend,recommend,recommend,recommend,VERB,True,False
that,that,that,that,SCONJ,True,True
the,the,the,the,DET,True,True
3550,3550,3550,3550,NUM,False,False
mhz,mhz,mhz,mhz,PROPN,True,False
3650mhz,3650mhz,3650mhz,3650mhz,NOUN,False,False
band,band,band,band,NOUN,True,False
be,be,be,be,AUX,True,True
allocate,allocate,allocate,allocate,ADJ,True,False
with,with,with,with,ADP,True,True
70,70,70,70,NUM,False,False
mhz,mhz,mhz,mhz,NOUN,True,False
to,to,to,to,PART,True,True
priority,priority,priority,priority,NOUN,True,False
access,access,access,access,NOUN,True,False
user,user,user,user,NOUN,True,False
and,and,and,and,CCONJ,True,True
30,30,30,30,NUM,False,False
mhz,mhz,mhz,mhz,NOUN,True,False
to,to,to,to,ADP,True,True
general,general,general,general,ADJ,True,False
access,access,access,access,NOUN,True,False
.,.,.,.,PUNCT,False,False
for,for,for,for,ADP,True,True
pal,pal,pal,pal,NOUN,True,False
",",",",",",",",PUNCT,False,False
there,there,there,there,PRON,True,True
should,should,should,should,VERB,True,True
be,be,be,be,AUX,True,True
seven,seven,seven,seven,NUM,True,False
10,10,10,10,NUM,False,False
mhz,mhz,mhz,mhz,PROPN,True,False
channel,channel,channel,channel,NOUN,True,False
available,available,available,available,ADJ,True,False
for,for,for,for,ADP,True,True
exclusive,exclusive,exclusive,exclusive,ADJ,True,False
assignment,assignment,assignment,assignment,NOUN,True,False
in,in,in,in,ADP,True,True
the,the,the,the,DET,True,True
priority,priority,priority,priority,NOUN,True,False
tier,tier,tier,tier,NOUN,True,False
.,.,.,.,PUNCT,False,False
entity,entity,entity,entity,NOUN,True,False
should,should,should,should,VERB,True,True
able,able,able,able,ADJ,True,False
to,to,to,to,PART,True,True
be,be,be,be,AUX,True,True
aggregate,aggregate,aggregate,aggregate,ADJ,True,False
license,license,license,license,NOUN,True,False
in,in,in,in,ADP,True,True
a,a,a,a,DET,True,True
give,give,give,give,ADJ,True,True
geography,geography,geography,geography,NOUN,True,False
.,.,.,.,PUNCT,False,False
because,because,because,because,SCONJ,True,True
gaa,gaa,gaa,gaa,NOUN,True,False
user,user,user,user,NOUN,True,False
will,will,will,will,VERB,True,True
have,have,have,have,AUX,True,True
access,access,access,access,NOUN,True,False
to,to,to,to,ADP,True,True
any,any,any,any,DET,True,True
unused,unused,unused,unused,ADJ,True,False
pa,pa,pa,pa,PROPN,True,False
spectrum,spectrum,spectrum,spectrum,NOUN,True,False
",",",",",",",",PUNCT,False,False
this,this,this,this,DET,True,True
should,should,should,should,VERB,True,True
allow,allow,allow,allow,VERB,True,False
gaa,gaa,gaa,gaa,NOUN,True,False
use,use,use,use,NOUN,True,False
",",",",",",",",PUNCT,False,False
as,as,as,as,SCONJ,True,True
a,a,a,a,DET,True,True
practical,practical,practical,practical,ADJ,True,False
matter,matter,matter,matter,NOUN,True,False
",",",",",",",",PUNCT,False,False
over,over,over,over,ADP,True,True
far,far,far,far,ADV,True,False
more,more,more,more,ADJ,True,True
than,than,than,than,SCONJ,True,True
30,30,30,30,NUM,False,False
mhz,mhz,mhz,mhz,NOUN,True,False
in,in,in,in,ADP,True,True
most,most,most,most,ADJ,True,True
area,area,area,area,NOUN,True,False
.,.,.,.,PUNCT,False,False
as,as,as,as,SCONJ,True,True
with,with,with,with,ADP,True,True
the,the,the,the,DET,True,True
geographic,geographic,geographic,geographic,ADJ,True,False
market,market,market,market,NOUN,True,False
size,size,size,size,NOUN,True,False
",",",",",",",",PUNCT,False,False
this,this,this,this,DET,True,True
channelization,channelization,channelization,channelization,NOUN,True,False
",",",",",",",",PUNCT,False,False
too,too,too,too,ADV,True,True
",",",",",",",",PUNCT,False,False
may,may,may,may,VERB,True,True
be,be,be,be,AUX,True,True
reevaluate,reevaluate,reevaluate,reevaluate,NOUN,True,False
periodi,periodi,periodi,periodi,PROPN,True,False
-,-,-,-,PUNCT,False,False
cally,cally,cally,cally,ADV,True,False
to,to,to,to,PART,True,True
ensure,ensure,ensure,ensure,VERB,True,False
that,that,that,that,SCONJ,True,True
the,the,the,the,DET,True,True
spectrum,spectrum,spectrum,spectrum,NOUN,True,False
be,be,be,be,AUX,True,True
use,use,use,use,NOUN,True,False
efficiently,efficiently,efficiently,efficiently,ADV,True,False
.,.,.,.,PUNCT,False,False
general,general,general,general,ADJ,True,False
authorized,authorized,authorized,authorized,ADJ,True,False
access,access,access,access,NOUN,True,False
gaa,gaa,gaa,gaa,NOUN,True,False
.,.,.,.,PUNCT,False,False
att,att,att,att,PROPN,True,False
agree,agree,agree,agree,VERB,True,False
that,that,that,that,SCONJ,True,True
gaa,gaa,gaa,gaa,NOUN,True,False
user,user,user,user,NOUN,True,False
should,should,should,should,VERB,True,True
have,have,have,have,AUX,True,True
ac,ac,ac,ac,ADV,True,False
-,-,-,-,PUNCT,False,False
cess,cess,cess,cess,ADJ,True,False
to,to,to,to,ADP,True,True
the,the,the,the,DET,True,True
priority,priority,priority,priority,NOUN,True,False
access,access,access,access,NOUN,True,False
tier,tier,tier,tier,NOUN,True,False
when,when,when,when,ADV,True,True
it,it,-PRON-,-pron-,PRON,True,True
be,be,be,be,AUX,True,True
not,not,not,not,PART,True,True
be,be,be,be,AUX,True,True
use,use,use,use,NOUN,True,False
.,.,.,.,PUNCT,False,False
once,once,once,once,SCONJ,True,True
that,that,that,that,DET,True,True
tier,tier,tier,tier,NOUN,True,False
be,be,be,be,AUX,True,True
put,put,put,put,VERB,True,True
into,into,into,into,ADP,True,True
service,service,service,service,NOUN,True,False
by,by,by,by,ADP,True,True
a,a,a,a,DET,True,True
pal,pal,pal,pal,NOUN,True,False
",",",",",",",",PUNCT,False,False
the,the,the,the,DET,True,True
gaa,gaa,gaa,gaa,NOUN,True,False
operator,operator,operator,operator,NOUN,True,False
must,must,must,must,VERB,True,True
stop,stop,stop,stop,VERB,True,False
use,use,use,use,VERB,True,False
it,it,-PRON-,-pron-,PRON,True,True
in,in,in,in,ADP,True,True
order,order,order,order,NOUN,True,False
to,to,to,to,PART,True,True
avoid,avoid,avoid,avoid,VERB,True,False
create,create,create,create,VERB,True,False
interference,interference,interference,interference,NOUN,True,False
.,.,.,.,PUNCT,False,False
att,att,att,att,PROPN,True,False
be,be,be,be,AUX,True,True
-,-,-,-,PUNCT,False,False
lieve,lieve,lieve,lieve,VERB,True,False
that,that,that,that,SCONJ,True,True
this,this,this,this,DET,True,True
can,can,can,can,VERB,True,True
be,be,be,be,AUX,True,True
accomplish,accomplish,accomplish,accomplish,ADJ,True,False
by,by,by,by,ADP,True,True
mean,mean,mean,mean,NOUN,True,False
of,of,of,of,ADP,True,True
the,the,the,the,DET,True,True
sas,sas,sas,sas,PROPN,True,False
database,database,database,database,NOUN,True,False
.,.,.,.,PUNCT,False,False
as,as,as,as,SCONJ,True,True
note,note,note,note,NOUN,True,False
above,above,above,above,ADV,True,True
",",",",",",",",PUNCT,False,False
att,att,att,att,ADV,True,False
urge,urge,urge,urge,VERB,True,False
the,the,the,the,DET,True,True
spectrum,spectrum,spectrum,spectrum,NOUN,True,False
allocation,allocation,allocation,allocation,NOUN,True,False
between,between,between,between,ADP,True,True
pal,pal,pal,pal,NOUN,True,False
and,and,and,and,CCONJ,True,True
gaa,gaa,gaa,gaa,NOUN,True,False
be,be,be,be,AUX,True,True
70,70,70,70,NUM,False,False
mhz,mhz,mhz,mhz,NOUN,True,False
to,to,to,to,PART,True,True
priority,priority,priority,priority,NOUN,True,False
access,access,access,access,NOUN,True,False
user,user,user,user,NOUN,True,False
and,and,and,and,CCONJ,True,True
30,30,30,30,NUM,False,False
mhz,mhz,mhz,mhz,NOUN,True,False
to,to,to,to,PART,True,True
gaa,gaa,gaa,gaa,VERB,True,False
100,100,100,100,NUM,False,False
mhz,mhz,mhz,mhz,NOUN,True,False
50,50,50,50,NUM,False,False
mhz,mhz,mhz,mhz,NOUN,True,False
in,in,in,in,ADP,True,True
the,the,the,the,DET,True,True
case,case,case,case,NOUN,True,False
of,of,of,of,ADP,True,True
the,the,the,the,DET,True,True
sup,sup,sup,sup,ADJ,True,False
-,-,-,-,PUNCT,False,False
plemental,plemental,plemental,plemental,ADJ,True,False
proposal,proposal,proposal,proposal,NOUN,True,False
.,.,.,.,PUNCT,False,False
finally,finally,finally,finally,ADV,True,False
",",",",",",",",PUNCT,False,False
the,the,the,the,DET,True,True
commission,commission,commission,commission,NOUN,True,False
have,have,have,have,AUX,True,True
propose,propose,propose,propose,NOUN,True,False
license,license,license,license,NOUN,True,False
by,by,by,by,ADP,True,True
rule,rule,rule,rule,NOUN,True,False
authorization,authorization,authorization,authorization,NOUN,True,False
.,.,.,.,PUNCT,False,False
att,att,att,att,ADV,True,False
regard,regard,regard,regard,VERB,True,False
this,this,this,this,DET,True,True
as,as,as,as,SCONJ,True,True
unnecessary,unnecessary,unnecessary,unnecessary,ADJ,True,False
.,.,.,.,PUNCT,False,False
gaa,gaa,gaa,gaa,NOUN,True,False
use,use,use,use,NOUN,True,False
should,should,should,should,VERB,True,True
be,be,be,be,AUX,True,True
on,on,on,on,ADP,True,True
an,an,an,an,DET,True,True
unlicensed,unlicensed,unlicensed,unlicensed,ADJ,True,False
basis,basis,basis,basis,NOUN,True,False
.,.,.,.,PUNCT,False,False
gaa,gaa,gaa,gaa,NOUN,True,False
equipment,equipment,equipment,equipment,NOUN,True,False
must,must,must,must,VERB,True,True
be,be,be,be,AUX,True,True
require,require,require,require,VERB,True,False
to,to,to,to,PART,True,True
register,register,register,register,VERB,True,False
with,with,with,with,ADP,True,True
the,the,the,the,DET,True,True
sas,sas,sas,sas,PROPN,True,False
in,in,in,in,ADP,True,True
order,order,order,order,NOUN,True,False
to,to,to,to,PART,True,True
avoid,avoid,avoid,avoid,VERB,True,False
interference,interference,interference,interference,NOUN,True,False
with,with,with,with,ADP,True,True
incumbent,incumbent,incumbent,incumbent,ADJ,True,False
tier,tier,tier,tier,NOUN,True,False
user,user,user,user,NOUN,True,False
and,and,and,and,CCONJ,True,True
priority,priority,priority,priority,NOUN,True,False
ac,ac,ac,ac,ADV,True,False
-,-,-,-,PUNCT,False,False
cess,cess,cess,cess,ADJ,True,False
operation,operation,operation,operation,NOUN,True,False
",",",",",",",",PUNCT,False,False
but,but,but,but,CCONJ,True,True
it,it,-PRON-,-pron-,PRON,True,True
be,be,be,be,VERB,True,True
not,not,not,not,PART,True,True
necessary,necessary,necessary,necessary,ADJ,True,False
to,to,to,to,PART,True,True
deem,deem,deem,deem,VERB,True,False
them,them,-PRON-,-pron-,PRON,True,True
license,license,license,license,NOUN,True,False
by,by,by,by,ADP,True,True
rule,rule,rule,rule,NOUN,True,False
in,in,in,in,ADP,True,True
order,order,order,order,NOUN,True,False
to,to,to,to,PART,True,True
accomplish,accomplish,accomplish,accomplish,VERB,True,False
this,this,this,this,DET,True,True
.,.,.,.,PUNCT,False,False
moreover,moreover,moreover,moreover,ADV,True,True
",",",",",",",",PUNCT,False,False
as,as,as,as,SCONJ,True,True
att,att,att,att,PROPN,True,False
note,note,note,note,NOUN,True,False
in,in,in,in,ADP,True,True
its,its,-PRON-,-pron-,DET,True,True
comment,comment,comment,comment,NOUN,True,False
on,on,on,on,ADP,True,True
the,the,the,the,DET,True,True
nprm,nprm,nprm,nprm,NOUN,True,False
",",",",",",",",PUNCT,False,False
the,the,the,the,DET,True,True
exception,exception,exception,exception,NOUN,True,False
to,to,to,to,ADP,True,True
the,the,the,the,DET,True,True
statutorylicense,statutorylicense,statutorylicense,statutorylicense,ADJ,True,False
requirement,requirement,requirement,requirement,NOUN,True,False
that,that,that,that,DET,True,True
congress,congress,congress,congress,PROPN,True,False
create,create,create,create,VERB,True,False
to,to,to,to,PART,True,True
allow,allow,allow,allow,VERB,True,False
the,the,the,the,DET,True,True
fcc,fcc,fcc,fcc,PROPN,True,False
to,to,to,to,PART,True,True
license,license,license,license,VERB,True,False
cb,cb,cb,cb,PROPN,True,False
radio,radio,radio,radio,NOUN,True,False
by,by,by,by,ADP,True,True
rule,rule,rule,rule,NOUN,True,False
be,be,be,be,AUX,True,True
much,much,much,much,ADV,True,True
narrow,narrow,narrow,narrow,ADJ,True,False
than,than,than,than,SCONJ,True,True
the,the,the,the,DET,True,True
discussion,discussion,discussion,discussion,NOUN,True,False
in,in,in,in,ADP,True,True
the,the,the,the,DET,True,True
nprm,nprm,nprm,nprm,NOUN,True,False
suggestsmerely,suggestsmerely,suggestsmerely,suggestsmerely,ADV,True,False
call,call,call,call,VERB,True,True
something,something,something,something,PRON,True,True
citizens,citizens,citizen,citizen,NOUN,True,False
band,band,band,band,NOUN,True,False
do,do,do,do,AUX,True,True
not,not,not,not,PART,True,True
empower,empower,empower,empower,VERB,True,False
the,the,the,the,DET,True,True
fcc,fcc,fcc,fcc,PROPN,True,False
to,to,to,to,PART,True,True
expand,expand,expand,expand,VERB,True,False
this,this,this,this,DET,True,True
exception,exception,exception,exception,NOUN,True,False
.,.,.,.,PUNCT,False,False
the,the,the,the,DET,True,True
commission,commission,commission,commission,NOUN,True,False
should,should,should,should,VERB,True,True
simply,simply,simply,simply,ADV,True,False
consider,consider,consider,consider,VERB,True,False
the,the,the,the,DET,True,True
gaa,gaa,gaa,gaa,NOUN,True,False
tier,tier,tier,tier,NOUN,True,False
unlicense,unlicense,unlicense,unlicense,NOUN,True,False
pursuant,pursuant,pursuant,pursuant,ADJ,True,False
to,to,to,to,ADP,True,True
part,part,part,part,VERB,True,True
15.spectrum,15.spectrum,15.spectrum,15.spectrum,NUM,False,False
access,access,access,access,NOUN,True,False
system,system,system,system,NOUN,True,False
and,and,and,and,CCONJ,True,True
auctions,auctions,auction,auction,NOUN,True,False
.,.,.,.,PUNCT,False,False
management,management,management,management,NOUN,True,False
of,of,of,of,ADP,True,True
the,the,the,the,DET,True,True
use,use,use,use,NOUN,True,False
of,of,of,of,ADP,True,True
this,this,this,this,DET,True,True
spectrum,spectrum,spectrum,spectrum,NOUN,True,False
will,will,will,will,VERB,True,True
clearly,clearly,clearly,clearly,ADV,True,False
be,be,be,be,AUX,True,True
a,a,a,a,DET,True,True
complicated,complicated,complicated,complicated,ADJ,True,False
task,task,task,task,NOUN,True,False
.,.,.,.,PUNCT,False,False
the,the,the,the,DET,True,True
commission,commission,commission,commission,PROPN,True,False
have,have,have,have,AUX,True,True
propose,propose,propose,propose,NOUN,True,False
govern,govern,govern,govern,VERB,True,False
the,the,the,the,DET,True,True
spectrum,spectrum,spectrum,spectrum,NOUN,True,False
by,by,by,by,ADP,True,True
a,a,a,a,DET,True,True
dy,dy,dy,dy,PROPN,True,False
-,-,-,-,PUNCT,False,False
namic,namic,namic,namic,ADJ,True,False
sas,sas,sas,sas,PROPN,True,False
",",",",",",",",PUNCT,False,False
build,build,build,build,VERB,True,False
on,on,on,on,ADP,True,True
the,the,the,the,DET,True,True
tv,tv,tv,tv,NOUN,True,False
white,white,white,white,PROPN,True,False
spaces,spaces,spaces,spaces,PROPN,True,False
database,database,database,database,PROPN,True,False
concept,concept,concept,concept,NOUN,True,False
.,.,.,.,PUNCT,False,False
att,att,att,att,ADV,True,False
support,support,support,support,VERB,True,False
this,this,this,this,DET,True,True
approach,approach,approach,approach,NOUN,True,False
because,because,because,because,SCONJ,True,True
it,it,-PRON-,-pron-,PRON,True,True
offer,offer,offer,offer,VERB,True,False
the,the,the,the,DET,True,True
opportunity,opportunity,opportunity,opportunity,NOUN,True,False
to,to,to,to,PART,True,True
improve,improve,improve,improve,VERB,True,False
the,the,the,the,DET,True,True
process,process,process,process,NOUN,True,False
and,and,and,and,CCONJ,True,True
facilitate,facilitate,facilitate,facilitate,VERB,True,False
regulatory,regulatory,regulatory,regulatory,ADJ,True,False
and,and,and,and,CCONJ,True,True
documenta,documenta,documenta,documenta,ADJ,True,False
-,-,-,-,PUNCT,False,False
tion,tion,tion,tion,NOUN,True,False
requirement,requirement,requirement,requirement,NOUN,True,False
inherent,inherent,inherent,inherent,ADJ,True,False
in,in,in,in,ADP,True,True
any,any,any,any,DET,True,True
licensing,licensing,licensing,licensing,NOUN,True,False
arrangement,arrangement,arrangement,arrangement,NOUN,True,False
.,.,.,.,PUNCT,False,False
because,because,because,because,SCONJ,True,True
it,it,-PRON-,-pron-,PRON,True,True
would,would,would,would,VERB,True,True
accommodate,accommodate,accommodate,accommodate,VERB,True,False
all,all,all,all,DET,True,True
three,three,three,three,NUM,True,True
service,service,service,service,NOUN,True,False
tier,tier,tier,tier,NOUN,True,False
incumbent,incumbent,incumbent,incumbent,NOUN,True,False
",",",",",",",",PUNCT,False,False
pal,pal,pal,pal,NOUN,True,False
and,and,and,and,CCONJ,True,True
gaa,gaa,gaa,gaa,NOUN,True,False
",",",",",",",",PUNCT,False,False
a,a,a,a,DET,True,True
dynamic,dynamic,dynamic,dynamic,ADJ,True,False
spectrum,spectrum,spectrum,spectrum,NOUN,True,False
access,access,access,access,NOUN,True,False
system,system,system,system,NOUN,True,False
should,should,should,should,VERB,True,True
also,also,also,also,ADV,True,True
contribute,contribute,contribute,contribute,VERB,True,False
to,to,to,to,ADP,True,True
improved,improved,improved,improved,ADJ,True,False
service,service,service,service,NOUN,True,False
performance,performance,performance,performance,NOUN,True,False
requirement,requirement,requirement,requirement,NOUN,True,False
by,by,by,by,ADP,True,True
require,require,require,require,ADJ,True,False
sas,sas,sas,sas,PROPN,True,False
registration,registration,registration,registration,NOUN,True,False
in,in,in,in,ADP,True,True
all,all,all,all,DET,True,True
case,case,case,case,NOUN,True,False
.,.,.,.,PUNCT,False,False
indeed,indeed,indeed,indeed,ADV,True,True
",",",",",",",",PUNCT,False,False
att,att,att,att,ADV,True,False
believe,believe,believe,believe,VERB,True,False
that,that,that,that,SCONJ,True,True
device,device,device,device,NOUN,True,False
certification,certification,certification,certification,NOUN,True,False
and,and,and,and,CCONJ,True,True
registration,registration,registration,registration,NOUN,True,False
be,be,be,be,AUX,True,True
critical,critical,critical,critical,ADJ,True,False
component,component,component,component,NOUN,True,False
of,of,of,of,ADP,True,True
a,a,a,a,DET,True,True
successful,successful,successful,successful,ADJ,True,False
spectrum,spectrum,spectrum,spectrum,NOUN,True,False
access,access,access,access,NOUN,True,False
system,system,system,system,NOUN,True,False
.,.,.,.,PUNCT,False,False
for,for,for,for,ADP,True,True
example,example,example,example,NOUN,True,False
",",",",",",",",PUNCT,False,False
by,by,by,by,ADP,True,True
use,use,use,use,NOUN,True,False
device,device,device,device,NOUN,True,False
certification,certification,certification,certification,NOUN,True,False
and,and,and,and,CCONJ,True,True
sas,sas,sas,sas,PROPN,True,False
reg,reg,reg,reg,NOUN,True,False
-,-,-,-,PUNCT,False,False
istration,istration,istration,istration,NOUN,True,False
to,to,to,to,ADP,True,True
assign,assign,assign,assign,ADJ,True,False
frequency,frequency,frequency,frequency,NOUN,True,False
dynamically,dynamically,dynamically,dynamically,ADV,True,False
",",",",",",",",PUNCT,False,False
interference,interference,interference,interference,NOUN,True,False
mitigation,mitigation,mitigation,mitigation,NOUN,True,False
should,should,should,should,VERB,True,True
improve,improve,improve,improve,VERB,True,False
in,in,in,in,ADP,True,True
those,those,those,those,DET,True,True
in,in,in,in,ADP,True,True
-,-,-,-,PUNCT,False,False
stance,stance,stance,stance,NOUN,True,False
where,where,where,where,ADV,True,True
the,the,the,the,DET,True,True
geographic,geographic,geographic,geographic,ADJ,True,False
location,location,location,location,NOUN,True,False
of,of,of,of,ADP,True,True
incumbent,incumbent,incumbent,incumbent,ADJ,True,False
user,user,user,user,NOUN,True,False
be,be,be,be,AUX,True,True
know,know,know,know,VERB,True,False
.,.,.,.,PUNCT,False,False
give,give,give,give,VERB,True,True
the,the,the,the,DET,True,True
key,key,key,key,ADJ,True,False
role,role,role,role,NOUN,True,False
that,that,that,that,SCONJ,True,True
an,an,an,an,DET,True,True
sas,sas,sas,sas,PROPN,True,False
must,must,must,must,VERB,True,True
play,play,play,play,VERB,True,False
in,in,in,in,ADP,True,True
the,the,the,the,DET,True,True
exploitation,exploitation,exploitation,exploitation,NOUN,True,False
of,of,of,of,ADP,True,True
this,this,this,this,DET,True,True
spectrum,spectrum,spectrum,spectrum,NOUN,True,False
",",",",",",",",PUNCT,False,False
a,a,a,a,DET,True,True
database,database,database,database,NOUN,True,False
technology,technology,technology,technology,NOUN,True,False
administer,administer,administer,administer,NOUN,True,False
by,by,by,by,ADP,True,True
com,com,com,com,NOUN,True,False
-,-,-,-,PUNCT,False,False
mercial,mercial,mercial,mercial,ADJ,True,False
entity,entity,entity,entity,NOUN,True,False
will,will,will,will,VERB,True,True
certainly,certainly,certainly,certainly,ADV,True,False
improve,improve,improve,improve,VERB,True,False
this,this,this,this,DET,True,True
system,system,system,system,NOUN,True,False
and,and,and,and,CCONJ,True,True
contribute,contribute,contribute,contribute,VERB,True,False
strongly,strongly,strongly,strongly,ADV,True,False
to,to,to,to,ADP,True,True
the,the,the,the,DET,True,True
maximum,maximum,maximum,maximum,ADJ,True,False
utili,utili,utili,utili,PROPN,True,False
-,-,-,-,PUNCT,False,False
zation,zation,zation,zation,NOUN,True,False
of,of,of,of,ADP,True,True
the,the,the,the,DET,True,True
band,band,band,band,NOUN,True,False
.,.,.,.,PUNCT,False,False
conclusionas,conclusionas,conclusionas,conclusionas,PROPN,True,False
set,set,set,set,VERB,True,False
out,out,out,out,ADP,True,True
above,above,above,above,ADV,True,True
",",",",",",",",PUNCT,False,False
att,att,att,att,ADV,True,False
urge,urge,urge,urge,VERB,True,False
the,the,the,the,DET,True,True
commission,commission,commission,commission,NOUN,True,False
to,to,to,to,PART,True,True
reconsider,reconsider,reconsider,reconsider,VERB,True,False
to,to,to,to,ADP,True,True
its,its,-PRON-,-pron-,DET,True,True
position,position,position,position,NOUN,True,False
that,that,that,that,SCONJ,True,True
pals,pals,pal,pal,NOUN,True,False
should,should,should,should,VERB,True,True
have,have,have,have,AUX,True,True
no,no,no,no,DET,True,True
renewal,renewal,renewal,renewal,NOUN,True,False
expectancy,expectancy,expectancy,expectancy,NOUN,True,False
and,and,and,and,CCONJ,True,True
that,that,that,that,SCONJ,True,True
pal,pal,pal,pal,NOUN,True,False
themselves,themselves,-PRON-,-pron-,PRON,True,True
should,should,should,should,VERB,True,True
be,be,be,be,AUX,True,True
non,non,non,non,ADJ,True,False
-,-,-,-,ADJ,False,False
renewable,renewable,renewable,renewable,ADJ,True,False
.,.,.,.,PUNCT,False,False
att,att,att,att,ADV,True,False
believe,believe,believe,believe,VERB,True,False
strongly,strongly,strongly,strongly,ADV,True,False
that,that,that,that,SCONJ,True,True
this,this,this,this,DET,True,True
approach,approach,approach,approach,NOUN,True,False
will,will,will,will,VERB,True,True
create,create,create,create,VERB,True,False
uncertainty,uncertainty,uncertainty,uncertainty,NOUN,True,False
as,as,as,as,SCONJ,True,True
to,to,to,to,ADP,True,True
whether,whether,whether,whether,SCONJ,True,True
pa,pa,pa,pa,PROPN,True,False
licensee,licensee,licensee,licensee,PROPN,True,False
will,will,will,will,VERB,True,True
con,con,con,con,X,True,False
-,-,-,-,VERB,False,False
tinue,tinue,tinue,tinue,VERB,True,False
to,to,to,to,PART,True,True
have,have,have,have,AUX,True,True
access,access,access,access,NOUN,True,False
to,to,to,to,ADP,True,True
the,the,the,the,DET,True,True
spectrum,spectrum,spectrum,spectrum,NOUN,True,False
in,in,in,in,ADP,True,True
which,which,which,which,DET,True,True
they,they,-PRON-,-pron-,PRON,True,True
have,have,have,have,AUX,True,True
invest,invest,invest,invest,VERB,True,False
such,such,such,such,ADJ,True,True
uncertainty,uncertainty,uncertainty,uncertainty,NOUN,True,False
will,will,will,will,VERB,True,True
can,can,can,can,VERB,True,True
only,only,only,only,ADV,True,True
deter,deter,deter,deter,VERB,True,False
innovation,innovation,innovation,innovation,NOUN,True,False
and,and,and,and,CCONJ,True,True
investment,investment,investment,investment,NOUN,True,False
in,in,in,in,ADP,True,True
the,the,the,the,DET,True,True
band,band,band,band,NOUN,True,False
.,.,.,.,PUNCT,False,False
in,in,in,in,ADP,True,True
addition,addition,addition,addition,NOUN,True,False
",",",",",",",",PUNCT,False,False
att,att,att,att,ADV,True,False
be,be,be,be,AUX,True,True
concern,concern,concern,concern,NOUN,True,False
that,that,that,that,SCONJ,True,True
there,there,there,there,PRON,True,True
be,be,be,be,AUX,True,True
no,no,no,no,DET,True,True
disincentive,disincentive,disincentive,disincentive,ADJ,True,False
to,to,to,to,ADP,True,True
warehousing,warehousing,warehousing,warehousing,ADJ,True,False
spectrum,spectrum,spectrum,spectrum,NOUN,True,False
in,in,in,in,ADP,True,True
the,the,the,the,DET,True,True
band,band,band,band,NOUN,True,False
",",",",",",",",PUNCT,False,False
which,which,which,which,DET,True,True
could,could,could,could,VERB,True,True
result,result,result,result,VERB,True,False
in,in,in,in,ADP,True,True
part,part,part,part,NOUN,True,True
of,of,of,of,ADP,True,True
the,the,the,the,DET,True,True
band,band,band,band,NOUN,True,False
lie,lie,lie,lie,VERB,True,False
fallow,fallow,fallow,fallow,ADJ,True,False
in,in,in,in,ADP,True,True
prime,prime,prime,prime,ADJ,True,False
area,area,area,area,NOUN,True,False
.,.,.,.,PUNCT,False,False
att,att,att,att,PROPN,True,False
support,support,support,support,NOUN,True,False
let,let,let,let,VERB,True,False
gaa,gaa,gaa,gaa,NOUN,True,False
user,user,user,user,NOUN,True,False
have,have,have,have,AUX,True,True
access,access,access,access,NOUN,True,False
to,to,to,to,ADP,True,True
the,the,the,the,DET,True,True
priority,priority,priority,priority,NOUN,True,False
band,band,band,band,NOUN,True,False
spec,spec,spec,spec,PROPN,True,False
-,-,-,-,PUNCT,False,False
trum,trum,trum,trum,PROPN,True,False
until,until,until,until,ADP,True,True
it,it,-PRON-,-pron-,PRON,True,True
be,be,be,be,VERB,True,True
license,license,license,license,NOUN,True,False
.,.,.,.,PUNCT,False,False
however,however,however,however,ADV,True,True
",",",",",",",",PUNCT,False,False
once,once,once,once,ADV,True,True
the,the,the,the,DET,True,True
pa,pa,pa,pa,PROPN,True,False
spectrum,spectrum,spectrum,spectrum,PROPN,True,False
be,be,be,be,AUX,True,True
assign,assign,assign,assign,ADJ,True,False
to,to,to,to,ADP,True,True
a,a,a,a,DET,True,True
licensee,licensee,licensee,licensee,NOUN,True,False
",",",",",",",",PUNCT,False,False
the,the,the,the,DET,True,True
sas,sas,sas,sas,PROPN,True,False
must,must,must,must,VERB,True,True
prevent,prevent,prevent,prevent,VERB,True,False
its,its,-PRON-,-pron-,DET,True,True
use,use,use,use,NOUN,True,False
by,by,by,by,ADP,True,True
gaa,gaa,gaa,gaa,NOUN,True,False
operator,operator,operator,operator,NOUN,True,False
.,.,.,.,PUNCT,False,False
finally,finally,finally,finally,ADV,True,False
",",",",",",",",PUNCT,False,False
att,att,att,att,INTJ,True,False
recommend,recommend,recommend,recommend,VERB,True,False
that,that,that,that,SCONJ,True,True
the,the,the,the,DET,True,True
pal,pal,pal,pal,NOUN,True,False
be,be,be,be,AUX,True,True
give,give,give,give,VERB,True,True
specific,specific,specific,specific,ADJ,True,False
frequency,frequency,frequency,frequency,NOUN,True,False
assignment,assignment,assignment,assignment,NOUN,True,False
.,.,.,.,PUNCT,False,False
