text,text_lower,lemma,lemma_lower,part_of_speech,is_alphabet,is_stopword
the,the,the,the,DET,True,True
edison,edison,edison,edison,PROPN,True,False
electric,electric,electric,electric,PROPN,True,False
institute,institute,institute,institute,PROPN,True,False
eei,eei,eei,eei,PROPN,True,False
",",",",",",",",PUNCT,False,False
on,on,on,on,ADP,True,True
behalf,behalf,behalf,behalf,NOUN,True,False
of,of,of,of,ADP,True,True
its,its,-PRON-,-pron-,DET,True,True
member,member,member,member,NOUN,True,False
electric,electric,electric,electric,ADJ,True,False
utility,utility,utility,utility,NOUN,True,False
",",",",",",",",PUNCT,False,False
hereby,hereby,hereby,hereby,PROPN,True,True
submit,submit,submit,submit,VERB,True,False
the,the,the,the,DET,True,True
follow,follow,follow,follow,NOUN,True,False
reply,reply,reply,reply,NOUN,True,False
comment,comment,comment,comment,NOUN,True,False
in,in,in,in,ADP,True,True
the,the,the,the,DET,True,True
above,above,above,above,ADV,True,True
-,-,-,-,PUNCT,False,False
referenced,referenced,referenced,referenced,ADJ,True,False
proceeding,proceeding,proceeding,proceeding,NOUN,True,False
in,in,in,in,ADP,True,True
response,response,response,response,NOUN,True,False
to,to,to,to,ADP,True,True
the,the,the,the,DET,True,True
federal,federal,federal,federal,ADJ,True,False
communications,communications,communication,communication,NOUN,True,False
commissions,commissions,commission,commission,NOUN,True,False
fcc,fcc,fcc,fcc,PROPN,True,False
or,or,or,or,CCONJ,True,True
commission,commission,commission,commission,PROPN,True,False
notice,notice,notice,notice,NOUN,True,False
of,of,of,of,ADP,True,True
proposedrulemaking,proposedrulemaking,proposedrulemaking,proposedrulemaking,NOUN,True,False
and,and,and,and,CCONJ,True,True
order,order,order,order,NOUN,True,False
in,in,in,in,ADP,True,True
the,the,the,the,DET,True,True
above,above,above,above,ADV,True,True
-,-,-,-,PUNCT,False,False
referenced,referenced,referenced,referenced,ADJ,True,False
proceeding,proceeding,proceeding,proceeding,NOUN,True,False
.,.,.,.,PUNCT,False,False
it,it,-PRON-,-pron-,PRON,True,True
the,the,the,the,DET,True,True
nprm,nprm,nprm,nprm,NOUN,True,False
the,the,the,the,DET,True,True
fcc,fcc,fcc,fcc,PROPN,True,False
propose,propose,propose,propose,VERB,True,False
the,the,the,the,DET,True,True
creation,creation,creation,creation,NOUN,True,False
of,of,of,of,ADP,True,True
a,a,a,a,DET,True,True
new,new,new,new,ADJ,True,False
citizens,citizens,citizen,citizen,NOUN,True,False
broadband,broadband,broadband,broadband,PROPN,True,False
service,service,service,service,PROPN,True,False
cbs,cbs,cbs,cbs,PROPN,True,False
in,in,in,in,ADP,True,True
the,the,the,the,DET,True,True
3550,3550,3550,3550,NUM,False,False
-,-,-,-,SYM,False,False
3650,3650,3650,3650,NUM,False,False
mhz,mhz,mhz,mhz,PROPN,True,False
band,band,band,band,NOUN,True,False
",",",",",",",",PUNCT,False,False
which,which,which,which,DET,True,True
be,be,be,be,VERB,True,True
use,use,use,use,NOUN,True,False
by,by,by,by,ADP,True,True
high,high,high,high,ADV,True,False
-,-,-,-,PUNCT,False,False
powered,powered,powered,powered,ADJ,True,False
military,military,military,military,ADJ,True,False
tactical,tactical,tactical,tactical,ADJ,True,False
radar,radar,radar,radar,NOUN,True,False
and,and,and,and,CCONJ,True,True
non,non,non,non,ADJ,True,False
-,-,-,-,ADJ,False,False
federal,federal,federal,federal,ADJ,True,False
fix,fix,fix,fix,NOUN,True,False
satellite,satellite,satellite,satellite,NOUN,True,False
service,service,service,service,NOUN,True,False
fss,fss,fss,fss,NOUN,True,False
earth,earth,earth,earth,NOUN,True,False
station,station,station,station,NOUN,True,False
",",",",",",",",PUNCT,False,False
to,to,to,to,PART,True,True
promote,promote,promote,promote,VERB,True,False
small,small,small,small,ADJ,True,False
cell,cell,cell,cell,NOUN,True,False
use,use,use,use,NOUN,True,False
and,and,and,and,CCONJ,True,True
spectrum,spectrum,spectrum,spectrum,NOUN,True,False
sharing,sharing,sharing,sharing,NOUN,True,False
.,.,.,.,PUNCT,False,False
specifically,specifically,specifically,specifically,ADV,True,False
",",",",",",",",PUNCT,False,False
the,the,the,the,DET,True,True
fcc,fcc,fcc,fcc,PROPN,True,False
propose,propose,propose,propose,NOUN,True,False
to,to,to,to,PART,True,True
make,make,make,make,VERB,True,True
the,the,the,the,DET,True,True
3550,3550,3550,3550,NUM,False,False
-,-,-,-,SYM,False,False
3650,3650,3650,3650,NUM,False,False
mhz,mhz,mhz,mhz,PROPN,True,False
band,band,band,band,NOUN,True,False
available,available,available,available,ADJ,True,False
via,via,via,via,ADP,True,True
a,a,a,a,DET,True,True
three,three,three,three,NUM,True,True
-,-,-,-,PUNCT,False,False
tiered,tiered,tiered,tiered,ADJ,True,False
regime,regime,regime,regime,NOUN,True,False
the,the,the,the,DET,True,True
first,first,first,first,ADJ,True,True
cbs,cbs,cbs,cbs,PROPN,True,False
tier,tier,tier,tier,PROPN,True,False
",",",",",",",",PUNCT,False,False
incumbent,incumbent,incumbent,incumbent,ADJ,True,False
access,access,access,access,NOUN,True,False
",",",",",",",",PUNCT,False,False
would,would,would,would,VERB,True,True
be,be,be,be,AUX,True,True
reserve,reserve,reserve,reserve,NOUN,True,False
for,for,for,for,ADP,True,True
authorize,authorize,authorize,authorize,PROPN,True,False
federal,federal,federal,federal,PROPN,True,False
and,and,and,and,CCONJ,True,True
grandfathered,grandfathered,grandfathered,grandfathered,ADJ,True,False
licensed,licensed,licensed,licensed,ADJ,True,False
fss,fss,fss,fss,NOUN,True,False
user,user,user,user,NOUN,True,False
.,.,.,.,PUNCT,False,False
the,the,the,the,DET,True,True
second,second,second,second,ADJ,True,False
cbs,cbs,cbs,cbs,PROPN,True,False
tier,tier,tier,tier,PROPN,True,False
",",",",",",",",PUNCT,False,False
priority,priority,priority,priority,NOUN,True,False
access,access,access,access,NOUN,True,False
",",",",",",",",PUNCT,False,False
would,would,would,would,VERB,True,True
be,be,be,be,AUX,True,True
for,for,for,for,ADP,True,True
small,small,small,small,ADJ,True,False
cell,cell,cell,cell,NOUN,True,False
use,use,use,use,NOUN,True,False
for,for,for,for,ADP,True,True
certain,certain,certain,certain,ADJ,True,False
critical,critical,critical,critical,ADJ,True,False
",",",",",",",",PUNCT,False,False
quality,quality,quality,quality,NOUN,True,False
-,-,-,-,PUNCT,False,False
of,of,of,of,ADP,True,True
-,-,-,-,PUNCT,False,False
service,service,service,service,NOUN,True,False
dependent,dependent,dependent,dependent,ADJ,True,False
user,user,user,user,NOUN,True,False
at,at,at,at,ADP,True,True
specific,specific,specific,specific,ADJ,True,False
",",",",",",",",PUNCT,False,False
targeted,targeted,target,target,VERB,True,False
location,location,location,location,NOUN,True,False
",",",",",",",",PUNCT,False,False
include,include,include,include,VERB,True,False
hospital,hospital,hospital,hospital,NOUN,True,False
",",",",",",",",PUNCT,False,False
utility,utility,utility,utility,NOUN,True,False
",",",",",",",",PUNCT,False,False
and,and,and,and,CCONJ,True,True
state,state,state,state,NOUN,True,False
and,and,and,and,CCONJ,True,True
local,local,local,local,ADJ,True,False
government,government,government,government,NOUN,True,False
.,.,.,.,PUNCT,False,False
under,under,under,under,ADP,True,True
the,the,the,the,DET,True,True
proposal,proposal,proposal,proposal,NOUN,True,False
",",",",",",",",PUNCT,False,False
priority,priority,priority,priority,NOUN,True,False
access,access,access,access,NOUN,True,False
user,user,user,user,NOUN,True,False
",",",",",",",",PUNCT,False,False
such,such,such,such,ADJ,True,True
as,as,as,as,SCONJ,True,True
electric,electric,electric,electric,ADJ,True,False
utility,utility,utility,utility,NOUN,True,False
",",",",",",",",PUNCT,False,False
with,with,with,with,ADP,True,True
critical,critical,critical,critical,ADJ,True,False
quality,quality,quality,quality,NOUN,True,False
-,-,-,-,PUNCT,False,False
of,of,of,of,ADP,True,True
-,-,-,-,PUNCT,False,False
service,service,service,service,NOUN,True,False
need,need,need,need,NOUN,True,False
",",",",",",",",PUNCT,False,False
would,would,would,would,VERB,True,True
operate,operate,operate,operate,VERB,True,False
with,with,with,with,ADP,True,True
a,a,a,a,DET,True,True
measure,measure,measure,measure,NOUN,True,False
of,of,of,of,ADP,True,True
interference,interference,interference,interference,NOUN,True,False
protection,protection,protection,protection,NOUN,True,False
in,in,in,in,ADP,True,True
portion,portion,portion,portion,NOUN,True,False
of,of,of,of,ADP,True,True
the,the,the,the,DET,True,True
3.5,3.5,3.5,3.5,NUM,False,False
ghz,ghz,ghz,ghz,PROPN,True,False
band,band,band,band,NOUN,True,False
at,at,at,at,ADP,True,True
specific,specific,specific,specific,ADJ,True,False
location,location,location,location,NOUN,True,False
.,.,.,.,PUNCT,False,False
they,they,-PRON-,-pron-,PRON,True,True
would,would,would,would,VERB,True,True
be,be,be,be,AUX,True,True
require,require,require,require,VERB,True,False
toprovider,toprovider,toprovider,toprovider,NOUN,True,False
interference,interference,interference,interference,NOUN,True,False
protection,protection,protection,protection,NOUN,True,False
to,to,to,to,ADP,True,True
and,and,and,and,CCONJ,True,True
accept,accept,accept,accept,VERB,True,False
interference,interference,interference,interference,NOUN,True,False
from,from,from,from,ADP,True,True
incumbent,incumbent,incumbent,incumbent,ADJ,True,False
access,access,access,access,NOUN,True,False
tier,tier,tier,tier,NOUN,True,False
user,user,user,user,NOUN,True,False
.,.,.,.,PUNCT,False,False
the,the,the,the,DET,True,True
third,third,third,third,ADJ,True,True
cbs,cbs,cbs,cbs,PROPN,True,False
tier,tier,tier,tier,PROPN,True,False
",",",",",",",",PUNCT,False,False
general,general,general,general,ADJ,True,False
authorized,authorized,authorize,authorize,VERB,True,False
access,access,access,access,NOUN,True,False
gaa,gaa,gaa,gaa,NOUN,True,False
",",",",",",",",PUNCT,False,False
would,would,would,would,VERB,True,True
be,be,be,be,AUX,True,True
assign,assign,assign,assign,ADJ,True,False
for,for,for,for,ADP,True,True
use,use,use,use,NOUN,True,False
by,by,by,by,ADP,True,True
the,the,the,the,DET,True,True
general,general,general,general,ADJ,True,False
public,public,public,public,NOUN,True,False
on,on,on,on,ADP,True,True
an,an,an,an,DET,True,True
opportunistic,opportunistic,opportunistic,opportunistic,ADJ,True,False
",",",",",",",",PUNCT,False,False
non,non,non,non,ADJ,True,False
-,-,-,-,ADJ,False,False
interfering,interfering,interfering,interfering,ADJ,True,False
basis,basis,basis,basis,NOUN,True,False
within,within,within,within,ADP,True,True
designate,designate,designate,designate,PROPN,True,False
geographic,geographic,geographic,geographic,ADJ,True,False
area,area,area,area,NOUN,True,False
.,.,.,.,PUNCT,False,False
in,in,in,in,ADP,True,True
its,its,-PRON-,-pron-,DET,True,True
initial,initial,initial,initial,ADJ,True,False
comment,comment,comment,comment,NOUN,True,False
",",",",",",",",PUNCT,False,False
eei,eei,eei,eei,INTJ,True,False
join,join,join,join,VERB,True,False
the,the,the,the,DET,True,True
utilities,utilities,utilities,utilities,PROPN,True,False
telecom,telecom,telecom,telecom,PROPN,True,False
council,council,council,council,PROPN,True,False
and,and,and,and,CCONJ,True,True
the,the,the,the,DET,True,True
national,national,national,national,PROPN,True,False
rural,rural,rural,rural,PROPN,True,False
electric,electric,electric,electric,PROPN,True,False
cooperative,cooperative,cooperative,cooperative,PROPN,True,False
association,association,association,association,NOUN,True,False
collectively,collectively,collectively,collectively,ADV,True,False
the,the,the,the,DET,True,True
associations,associations,association,association,NOUN,True,False
in,in,in,in,ADP,True,True
filing,filing,filing,filing,NOUN,True,False
in,in,in,in,ADP,True,True
support,support,support,support,NOUN,True,False
of,of,of,of,ADP,True,True
thecommission,thecommission,thecommission,thecommission,NOUN,True,False
's,'s,'s,'s,PART,False,True
proposal,proposal,proposal,proposal,NOUN,True,False
.,.,.,.,PUNCT,False,False
as,as,as,as,SCONJ,True,True
draft,draft,draft,draft,NOUN,True,False
",",",",",",",",PUNCT,False,False
the,the,the,the,DET,True,True
nprm,nprm,nprm,nprm,NOUN,True,False
correctly,correctly,correctly,correctly,ADV,True,False
recognize,recognize,recognize,recognize,VERB,True,False
that,that,that,that,SCONJ,True,True
utility,utility,utility,utility,NOUN,True,False
should,should,should,should,VERB,True,True
be,be,be,be,AUX,True,True
include,include,include,include,VERB,True,False
as,as,as,as,SCONJ,True,True
user,user,user,user,NOUN,True,False
in,in,in,in,ADP,True,True
the,the,the,the,DET,True,True
priority,priority,priority,priority,NOUN,True,False
access,access,access,access,NOUN,True,False
tier,tier,tier,tier,NOUN,True,False
because,because,because,because,SCONJ,True,True
they,they,-PRON-,-pron-,PRON,True,True
rely,rely,rely,rely,VERB,True,False
on,on,on,on,ADP,True,True
mission,mission,mission,mission,NOUN,True,False
critical,critical,critical,critical,ADJ,True,False
communication,communication,communication,communication,NOUN,True,False
to,to,to,to,PART,True,True
support,support,support,support,VERB,True,False
the,the,the,the,DET,True,True
safe,safe,safe,safe,ADJ,True,False
",",",",",",",",PUNCT,False,False
reliable,reliable,reliable,reliable,ADJ,True,False
",",",",",",",",PUNCT,False,False
and,and,and,and,CCONJ,True,True
efficient,efficient,efficient,efficient,ADJ,True,False
delivery,delivery,delivery,delivery,NOUN,True,False
of,of,of,of,ADP,True,True
electric,electric,electric,electric,ADJ,True,False
service,service,service,service,NOUN,True,False
.,.,.,.,PUNCT,False,False
the,the,the,the,DET,True,True
associations,associations,association,association,NOUN,True,False
also,also,also,also,ADV,True,True
agree,agree,agree,agree,VERB,True,False
with,with,with,with,ADP,True,True
the,the,the,the,DET,True,True
commission,commission,commission,commission,NOUN,True,False
that,that,that,that,SCONJ,True,True
the,the,the,the,DET,True,True
availability,availability,availability,availability,NOUN,True,False
of,of,of,of,ADP,True,True
the,the,the,the,DET,True,True
priority,priority,priority,priority,NOUN,True,False
access,access,access,access,NOUN,True,False
tier,tier,tier,tier,NOUN,True,False
would,would,would,would,VERB,True,True
bring,bring,bring,bring,VERB,True,False
benefit,benefit,benefit,benefit,NOUN,True,False
of,of,of,of,ADP,True,True
mass,mass,mass,mass,ADJ,True,False
market,market,market,market,NOUN,True,False
commercial,commercial,commercial,commercial,ADJ,True,False
scale,scale,scale,scale,NOUN,True,False
to,to,to,to,ADP,True,True
specialized,specialized,specialized,specialized,ADJ,True,False
use,use,use,use,NOUN,True,False
and,and,and,and,CCONJ,True,True
provide,provide,provide,provide,VERB,True,False
a,a,a,a,DET,True,True
new,new,new,new,ADJ,True,False
alternative,alternative,alternative,alternative,NOUN,True,False
to,to,to,to,ADP,True,True
dedicatedspectrum,dedicatedspectrum,dedicatedspectrum,dedicatedspectrum,PROPN,True,False
",",",",",",",",PUNCT,False,False
which,which,which,which,DET,True,True
be,be,be,be,VERB,True,True
in,in,in,in,ADP,True,True
short,short,short,short,ADJ,True,False
supply,supply,supply,supply,NOUN,True,False
.,.,.,.,PUNCT,False,False
we,we,-PRON-,-pron-,PRON,True,True
point,point,point,point,VERB,True,False
out,out,out,out,ADP,True,True
that,that,that,that,SCONJ,True,True
access,access,access,access,NOUN,True,False
to,to,to,to,ADP,True,True
the,the,the,the,DET,True,True
second,second,second,second,ADJ,True,False
tier,tier,tier,tier,NOUN,True,False
as,as,as,as,SCONJ,True,True
propose,propose,propose,propose,NOUN,True,False
by,by,by,by,ADP,True,True
the,the,the,the,DET,True,True
commission,commission,commission,commission,NOUN,True,False
would,would,would,would,VERB,True,True
help,help,help,help,VERB,True,False
to,to,to,to,PART,True,True
provide,provide,provide,provide,VERB,True,False
access,access,access,access,NOUN,True,False
to,to,to,to,ADP,True,True
broadband,broadband,broadband,broadband,NOUN,True,False
spectrum,spectrum,spectrum,spectrum,NOUN,True,False
that,that,that,that,DET,True,True
be,be,be,be,AUX,True,True
need,need,need,need,NOUN,True,False
for,for,for,for,ADP,True,True
smart,smart,smart,smart,ADJ,True,False
grid,grid,grid,grid,NOUN,True,False
and,and,and,and,CCONJ,True,True
other,other,other,other,ADJ,True,True
application,application,application,application,NOUN,True,False
",",",",",",",",PUNCT,False,False
include,include,include,include,VERB,True,False
emergency,emergency,emergency,emergency,NOUN,True,False
communication,communication,communication,communication,NOUN,True,False
.,.,.,.,PUNCT,False,False
the,the,the,the,DET,True,True
record,record,record,record,NOUN,True,False
develop,develop,develop,develop,VERB,True,False
in,in,in,in,ADP,True,True
thefcc,thefcc,thefcc,thefcc,PROPN,True,False
's,'s,'s,'s,PART,False,True
recent,recent,recent,recent,ADJ,True,False
hurricane,hurricane,hurricane,hurricane,PROPN,True,False
sandy,sandy,sandy,sandy,PROPN,True,False
field,field,field,field,NOUN,True,False
hearing,hearing,hearing,hearing,NOUN,True,False
and,and,and,and,CCONJ,True,True
the,the,the,the,DET,True,True
commission,commission,commission,commission,NOUN,True,False
's,'s,be,be,AUX,False,True
even,even,even,even,ADV,True,True
more,more,more,more,ADJ,True,True
recentdiscussion,recentdiscussion,recentdiscussion,recentdiscussion,NOUN,True,False
in,in,in,in,ADP,True,True
the,the,the,the,DET,True,True
9,9,9,9,NUM,False,False
-,-,-,-,PUNCT,False,False
1,1,1,1,NUM,False,False
-,-,-,-,PUNCT,False,False
1,1,1,1,NUM,False,False
reliability,reliability,reliability,reliability,NOUN,True,False
nprm,nprm,nprm,nprm,NOUN,True,False
make,make,make,make,VERB,True,True
clear,clear,clear,clear,ADJ,True,False
that,that,that,that,SCONJ,True,True
further,further,further,further,ADJ,True,True
step,step,step,step,NOUN,True,False
need,need,need,need,NOUN,True,False
to,to,to,to,PART,True,True
be,be,be,be,AUX,True,True
take,take,take,take,VERB,True,True
to,to,to,to,PART,True,True
facilitate,facilitate,facilitate,facilitate,VERB,True,False
more,more,more,more,ADV,True,True
reliable,reliable,reliable,reliable,ADJ,True,False
communication,communication,communication,communication,NOUN,True,False
by,by,by,by,ADP,True,True
critical,critical,critical,critical,ADJ,True,False
infrastructure,infrastructure,infrastructure,infrastructure,NOUN,True,False
industry,industry,industry,industry,NOUN,True,False
cii,cii,cii,cii,NOUN,True,False
entity,entity,entity,entity,NOUN,True,False
suchas,suchas,sucha,sucha,NOUN,True,False
electric,electric,electric,electric,ADJ,True,False
utility,utility,utility,utility,NOUN,True,False
.,.,.,.,PUNCT,False,False
the,the,the,the,DET,True,True
priority,priority,priority,priority,NOUN,True,False
access,access,access,access,NOUN,True,False
tier,tier,tier,tier,NOUN,True,False
limit,limit,limit,limit,NOUN,True,False
to,to,to,to,PART,True,True
user,user,user,user,VERB,True,False
such,such,such,such,ADJ,True,True
as,as,as,as,SCONJ,True,True
utility,utility,utility,utility,NOUN,True,False
",",",",",",",",PUNCT,False,False
and,and,and,and,CCONJ,True,True
not,not,not,not,PART,True,True
open,open,open,open,ADJ,True,False
to,to,to,to,ADP,True,True
more,more,more,more,ADJ,True,True
general,general,general,general,ADJ,True,False
commercial,commercial,commercial,commercial,ADJ,True,False
user,user,user,user,NOUN,True,False
",",",",",",",",PUNCT,False,False
do,do,do,do,AUX,True,True
just,just,just,just,ADV,True,True
that,that,that,that,DET,True,True
.,.,.,.,PUNCT,False,False
unfortunately,unfortunately,unfortunately,unfortunately,ADV,True,False
",",",",",",",",PUNCT,False,False
some,some,some,some,DET,True,True
comment,comment,comment,comment,NOUN,True,False
party,party,party,party,NOUN,True,False
",",",",",",",",PUNCT,False,False
argue,argue,argue,argue,VERB,True,False
that,that,that,that,SCONJ,True,True
the,the,the,the,DET,True,True
spectrum,spectrum,spectrum,spectrum,NOUN,True,False
be,be,be,be,AUX,True,True
well,well,well,well,ADV,True,True
use,use,use,use,NOUN,True,False
by,by,by,by,ADP,True,True
commercial,commercial,commercial,commercial,ADJ,True,False
service,service,service,service,NOUN,True,False
",",",",",",",",PUNCT,False,False
have,have,have,have,AUX,True,True
seek,seek,seek,seek,VERB,True,False
modification,modification,modification,modification,NOUN,True,False
of,of,of,of,ADP,True,True
the,the,the,the,DET,True,True
fcc,fcc,fcc,fcc,PROPN,True,False
's,'s,'s,'s,PART,False,True
proposal,proposal,proposal,proposal,NOUN,True,False
so,so,so,so,SCONJ,True,True
that,that,that,that,SCONJ,True,True
commercial,commercial,commercial,commercial,ADJ,True,False
carrier,carrier,carrier,carrier,NOUN,True,False
",",",",",",",",PUNCT,False,False
and,and,and,and,CCONJ,True,True
not,not,not,not,PART,True,True
government,government,government,government,NOUN,True,False
",",",",",",",",PUNCT,False,False
hospital,hospital,hospital,hospital,NOUN,True,False
and,and,and,and,CCONJ,True,True
utility,utility,utility,utility,NOUN,True,False
",",",",",",",",PUNCT,False,False
would,would,would,would,VERB,True,True
either,either,either,either,CCONJ,True,True
have,have,have,have,AUX,True,True
access,access,access,access,NOUN,True,False
to,to,to,to,ADP,True,True
or,or,or,or,CCONJ,True,True
a,a,a,a,DET,True,True
preference,preference,preference,preference,NOUN,True,False
in,in,in,in,ADP,True,True
the,the,the,the,DET,True,True
spectrum,spectrum,spectrum,spectrum,NOUN,True,False
.,.,.,.,PUNCT,False,False
for,for,for,for,ADP,True,True
example,example,example,example,NOUN,True,False
",",",",",",",",PUNCT,False,False
it,it,-PRON-,-pron-,PRON,True,True
have,have,have,have,AUX,True,True
be,be,be,be,AUX,True,True
urge,urge,urge,urge,NOUN,True,False
that,that,that,that,SCONJ,True,True
the,the,the,the,DET,True,True
fcc,fcc,fcc,fcc,PROPN,True,False
to,to,to,to,PART,True,True
scrap,scrap,scrap,scrap,VERB,True,False
the,the,the,the,DET,True,True
three,three,three,three,NUM,True,True
tiered,tiered,tiered,tiered,ADJ,True,False
approach,approach,approach,approach,NOUN,True,False
and,and,and,and,CCONJ,True,True
instead,instead,instead,instead,ADV,True,False
adopt,adopt,adopt,adopt,VERB,True,False
a,a,a,a,DET,True,True
two,two,two,two,NUM,True,True
tiered,tiered,tiered,tiered,ADJ,True,False
approach,approach,approach,approach,NOUN,True,False
under,under,under,under,ADP,True,True
which,which,which,which,DET,True,True
commercial,commercial,commercial,commercial,ADJ,True,False
carrier,carrier,carrier,carrier,NOUN,True,False
would,would,would,would,VERB,True,True
have,have,have,have,AUX,True,True
assignedspectrum,assignedspectrum,assignedspectrum,assignedspectrum,PROPN,True,False
.,.,.,.,PUNCT,False,False
other,other,other,other,ADJ,True,True
have,have,have,have,AUX,True,True
argue,argue,argue,argue,VERB,True,False
that,that,that,that,SCONJ,True,True
to,to,to,to,ADP,True,True
the,the,the,the,DET,True,True
extent,extent,extent,extent,NOUN,True,False
that,that,that,that,SCONJ,True,True
the,the,the,the,DET,True,True
fcc,fcc,fcc,fcc,PROPN,True,False
do,do,do,do,AUX,True,True
adopt,adopt,adopt,adopt,VERB,True,False
a,a,a,a,DET,True,True
three,three,three,three,NUM,True,True
tiered,tiered,tiered,tiered,ADJ,True,False
approach,approach,approach,approach,NOUN,True,False
",",",",",",",",PUNCT,False,False
commercial,commercial,commercial,commercial,ADJ,True,False
carrier,carrier,carrier,carrier,NOUN,True,False
should,should,should,should,VERB,True,True
also,also,also,also,ADV,True,True
have,have,have,have,AUX,True,True
priority,priority,priority,priority,NOUN,True,False
access,access,access,access,NOUN,True,False
to,to,to,to,ADP,True,True
the,the,the,the,DET,True,True
second,second,second,second,ADJ,True,False
tier,tier,tier,tier,NOUN,True,False
.,.,.,.,PUNCT,False,False
the,the,the,the,DET,True,True
effect,effect,effect,effect,NOUN,True,False
of,of,of,of,ADP,True,True
this,this,this,this,DET,True,True
proposal,proposal,proposal,proposal,NOUN,True,False
would,would,would,would,VERB,True,True
probably,probably,probably,probably,ADV,True,False
be,be,be,be,AUX,True,True
to,to,to,to,PART,True,True
effectively,effectively,effectively,effectively,ADV,True,False
exclude,exclude,exclude,exclude,VERB,True,False
government,government,government,government,NOUN,True,False
",",",",",",",",PUNCT,False,False
hospital,hospital,hospital,hospital,NOUN,True,False
and,and,and,and,CCONJ,True,True
utility,utility,utility,utility,NOUN,True,False
from,from,from,from,ADP,True,True
the,the,the,the,DET,True,True
band,band,band,band,NOUN,True,False
.,.,.,.,PUNCT,False,False
still,still,still,still,ADV,True,True
other,other,other,other,ADJ,True,True
have,have,have,have,AUX,True,True
argue,argue,argue,argue,VERB,True,False
that,that,that,that,SCONJ,True,True
50,50,50,50,NUM,False,False
mhz,mhz,mhz,mhz,NOUN,True,False
of,of,of,of,ADP,True,True
the,the,the,the,DET,True,True
spectrum,spectrum,spectrum,spectrum,NOUN,True,False
should,should,should,should,VERB,True,True
be,be,be,be,AUX,True,True
set,set,set,set,VERB,True,False
aside,aside,aside,aside,ADV,True,False
for,for,for,for,ADP,True,True
licensed,licensed,licensed,licensed,ADJ,True,False
useby,useby,useby,useby,ADJ,True,False
commercial,commercial,commercial,commercial,ADJ,True,False
carrier,carrier,carrier,carrier,NOUN,True,False
.,.,.,.,PUNCT,False,False
last,last,last,last,ADV,True,True
",",",",",",",",PUNCT,False,False
but,but,but,but,CCONJ,True,True
not,not,not,not,PART,True,True
least,least,least,least,ADJ,True,True
",",",",",",",",PUNCT,False,False
it,it,-PRON-,-pron-,PRON,True,True
have,have,have,have,AUX,True,True
be,be,be,be,AUX,True,True
argue,argue,argue,argue,ADJ,True,False
for,for,for,for,ADP,True,True
an,an,an,an,DET,True,True
open,open,open,open,ADJ,True,False
-,-,-,-,PUNCT,False,False
eligibility,eligibility,eligibility,eligibility,NOUN,True,False
approachunder,approachunder,approachunder,approachunder,NOUN,True,False
which,which,which,which,DET,True,True
the,the,the,the,DET,True,True
spectrum,spectrum,spectrum,spectrum,NOUN,True,False
would,would,would,would,VERB,True,True
be,be,be,be,AUX,True,True
make,make,make,make,VERB,True,True
available,available,available,available,ADJ,True,False
on,on,on,on,ADP,True,True
a,a,a,a,DET,True,True
first,first,first,first,ADJ,True,True
-,-,-,-,PUNCT,False,False
come,come,come,come,VERB,True,False
",",",",",",",",PUNCT,False,False
first,first,first,first,ADJ,True,True
-,-,-,-,PUNCT,False,False
serve,serve,serve,serve,VERB,True,False
basis,basis,basis,basis,NOUN,True,False
.,.,.,.,PUNCT,False,False
all,all,all,all,DET,True,True
of,of,of,of,ADP,True,True
these,these,these,these,DET,True,True
proposal,proposal,proposal,proposal,NOUN,True,False
should,should,should,should,VERB,True,True
be,be,be,be,AUX,True,True
reject,reject,reject,reject,NOUN,True,False
in,in,in,in,ADP,True,True
light,light,light,light,NOUN,True,False
of,of,of,of,ADP,True,True
the,the,the,the,DET,True,True
more,more,more,more,ADV,True,True
pressing,pressing,press,press,VERB,True,False
communication,communication,communication,communication,NOUN,True,False
need,need,need,need,NOUN,True,False
of,of,of,of,ADP,True,True
cii,cii,cii,cii,NOUN,True,False
entity,entity,entity,entity,NOUN,True,False
such,such,such,such,ADJ,True,True
as,as,as,as,SCONJ,True,True
utility,utility,utility,utility,NOUN,True,False
.,.,.,.,PUNCT,False,False
eei,eei,eei,eei,PROPN,True,False
's,'s,'s,'s,PART,False,True
member,member,member,member,NOUN,True,False
make,make,make,make,VERB,True,True
extensive,extensive,extensive,extensive,ADJ,True,False
use,use,use,use,NOUN,True,False
of,of,of,of,ADP,True,True
communication,communication,communication,communication,NOUN,True,False
as,as,as,as,SCONJ,True,True
provider,provider,provider,provider,NOUN,True,False
of,of,of,of,ADP,True,True
critical,critical,critical,critical,ADJ,True,False
utility,utility,utility,utility,NOUN,True,False
service,service,service,service,NOUN,True,False
",",",",",",",",PUNCT,False,False
both,both,both,both,CCONJ,True,True
as,as,as,as,SCONJ,True,True
owner,owner,owner,owner,NOUN,True,False
and,and,and,and,CCONJ,True,True
operator,operator,operator,operator,NOUN,True,False
of,of,of,of,ADP,True,True
private,private,private,private,ADJ,True,False
communication,communication,communication,communication,NOUN,True,False
system,system,system,system,NOUN,True,False
",",",",",",",",PUNCT,False,False
and,and,and,and,CCONJ,True,True
as,as,as,as,SCONJ,True,True
end,end,end,end,NOUN,True,False
-,-,-,-,PUNCT,False,False
user,user,user,user,NOUN,True,False
of,of,of,of,ADP,True,True
commercial,commercial,commercial,commercial,ADJ,True,False
communication,communication,communication,communication,NOUN,True,False
network,network,network,network,NOUN,True,False
.,.,.,.,PUNCT,False,False
they,they,-PRON-,-pron-,PRON,True,True
be,be,be,be,VERB,True,True
among,among,among,among,ADP,True,True
this,this,this,this,DET,True,True
nation,nation,nation,nation,NOUN,True,False
's,'s,'s,'s,PART,False,True
large,large,large,large,ADJ,True,False
user,user,user,user,NOUN,True,False
of,of,of,of,ADP,True,True
communication,communication,communication,communication,NOUN,True,False
network,network,network,network,NOUN,True,False
and,and,and,and,CCONJ,True,True
service,service,service,service,NOUN,True,False
and,and,and,and,CCONJ,True,True
",",",",",",",",PUNCT,False,False
as,as,as,as,SCONJ,True,True
recognize,recognize,recognize,recognize,VERB,True,False
in,in,in,in,ADP,True,True
the,the,the,the,DET,True,True
national,national,national,national,PROPN,True,False
broadband,broadband,broadband,broadband,NOUN,True,False
plan,plan,plan,plan,NOUN,True,False
",",",",",",",",PUNCT,False,False
have,have,have,have,AUX,True,True
a,a,a,a,DET,True,True
grow,grow,grow,grow,VERB,True,False
need,need,need,need,NOUN,True,False
for,for,for,for,ADP,True,True
spectrum,spectrum,spectrum,spectrum,NOUN,True,False
in,in,in,in,ADP,True,True
order,order,order,order,NOUN,True,False
to,to,to,to,PART,True,True
carry,carry,carry,carry,VERB,True,False
out,out,out,out,ADP,True,True
their,their,-PRON-,-pron-,DET,True,True
core,core,core,core,NOUN,True,False
mission,mission,mission,mission,NOUN,True,False
of,of,of,of,ADP,True,True
safely,safely,safely,safely,ADV,True,False
and,and,and,and,CCONJ,True,True
reliablydelivere,reliablydelivere,reliablydelivere,reliablydelivere,ADJ,True,False
electric,electric,electric,electric,ADJ,True,False
service,service,service,service,NOUN,True,False
to,to,to,to,ADP,True,True
most,most,most,most,ADV,True,True
",",",",",",",",PUNCT,False,False
if,if,if,if,SCONJ,True,True
not,not,not,not,PART,True,True
all,all,all,all,DET,True,True
",",",",",",",",PUNCT,False,False
of,of,of,of,ADP,True,True
the,the,the,the,DET,True,True
nation,nation,nation,nation,NOUN,True,False
residential,residential,residential,residential,ADJ,True,False
and,and,and,and,CCONJ,True,True
business,business,business,business,NOUN,True,False
consumer,consumer,consumer,consumer,NOUN,True,False
.,.,.,.,PUNCT,False,False
in,in,in,in,ADP,True,True
fact,fact,fact,fact,NOUN,True,False
",",",",",",",",PUNCT,False,False
in,in,in,in,ADP,True,True
the,the,the,the,DET,True,True
national,national,national,national,ADJ,True,False
broadband,broadband,broadband,broadband,NOUN,True,False
plan,plan,plan,plan,VERB,True,False
the,the,the,the,DET,True,True
fcc,fcc,fcc,fcc,PROPN,True,False
make,make,make,make,VERB,True,True
a,a,a,a,DET,True,True
number,number,number,number,NOUN,True,False
of,of,of,of,ADP,True,True
recommendation,recommendation,recommendation,recommendation,NOUN,True,False
regard,regard,regard,regard,VERB,True,False
the,the,the,the,DET,True,True
smart,smart,smart,smart,ADJ,True,False
grid,grid,grid,grid,NOUN,True,False
",",",",",",",",PUNCT,False,False
include,include,include,include,VERB,True,False
that,that,that,that,SCONJ,True,True
the,the,the,the,DET,True,True
fcc,fcc,fcc,fcc,PROPN,True,False
should,should,should,should,VERB,True,True
start,start,start,start,VERB,True,False
a,a,a,a,DET,True,True
proceeding,proceeding,proceeding,proceeding,NOUN,True,False
to,to,to,to,PART,True,True
explore,explore,explore,explore,VERB,True,False
the,the,the,the,DET,True,True
reliability,reliability,reliability,reliability,NOUN,True,False
and,and,and,and,CCONJ,True,True
resiliency,resiliency,resiliency,resiliency,NOUN,True,False
of,of,of,of,ADP,True,True
commercial,commercial,commercial,commercial,ADJ,True,False
broadband,broadband,broadband,broadband,NOUN,True,False
communication,communication,communication,communication,NOUN,True,False
network,network,network,network,NOUN,True,False
",",",",",",",",PUNCT,False,False
and,and,and,and,CCONJ,True,True
that,that,that,that,SCONJ,True,True
the,the,the,the,DET,True,True
fcc,fcc,fcc,fcc,PROPN,True,False
and,and,and,and,CCONJ,True,True
ntiashould,ntiashould,ntiashould,ntiashould,VERB,True,False
work,work,work,work,VERB,True,False
to,to,to,to,PART,True,True
identify,identify,identify,identify,VERB,True,False
spectrum,spectrum,spectrum,spectrum,NOUN,True,False
for,for,for,for,ADP,True,True
utility,utility,utility,utility,NOUN,True,False
.,.,.,.,PUNCT,False,False
for,for,for,for,ADP,True,True
utility,utility,utility,utility,NOUN,True,False
the,the,the,the,DET,True,True
importance,importance,importance,importance,NOUN,True,False
of,of,of,of,ADP,True,True
communication,communication,communication,communication,NOUN,True,False
",",",",",",",",PUNCT,False,False
particularly,particularly,particularly,particularly,ADV,True,False
wireless,wireless,wireless,wireless,ADJ,True,False
spectrum,spectrum,spectrum,spectrum,NOUN,True,False
",",",",",",",",PUNCT,False,False
have,have,have,have,AUX,True,True
increase,increase,increase,increase,NOUN,True,False
as,as,as,as,SCONJ,True,True
they,they,-PRON-,-pron-,PRON,True,True
have,have,have,have,AUX,True,True
begin,begin,begin,begin,VERB,True,False
to,to,to,to,PART,True,True
deploy,deploy,deploy,deploy,VERB,True,False
smart,smart,smart,smart,ADJ,True,False
grid,grid,grid,grid,NOUN,True,False
technology,technology,technology,technology,NOUN,True,False
in,in,in,in,ADP,True,True
the,the,the,the,DET,True,True
grid,grid,grid,grid,NOUN,True,False
",",",",",",",",PUNCT,False,False
e.g.,e.g.,e.g.,e.g.,ADV,False,False
supervisory,supervisory,supervisory,supervisory,ADJ,True,False
control,control,control,control,NOUN,True,False
and,and,and,and,CCONJ,True,True
datum,datum,datum,datum,NOUN,True,False
acquisition,acquisition,acquisition,acquisition,NOUN,True,False
system,system,system,system,NOUN,True,False
and,and,and,and,CCONJ,True,True
on,on,on,on,ADP,True,True
customer,customer,customer,customer,NOUN,True,False
premise,premise,premise,premise,NOUN,True,False
",",",",",",",",PUNCT,False,False
e.g.,e.g.,e.g.,e.g.,ADV,False,False
smart,smart,smart,smart,ADJ,True,False
meter,meter,meter,meter,NOUN,True,False
.,.,.,.,PUNCT,False,False
as,as,as,as,SCONJ,True,True
the,the,the,the,DET,True,True
need,need,need,need,NOUN,True,False
for,for,for,for,ADP,True,True
spectrum,spectrum,spectrum,spectrum,PROPN,True,False
have,have,have,have,AUX,True,True
grow,grow,grow,grow,VERB,True,False
",",",",",",",",PUNCT,False,False
however,however,however,however,ADV,True,True
",",",",",",",",PUNCT,False,False
its,its,-PRON-,-pron-,DET,True,True
availability,availability,availability,availability,NOUN,True,False
have,have,have,have,AUX,True,True
decrease,decrease,decrease,decrease,NOUN,True,False
on,on,on,on,ADP,True,True
account,account,account,account,NOUN,True,False
of,of,of,of,ADP,True,True
cellular,cellular,cellular,cellular,ADJ,True,False
",",",",",",",",PUNCT,False,False
gps,gps,gp,gp,VERB,True,False
",",",",",",",",PUNCT,False,False
etc,etc,etc,etc,X,True,False
.,.,.,.,PUNCT,False,False
over,over,over,over,ADP,True,True
the,the,the,the,DET,True,True
last,last,last,last,ADJ,True,True
several,several,several,several,ADJ,True,True
year,year,year,year,NOUN,True,False
",",",",",",",",PUNCT,False,False
the,the,the,the,DET,True,True
electric,electric,electric,electric,ADJ,True,False
utility,utility,utility,utility,NOUN,True,False
industry,industry,industry,industry,NOUN,True,False
have,have,have,have,AUX,True,True
urge,urge,urge,urge,VERB,True,False
the,the,the,the,DET,True,True
fcc,fcc,fcc,fcc,PROPN,True,False
to,to,to,to,PART,True,True
allocate,allocate,allocate,allocate,VERB,True,False
more,more,more,more,ADJ,True,True
spectrum,spectrum,spectrum,spectrum,NOUN,True,False
to,to,to,to,ADP,True,True
utility,utility,utility,utility,NOUN,True,False
",",",",",",",",PUNCT,False,False
take,take,take,take,VERB,True,True
step,step,step,step,NOUN,True,False
to,to,to,to,PART,True,True
improve,improve,improve,improve,VERB,True,False
the,the,the,the,DET,True,True
reliability,reliability,reliability,reliability,NOUN,True,False
and,and,and,and,CCONJ,True,True
resiliency,resiliency,resiliency,resiliency,NOUN,True,False
of,of,of,of,ADP,True,True
commercial,commercial,commercial,commercial,ADJ,True,False
network,network,network,network,NOUN,True,False
",",",",",",",",PUNCT,False,False
and,and,and,and,CCONJ,True,True
prevent,prevent,prevent,prevent,VERB,True,False
harmful,harmful,harmful,harmful,ADJ,True,False
interference,interference,interference,interference,NOUN,True,False
to,to,to,to,ADP,True,True
smart,smart,smart,smart,ADJ,True,False
meter,meter,meter,meter,NOUN,True,False
and,and,and,and,CCONJ,True,True
power,power,power,power,NOUN,True,False
line,line,line,line,NOUN,True,False
communication,communication,communication,communication,NOUN,True,False
.,.,.,.,PUNCT,False,False
for,for,for,for,ADP,True,True
its,its,-PRON-,-pron-,DET,True,True
part,part,part,part,NOUN,True,True
eei,eei,eei,eei,NOUN,True,False
",",",",",",",",PUNCT,False,False
electric,electric,electric,electric,ADJ,True,False
utility,utility,utility,utility,NOUN,True,False
and,and,and,and,CCONJ,True,True
other,other,other,other,ADJ,True,True
industry,industry,industry,industry,NOUN,True,False
association,association,association,association,NOUN,True,False
have,have,have,have,AUX,True,True
raise,raise,raise,raise,VERB,True,False
these,these,these,these,DET,True,True
issue,issue,issue,issue,NOUN,True,False
in,in,in,in,ADP,True,True
over,over,over,over,ADP,True,True
ascore,ascore,ascore,ascore,NOUN,True,False
of,of,of,of,ADP,True,True
proceeding,proceeding,proceeding,proceeding,NOUN,True,False
.,.,.,.,PUNCT,False,False
unfortunately,unfortunately,unfortunately,unfortunately,ADV,True,False
",",",",",",",",PUNCT,False,False
to,to,to,to,ADP,True,True
date,date,date,date,NOUN,True,False
the,the,the,the,DET,True,True
commission,commission,commission,commission,NOUN,True,False
have,have,have,have,AUX,True,True
not,not,not,not,PART,True,True
act,act,act,act,VERB,True,False
.,.,.,.,PUNCT,False,False
the,the,the,the,DET,True,True
commission'spriority,commission'spriority,commission'spriority,commission'spriority,PROPN,False,False
access,access,access,access,NOUN,True,False
tier,tier,tier,tier,NOUN,True,False
proposalwith,proposalwith,proposalwith,proposalwith,PROPN,True,False
access,access,access,access,NOUN,True,False
to,to,to,to,ADP,True,True
it,it,-PRON-,-pron-,PRON,True,True
limit,limit,limit,limit,VERB,True,False
to,to,to,to,ADP,True,True
cii,cii,cii,cii,PROPN,True,False
user,user,user,user,NOUN,True,False
such,such,such,such,ADJ,True,True
as,as,as,as,SCONJ,True,True
utilitiesis,utilitiesis,utilitiesis,utilitiesis,NOUN,True,False
at,at,at,at,ADP,True,True
least,least,least,least,ADJ,True,True
astart,astart,astart,astart,ADJ,True,False
.,.,.,.,PUNCT,False,False
as,as,as,as,SCONJ,True,True
the,the,the,the,DET,True,True
associations,associations,association,association,NOUN,True,False
note,note,note,note,VERB,True,False
in,in,in,in,ADP,True,True
our,our,-PRON-,-pron-,DET,True,True
comment,comment,comment,comment,NOUN,True,False
",",",",",",",",PUNCT,False,False
such,such,such,such,DET,True,True
an,an,an,an,DET,True,True
allocation,allocation,allocation,allocation,NOUN,True,False
would,would,would,would,VERB,True,True
meet,meet,meet,meet,VERB,True,False
importantcritical,importantcritical,importantcritical,importantcritical,ADJ,True,False
communication,communication,communication,communication,NOUN,True,False
need,need,need,need,VERB,True,False
and,and,and,and,CCONJ,True,True
be,be,be,be,AUX,True,True
viable,viable,viable,viable,ADJ,True,False
because,because,because,because,SCONJ,True,True
the,the,the,the,DET,True,True
class,class,class,class,NOUN,True,False
of,of,of,of,ADP,True,True
critical,critical,critical,critical,ADJ,True,False
facility,facility,facility,facility,NOUN,True,False
would,would,would,would,VERB,True,True
be,be,be,be,AUX,True,True
largeenough,largeenough,largeenough,largeenough,ADJ,True,False
to,to,to,to,PART,True,True
create,create,create,create,VERB,True,False
economy,economy,economy,economy,NOUN,True,False
of,of,of,of,ADP,True,True
scale,scale,scale,scale,NOUN,True,False
sufficient,sufficient,sufficient,sufficient,ADJ,True,False
to,to,to,to,PART,True,True
make,make,make,make,VERB,True,True
the,the,the,the,DET,True,True
priority,priority,priority,priority,NOUN,True,False
access,access,access,access,NOUN,True,False
tier,tier,tier,tier,NOUN,True,False
viable,viable,viable,viable,ADJ,True,False
.,.,.,.,PUNCT,False,False
there,there,there,there,PRON,True,True
isno,isno,isno,isno,NOUN,True,False
need,need,need,need,NOUN,True,False
and,and,and,and,CCONJ,True,True
it,it,-PRON-,-pron-,PRON,True,True
may,may,may,may,VERB,True,True
likely,likely,likely,likely,ADV,True,False
prove,prove,prove,prove,VERB,True,False
to,to,to,to,PART,True,True
be,be,be,be,AUX,True,True
counterproductive,counterproductive,counterproductive,counterproductive,ADJ,True,False
to,to,to,to,PART,True,True
open,open,open,open,VERB,True,False
the,the,the,the,DET,True,True
tier,tier,tier,tier,NOUN,True,False
to,to,to,to,ADP,True,True
commercial,commercial,commercial,commercial,ADJ,True,False
use,use,use,use,NOUN,True,False
.,.,.,.,PUNCT,False,False
under,under,under,under,ADP,True,True
the,the,the,the,DET,True,True
commission,commission,commission,commission,NOUN,True,False
's,'s,'s,'s,PART,False,True
proposal,proposal,proposal,proposal,NOUN,True,False
",",",",",",",",PUNCT,False,False
commercial,commercial,commercial,commercial,ADJ,True,False
user,user,user,user,NOUN,True,False
will,will,will,will,VERB,True,True
still,still,still,still,ADV,True,True
have,have,have,have,AUX,True,True
access,access,access,access,NOUN,True,False
to,to,to,to,ADP,True,True
the,the,the,the,DET,True,True
gaa,gaa,gaa,gaa,NOUN,True,False
tier,tier,tier,tier,NOUN,True,False
andalready,andalready,andalready,andalready,ADV,True,False
have,have,have,have,AUX,True,True
more,more,more,more,ADJ,True,True
spectrum,spectrum,spectrum,spectrum,NOUN,True,False
available,available,available,available,ADJ,True,False
to,to,to,to,ADP,True,True
them,them,-PRON-,-pron-,PRON,True,True
than,than,than,than,SCONJ,True,True
do,do,do,do,AUX,True,True
utility,utility,utility,utility,NOUN,True,False
.,.,.,.,PUNCT,False,False
conclusionfor,conclusionfor,conclusionfor,conclusionfor,VERB,True,False
the,the,the,the,DET,True,True
reason,reason,reason,reason,NOUN,True,False
indicate,indicate,indicate,indicate,VERB,True,False
above,above,above,above,ADP,True,True
the,the,the,the,DET,True,True
edison,edison,edison,edison,PROPN,True,False
electric,electric,electric,electric,PROPN,True,False
institute,institute,institute,institute,PROPN,True,False
urge,urge,urge,urge,VERB,True,False
the,the,the,the,DET,True,True
commission,commission,commission,commission,NOUN,True,False
toadopt,toadopt,toadopt,toadopt,ADP,True,False
the,the,the,the,DET,True,True
priority,priority,priority,priority,NOUN,True,False
access,access,access,access,NOUN,True,False
tier,tier,tier,tier,NOUN,True,False
proposal,proposal,proposal,proposal,NOUN,True,False
as,as,as,as,SCONJ,True,True
put,put,put,put,VERB,True,True
forward,forward,forward,forward,ADV,True,False
in,in,in,in,ADP,True,True
the,the,the,the,DET,True,True
nprm,nprm,nprm,nprm,NOUN,True,False
without,without,without,without,ADP,True,True
modification,modification,modification,modification,NOUN,True,False
.,.,.,.,PUNCT,False,False
