text,text_lower,lemma,lemma_lower,part_of_speech,is_alphabet,is_stopword
the,the,the,the,DET,True,True
ieee,ieee,ieee,ieee,PROPN,True,False
dyspan,dyspan,dyspan,dyspan,PROPN,True,False
standards,standards,standards,standards,PROPN,True,False
committee,committee,committee,committee,NOUN,True,False
dyspan,dyspan,dyspan,dyspan,NOUN,True,False
-,-,-,-,PUNCT,False,False
sc,sc,sc,sc,NOUN,True,False
hereby,hereby,hereby,hereby,ADV,True,True
submit,submit,submit,submit,VERB,True,False
its,its,-PRON-,-pron-,DET,True,True
comment,comment,comment,comment,NOUN,True,False
on,on,on,on,ADP,True,True
the,the,the,the,DET,True,True
above,above,above,above,ADJ,True,True
-,-,-,-,PUNCT,False,False
caption,caption,caption,caption,NOUN,True,False
proceeding,proceeding,proceeding,proceeding,NOUN,True,False
.,.,.,.,PUNCT,False,False
the,the,the,the,DET,True,True
document,document,document,document,NOUN,True,False
be,be,be,be,AUX,True,True
prepare,prepare,prepare,prepare,VERB,True,False
and,and,and,and,CCONJ,True,True
approve,approve,approve,approve,VERB,True,False
unanimously,unanimously,unanimously,unanimously,ADV,True,False
by,by,by,by,ADP,True,True
the,the,the,the,DET,True,True
1900.5,1900.5,1900.5,1900.5,NUM,False,False
working,working,working,working,NOUN,True,False
group,group,group,group,NOUN,True,False
within,within,within,within,ADP,True,True
the,the,the,the,DET,True,True
dyspan,dyspan,dyspan,dyspan,NOUN,True,False
-,-,-,-,PUNCT,False,False
sc1,sc1,sc1,sc1,PROPN,False,False
-,-,-,-,PUNCT,False,False
2.the,2.the,2.the,2.the,NUM,False,False
ieee,ieee,ieee,ieee,PROPN,True,False
dyspan,dyspan,dyspan,dyspan,NOUN,True,False
-,-,-,-,PUNCT,False,False
sc,sc,sc,sc,VERB,True,False
be,be,be,be,AUX,True,True
the,the,the,the,DET,True,True
lead,lead,lead,lead,ADJ,True,False
consensus,consensus,consensus,consensus,NOUN,True,False
-,-,-,-,PUNCT,False,False
base,base,base,base,NOUN,True,False
industry,industry,industry,industry,NOUN,True,False
standard,standard,standard,standard,ADJ,True,False
body,body,body,body,NOUN,True,False
for,for,for,for,ADP,True,True
dynamic,dynamic,dynamic,dynamic,ADJ,True,False
spectrum,spectrum,spectrum,spectrum,PROPN,True,False
access,access,access,access,NOUN,True,False
networks,networks,network,network,NOUN,True,False
dyspan,dyspan,dyspan,dyspan,NOUN,True,False
",",",",",",",",PUNCT,False,False
and,and,and,and,CCONJ,True,True
have,have,have,have,AUX,True,True
the,the,the,the,DET,True,True
follow,follow,follow,follow,ADJ,True,False
technical,technical,technical,technical,ADJ,True,False
scopedynamic,scopedynamic,scopedynamic,scopedynamic,PROPN,True,False
spectrum,spectrum,spectrum,spectrum,PROPN,True,False
access,access,access,access,NOUN,True,False
radio,radio,radio,radio,NOUN,True,False
system,system,system,system,NOUN,True,False
and,and,and,and,CCONJ,True,True
network,network,network,network,NOUN,True,False
with,with,with,with,ADP,True,True
the,the,the,the,DET,True,True
focus,focus,focus,focus,NOUN,True,False
on,on,on,on,ADP,True,True
improved,improved,improved,improved,ADJ,True,False
use,use,use,use,NOUN,True,False
of,of,of,of,ADP,True,True
spectrum,spectrum,spectrum,spectrum,NOUN,True,False
",",",",",",",",PUNCT,False,False
new,new,new,new,ADJ,True,False
technique,technique,technique,technique,NOUN,True,False
and,and,and,and,CCONJ,True,True
method,method,method,method,NOUN,True,False
of,of,of,of,ADP,True,True
dynamic,dynamic,dynamic,dynamic,ADJ,True,False
spectrum,spectrum,spectrum,spectrum,NOUN,True,False
access,access,access,access,NOUN,True,False
include,include,include,include,VERB,True,False
the,the,the,the,DET,True,True
management,management,management,management,NOUN,True,False
of,of,of,of,ADP,True,True
radio,radio,radio,radio,NOUN,True,False
transmission,transmission,transmission,transmission,NOUN,True,False
interference,interference,interference,interference,NOUN,True,False
",",",",",",",",PUNCT,False,False
andcoordination,andcoordination,andcoordination,andcoordination,NOUN,True,False
of,of,of,of,ADP,True,True
wireless,wireless,wireless,wireless,NOUN,True,False
technology,technology,technology,technology,NOUN,True,False
include,include,include,include,VERB,True,False
network,network,network,network,NOUN,True,False
management,management,management,management,NOUN,True,False
and,and,and,and,CCONJ,True,True
information,information,information,information,NOUN,True,False
sharing,sharing,sharing,sharing,NOUN,True,False
amongst,amongst,amongst,amongst,ADP,True,True
different,different,different,different,ADJ,True,False
dynamic,dynamic,dynamic,dynamic,ADJ,True,False
spectrum,spectrum,spectrum,spectrum,NOUN,True,False
access,access,access,access,NOUN,True,False
radio,radio,radio,radio,NOUN,True,False
network,network,network,network,NOUN,True,False
.,.,.,.,PUNCT,False,False
we,we,-PRON-,-pron-,PRON,True,True
appreciate,appreciate,appreciate,appreciate,VERB,True,False
the,the,the,the,DET,True,True
opportunity,opportunity,opportunity,opportunity,NOUN,True,False
to,to,to,to,PART,True,True
provide,provide,provide,provide,VERB,True,False
these,these,these,these,DET,True,True
comment,comment,comment,comment,NOUN,True,False
to,to,to,to,ADP,True,True
the,the,the,the,DET,True,True
commission,commission,commission,commission,NOUN,True,False
.,.,.,.,PUNCT,False,False
introductionthe,introductionthe,introductionthe,introductionthe,PROPN,True,False
ieee,ieee,ieee,ieee,PROPN,True,False
dyspan,dyspan,dyspan,dyspan,NOUN,True,False
-,-,-,-,PUNCT,False,False
sc,sc,sc,sc,NOUN,True,False
commend,commend,commend,commend,VERB,True,False
the,the,the,the,DET,True,True
commission,commission,commission,commission,NOUN,True,False
for,for,for,for,ADP,True,True
its,its,-PRON-,-pron-,DET,True,True
work,work,work,work,NOUN,True,False
in,in,in,in,ADP,True,True
develop,develop,develop,develop,VERB,True,False
this,this,this,this,DET,True,True
nprm,nprm,nprm,nprm,NOUN,True,False
and,and,and,and,CCONJ,True,True
for,for,for,for,ADP,True,True
solicit,solicit,solicit,solicit,ADJ,True,False
input,input,input,input,NOUN,True,False
focus,focus,focus,focus,NOUN,True,False
on,on,on,on,ADP,True,True
share,share,share,share,NOUN,True,False
between,between,between,between,ADP,True,True
federal,federal,federal,federal,ADJ,True,False
and,and,and,and,CCONJ,True,True
non,non,non,non,ADJ,True,False
-,-,-,-,ADJ,False,False
federal,federal,federal,federal,ADJ,True,False
system,system,system,system,NOUN,True,False
in,in,in,in,ADP,True,True
the,the,the,the,DET,True,True
3550,3550,3550,3550,NUM,False,False
-,-,-,-,SYM,False,False
3650,3650,3650,3650,NUM,False,False
mhz,mhz,mhz,mhz,PROPN,True,False
band,band,band,band,NOUN,True,False
.,.,.,.,PUNCT,False,False
the,the,the,the,DET,True,True
ieee,ieee,ieee,ieee,PROPN,True,False
dyspan,dyspan,dyspan,dyspan,NOUN,True,False
-,-,-,-,PUNCT,False,False
sc,sc,sc,sc,NOUN,True,False
strongly,strongly,strongly,strongly,ADV,True,False
believe,believe,believe,believe,VERB,True,False
that,that,that,that,SCONJ,True,True
dynamic,dynamic,dynamic,dynamic,ADJ,True,False
spectrum,spectrum,spectrum,spectrum,PROPN,True,False
access,access,access,access,NOUN,True,False
dsa,dsa,dsa,dsa,PROPN,True,False
technology,technology,technology,technology,NOUN,True,False
and,and,and,and,CCONJ,True,True
technique,technique,technique,technique,NOUN,True,False
have,have,have,have,AUX,True,True
the,the,the,the,DET,True,True
potential,potential,potential,potential,NOUN,True,False
to,to,to,to,PART,True,True
enable,enable,enable,enable,VERB,True,False
more,more,more,more,ADV,True,True
efficient,efficient,efficient,efficient,ADJ,True,False
utilization,utilization,utilization,utilization,NOUN,True,False
of,of,of,of,ADP,True,True
precious,precious,precious,precious,ADJ,True,False
spectrum,spectrum,spectrum,spectrum,NOUN,True,False
resource,resource,resource,resource,NOUN,True,False
",",",",",",",",PUNCT,False,False
and,and,and,and,CCONJ,True,True
should,should,should,should,VERB,True,True
be,be,be,be,AUX,True,True
thoroughly,thoroughly,thoroughly,thoroughly,ADV,True,False
investigate,investigate,investigate,investigate,VERB,True,False
to,to,to,to,PART,True,True
identify,identify,identify,identify,VERB,True,False
share,share,share,share,NOUN,True,False
spectrum,spectrum,spectrum,spectrum,NOUN,True,False
access,access,access,access,NOUN,True,False
solution,solution,solution,solution,NOUN,True,False
for,for,for,for,ADP,True,True
the,the,the,the,DET,True,True
3550,3550,3550,3550,NUM,False,False
-,-,-,-,SYM,False,False
3650,3650,3650,3650,NUM,False,False
mhz,mhz,mhz,mhz,PROPN,True,False
band,band,band,band,NOUN,True,False
.,.,.,.,PUNCT,False,False
the,the,the,the,DET,True,True
dyspan,dyspan,dyspan,dyspan,NOUN,True,False
-,-,-,-,PUNCT,False,False
sc,sc,sc,sc,NOUN,True,False
further,further,further,further,ADV,True,True
believe,believe,believe,believe,VERB,True,False
that,that,that,that,SCONJ,True,True
the,the,the,the,DET,True,True
benefit,benefit,benefit,benefit,NOUN,True,False
of,of,of,of,ADP,True,True
the,the,the,the,DET,True,True
dsa,dsa,dsa,dsa,NOUN,True,False
technique,technique,technique,technique,NOUN,True,False
require,require,require,require,VERB,True,False
a,a,a,a,DET,True,True
regulatory,regulatory,regulatory,regulatory,ADJ,True,False
framework,framework,framework,framework,NOUN,True,False
that,that,that,that,DET,True,True
will,will,will,will,VERB,True,True
encourage,encourage,encourage,encourage,VERB,True,False
business,business,business,business,NOUN,True,False
development,development,development,development,NOUN,True,False
of,of,of,of,ADP,True,True
product,product,product,product,NOUN,True,False
and,and,and,and,CCONJ,True,True
service,service,service,service,NOUN,True,False
that,that,that,that,DET,True,True
utilize,utilize,utilize,utilize,VERB,True,False
advanced,advanced,advanced,advanced,ADJ,True,False
dsa,dsa,dsa,dsa,NOUN,True,False
technology,technology,technology,technology,NOUN,True,False
.,.,.,.,PUNCT,False,False
the,the,the,the,DET,True,True
acceptance,acceptance,acceptance,acceptance,NOUN,True,False
of,of,of,of,ADP,True,True
these,these,these,these,DET,True,True
advanced,advanced,advanced,advanced,ADJ,True,False
technology,technology,technology,technology,NOUN,True,False
by,by,by,by,ADP,True,True
both,both,both,both,DET,True,True
the,the,the,the,DET,True,True
business,business,business,business,NOUN,True,False
and,and,and,and,CCONJ,True,True
regulatory,regulatory,regulatory,regulatory,ADJ,True,False
community,community,community,community,NOUN,True,False
be,be,be,be,AUX,True,True
dependent,dependent,dependent,dependent,ADJ,True,False
on,on,on,on,ADP,True,True
dsa,dsa,dsa,dsa,ADJ,True,False
standard,standard,standard,standard,ADJ,True,False
develop,develop,develop,develop,NOUN,True,False
by,by,by,by,ADP,True,True
international,international,international,international,ADJ,True,False
standards,standards,standard,standard,NOUN,True,False
development,development,development,development,NOUN,True,False
organizations,organizations,organization,organization,NOUN,True,False
sdo,sdo,sdo,sdo,VERB,True,False
such,such,such,such,ADJ,True,True
as,as,as,as,SCONJ,True,True
the,the,the,the,DET,True,True
ieee,ieee,ieee,ieee,PROPN,True,False
dyspan,dyspan,dyspan,dyspan,NOUN,True,False
-,-,-,-,PUNCT,False,False
sc,sc,sc,sc,NOUN,True,False
.,.,.,.,PUNCT,False,False
thus,thus,thus,thus,ADV,True,True
",",",",",",",",PUNCT,False,False
the,the,the,the,DET,True,True
regulatory,regulatory,regulatory,regulatory,ADJ,True,False
community,community,community,community,NOUN,True,False
",",",",",",",",PUNCT,False,False
the,the,the,the,DET,True,True
wireless,wireless,wireless,wireless,ADJ,True,False
industry,industry,industry,industry,NOUN,True,False
",",",",",",",",PUNCT,False,False
and,and,and,and,CCONJ,True,True
sdo,sdo,sdo,sdo,PROPN,True,False
must,must,must,must,VERB,True,True
work,work,work,work,VERB,True,False
in,in,in,in,ADP,True,True
close,close,close,close,ADJ,True,False
harmony,harmony,harmony,harmony,NOUN,True,False
to,to,to,to,PART,True,True
achieve,achieve,achieve,achieve,VERB,True,False
the,the,the,the,DET,True,True
spectrum,spectrum,spectrum,spectrum,PROPN,True,False
efficiency,efficiency,efficiency,efficiency,PROPN,True,False
benefit,benefit,benefit,benefit,NOUN,True,False
associate,associate,associate,associate,NOUN,True,False
with,with,with,with,ADP,True,True
dsa,dsa,dsa,dsa,NOUN,True,False
radio,radio,radio,radio,NOUN,True,False
system,system,system,system,NOUN,True,False
and,and,and,and,CCONJ,True,True
network,network,network,network,NOUN,True,False
.,.,.,.,PUNCT,False,False
this,this,this,this,DET,True,True
nprm,nprm,nprm,nprm,NOUN,True,False
be,be,be,be,AUX,True,True
a,a,a,a,DET,True,True
critical,critical,critical,critical,ADJ,True,False
component,component,component,component,NOUN,True,False
of,of,of,of,ADP,True,True
create,create,create,create,VERB,True,False
this,this,this,this,DET,True,True
harmonious,harmonious,harmonious,harmonious,ADJ,True,False
relationship,relationship,relationship,relationship,NOUN,True,False
.,.,.,.,PUNCT,False,False
the,the,the,the,DET,True,True
ieee,ieee,ieee,ieee,PROPN,True,False
dyspan,dyspan,dyspan,dyspan,NOUN,True,False
-,-,-,-,PUNCT,False,False
sc,sc,sc,sc,PROPN,True,False
would,would,would,would,VERB,True,True
like,like,like,like,VERB,True,False
to,to,to,to,PART,True,True
further,further,further,further,ADV,True,True
emphasize,emphasize,emphasize,emphasize,VERB,True,False
the,the,the,the,DET,True,True
importance,importance,importance,importance,NOUN,True,False
of,of,of,of,ADP,True,True
collaboration,collaboration,collaboration,collaboration,NOUN,True,False
between,between,between,between,ADP,True,True
commercial,commercial,commercial,commercial,ADJ,True,False
industry,industry,industry,industry,NOUN,True,False
and,and,and,and,CCONJ,True,True
federalnon,federalnon,federalnon,federalnon,ADJ,True,False
-,-,-,-,PUNCT,False,False
federal,federal,federal,federal,ADJ,True,False
government,government,government,government,NOUN,True,False
on,on,on,on,PART,True,True
develop,develop,develop,develop,VERB,True,False
standardized,standardized,standardized,standardized,ADJ,True,False
technology,technology,technology,technology,NOUN,True,False
solution,solution,solution,solution,NOUN,True,False
to,to,to,to,PART,True,True
achieve,achieve,achieve,achieve,VERB,True,False
success,success,success,success,NOUN,True,False
in,in,in,in,ADP,True,True
share,share,share,share,NOUN,True,False
the,the,the,the,DET,True,True
3550,3550,3550,3550,NUM,False,False
-,-,-,-,SYM,False,False
3650,3650,3650,3650,NUM,False,False
mhz,mhz,mhz,mhz,PROPN,True,False
band,band,band,band,NOUN,True,False
.,.,.,.,PUNCT,False,False
both,both,both,both,DET,True,True
industry,industry,industry,industry,NOUN,True,False
and,and,and,and,CCONJ,True,True
government,government,government,government,NOUN,True,False
must,must,must,must,VERB,True,True
commit,commit,commit,commit,VERB,True,False
resource,resource,resource,resource,NOUN,True,False
to,to,to,to,PART,True,True
participate,participate,participate,participate,VERB,True,False
in,in,in,in,ADP,True,True
sdo,sdo,sdo,sdo,NOUN,True,False
to,to,to,to,PART,True,True
standardize,standardize,standardize,standardize,VERB,True,False
solution,solution,solution,solution,NOUN,True,False
that,that,that,that,DET,True,True
provide,provide,provide,provide,VERB,True,False
maximum,maximum,maximum,maximum,ADJ,True,False
benefit,benefit,benefit,benefit,NOUN,True,False
for,for,for,for,ADP,True,True
increase,increase,increase,increase,NOUN,True,False
spectrum,spectrum,spectrum,spectrum,NOUN,True,False
utilization,utilization,utilization,utilization,NOUN,True,False
between,between,between,between,ADP,True,True
federal,federal,federal,federal,ADJ,True,False
and,and,and,and,CCONJ,True,True
non,non,non,non,ADJ,True,False
-,-,-,-,ADJ,False,False
federal,federal,federal,federal,ADJ,True,False
sector,sector,sector,sector,NOUN,True,False
.,.,.,.,PUNCT,False,False
the,the,the,the,DET,True,True
work,work,work,work,NOUN,True,False
be,be,be,be,AUX,True,True
conduct,conduct,conduct,conduct,NOUN,True,False
under,under,under,under,ADP,True,True
the,the,the,the,DET,True,True
ieee,ieee,ieee,ieee,PROPN,True,False
1900.5,1900.5,1900.5,1900.5,NUM,False,False
working,working,working,working,NOUN,True,False
group,group,group,group,NOUN,True,False
",",",",",",",",PUNCT,False,False
policy,policy,policy,policy,NOUN,True,False
language,language,language,language,NOUN,True,False
and,and,and,and,CCONJ,True,True
architectures,architectures,architecture,architecture,NOUN,True,False
for,for,for,for,ADP,True,True
manage,manage,manage,manage,VERB,True,False
cognitive,cognitive,cognitive,cognitive,ADJ,True,False
radio,radio,radio,radio,NOUN,True,False
for,for,for,for,ADP,True,True
dsa,dsa,dsa,dsa,NOUN,True,False
applications,applications,application,application,NOUN,True,False
",",",",",",",",PUNCT,False,False
be,be,be,be,AUX,True,True
directly,directly,directly,directly,ADV,True,False
applicable,applicable,applicable,applicable,ADJ,True,False
to,to,to,to,PART,True,True
share,share,share,share,VERB,True,False
in,in,in,in,ADP,True,True
the,the,the,the,DET,True,True
3550,3550,3550,3550,NUM,False,False
-,-,-,-,SYM,False,False
3650,3650,3650,3650,NUM,False,False
mhz,mhz,mhz,mhz,PROPN,True,False
band,band,band,band,NOUN,True,False
.,.,.,.,PUNCT,False,False
the,the,the,the,DET,True,True
p1900.5,p1900.5,p1900.5,p1900.5,PROPN,False,False
working,working,working,working,PROPN,True,False
group,group,group,group,NOUN,True,False
be,be,be,be,VERB,True,True
standardize,standardize,standardize,standardize,VERB,True,False
a,a,a,a,DET,True,True
method,method,method,method,NOUN,True,False
for,for,for,for,ADP,True,True
model,model,model,model,NOUN,True,False
spectrum,spectrum,spectrum,spectrum,PROPN,True,False
consumption,consumption,consumption,consumption,NOUN,True,False
.,.,.,.,PUNCT,False,False
the,the,the,the,DET,True,True
applicability,applicability,applicability,applicability,NOUN,True,False
of,of,of,of,ADP,True,True
this,this,this,this,DET,True,True
work,work,work,work,NOUN,True,False
to,to,to,to,ADP,True,True
the,the,the,the,DET,True,True
area,area,area,area,NOUN,True,False
identify,identify,identify,identify,VERB,True,False
in,in,in,in,ADP,True,True
this,this,this,this,DET,True,True
nprm,nprm,nprm,nprm,NOUN,True,False
be,be,be,be,AUX,True,True
outline,outline,outline,outline,NOUN,True,False
below,below,below,below,ADV,True,True
.,.,.,.,PUNCT,False,False
while,while,while,while,SCONJ,True,True
this,this,this,this,DET,True,True
response,response,response,response,NOUN,True,False
center,center,center,center,NOUN,True,False
around,around,around,around,ADP,True,True
the,the,the,the,DET,True,True
work,work,work,work,NOUN,True,False
be,be,be,be,AUX,True,True
complete,complete,complete,complete,ADJ,True,False
by,by,by,by,ADP,True,True
the,the,the,the,DET,True,True
p1900.5,p1900.5,p1900.5,p1900.5,NOUN,False,False
working,working,working,working,PROPN,True,False
group,group,group,group,NOUN,True,False
",",",",",",",",PUNCT,False,False
the,the,the,the,DET,True,True
dyspan,dyspan,dyspan,dyspan,NOUN,True,False
-,-,-,-,PUNCT,False,False
sc,sc,sc,sc,NOUN,True,False
encourage,encourage,encourage,encourage,NOUN,True,False
industry,industry,industry,industry,NOUN,True,False
and,and,and,and,CCONJ,True,True
federalnon,federalnon,federalnon,federalnon,ADJ,True,False
-,-,-,-,PUNCT,False,False
federal,federal,federal,federal,ADJ,True,False
government,government,government,government,NOUN,True,False
sector,sector,sector,sector,NOUN,True,False
to,to,to,to,PART,True,True
identify,identify,identify,identify,VERB,True,False
further,further,further,further,ADJ,True,True
area,area,area,area,NOUN,True,False
for,for,for,for,ADP,True,True
standardization,standardization,standardization,standardization,NOUN,True,False
",",",",",",",",PUNCT,False,False
identify,identify,identify,identify,VERB,True,False
the,the,the,the,DET,True,True
appropriate,appropriate,appropriate,appropriate,ADJ,True,False
sdo,sdo,sdo,sdo,NOUN,True,False
to,to,to,to,PART,True,True
pursue,pursue,pursue,pursue,VERB,True,False
those,those,those,those,DET,True,True
area,area,area,area,NOUN,True,False
",",",",",",",",PUNCT,False,False
and,and,and,and,CCONJ,True,True
start,start,start,start,VERB,True,False
new,new,new,new,ADJ,True,False
work,work,work,work,NOUN,True,False
group,group,group,group,NOUN,True,False
.,.,.,.,PUNCT,False,False
in,in,in,in,ADP,True,True
the,the,the,the,DET,True,True
text,text,text,text,NOUN,True,False
below,below,below,below,ADV,True,True
",",",",",",",",PUNCT,False,False
the,the,the,the,DET,True,True
dyspan,dyspan,dyspan,dyspan,NOUN,True,False
-,-,-,-,PUNCT,False,False
sc,sc,sc,sc,ADJ,True,False
provide,provide,provide,provide,VERB,True,False
comment,comment,comment,comment,NOUN,True,False
relate,relate,relate,relate,NOUN,True,False
to,to,to,to,ADP,True,True
several,several,several,several,ADJ,True,True
section,section,section,section,NOUN,True,False
of,of,of,of,ADP,True,True
the,the,the,the,DET,True,True
nprm.description,nprm.description,nprm.description,nprm.description,NOUN,False,False
of,of,of,of,ADP,True,True
the,the,the,the,DET,True,True
spectrum,spectrum,spectrum,spectrum,NOUN,True,False
consumption,consumption,consumption,consumption,NOUN,True,False
modeling,modeling,modeling,modeling,NOUN,True,False
scm,scm,scm,scm,PROPN,True,False
standard,standard,standard,standard,PROPN,True,False
workthe,workthe,workthe,workthe,PROPN,True,False
ieee,ieee,ieee,ieee,PROPN,True,False
dyspan,dyspan,dyspan,dyspan,NOUN,True,False
-,-,-,-,PUNCT,False,False
sc,sc,sc,sc,PROPN,True,False
p1900.5,p1900.5,p1900.5,p1900.5,PROPN,False,False
working,working,working,working,PROPN,True,False
group,group,group,group,NOUN,True,False
seek,seek,seek,seek,VERB,True,False
to,to,to,to,PART,True,True
standardize,standardize,standardize,standardize,VERB,True,False
an,an,an,an,DET,True,True
approach,approach,approach,approach,NOUN,True,False
to,to,to,to,ADP,True,True
model,model,model,model,NOUN,True,False
spectrum,spectrum,spectrum,spectrum,PROPN,True,False
consumption,consumption,consumption,consumption,NOUN,True,False
call,call,call,call,NOUN,True,True
spectrum,spectrum,spectrum,spectrum,PROPN,True,False
consumption,consumption,consumption,consumption,PROPN,True,False
model,model,model,model,NOUN,True,False
scm,scm,scm,scm,PROPN,True,False
.,.,.,.,PUNCT,False,False
scm,scm,scm,scm,PROPN,True,False
be,be,be,be,AUX,True,True
use,use,use,use,NOUN,True,False
to,to,to,to,PART,True,True
capture,capture,capture,capture,VERB,True,False
the,the,the,the,DET,True,True
boundary,boundary,boundary,boundary,PROPN,True,False
of,of,of,of,ADP,True,True
rf,rf,rf,rf,PROPN,True,False
spectrum,spectrum,spectrum,spectrum,NOUN,True,False
use,use,use,use,NOUN,True,False
by,by,by,by,ADP,True,True
device,device,device,device,NOUN,True,False
and,and,and,and,CCONJ,True,True
system,system,system,system,NOUN,True,False
of,of,of,of,ADP,True,True
device,device,device,device,NOUN,True,False
.,.,.,.,PUNCT,False,False
these,these,these,these,DET,True,True
model,model,model,model,NOUN,True,False
enable,enable,enable,enable,PROPN,True,False
model,model,model,model,NOUN,True,False
-,-,-,-,PUNCT,False,False
based,based,base,base,VERB,True,False
spectrum,spectrum,spectrum,spectrum,NOUN,True,False
management,management,management,management,NOUN,True,False
mbsm,mbsm,mbsm,mbsm,NOUN,True,False
",",",",",",",",PUNCT,False,False
which,which,which,which,DET,True,True
be,be,be,be,VERB,True,True
spectrum,spectrum,spectrum,spectrum,NOUN,True,False
management,management,management,management,NOUN,True,False
execute,execute,execute,execute,VERB,True,False
through,through,through,through,ADP,True,True
the,the,the,the,DET,True,True
creation,creation,creation,creation,NOUN,True,False
and,and,and,and,CCONJ,True,True
exchange,exchange,exchange,exchange,NOUN,True,False
of,of,of,of,ADP,True,True
scms,scms,scms,scms,PROPN,True,False
.,.,.,.,PUNCT,False,False
mbsm,mbsm,mbsm,mbsm,NOUN,True,False
allow,allow,allow,allow,VERB,True,False
distribution,distribution,distribution,distribution,NOUN,True,False
of,of,of,of,ADP,True,True
the,the,the,the,DET,True,True
spectrum,spectrum,spectrum,spectrum,NOUN,True,False
management,management,management,management,NOUN,True,False
problem,problem,problem,problem,NOUN,True,False
where,where,where,where,ADV,True,True
spectrum,spectrum,spectrum,spectrum,PROPN,True,False
user,user,user,user,NOUN,True,False
can,can,can,can,VERB,True,True
model,model,model,model,VERB,True,False
their,their,-PRON-,-pron-,DET,True,True
use,use,use,use,NOUN,True,False
of,of,of,of,ADP,True,True
spectrum,spectrum,spectrum,spectrum,NOUN,True,False
independent,independent,independent,independent,NOUN,True,False
of,of,of,of,ADP,True,True
other,other,other,other,ADJ,True,True
user,user,user,user,NOUN,True,False
and,and,and,and,CCONJ,True,True
place,place,place,place,VERB,True,False
those,those,those,those,DET,True,True
model,model,model,model,NOUN,True,False
in,in,in,in,ADP,True,True
a,a,a,a,DET,True,True
mbsm,mbsm,mbsm,mbsm,NOUN,True,False
system,system,system,system,NOUN,True,False
where,where,where,where,ADV,True,True
common,common,common,common,ADJ,True,False
algorithm,algorithm,algorithm,algorithm,PROPN,True,False
arbitrate,arbitrate,arbitrate,arbitrate,VERB,True,False
compatibility,compatibility,compatibility,compatibility,NOUN,True,False
.,.,.,.,PUNCT,False,False
these,these,these,these,DET,True,True
model,model,model,model,NOUN,True,False
be,be,be,be,AUX,True,True
machine,machine,machine,machine,NOUN,True,False
readable,readable,readable,readable,ADJ,True,False
and,and,and,and,CCONJ,True,True
thus,thus,thus,thus,ADV,True,True
serve,serve,serve,serve,VERB,True,False
as,as,as,as,SCONJ,True,True
a,a,a,a,DET,True,True
means,means,means,means,NOUN,True,False
to,to,to,to,PART,True,True
convey,convey,convey,convey,VERB,True,False
rf,rf,rf,rf,PROPN,True,False
spectrum,spectrum,spectrum,spectrum,PROPN,True,False
use,use,use,use,PROPN,True,False
digital,digital,digital,digital,ADJ,True,False
policy,policy,policy,policy,NOUN,True,False
to,to,to,to,ADP,True,True
device,device,device,device,NOUN,True,False
in,in,in,in,ADP,True,True
support,support,support,support,NOUN,True,False
of,of,of,of,ADP,True,True
emerge,emerge,emerge,emerge,NOUN,True,False
policy,policy,policy,policy,NOUN,True,False
-,-,-,-,PUNCT,False,False
base,base,base,base,NOUN,True,False
spectrum,spectrum,spectrum,spectrum,NOUN,True,False
management,management,management,management,NOUN,True,False
pbsm,pbsm,pbsm,pbsm,NOUN,True,False
system,system,system,system,NOUN,True,False
.,.,.,.,PUNCT,False,False
scm,scm,scm,scm,PROPN,True,False
could,could,could,could,VERB,True,True
be,be,be,be,AUX,True,True
a,a,a,a,DET,True,True
core,core,core,core,NOUN,True,False
component,component,component,component,NOUN,True,False
of,of,of,of,ADP,True,True
any,any,any,any,DET,True,True
future,future,future,future,ADJ,True,False
national,national,national,national,PROPN,True,False
spectrum,spectrum,spectrum,spectrum,NOUN,True,False
access,access,access,access,NOUN,True,False
system,system,system,system,NOUN,True,False
sas,sas,sas,sas,PROPN,True,False
.,.,.,.,PUNCT,False,False
scm,scm,scm,scm,PROPN,True,False
be,be,be,be,AUX,True,True
only,only,only,only,ADV,True,True
one,one,one,one,NUM,True,True
aspect,aspect,aspect,aspect,NOUN,True,False
of,of,of,of,ADP,True,True
dyspan,dyspan,dyspan,dyspan,NOUN,True,False
-,-,-,-,PUNCT,False,False
sc,sc,sc,sc,ADP,True,False
work,work,work,work,NOUN,True,False
which,which,which,which,DET,True,True
we,we,-PRON-,-pron-,PRON,True,True
present,present,present,present,VERB,True,False
here,here,here,here,ADV,True,True
because,because,because,because,SCONJ,True,True
of,of,of,of,ADP,True,True
its,its,-PRON-,-pron-,DET,True,True
potential,potential,potential,potential,ADJ,True,False
relevance,relevance,relevance,relevance,NOUN,True,False
to,to,to,to,ADP,True,True
the,the,the,the,DET,True,True
fcc,fcc,fcc,fcc,PROPN,True,False
nprm,nprm,nprm,nprm,PROPN,True,False
and,and,and,and,CCONJ,True,True
its,its,-PRON-,-pron-,DET,True,True
potential,potential,potential,potential,NOUN,True,False
to,to,to,to,PART,True,True
be,be,be,be,AUX,True,True
use,use,use,use,NOUN,True,False
to,to,to,to,PART,True,True
assist,assist,assist,assist,VERB,True,False
the,the,the,the,DET,True,True
nprm.the,nprm.the,nprm.the,nprm.the,PROPN,False,False
ieee,ieee,ieee,ieee,PROPN,True,False
dyspan,dyspan,dyspan,dyspan,NOUN,True,False
-,-,-,-,PUNCT,False,False
sc,sc,sc,sc,PROPN,True,False
p1900.5,p1900.5,p1900.5,p1900.5,PROPN,False,False
working,working,working,working,NOUN,True,False
group,group,group,group,NOUN,True,False
have,have,have,have,AUX,True,True
recently,recently,recently,recently,ADV,True,False
begin,begin,begin,begin,VERB,True,False
this,this,this,this,DET,True,True
work,work,work,work,NOUN,True,False
.,.,.,.,PUNCT,False,False
it,it,-PRON-,-pron-,PRON,True,True
will,will,will,will,VERB,True,True
be,be,be,be,AUX,True,True
base,base,base,base,NOUN,True,False
on,on,on,on,ADP,True,True
concept,concept,concept,concept,NOUN,True,False
from,from,from,from,ADP,True,True
work,work,work,work,NOUN,True,False
complete,complete,complete,complete,ADJ,True,False
by,by,by,by,ADP,True,True
the,the,the,the,DET,True,True
mitre,mitre,mitre,mitre,PROPN,True,False
corporation,corporation,corporation,corporation,PROPN,True,False
.,.,.,.,PUNCT,False,False
the,the,the,the,DET,True,True
p1900.5,p1900.5,p1900.5,p1900.5,PROPN,False,False
workinggroup,workinggroup,workinggroup,workinggroup,PROPN,True,False
goal,goal,goal,goal,NOUN,True,False
be,be,be,be,AUX,True,True
to,to,to,to,PART,True,True
complete,complete,complete,complete,VERB,True,False
this,this,this,this,DET,True,True
standard,standard,standard,standard,NOUN,True,False
within,within,within,within,ADP,True,True
18,18,18,18,NUM,False,False
month,month,month,month,NOUN,True,False
.,.,.,.,PUNCT,False,False
the,the,the,the,DET,True,True
par,par,par,par,NOUN,True,False
approval,approval,approval,approval,NOUN,True,False
be,be,be,be,VERB,True,True
in,in,in,in,ADP,True,True
process,process,process,process,NOUN,True,False
and,and,and,and,CCONJ,True,True
this,this,this,this,DET,True,True
work,work,work,work,NOUN,True,False
will,will,will,will,VERB,True,True
be,be,be,be,AUX,True,True
document,document,document,document,NOUN,True,False
as,as,as,as,SCONJ,True,True
ieee,ieee,ieee,ieee,PROPN,True,False
standard,standard,standard,standard,ADJ,True,False
1900.5.2.goal,1900.5.2.goal,1900.5.2.goal,1900.5.2.goal,PROPN,False,False
of,of,of,of,ADP,True,True
scm,scm,scm,scm,PROPN,True,False
and,and,and,and,CCONJ,True,True
their,their,-PRON-,-pron-,DET,True,True
relevance,relevance,relevance,relevance,NOUN,True,False
to,to,to,to,ADP,True,True
the,the,the,the,DET,True,True
nprmscms,nprmscms,nprmscms,nprmscms,PROPN,True,False
capture,capture,capture,capture,NOUN,True,False
the,the,the,the,DET,True,True
boundary,boundary,boundary,boundary,NOUN,True,False
of,of,of,of,ADP,True,True
spectrum,spectrum,spectrum,spectrum,PROPN,True,False
use,use,use,use,NOUN,True,False
by,by,by,by,ADP,True,True
capture,capture,capture,capture,NOUN,True,False
the,the,the,the,DET,True,True
key,key,key,key,ADJ,True,False
characteristic,characteristic,characteristic,characteristic,NOUN,True,False
of,of,of,of,ADP,True,True
rf,rf,rf,rf,PROPN,True,False
system,system,system,system,NOUN,True,False
and,and,and,and,CCONJ,True,True
phenomenon,phenomenon,phenomenon,phenomenon,NOUN,True,False
that,that,that,that,DET,True,True
determine,determine,determine,determine,VERB,True,False
spectrum,spectrum,spectrum,spectrum,PROPN,True,False
use,use,use,use,PROPN,True,False
.,.,.,.,PUNCT,False,False
currently,currently,currently,currently,ADV,True,False
",",",",",",",",PUNCT,False,False
the,the,the,the,DET,True,True
modeling,modeling,modeling,modeling,NOUN,True,False
method,method,method,method,NOUN,True,False
use,use,use,use,VERB,True,False
13,13,13,13,NUM,False,False
construct,construct,construct,construct,NOUN,True,False
that,that,that,that,DET,True,True
can,can,can,can,VERB,True,True
collectively,collectively,collectively,collectively,ADV,True,False
capture,capture,capture,capture,VERB,True,False
transmission,transmission,transmission,transmission,NOUN,True,False
power,power,power,power,NOUN,True,False
",",",",",",",",PUNCT,False,False
spectral,spectral,spectral,spectral,ADJ,True,False
emission,emission,emission,emission,NOUN,True,False
",",",",",",",",PUNCT,False,False
receiver,receiver,receiver,receiver,VERB,True,False
susceptibility,susceptibility,susceptibility,susceptibility,NOUN,True,False
to,to,to,to,ADP,True,True
interference,interference,interference,interference,NOUN,True,False
",",",",",",",",PUNCT,False,False
intermodulation,intermodulation,intermodulation,intermodulation,NOUN,True,False
effect,effect,effect,effect,NOUN,True,False
",",",",",",",",PUNCT,False,False
propagation,propagation,propagation,propagation,NOUN,True,False
",",",",",",",",PUNCT,False,False
antenna,antenna,antenna,antenna,NOUN,True,False
effect,effect,effect,effect,NOUN,True,False
",",",",",",",",PUNCT,False,False
location,location,location,location,NOUN,True,False
both,both,both,both,CCONJ,True,True
fixed,fixed,fixed,fixed,ADJ,True,False
and,and,and,and,CCONJ,True,True
mobile,mobile,mobile,mobile,ADJ,True,False
",",",",",",",",PUNCT,False,False
time,time,time,time,NOUN,True,False
of,of,of,of,ADP,True,True
use,use,use,use,NOUN,True,False
",",",",",",",",PUNCT,False,False
radio,radio,radio,radio,NOUN,True,False
behavior,behavior,behavior,behavior,NOUN,True,False
that,that,that,that,DET,True,True
enable,enable,enable,enable,VERB,True,False
compatibility,compatibility,compatibility,compatibility,NOUN,True,False
",",",",",",",",PUNCT,False,False
and,and,and,and,CCONJ,True,True
the,the,the,the,DET,True,True
certainty,certainty,certainty,certainty,NOUN,True,False
of,of,of,of,ADP,True,True
what,what,what,what,PRON,True,True
be,be,be,be,VERB,True,True
model,model,model,model,NOUN,True,False
.,.,.,.,PUNCT,False,False
scm,scm,scm,scm,PROPN,True,False
be,be,be,be,AUX,True,True
complement,complement,complement,complement,ADJ,True,False
with,with,with,with,ADP,True,True
define,define,define,define,NOUN,True,False
method,method,method,method,NOUN,True,False
for,for,for,for,ADP,True,True
arbitrate,arbitrate,arbitrate,arbitrate,NOUN,True,False
the,the,the,the,DET,True,True
compatibility,compatibility,compatibility,compatibility,NOUN,True,False
between,between,between,between,ADP,True,True
model,model,model,model,NOUN,True,False
.,.,.,.,PUNCT,False,False
a,a,a,a,DET,True,True
mbsm,mbsm,mbsm,mbsm,NOUN,True,False
system,system,system,system,NOUN,True,False
be,be,be,be,AUX,True,True
thus,thus,thus,thus,ADV,True,True
capable,capable,capable,capable,ADJ,True,False
of,of,of,of,ADP,True,True
manage,manage,manage,manage,VERB,True,False
coexistence,coexistence,coexistence,coexistence,NOUN,True,False
among,among,among,among,ADP,True,True
multiple,multiple,multiple,multiple,ADJ,True,False
type,type,type,type,NOUN,True,False
of,of,of,of,ADP,True,True
user,user,user,user,NOUN,True,False
.,.,.,.,PUNCT,False,False
coexistence,coexistence,coexistence,coexistence,NOUN,True,False
can,can,can,can,VERB,True,True
be,be,be,be,AUX,True,True
manage,manage,manage,manage,VERB,True,False
among,among,among,among,ADP,True,True
type,type,type,type,NOUN,True,False
of,of,of,of,ADP,True,True
user,user,user,user,NOUN,True,False
as,as,as,as,SCONJ,True,True
differentiate,differentiate,differentiate,differentiate,ADJ,True,False
in,in,in,in,ADP,True,True
the,the,the,the,DET,True,True
tier,tier,tier,tier,NOUN,True,False
propose,propose,propose,propose,NOUN,True,False
by,by,by,by,ADP,True,True
the,the,the,the,DET,True,True
commission,commission,commission,commission,NOUN,True,False
or,or,or,or,CCONJ,True,True
as,as,as,as,SCONJ,True,True
propose,propose,propose,propose,NOUN,True,False
by,by,by,by,ADP,True,True
qualcomm,qualcomm,qualcomm,qualcomm,PROPN,True,False
.,.,.,.,PUNCT,False,False
model,model,model,model,PROPN,True,False
can,can,can,can,VERB,True,True
be,be,be,be,AUX,True,True
make,make,make,make,NOUN,True,True
of,of,of,of,ADP,True,True
any,any,any,any,DET,True,True
type,type,type,type,NOUN,True,False
of,of,of,of,ADP,True,True
system,system,system,system,NOUN,True,False
that,that,that,that,DET,True,True
use,use,use,use,VERB,True,False
the,the,the,the,DET,True,True
rf,rf,rf,rf,PROPN,True,False
spectrum,spectrum,spectrum,spectrum,NOUN,True,False
and,and,and,and,CCONJ,True,True
so,so,so,so,ADV,True,True
compatibility,compatibility,compatibility,compatibility,NOUN,True,False
can,can,can,can,VERB,True,True
be,be,be,be,AUX,True,True
manage,manage,manage,manage,VERB,True,False
among,among,among,among,ADP,True,True
type,type,type,type,NOUN,True,False
of,of,of,of,ADP,True,True
user,user,user,user,NOUN,True,False
differentiate,differentiate,differentiate,differentiate,ADJ,True,False
by,by,by,by,ADP,True,True
the,the,the,the,DET,True,True
purpose,purpose,purpose,purpose,NOUN,True,False
or,or,or,or,CCONJ,True,True
service,service,service,service,NOUN,True,False
of,of,of,of,ADP,True,True
their,their,-PRON-,-pron-,DET,True,True
spectrum,spectrum,spectrum,spectrum,NOUN,True,False
use,use,use,use,NOUN,True,False
",",",",",",",",PUNCT,False,False
e.g.,e.g.,e.g.,e.g.,ADV,False,False
",",",",",",",",PUNCT,False,False
the,the,the,the,DET,True,True
radio,radio,radio,radio,NOUN,True,False
location,location,location,location,NOUN,True,False
service,service,service,service,NOUN,True,False
of,of,of,of,ADP,True,True
radar,radar,radar,radar,NOUN,True,False
and,and,and,and,CCONJ,True,True
the,the,the,the,DET,True,True
land,land,land,land,NOUN,True,False
mobile,mobile,mobile,mobile,PROPN,True,False
radio,radio,radio,radio,PROPN,True,False
service,service,service,service,NOUN,True,False
of,of,of,of,ADP,True,True
broadband,broadband,broadband,broadband,PROPN,True,False
.,.,.,.,PUNCT,False,False
these,these,these,these,DET,True,True
method,method,method,method,PROPN,True,False
support,support,support,support,NOUN,True,False
arbitrate,arbitrate,arbitrate,arbitrate,VERB,True,False
compatibility,compatibility,compatibility,compatibility,NOUN,True,False
base,base,base,base,NOUN,True,False
on,on,on,on,ADP,True,True
both,both,both,both,DET,True,True
noise,noise,noise,noise,NOUN,True,False
limited,limited,limited,limited,ADJ,True,False
and,and,and,and,CCONJ,True,True
interference,interference,interference,interference,NOUN,True,False
limited,limited,limit,limit,VERB,True,False
sharing,sharing,sharing,sharing,NOUN,True,False
criterion,criterion,criterion,criterion,NOUN,True,False
.,.,.,.,PUNCT,False,False
the,the,the,the,DET,True,True
scm,scm,scm,scm,PROPN,True,False
datum,datum,datum,datum,PROPN,True,False
schema,schema,schema,schema,PROPN,True,False
be,be,be,be,AUX,True,True
narrowly,narrowly,narrowly,narrowly,ADV,True,False
focused,focused,focused,focused,ADJ,True,False
on,on,on,on,ADP,True,True
spectrum,spectrum,spectrum,spectrum,NOUN,True,False
consumption,consumption,consumption,consumption,NOUN,True,False
.,.,.,.,PUNCT,False,False
it,it,-PRON-,-pron-,PRON,True,True
do,do,do,do,AUX,True,True
not,not,not,not,PART,True,True
capture,capture,capture,capture,VERB,True,False
user,user,user,user,NOUN,True,False
identity,identity,identity,identity,NOUN,True,False
",",",",",",",",PUNCT,False,False
rf,rf,rf,rf,X,True,False
component,component,component,component,NOUN,True,False
nomenclature,nomenclature,nomenclature,nomenclature,ADJ,True,False
",",",",",",",",PUNCT,False,False
model,model,model,model,NOUN,True,False
number,number,number,number,NOUN,True,False
",",",",",",",",PUNCT,False,False
equipment,equipment,equipment,equipment,NOUN,True,False
capability,capability,capability,capability,NOUN,True,False
or,or,or,or,CCONJ,True,True
operational,operational,operational,operational,ADJ,True,False
mission,mission,mission,mission,NOUN,True,False
description,description,description,description,NOUN,True,False
.,.,.,.,PUNCT,False,False
rather,rather,rather,rather,ADV,True,True
it,it,-PRON-,-pron-,PRON,True,True
provide,provide,provide,provide,VERB,True,False
an,an,an,an,DET,True,True
assortment,assortment,assortment,assortment,NOUN,True,False
of,of,of,of,ADP,True,True
construct,construct,construct,construct,NOUN,True,False
that,that,that,that,DET,True,True
attempt,attempt,attempt,attempt,NOUN,True,False
to,to,to,to,PART,True,True
convey,convey,convey,convey,VERB,True,False
spectrum,spectrum,spectrum,spectrum,NOUN,True,False
use,use,use,use,PROPN,True,False
boundary,boundary,boundary,boundary,ADJ,True,False
.,.,.,.,PUNCT,False,False
the,the,the,the,DET,True,True
schema,schema,schema,schema,NOUN,True,False
may,may,may,may,VERB,True,True
be,be,be,be,AUX,True,True
combine,combine,combine,combine,VERB,True,False
with,with,with,with,ADP,True,True
other,other,other,other,ADJ,True,True
schema,schema,schema,schema,NOUN,True,False
to,to,to,to,PART,True,True
add,add,add,add,VERB,True,False
the,the,the,the,DET,True,True
data,data,data,data,NOUN,True,False
element,element,element,element,NOUN,True,False
necessary,necessary,necessary,necessary,ADJ,True,False
for,for,for,for,ADP,True,True
a,a,a,a,DET,True,True
particular,particular,particular,particular,ADJ,True,False
business,business,business,business,NOUN,True,False
process,process,process,process,NOUN,True,False
.,.,.,.,PUNCT,False,False
this,this,this,this,DET,True,True
separation,separation,separation,separation,NOUN,True,False
allow,allow,allow,allow,VERB,True,False
multiplespectrum,multiplespectrum,multiplespectrum,multiplespectrum,NOUN,True,False
management,management,management,management,NOUN,True,False
domain,domain,domain,domain,NOUN,True,False
to,to,to,to,PART,True,True
communicate,communicate,communicate,communicate,VERB,True,False
spectrum,spectrum,spectrum,spectrum,NOUN,True,False
use,use,use,use,NOUN,True,False
to,to,to,to,ADP,True,True
each,each,each,each,DET,True,True
other,other,other,other,ADJ,True,True
without,without,without,without,ADP,True,True
the,the,the,the,DET,True,True
requirement,requirement,requirement,requirement,NOUN,True,False
that,that,that,that,SCONJ,True,True
they,they,-PRON-,-pron-,PRON,True,True
agree,agree,agree,agree,VERB,True,False
to,to,to,to,ADP,True,True
any,any,any,any,DET,True,True
particular,particular,particular,particular,ADJ,True,False
data,data,data,data,NOUN,True,False
element,element,element,element,NOUN,True,False
of,of,of,of,ADP,True,True
the,the,the,the,DET,True,True
business,business,business,business,NOUN,True,False
process,process,process,process,NOUN,True,False
which,which,which,which,DET,True,True
may,may,may,may,VERB,True,True
contain,contain,contain,contain,VERB,True,False
information,information,information,information,NOUN,True,False
they,they,-PRON-,-pron-,PRON,True,True
do,do,do,do,AUX,True,True
not,not,not,not,PART,True,True
want,want,want,want,VERB,True,False
to,to,to,to,PART,True,True
share,share,share,share,VERB,True,False
outside,outside,outside,outside,ADP,True,False
their,their,-PRON-,-pron-,DET,True,True
own,own,own,own,ADJ,True,True
domain,domain,domain,domain,NOUN,True,False
.,.,.,.,PUNCT,False,False
additionally,additionally,additionally,additionally,ADV,True,False
",",",",",",",",PUNCT,False,False
it,it,-PRON-,-pron-,PRON,True,True
be,be,be,be,AUX,True,True
possible,possible,possible,possible,ADJ,True,False
to,to,to,to,PART,True,True
convey,convey,convey,convey,VERB,True,False
spectrum,spectrum,spectrum,spectrum,NOUN,True,False
use,use,use,use,NOUN,True,False
boundary,boundary,boundary,boundary,ADJ,True,False
of,of,of,of,ADP,True,True
system,system,system,system,NOUN,True,False
while,while,while,while,SCONJ,True,True
obfuscate,obfuscate,obfuscate,obfuscate,VERB,True,False
the,the,the,the,DET,True,True
particular,particular,particular,particular,ADJ,True,False
of,of,of,of,ADP,True,True
the,the,the,the,DET,True,True
system,system,system,system,NOUN,True,False
and,and,and,and,CCONJ,True,True
their,their,-PRON-,-pron-,DET,True,True
operational,operational,operational,operational,ADJ,True,False
mission,mission,mission,mission,NOUN,True,False
.,.,.,.,PUNCT,False,False
a,a,a,a,DET,True,True
spectrum,spectrum,spectrum,spectrum,PROPN,True,False
access,access,access,access,NOUN,True,False
system,system,system,system,NOUN,True,False
sas,sas,sas,sas,PROPN,True,False
can,can,can,can,VERB,True,True
be,be,be,be,AUX,True,True
build,build,build,build,VERB,True,False
without,without,without,without,ADP,True,True
the,the,the,the,DET,True,True
requirement,requirement,requirement,requirement,NOUN,True,False
to,to,to,to,PART,True,True
store,store,store,store,VERB,True,False
sensitive,sensitive,sensitive,sensitive,ADJ,True,False
information,information,information,information,NOUN,True,False
.,.,.,.,PUNCT,False,False
this,this,this,this,DET,True,True
benefit,benefit,benefit,benefit,NOUN,True,False
both,both,both,both,DET,True,True
government,government,government,government,NOUN,True,False
user,user,user,user,NOUN,True,False
who,who,who,who,PRON,True,True
do,do,do,do,AUX,True,True
not,not,not,not,PART,True,True
want,want,want,want,VERB,True,False
to,to,to,to,PART,True,True
reveal,reveal,reveal,reveal,VERB,True,False
their,their,-PRON-,-pron-,DET,True,True
operation,operation,operation,operation,NOUN,True,False
or,or,or,or,CCONJ,True,True
the,the,the,the,DET,True,True
capability,capability,capability,capability,NOUN,True,False
of,of,of,of,ADP,True,True
their,their,-PRON-,-pron-,DET,True,True
equipment,equipment,equipment,equipment,NOUN,True,False
and,and,and,and,CCONJ,True,True
commercial,commercial,commercial,commercial,ADJ,True,False
user,user,user,user,NOUN,True,False
who,who,who,who,PRON,True,True
want,want,want,want,VERB,True,False
to,to,to,to,PART,True,True
avoid,avoid,avoid,avoid,VERB,True,False
reveal,reveal,reveal,reveal,VERB,True,False
proprietary,proprietary,proprietary,proprietary,ADJ,True,False
and,and,and,and,CCONJ,True,True
sensitive,sensitive,sensitive,sensitive,ADJ,True,False
information,information,information,information,NOUN,True,False
about,about,about,about,ADP,True,True
the,the,the,the,DET,True,True
deployment,deployment,deployment,deployment,NOUN,True,False
of,of,of,of,ADP,True,True
their,their,-PRON-,-pron-,DET,True,True
system,system,system,system,NOUN,True,False
.,.,.,.,PUNCT,False,False
mbsm,mbsm,mbsm,mbsm,PROPN,True,False
be,be,be,be,AUX,True,True
a,a,a,a,DET,True,True
natural,natural,natural,natural,ADJ,True,False
evolution,evolution,evolution,evolution,NOUN,True,False
of,of,of,of,ADP,True,True
the,the,the,the,DET,True,True
tv,tv,tv,tv,NOUN,True,False
whitespace,whitespace,whitespace,whitespace,PROPN,True,False
tvws,tvws,tvws,tvws,PROPN,True,False
database,database,database,database,NOUN,True,False
concept,concept,concept,concept,NOUN,True,False
.,.,.,.,PUNCT,False,False
the,the,the,the,DET,True,True
model,model,model,model,NOUN,True,False
themselves,themselves,-PRON-,-pron-,PRON,True,True
can,can,can,can,VERB,True,True
serve,serve,serve,serve,VERB,True,False
as,as,as,as,SCONJ,True,True
the,the,the,the,DET,True,True
equivalent,equivalent,equivalent,equivalent,NOUN,True,False
of,of,of,of,ADP,True,True
contour,contour,contour,contour,NOUN,True,False
.,.,.,.,PUNCT,False,False
the,the,the,the,DET,True,True
model,model,model,model,NOUN,True,False
of,of,of,of,ADP,True,True
an,an,an,an,DET,True,True
incumbent,incumbent,incumbent,incumbent,ADJ,True,False
use,use,use,use,NOUN,True,False
ofspectrum,ofspectrum,ofspectrum,ofspectrum,NOUN,True,False
serve,serve,serve,serve,VERB,True,False
as,as,as,as,SCONJ,True,True
a,a,a,a,DET,True,True
contour,contour,contour,contour,NOUN,True,False
for,for,for,for,ADP,True,True
the,the,the,the,DET,True,True
entry,entry,entry,entry,NOUN,True,False
of,of,of,of,ADP,True,True
new,new,new,new,ADJ,True,False
user,user,user,user,NOUN,True,False
.,.,.,.,PUNCT,False,False
new,new,new,new,ADJ,True,False
user,user,user,user,NOUN,True,False
can,can,can,can,VERB,True,True
apply,apply,apply,apply,VERB,True,False
for,for,for,for,ADP,True,True
access,access,access,access,NOUN,True,False
to,to,to,to,ADP,True,True
spectrum,spectrum,spectrum,spectrum,NOUN,True,False
by,by,by,by,ADP,True,True
submit,submit,submit,submit,PROPN,True,False
a,a,a,a,DET,True,True
model,model,model,model,NOUN,True,False
of,of,of,of,ADP,True,True
that,that,that,that,DET,True,True
use,use,use,use,NOUN,True,False
.,.,.,.,PUNCT,False,False
the,the,the,the,DET,True,True
method,method,method,method,NOUN,True,False
of,of,of,of,ADP,True,True
arbitrate,arbitrate,arbitrate,arbitrate,PROPN,True,False
compatibility,compatibility,compatibility,compatibility,NOUN,True,False
identify,identify,identify,identify,VERB,True,False
whether,whether,whether,whether,SCONJ,True,True
that,that,that,that,DET,True,True
new,new,new,new,ADJ,True,False
use,use,use,use,NOUN,True,False
be,be,be,be,AUX,True,True
compatible,compatible,compatible,compatible,ADJ,True,False
with,with,with,with,ADP,True,True
the,the,the,the,DET,True,True
incumbent,incumbent,incumbent,incumbent,NOUN,True,False
.,.,.,.,PUNCT,False,False
if,if,if,if,SCONJ,True,True
admit,admit,admit,admit,NOUN,True,False
",",",",",",",",PUNCT,False,False
the,the,the,the,DET,True,True
model,model,model,model,NOUN,True,False
of,of,of,of,ADP,True,True
the,the,the,the,DET,True,True
new,new,new,new,ADJ,True,False
use,use,use,use,NOUN,True,False
become,become,become,become,VERB,True,True
a,a,a,a,DET,True,True
contour,contour,contour,contour,NOUN,True,False
for,for,for,for,ADP,True,True
the,the,the,the,DET,True,True
admission,admission,admission,admission,NOUN,True,False
of,of,of,of,ADP,True,True
additional,additional,additional,additional,ADJ,True,False
use,use,use,use,NOUN,True,False
.,.,.,.,PUNCT,False,False
thus,thus,thus,thus,ADV,True,True
",",",",",",",",PUNCT,False,False
the,the,the,the,DET,True,True
use,use,use,use,NOUN,True,False
of,of,of,of,ADP,True,True
model,model,model,model,NOUN,True,False
in,in,in,in,ADP,True,True
spectrum,spectrum,spectrum,spectrum,PROPN,True,False
management,management,management,management,PROPN,True,False
not,not,not,not,PART,True,True
only,only,only,only,ADV,True,True
protect,protect,protect,protect,VERB,True,False
incumbent,incumbent,incumbent,incumbent,NOUN,True,False
but,but,but,but,CCONJ,True,True
support,support,support,support,NOUN,True,False
manage,manage,manage,manage,VERB,True,False
coexistence,coexistence,coexistence,coexistence,NOUN,True,False
.,.,.,.,PUNCT,False,False
model,model,model,model,NOUN,True,False
can,can,can,can,VERB,True,True
be,be,be,be,AUX,True,True
use,use,use,use,NOUN,True,False
to,to,to,to,PART,True,True
protect,protect,protect,protect,VERB,True,False
any,any,any,any,DET,True,True
type,type,type,type,NOUN,True,False
of,of,of,of,ADP,True,True
incumbent,incumbent,incumbent,incumbent,ADJ,True,False
system,system,system,system,NOUN,True,False
.,.,.,.,PUNCT,False,False
mbsm,mbsm,mbsm,mbsm,PROPN,True,False
can,can,can,can,VERB,True,True
manage,manage,manage,manage,VERB,True,False
spectrum,spectrum,spectrum,spectrum,NOUN,True,False
at,at,at,at,ADP,True,True
the,the,the,the,DET,True,True
border,border,border,border,NOUN,True,False
of,of,of,of,ADP,True,True
spectrum,spectrum,spectrum,spectrum,NOUN,True,False
use,use,use,use,NOUN,True,False
.,.,.,.,PUNCT,False,False
to,to,to,to,PART,True,True
do,do,do,do,AUX,True,True
this,this,this,this,DET,True,True
",",",",",",",",PUNCT,False,False
mbsm,mbsm,mbsm,mbsm,VERB,True,False
require,require,require,require,VERB,True,False
model,model,model,model,NOUN,True,False
of,of,of,of,ADP,True,True
the,the,the,the,DET,True,True
system,system,system,system,NOUN,True,False
at,at,at,at,ADP,True,True
the,the,the,the,DET,True,True
other,other,other,other,ADJ,True,True
side,side,side,side,NOUN,True,True
of,of,of,of,ADP,True,True
the,the,the,the,DET,True,True
border,border,border,border,NOUN,True,False
that,that,that,that,SCONJ,True,True
it,it,-PRON-,-pron-,PRON,True,True
must,must,must,must,VERB,True,True
protect,protect,protect,protect,VERB,True,False
",",",",",",",",PUNCT,False,False
model,model,model,model,NOUN,True,False
of,of,of,of,ADP,True,True
system,system,system,system,NOUN,True,False
on,on,on,on,ADP,True,True
this,this,this,this,DET,True,True
side,side,side,side,NOUN,True,True
of,of,of,of,ADP,True,True
the,the,the,the,DET,True,True
border,border,border,border,NOUN,True,False
that,that,that,that,DET,True,True
could,could,could,could,VERB,True,True
interfere,interfere,interfere,interfere,VERB,True,False
with,with,with,with,ADP,True,True
system,system,system,system,NOUN,True,False
across,across,across,across,ADP,True,True
the,the,the,the,DET,True,True
border,border,border,border,NOUN,True,False
",",",",",",",",PUNCT,False,False
and,and,and,and,CCONJ,True,True
vice,vice,vice,vice,NOUN,True,False
versa,versa,versa,versa,NOUN,True,False
.,.,.,.,PUNCT,False,False
model,model,model,model,NOUN,True,False
can,can,can,can,VERB,True,True
differentiate,differentiate,differentiate,differentiate,VERB,True,False
indoor,indoor,indoor,indoor,ADJ,True,False
and,and,and,and,CCONJ,True,True
outdoor,outdoor,outdoor,outdoor,ADJ,True,False
use,use,use,use,NOUN,True,False
.,.,.,.,PUNCT,False,False
mbsm,mbsm,mbsm,mbsm,PROPN,True,False
can,can,can,can,VERB,True,True
support,support,support,support,VERB,True,False
all,all,all,all,DET,True,True
assignmentallotment,assignmentallotment,assignmentallotment,assignmentallotment,NOUN,True,False
method,method,method,method,NOUN,True,False
and,and,and,and,CCONJ,True,True
the,the,the,the,DET,True,True
different,different,different,different,ADJ,True,False
access,access,access,access,NOUN,True,False
tier,tier,tier,tier,NOUN,True,False
approach,approach,approach,approach,NOUN,True,False
identify,identify,identify,identify,VERB,True,False
in,in,in,in,ADP,True,True
the,the,the,the,DET,True,True
notice,notice,notice,notice,NOUN,True,False
.,.,.,.,PUNCT,False,False
use,use,use,use,VERB,True,False
scm,scm,scm,scm,PROPN,True,False
and,and,and,and,CCONJ,True,True
mbsm,mbsm,mbsm,mbsm,NOUN,True,False
as,as,as,as,SCONJ,True,True
part,part,part,part,NOUN,True,True
of,of,of,of,ADP,True,True
the,the,the,the,DET,True,True
future,future,future,future,ADJ,True,False
sas,sas,sas,sas,PROPN,True,False
will,will,will,will,VERB,True,True
allow,allow,allow,allow,VERB,True,False
this,this,this,this,DET,True,True
management,management,management,management,NOUN,True,False
approach,approach,approach,approach,NOUN,True,False
to,to,to,to,PART,True,True
achieve,achieve,achieve,achieve,VERB,True,False
the,the,the,the,DET,True,True
full,full,full,full,ADJ,True,True
vision,vision,vision,vision,NOUN,True,False
of,of,of,of,ADP,True,True
dynamic,dynamic,dynamic,dynamic,ADJ,True,False
spectrum,spectrum,spectrum,spectrum,NOUN,True,False
sharing,sharing,sharing,sharing,NOUN,True,False
and,and,and,and,CCONJ,True,True
dsa.scms,dsa.scms,dsa.scms,dsa.scms,PROPN,False,False
be,be,be,be,AUX,True,True
create,create,create,create,VERB,True,False
by,by,by,by,ADP,True,True
user,user,user,user,NOUN,True,False
or,or,or,or,CCONJ,True,True
their,their,-PRON-,-pron-,DET,True,True
proxy,proxy,proxy,proxy,NOUN,True,False
as,as,as,as,SCONJ,True,True
oppose,oppose,oppose,oppose,NOUN,True,False
to,to,to,to,ADP,True,True
by,by,by,by,ADP,True,True
a,a,a,a,DET,True,True
central,central,central,central,ADJ,True,False
authority,authority,authority,authority,NOUN,True,False
.,.,.,.,PUNCT,False,False
method,method,method,method,NOUN,True,False
for,for,for,for,ADP,True,True
arbitrate,arbitrate,arbitrate,arbitrate,NOUN,True,False
compatibility,compatibility,compatibility,compatibility,NOUN,True,False
among,among,among,among,ADP,True,True
the,the,the,the,DET,True,True
model,model,model,model,NOUN,True,False
be,be,be,be,AUX,True,True
the,the,the,the,DET,True,True
same,same,same,same,ADJ,True,True
throughout,throughout,throughout,throughout,ADP,True,True
the,the,the,the,DET,True,True
system,system,system,system,NOUN,True,False
.,.,.,.,PUNCT,False,False
this,this,this,this,DET,True,True
allow,allow,allow,allow,VERB,True,False
distribution,distribution,distribution,distribution,NOUN,True,False
of,of,of,of,ADP,True,True
the,the,the,the,DET,True,True
spectrum,spectrum,spectrum,spectrum,NOUN,True,False
management,management,management,management,NOUN,True,False
problem,problem,problem,problem,NOUN,True,False
so,so,so,so,SCONJ,True,True
that,that,that,that,SCONJ,True,True
multiple,multiple,multiple,multiple,ADJ,True,False
database,database,database,database,NOUN,True,False
administrator,administrator,administrator,administrator,NOUN,True,False
cancollaborate,cancollaborate,cancollaborate,cancollaborate,NOUN,True,False
in,in,in,in,ADP,True,True
manage,manage,manage,manage,NOUN,True,False
spectrum,spectrum,spectrum,spectrum,NOUN,True,False
and,and,and,and,CCONJ,True,True
individual,individual,individual,individual,ADJ,True,False
spectrum,spectrum,spectrum,spectrum,NOUN,True,False
owner,owner,owner,owner,NOUN,True,False
and,and,and,and,CCONJ,True,True
user,user,user,user,NOUN,True,False
can,can,can,can,VERB,True,True
communicate,communicate,communicate,communicate,VERB,True,False
to,to,to,to,ADP,True,True
the,the,the,the,DET,True,True
system,system,system,system,NOUN,True,False
.,.,.,.,PUNCT,False,False
holder,holder,holder,holder,NOUN,True,False
of,of,of,of,ADP,True,True
spectrum,spectrum,spectrum,spectrum,PROPN,True,False
can,can,can,can,VERB,True,True
use,use,use,use,VERB,True,False
model,model,model,model,NOUN,True,False
to,to,to,to,PART,True,True
specify,specify,specify,specify,VERB,True,False
the,the,the,the,DET,True,True
availability,availability,availability,availability,NOUN,True,False
of,of,of,of,ADP,True,True
spectrum,spectrum,spectrum,spectrum,PROPN,True,False
.,.,.,.,PUNCT,False,False
user,user,user,user,NOUN,True,False
of,of,of,of,ADP,True,True
spectrum,spectrum,spectrum,spectrum,PROPN,True,False
can,can,can,can,VERB,True,True
use,use,use,use,VERB,True,False
model,model,model,model,NOUN,True,False
to,to,to,to,PART,True,True
convey,convey,convey,convey,VERB,True,False
demand,demand,demand,demand,NOUN,True,False
for,for,for,for,ADP,True,True
spectrum,spectrum,spectrum,spectrum,PROPN,True,False
.,.,.,.,PUNCT,False,False
the,the,the,the,DET,True,True
process,process,process,process,NOUN,True,False
of,of,of,of,ADP,True,True
obtain,obtain,obtain,obtain,VERB,True,False
spectrum,spectrum,spectrum,spectrum,NOUN,True,False
require,require,require,require,VERB,True,False
user,user,user,user,NOUN,True,False
to,to,to,to,PART,True,True
acknowledge,acknowledge,acknowledge,acknowledge,VERB,True,False
the,the,the,the,DET,True,True
interference,interference,interference,interference,NOUN,True,False
that,that,that,that,DET,True,True
be,be,be,be,VERB,True,True
present,present,present,present,ADJ,True,False
.,.,.,.,PUNCT,False,False
thus,thus,thus,thus,ADV,True,True
",",",",",",",",PUNCT,False,False
mbsm,mbsm,mbsm,mbsm,NOUN,True,False
reduce,reduce,reduce,reduce,VERB,True,False
the,the,the,the,DET,True,True
need,need,need,need,NOUN,True,False
for,for,for,for,ADP,True,True
large,large,large,large,ADJ,True,False
exclusion,exclusion,exclusion,exclusion,NOUN,True,False
zone,zone,zone,zone,NOUN,True,False
since,since,since,since,SCONJ,True,True
access,access,access,access,NOUN,True,False
require,require,require,require,VERB,True,False
user,user,user,user,NOUN,True,False
to,to,to,to,PART,True,True
acknowledge,acknowledge,acknowledge,acknowledge,VERB,True,False
the,the,the,the,DET,True,True
incumbent,incumbent,incumbent,incumbent,NOUN,True,False
right,right,right,right,NOUN,True,False
.,.,.,.,PUNCT,False,False
management,management,management,management,NOUN,True,False
use,use,use,use,NOUN,True,False
scm,scm,scm,scm,PROPN,True,False
can,can,can,can,VERB,True,True
evolve,evolve,evolve,evolve,VERB,True,False
.,.,.,.,PUNCT,False,False
the,the,the,the,DET,True,True
system,system,system,system,NOUN,True,False
can,can,can,can,VERB,True,True
start,start,start,start,VERB,True,False
with,with,with,with,ADP,True,True
very,very,very,very,ADV,True,True
conservative,conservative,conservative,conservative,ADJ,True,False
model,model,model,model,NOUN,True,False
that,that,that,that,DET,True,True
have,have,have,have,AUX,True,True
the,the,the,the,DET,True,True
effect,effect,effect,effect,NOUN,True,False
of,of,of,of,ADP,True,True
create,create,create,create,VERB,True,False
large,large,large,large,ADJ,True,False
exclusion,exclusion,exclusion,exclusion,NOUN,True,False
zone,zone,zone,zone,NOUN,True,False
",",",",",",",",PUNCT,False,False
and,and,and,and,CCONJ,True,True
then,then,then,then,ADV,True,True
",",",",",",",",PUNCT,False,False
as,as,as,as,SCONJ,True,True
confidence,confidence,confidence,confidence,NOUN,True,False
be,be,be,be,AUX,True,True
gain,gain,gain,gain,NOUN,True,False
in,in,in,in,ADP,True,True
the,the,the,the,DET,True,True
system,system,system,system,NOUN,True,False
",",",",",",",",PUNCT,False,False
less,less,less,less,ADV,True,True
restrictive,restrictive,restrictive,restrictive,ADJ,True,False
model,model,model,model,NOUN,True,False
can,can,can,can,VERB,True,True
be,be,be,be,AUX,True,True
develop,develop,develop,develop,VERB,True,False
.,.,.,.,PUNCT,False,False
if,if,if,if,SCONJ,True,True
a,a,a,a,DET,True,True
particular,particular,particular,particular,ADJ,True,False
model,model,model,model,NOUN,True,False
be,be,be,be,AUX,True,True
find,find,find,find,VERB,True,False
to,to,to,to,PART,True,True
be,be,be,be,AUX,True,True
ineffective,ineffective,ineffective,ineffective,ADJ,True,False
at,at,at,at,ADP,True,True
protect,protect,protect,protect,VERB,True,False
an,an,an,an,DET,True,True
incumbent,incumbent,incumbent,incumbent,NOUN,True,False
",",",",",",",",PUNCT,False,False
it,it,-PRON-,-pron-,PRON,True,True
can,can,can,can,VERB,True,True
be,be,be,be,AUX,True,True
change,change,change,change,NOUN,True,False
to,to,to,to,PART,True,True
increase,increase,increase,increase,VERB,True,False
protection,protection,protection,protection,NOUN,True,False
.,.,.,.,PUNCT,False,False
scm,scm,scm,scm,PROPN,True,False
allow,allow,allow,allow,VERB,True,False
modeling,modeling,modeling,modeling,NOUN,True,False
of,of,of,of,ADP,True,True
spectrum,spectrum,spectrum,spectrum,NOUN,True,False
use,use,use,use,NOUN,True,False
for,for,for,for,ADP,True,True
arbitrary,arbitrary,arbitrary,arbitrary,ADJ,True,False
space,space,space,space,NOUN,True,False
and,and,and,and,CCONJ,True,True
time,time,time,time,NOUN,True,False
interval,interval,interval,interval,NOUN,True,False
.,.,.,.,PUNCT,False,False
this,this,this,this,DET,True,True
increase,increase,increase,increase,NOUN,True,False
the,the,the,the,DET,True,True
resolution,resolution,resolution,resolution,NOUN,True,False
in,in,in,in,ADP,True,True
spectrum,spectrum,spectrum,spectrum,NOUN,True,False
management,management,management,management,NOUN,True,False
and,and,and,and,CCONJ,True,True
would,would,would,would,VERB,True,True
allow,allow,allow,allow,VERB,True,False
a,a,a,a,DET,True,True
sas,sas,sas,sas,PROPN,True,False
to,to,to,to,PART,True,True
manage,manage,manage,manage,VERB,True,False
difference,difference,difference,difference,NOUN,True,False
in,in,in,in,ADP,True,True
spectrum,spectrum,spectrum,spectrum,NOUN,True,False
availability,availability,availability,availability,NOUN,True,False
that,that,that,that,DET,True,True
result,result,result,result,VERB,True,False
from,from,from,from,ADP,True,True
different,different,different,different,ADJ,True,False
operational,operational,operational,operational,ADJ,True,False
use,use,use,use,NOUN,True,False
.,.,.,.,PUNCT,False,False
a,a,a,a,DET,True,True
major,major,major,major,ADJ,True,False
cause,cause,cause,cause,NOUN,True,False
of,of,of,of,ADP,True,True
large,large,large,large,ADJ,True,False
exclusion,exclusion,exclusion,exclusion,NOUN,True,False
zone,zone,zone,zone,NOUN,True,False
be,be,be,be,AUX,True,True
the,the,the,the,DET,True,True
inability,inability,inability,inability,NOUN,True,False
to,to,to,to,PART,True,True
articulate,articulate,articulate,articulate,VERB,True,False
use,use,use,use,NOUN,True,False
in,in,in,in,ADP,True,True
time,time,time,time,NOUN,True,False
and,and,and,and,CCONJ,True,True
in,in,in,in,ADP,True,True
space,space,space,space,NOUN,True,False
.,.,.,.,PUNCT,False,False
the,the,the,the,DET,True,True
coastal,coastal,coastal,coastal,ADJ,True,False
exclusion,exclusion,exclusion,exclusion,NOUN,True,False
zone,zone,zone,zone,NOUN,True,False
be,be,be,be,AUX,True,True
create,create,create,create,NOUN,True,False
under,under,under,under,ADP,True,True
the,the,the,the,DET,True,True
premise,premise,premise,premise,NOUN,True,False
that,that,that,that,SCONJ,True,True
a,a,a,a,DET,True,True
ship,ship,ship,ship,NOUN,True,False
could,could,could,could,VERB,True,True
be,be,be,be,AUX,True,True
anyplace,anyplace,anyplace,anyplace,NOUN,True,False
along,along,along,along,ADP,True,True
the,the,the,the,DET,True,True
shore,shore,shore,shore,NOUN,True,False
at,at,at,at,ADP,True,True
any,any,any,any,DET,True,True
time,time,time,time,NOUN,True,False
.,.,.,.,PUNCT,False,False
dynamic,dynamic,dynamic,dynamic,ADJ,True,False
management,management,management,management,NOUN,True,False
would,would,would,would,VERB,True,True
allow,allow,allow,allow,VERB,True,False
spectrum,spectrum,spectrum,spectrum,NOUN,True,False
user,user,user,user,NOUN,True,False
to,to,to,to,PART,True,True
convey,convey,convey,convey,VERB,True,False
less,less,less,less,ADV,True,True
ubiquitous,ubiquitous,ubiquitous,ubiquitous,ADJ,True,False
use,use,use,use,NOUN,True,False
.,.,.,.,PUNCT,False,False
they,they,-PRON-,-pron-,PRON,True,True
can,can,can,can,VERB,True,True
still,still,still,still,ADV,True,True
specify,specify,specify,specify,VERB,True,False
use,use,use,use,NOUN,True,False
to,to,to,to,PART,True,True
protect,protect,protect,protect,VERB,True,False
sensitive,sensitive,sensitive,sensitive,ADJ,True,False
operational,operational,operational,operational,ADJ,True,False
detail,detail,detail,detail,NOUN,True,False
.,.,.,.,PUNCT,False,False
specify,specify,specify,specify,VERB,True,False
anything,anything,anything,anything,PRON,True,True
less,less,less,less,ADJ,True,True
than,than,than,than,SCONJ,True,True
the,the,the,the,DET,True,True
current,current,current,current,ADJ,True,False
definition,definition,definition,definition,NOUN,True,False
of,of,of,of,ADP,True,True
use,use,use,use,NOUN,True,False
be,be,be,be,VERB,True,True
a,a,a,a,DET,True,True
reduction,reduction,reduction,reduction,NOUN,True,False
of,of,of,of,ADP,True,True
the,the,the,the,DET,True,True
exclusion,exclusion,exclusion,exclusion,NOUN,True,False
zone,zone,zone,zone,NOUN,True,False
.,.,.,.,PUNCT,False,False
the,the,the,the,DET,True,True
act,act,act,act,NOUN,True,False
of,of,of,of,ADP,True,True
build,build,build,build,NOUN,True,False
an,an,an,an,DET,True,True
scm,scm,scm,scm,NOUN,True,False
of,of,of,of,ADP,True,True
a,a,a,a,DET,True,True
use,use,use,use,NOUN,True,False
of,of,of,of,ADP,True,True
spectrum,spectrum,spectrum,spectrum,NOUN,True,False
be,be,be,be,AUX,True,True
the,the,the,the,DET,True,True
first,first,first,first,ADJ,True,True
step,step,step,step,NOUN,True,False
of,of,of,of,ADP,True,True
a,a,a,a,DET,True,True
negotiation,negotiation,negotiation,negotiation,NOUN,True,False
.,.,.,.,PUNCT,False,False
new,new,new,new,ADJ,True,False
user,user,user,user,NOUN,True,False
of,of,of,of,ADP,True,True
spectrum,spectrum,spectrum,spectrum,PROPN,True,False
build,build,build,build,VERB,True,False
the,the,the,the,DET,True,True
scm,scm,scm,scm,NOUN,True,False
of,of,of,of,ADP,True,True
their,their,-PRON-,-pron-,DET,True,True
use,use,use,use,NOUN,True,False
and,and,and,and,CCONJ,True,True
can,can,can,can,VERB,True,True
refine,refine,refine,refine,VERB,True,False
their,their,-PRON-,-pron-,DET,True,True
use,use,use,use,NOUN,True,False
and,and,and,and,CCONJ,True,True
so,so,so,so,ADV,True,True
their,their,-PRON-,-pron-,DET,True,True
model,model,model,model,NOUN,True,False
to,to,to,to,PART,True,True
be,be,be,be,AUX,True,True
compatible,compatible,compatible,compatible,ADJ,True,False
with,with,with,with,ADP,True,True
exist,exist,exist,exist,ADJ,True,False
use,use,use,use,NOUN,True,False
and,and,and,and,CCONJ,True,True
the,the,the,the,DET,True,True
model,model,model,model,NOUN,True,False
of,of,of,of,ADP,True,True
those,those,those,those,DET,True,True
system,system,system,system,NOUN,True,False
.,.,.,.,PUNCT,False,False
this,this,this,this,DET,True,True
process,process,process,process,NOUN,True,False
cause,cause,cause,cause,VERB,True,False
new,new,new,new,ADJ,True,False
user,user,user,user,NOUN,True,False
to,to,to,to,PART,True,True
acknowledge,acknowledge,acknowledge,acknowledge,VERB,True,False
the,the,the,the,DET,True,True
model,model,model,model,NOUN,True,False
level,level,level,level,NOUN,True,False
of,of,of,of,ADP,True,True
interference,interference,interference,interference,NOUN,True,False
of,of,of,of,ADP,True,True
incumbent,incumbent,incumbent,incumbent,ADJ,True,False
user,user,user,user,NOUN,True,False
.,.,.,.,PUNCT,False,False
the,the,the,the,DET,True,True
use,use,use,use,NOUN,True,False
of,of,of,of,ADP,True,True
permanent,permanent,permanent,permanent,ADJ,True,False
exclusion,exclusion,exclusion,exclusion,NOUN,True,False
zone,zone,zone,zone,NOUN,True,False
be,be,be,be,VERB,True,True
not,not,not,not,PART,True,True
the,the,the,the,DET,True,True
most,most,most,most,ADV,True,True
effective,effective,effective,effective,ADJ,True,False
or,or,or,or,CCONJ,True,True
efficient,efficient,efficient,efficient,ADJ,True,False
mean,mean,mean,mean,NOUN,True,False
to,to,to,to,PART,True,True
manage,manage,manage,manage,VERB,True,False
coexistence,coexistence,coexistence,coexistence,NOUN,True,False
.,.,.,.,PUNCT,False,False
however,however,however,however,ADV,True,True
",",",",",",",",PUNCT,False,False
the,the,the,the,DET,True,True
use,use,use,use,NOUN,True,False
of,of,of,of,ADP,True,True
scm,scm,scm,scm,PROPN,True,False
do,do,do,do,AUX,True,True
not,not,not,not,PART,True,True
preclude,preclude,preclude,preclude,VERB,True,False
the,the,the,the,DET,True,True
use,use,use,use,NOUN,True,False
of,of,of,of,ADP,True,True
exclusion,exclusion,exclusion,exclusion,NOUN,True,False
zone,zone,zone,zone,NOUN,True,False
.,.,.,.,PUNCT,False,False
the,the,the,the,DET,True,True
use,use,use,use,NOUN,True,False
of,of,of,of,ADP,True,True
scm,scm,scm,scm,PROPN,True,False
can,can,can,can,VERB,True,True
assist,assist,assist,assist,VERB,True,False
in,in,in,in,ADP,True,True
commoditize,commoditize,commoditize,commoditize,NOUN,True,False
spectrum,spectrum,spectrum,spectrum,NOUN,True,False
.,.,.,.,PUNCT,False,False
scm,scm,scm,scm,PROPN,True,False
can,can,can,can,VERB,True,True
be,be,be,be,AUX,True,True
use,use,use,use,NOUN,True,False
to,to,to,to,PART,True,True
advertise,advertise,advertise,advertise,VERB,True,False
the,the,the,the,DET,True,True
availability,availability,availability,availability,NOUN,True,False
of,of,of,of,ADP,True,True
spectrum,spectrum,spectrum,spectrum,PROPN,True,False
.,.,.,.,PUNCT,False,False
scm,scm,scm,scm,PROPN,True,False
can,can,can,can,VERB,True,True
articulate,articulate,articulate,articulate,VERB,True,False
the,the,the,the,DET,True,True
quanta,quanta,quanta,quanta,PROPN,True,False
of,of,of,of,ADP,True,True
spectrum,spectrum,spectrum,spectrum,NOUN,True,False
that,that,that,that,DET,True,True
be,be,be,be,VERB,True,True
available,available,available,available,ADJ,True,False
for,for,for,for,ADP,True,True
trade,trade,trade,trade,NOUN,True,False
.,.,.,.,PUNCT,False,False
they,they,-PRON-,-pron-,PRON,True,True
can,can,can,can,VERB,True,True
be,be,be,be,AUX,True,True
use,use,use,use,NOUN,True,False
in,in,in,in,ADP,True,True
the,the,the,the,DET,True,True
negotiation,negotiation,negotiation,negotiation,NOUN,True,False
for,for,for,for,ADP,True,True
spectrum,spectrum,spectrum,spectrum,PROPN,True,False
.,.,.,.,PUNCT,False,False
build,build,build,build,VERB,True,False
a,a,a,a,DET,True,True
sas,sas,sas,sas,PROPN,True,False
use,use,use,use,NOUN,True,False
mbsm,mbsm,mbsm,mbsm,NOUN,True,False
will,will,will,will,VERB,True,True
enable,enable,enable,enable,VERB,True,False
theestablishment,theestablishment,theestablishment,theestablishment,NOUN,True,False
of,of,of,of,ADP,True,True
spectrum,spectrum,spectrum,spectrum,NOUN,True,False
market,market,market,market,NOUN,True,False
.,.,.,.,PUNCT,False,False
allow,allow,allow,allow,VERB,True,False
the,the,the,the,DET,True,True
sas,sas,sas,sas,PROPN,True,False
to,to,to,to,PART,True,True
support,support,support,support,VERB,True,False
spectrum,spectrum,spectrum,spectrum,NOUN,True,False
market,market,market,market,NOUN,True,False
would,would,would,would,VERB,True,True
make,make,make,make,VERB,True,True
the,the,the,the,DET,True,True
sas,sas,sas,sas,PROPN,True,False
self,self,self,self,NOUN,True,False
-,-,-,-,PUNCT,False,False
support,support,support,support,NOUN,True,False
.,.,.,.,PUNCT,False,False
the,the,the,the,DET,True,True
use,use,use,use,NOUN,True,False
of,of,of,of,ADP,True,True
scm,scm,scm,scm,PROPN,True,False
could,could,could,could,VERB,True,True
also,also,also,also,ADV,True,True
simplify,simplify,simplify,simplify,VERB,True,False
the,the,the,the,DET,True,True
regulation,regulation,regulation,regulation,NOUN,True,False
of,of,of,of,ADP,True,True
rf,rf,rf,rf,PROPN,True,False
device,device,device,device,NOUN,True,False
.,.,.,.,PUNCT,False,False
certify,certify,certify,certify,VERB,True,False
the,the,the,the,DET,True,True
scm,scm,scm,scm,PROPN,True,False
construct,construct,construct,construct,NOUN,True,False
of,of,of,of,ADP,True,True
system,system,system,system,NOUN,True,False
would,would,would,would,VERB,True,True
be,be,be,be,AUX,True,True
the,the,the,the,DET,True,True
core,core,core,core,NOUN,True,False
of,of,of,of,ADP,True,True
regulatory,regulatory,regulatory,regulatory,ADJ,True,False
oversight,oversight,oversight,oversight,NOUN,True,False
.,.,.,.,PUNCT,False,False
manufacturer,manufacturer,manufacturer,manufacturer,NOUN,True,False
of,of,of,of,ADP,True,True
device,device,device,device,NOUN,True,False
would,would,would,would,VERB,True,True
define,define,define,define,VERB,True,False
the,the,the,the,DET,True,True
key,key,key,key,ADJ,True,False
construct,construct,construct,construct,NOUN,True,False
of,of,of,of,ADP,True,True
their,their,-PRON-,-pron-,DET,True,True
device,device,device,device,NOUN,True,False
i.e.,i.e.,i.e.,i.e.,X,False,False
",",",",",",",",PUNCT,False,False
spectrum,spectrum,spectrum,spectrum,PROPN,True,False
mask,mask,mask,mask,PROPN,True,False
",",",",",",",",PUNCT,False,False
underlay,underlay,underlay,underlay,NOUN,True,False
mask,mask,mask,mask,NOUN,True,False
",",",",",",",",PUNCT,False,False
intermodulation,intermodulation,intermodulation,intermodulation,NOUN,True,False
mask,mask,mask,mask,NOUN,True,False
",",",",",",",",PUNCT,False,False
and,and,and,and,CCONJ,True,True
in,in,in,in,ADP,True,True
some,some,some,some,DET,True,True
case,case,case,case,NOUN,True,False
power,power,power,power,NOUN,True,False
map,map,map,map,NOUN,True,False
.,.,.,.,PUNCT,False,False
regulator,regulator,regulator,regulator,NOUN,True,False
would,would,would,would,VERB,True,True
certify,certify,certify,certify,VERB,True,False
that,that,that,that,DET,True,True
device,device,device,device,NOUN,True,False
operate,operate,operate,operate,VERB,True,False
within,within,within,within,ADP,True,True
the,the,the,the,DET,True,True
boundary,boundary,boundary,boundary,NOUN,True,False
of,of,of,of,ADP,True,True
these,these,these,these,DET,True,True
construct,construct,construct,construct,NOUN,True,False
.,.,.,.,PUNCT,False,False
the,the,the,the,DET,True,True
sas,sas,sas,sas,PROPN,True,False
would,would,would,would,VERB,True,True
then,then,then,then,ADV,True,True
manage,manage,manage,manage,VERB,True,False
the,the,the,the,DET,True,True
device,device,device,device,NOUN,True,False
and,and,and,and,CCONJ,True,True
system,system,system,system,NOUN,True,False
.,.,.,.,PUNCT,False,False
conclusionthis,conclusionthis,conclusionthis,conclusionthis,NOUN,True,False
standard,standard,standard,standard,ADJ,True,False
project,project,project,project,NOUN,True,False
of,of,of,of,ADP,True,True
ieee,ieee,ieee,ieee,PROPN,True,False
dyspan,dyspan,dyspan,dyspan,PROPN,True,False
sc,sc,sc,sc,PROPN,True,False
work,work,work,work,NOUN,True,False
group,group,group,group,NOUN,True,False
1900.5,1900.5,1900.5,1900.5,NUM,False,False
be,be,be,be,AUX,True,True
directly,directly,directly,directly,ADV,True,False
on,on,on,on,ADP,True,True
point,point,point,point,NOUN,True,False
with,with,with,with,ADP,True,True
the,the,the,the,DET,True,True
objective,objective,objective,objective,NOUN,True,False
of,of,of,of,ADP,True,True
the,the,the,the,DET,True,True
3550,3550,3550,3550,NUM,False,False
3650,3650,3650,3650,NUM,False,False
nprm,nprm,nprm,nprm,PROPN,True,False
.,.,.,.,PUNCT,False,False
the,the,the,the,DET,True,True
work,work,work,work,NOUN,True,False
promise,promise,promise,promise,VERB,True,False
to,to,to,to,PART,True,True
create,create,create,create,VERB,True,False
the,the,the,the,DET,True,True
management,management,management,management,NOUN,True,False
capability,capability,capability,capability,NOUN,True,False
necessary,necessary,necessary,necessary,ADJ,True,False
for,for,for,for,ADP,True,True
a,a,a,a,DET,True,True
sas,sas,sas,sas,NOUN,True,False
in,in,in,in,ADP,True,True
this,this,this,this,DET,True,True
band,band,band,band,NOUN,True,False
and,and,and,and,CCONJ,True,True
",",",",",",",",PUNCT,False,False
as,as,as,as,SCONJ,True,True
describe,describe,describe,describe,ADJ,True,False
",",",",",",",",PUNCT,False,False
this,this,this,this,DET,True,True
solution,solution,solution,solution,NOUN,True,False
would,would,would,would,VERB,True,True
be,be,be,be,AUX,True,True
a,a,a,a,DET,True,True
catalyst,catalyst,catalyst,catalyst,NOUN,True,False
for,for,for,for,ADP,True,True
innovation,innovation,innovation,innovation,NOUN,True,False
in,in,in,in,ADP,True,True
spectrum,spectrum,spectrum,spectrum,PROPN,True,False
use,use,use,use,PROPN,True,False
and,and,and,and,CCONJ,True,True
in,in,in,in,ADP,True,True
the,the,the,the,DET,True,True
development,development,development,development,NOUN,True,False
of,of,of,of,ADP,True,True
rf,rf,rf,rf,NOUN,True,False
device,device,device,device,NOUN,True,False
that,that,that,that,DET,True,True
can,can,can,can,VERB,True,True
be,be,be,be,AUX,True,True
manage,manage,manage,manage,VERB,True,False
by,by,by,by,ADP,True,True
the,the,the,the,DET,True,True
system,system,system,system,NOUN,True,False
.,.,.,.,PUNCT,False,False
this,this,this,this,DET,True,True
standardization,standardization,standardization,standardization,NOUN,True,False
work,work,work,work,NOUN,True,False
be,be,be,be,AUX,True,True
just,just,just,just,ADV,True,True
start,start,start,start,VERB,True,False
and,and,and,and,CCONJ,True,True
so,so,so,so,ADV,True,True
provide,provide,provide,provide,VERB,True,False
the,the,the,the,DET,True,True
opportunity,opportunity,opportunity,opportunity,NOUN,True,False
for,for,for,for,ADP,True,True
industry,industry,industry,industry,NOUN,True,False
",",",",",",",",PUNCT,False,False
federal,federal,federal,federal,ADJ,True,False
spectrum,spectrum,spectrum,spectrum,NOUN,True,False
user,user,user,user,NOUN,True,False
",",",",",",",",PUNCT,False,False
and,and,and,and,CCONJ,True,True
government,government,government,government,NOUN,True,False
regulator,regulator,regulator,regulator,NOUN,True,False
to,to,to,to,PART,True,True
collaborate,collaborate,collaborate,collaborate,VERB,True,False
in,in,in,in,ADP,True,True
its,its,-PRON-,-pron-,DET,True,True
creation,creation,creation,creation,NOUN,True,False
.,.,.,.,PUNCT,False,False
