text,text_lower,lemma,lemma_lower,part_of_speech,is_alphabet,is_stopword
we,we,-PRON-,-pron-,PRON,True,True
be,be,be,be,VERB,True,True
professor,professor,professor,professor,NOUN,True,False
in,in,in,in,ADP,True,True
the,the,the,the,DET,True,True
electrical,electrical,electrical,electrical,ADJ,True,False
engineering,engineering,engineering,engineering,NOUN,True,False
and,and,and,and,CCONJ,True,True
computer,computer,computer,computer,NOUN,True,False
science,science,science,science,NOUN,True,False
department,department,department,department,NOUN,True,False
at,at,at,at,ADP,True,True
the,the,the,the,DET,True,True
massachusetts,massachusetts,massachusetts,massachusetts,PROPN,True,False
institute,institute,institute,institute,PROPN,True,False
of,of,of,of,ADP,True,True
technology,technology,technology,technology,PROPN,True,False
mit,mit,mit,mit,PROPN,True,False
and,and,and,and,CCONJ,True,True
co,co,co,co,NOUN,True,False
-,-,-,-,NOUN,False,False
director,director,director,director,NOUN,True,False
of,of,of,of,ADP,True,True
the,the,the,the,DET,True,True
newly,newly,newly,newly,ADV,True,False
launch,launch,launch,launch,NOUN,True,False
mit,mit,mit,mit,PROPN,True,False
center,center,center,center,PROPN,True,False
for,for,for,for,ADP,True,True
wireless,wireless,wireless,wireless,ADJ,True,False
networks,networks,network,network,NOUN,True,False
and,and,and,and,CCONJ,True,True
mobile,mobile,mobile,mobile,NOUN,True,False
computing,computing,computing,computing,NOUN,True,False
know,know,know,know,VERB,True,False
as,as,as,as,SCONJ,True,True
wirelessmit,wirelessmit,wirelessmit,wirelessmit,NOUN,True,False
in,in,in,in,ADP,True,True
the,the,the,the,DET,True,True
computer,computer,computer,computer,NOUN,True,False
science,science,science,science,NOUN,True,False
and,and,and,and,CCONJ,True,True
artificial,artificial,artificial,artificial,ADJ,True,False
intelligence,intelligence,intelligence,intelligence,NOUN,True,False
laboratory,laboratory,laboratory,laboratory,NOUN,True,False
csail,csail,csail,csail,PROPN,True,False
",",",",",",",",PUNCT,False,False
mits,mits,mit,mit,VERB,True,False
large,large,large,large,ADJ,True,False
research,research,research,research,NOUN,True,False
lab,lab,lab,lab,NOUN,True,False
.,.,.,.,PUNCT,False,False
wirelessmit,wirelessmit,wirelessmit,wirelessmit,PROPN,True,False
bring,bring,bring,bring,VERB,True,False
together,together,together,together,ADV,True,True
academic,academic,academic,academic,ADJ,True,False
and,and,and,and,CCONJ,True,True
industry,industry,industry,industry,NOUN,True,False
researcher,researcher,researcher,researcher,NOUN,True,False
from,from,from,from,ADP,True,True
across,across,across,across,ADP,True,True
the,the,the,the,DET,True,True
wireless,wireless,wireless,wireless,ADJ,True,False
ecosystem,ecosystem,ecosystem,ecosystem,NOUN,True,False
to,to,to,to,PART,True,True
develop,develop,develop,develop,VERB,True,False
cross,cross,cross,cross,NOUN,True,False
-,-,-,-,ADJ,False,False
layer,layer,layer,layer,NOUN,True,False
innovation,innovation,innovation,innovation,NOUN,True,False
in,in,in,in,ADP,True,True
mobile,mobile,mobile,mobile,ADJ,True,False
system,system,system,system,NOUN,True,False
design,design,design,design,NOUN,True,False
",",",",",",",",PUNCT,False,False
focus,focus,focus,focus,VERB,True,False
on,on,on,on,ADP,True,True
improvement,improvement,improvement,improvement,NOUN,True,False
to,to,to,to,ADP,True,True
spectrum,spectrum,spectrum,spectrum,NOUN,True,False
efficiency,efficiency,efficiency,efficiency,NOUN,True,False
",",",",",",",",PUNCT,False,False
power,power,power,power,NOUN,True,False
consumption,consumption,consumption,consumption,NOUN,True,False
",",",",",",",",PUNCT,False,False
application,application,application,application,NOUN,True,False
performance,performance,performance,performance,NOUN,True,False
",",",",",",",",PUNCT,False,False
and,and,and,and,CCONJ,True,True
security,security,security,security,NOUN,True,False
and,and,and,and,CCONJ,True,True
privacy,privacy,privacy,privacy,NOUN,True,False
.,.,.,.,PUNCT,False,False
as,as,as,as,SCONJ,True,True
academic,academic,academic,academic,ADJ,True,False
engage,engage,engage,engage,NOUN,True,False
in,in,in,in,ADP,True,True
the,the,the,the,DET,True,True
research,research,research,research,NOUN,True,False
and,and,and,and,CCONJ,True,True
development,development,development,development,NOUN,True,False
of,of,of,of,ADP,True,True
wireless,wireless,wireless,wireless,NOUN,True,False
technology,technology,technology,technology,NOUN,True,False
",",",",",",",",PUNCT,False,False
we,we,-PRON-,-pron-,PRON,True,True
submit,submit,submit,submit,VERB,True,False
these,these,these,these,DET,True,True
comment,comment,comment,comment,NOUN,True,False
to,to,to,to,PART,True,True
express,express,express,express,VERB,True,False
our,our,-PRON-,-pron-,DET,True,True
strong,strong,strong,strong,ADJ,True,False
support,support,support,support,NOUN,True,False
for,for,for,for,ADP,True,True
the,the,the,the,DET,True,True
fcc,fcc,fcc,fcc,PROPN,True,False
's,'s,'s,'s,PART,False,True
effort,effort,effort,effort,NOUN,True,False
in,in,in,in,ADP,True,True
the,the,the,the,DET,True,True
3.5ghz,3.5ghz,3.5ghz,3.5ghz,PROPN,False,False
proceeding,proceeding,proceeding,proceeding,NOUN,True,False
",",",",",",",",PUNCT,False,False
which,which,which,which,DET,True,True
we,we,-PRON-,-pron-,PRON,True,True
believe,believe,believe,believe,VERB,True,False
promote,promote,promote,promote,VERB,True,False
the,the,the,the,DET,True,True
important,important,important,important,ADJ,True,False
and,and,and,and,CCONJ,True,True
worthwhile,worthwhile,worthwhile,worthwhile,ADJ,True,False
goal,goal,goal,goal,NOUN,True,False
of,of,of,of,ADP,True,True
facilitate,facilitate,facilitate,facilitate,VERB,True,False
the,the,the,the,DET,True,True
movement,movement,movement,movement,NOUN,True,False
of,of,of,of,ADP,True,True
innovation,innovation,innovation,innovation,NOUN,True,False
from,from,from,from,ADP,True,True
research,research,research,research,NOUN,True,False
lab,lab,lab,lab,NOUN,True,False
to,to,to,to,ADP,True,True
the,the,the,the,DET,True,True
marketplace,marketplace,marketplace,marketplace,NOUN,True,False
.,.,.,.,PUNCT,False,False
while,while,while,while,SCONJ,True,True
the,the,the,the,DET,True,True
improvement,improvement,improvement,improvement,NOUN,True,False
that,that,that,that,DET,True,True
the,the,the,the,DET,True,True
fcc,fcc,fcc,fcc,PROPN,True,False
recently,recently,recently,recently,ADV,True,False
adopt,adopt,adopt,adopt,VERB,True,False
to,to,to,to,ADP,True,True
its,its,-PRON-,-pron-,DET,True,True
experimental,experimental,experimental,experimental,ADJ,True,False
licensing,licensing,licensing,licensing,NOUN,True,False
rule,rule,rule,rule,NOUN,True,False
willhelp,willhelp,willhelp,willhelp,NOUN,True,False
researcher,researcher,researcher,researcher,NOUN,True,False
to,to,to,to,PART,True,True
test,test,test,test,VERB,True,False
their,their,-PRON-,-pron-,DET,True,True
innovation,innovation,innovation,innovation,NOUN,True,False
more,more,more,more,ADV,True,True
efficiently,efficiently,efficiently,efficiently,ADV,True,False
",",",",",",",",PUNCT,False,False
this,this,this,this,DET,True,True
proceeding,proceeding,proceeding,proceeding,NOUN,True,False
be,be,be,be,AUX,True,True
a,a,a,a,DET,True,True
necessary,necessary,necessary,necessary,ADJ,True,False
further,further,further,further,ADJ,True,True
step,step,step,step,NOUN,True,False
towards,towards,towards,towards,ADP,True,True
motivate,motivate,motivate,motivate,VERB,True,False
the,the,the,the,DET,True,True
adoption,adoption,adoption,adoption,NOUN,True,False
of,of,of,of,ADP,True,True
successful,successful,successful,successful,ADJ,True,False
innovation,innovation,innovation,innovation,NOUN,True,False
in,in,in,in,ADP,True,True
operational,operational,operational,operational,ADJ,True,False
wireless,wireless,wireless,wireless,ADJ,True,False
network,network,network,network,NOUN,True,False
.,.,.,.,PUNCT,False,False
within,within,within,within,ADP,True,True
wirelessmit,wirelessmit,wirelessmit,wirelessmit,NOUN,True,False
and,and,and,and,CCONJ,True,True
similar,similar,similar,similar,ADJ,True,False
academic,academic,academic,academic,ADJ,True,False
and,and,and,and,CCONJ,True,True
industry,industry,industry,industry,NOUN,True,False
research,research,research,research,NOUN,True,False
lab,lab,lab,lab,NOUN,True,False
across,across,across,across,ADP,True,True
the,the,the,the,DET,True,True
country,country,country,country,NOUN,True,False
",",",",",",",",PUNCT,False,False
engineer,engineer,engineer,engineer,NOUN,True,False
and,and,and,and,CCONJ,True,True
scientist,scientist,scientist,scientist,NOUN,True,False
be,be,be,be,AUX,True,True
develop,develop,develop,develop,VERB,True,False
a,a,a,a,DET,True,True
wide,wide,wide,wide,ADJ,True,False
range,range,range,range,NOUN,True,False
of,of,of,of,ADP,True,True
technology,technology,technology,technology,NOUN,True,False
that,that,that,that,DET,True,True
can,can,can,can,VERB,True,True
expand,expand,expand,expand,VERB,True,False
the,the,the,the,DET,True,True
capability,capability,capability,capability,NOUN,True,False
",",",",",",",",PUNCT,False,False
performance,performance,performance,performance,NOUN,True,False
",",",",",",",",PUNCT,False,False
and,and,and,and,CCONJ,True,True
capacity,capacity,capacity,capacity,NOUN,True,False
of,of,of,of,ADP,True,True
wireless,wireless,wireless,wireless,ADJ,True,False
network,network,network,network,NOUN,True,False
and,and,and,and,CCONJ,True,True
application,application,application,application,NOUN,True,False
but,but,but,but,CCONJ,True,True
only,only,only,only,ADV,True,True
if,if,if,if,SCONJ,True,True
spectrum,spectrum,spectrum,spectrum,NOUN,True,False
policy,policy,policy,policy,NOUN,True,False
evolve,evolve,evolve,evolve,VERB,True,False
to,to,to,to,PART,True,True
make,make,make,make,VERB,True,True
it,it,-PRON-,-pron-,PRON,True,True
possible,possible,possible,possible,ADJ,True,False
to,to,to,to,PART,True,True
deploy,deploy,deploy,deploy,VERB,True,False
such,such,such,such,ADJ,True,True
innovation,innovation,innovation,innovation,NOUN,True,False
at,at,at,at,ADP,True,True
scale,scale,scale,scale,NOUN,True,False
",",",",",",",",PUNCT,False,False
and,and,and,and,CCONJ,True,True
to,to,to,to,PART,True,True
ensure,ensure,ensure,ensure,VERB,True,False
that,that,that,that,SCONJ,True,True
sufficient,sufficient,sufficient,sufficient,ADJ,True,False
spectrum,spectrum,spectrum,spectrum,NOUN,True,False
be,be,be,be,AUX,True,True
available,available,available,available,ADJ,True,False
to,to,to,to,PART,True,True
support,support,support,support,VERB,True,False
continued,continued,continued,continued,ADJ,True,False
growth,growth,growth,growth,NOUN,True,False
in,in,in,in,ADP,True,True
business,business,business,business,NOUN,True,False
and,and,and,and,CCONJ,True,True
consumer,consumer,consumer,consumer,NOUN,True,False
adoption,adoption,adoption,adoption,NOUN,True,False
of,of,of,of,ADP,True,True
wireless,wireless,wireless,wireless,ADJ,True,False
device,device,device,device,NOUN,True,False
and,and,and,and,CCONJ,True,True
application,application,application,application,NOUN,True,False
.,.,.,.,PUNCT,False,False
the,the,the,the,DET,True,True
fcc,fcc,fcc,fcc,PROPN,True,False
's,'s,'s,'s,PART,False,True
proposal,proposal,proposal,proposal,NOUN,True,False
for,for,for,for,ADP,True,True
share,share,share,share,NOUN,True,False
spectrum,spectrum,spectrum,spectrum,NOUN,True,False
in,in,in,in,ADP,True,True
the,the,the,the,DET,True,True
3.5ghz,3.5ghz,3.5ghz,3.5ghz,PROPN,False,False
band,band,band,band,NOUN,True,False
help,help,help,help,VERB,True,False
further,further,further,further,ADV,True,True
these,these,these,these,DET,True,True
objective,objective,objective,objective,ADJ,True,False
byexpande,byexpande,byexpande,byexpande,NOUN,True,False
spectrum,spectrum,spectrum,spectrum,NOUN,True,False
sharing,sharing,sharing,sharing,NOUN,True,False
option,option,option,option,NOUN,True,False
for,for,for,for,ADP,True,True
commercial,commercial,commercial,commercial,ADJ,True,False
and,and,and,and,CCONJ,True,True
government,government,government,government,NOUN,True,False
user,user,user,user,NOUN,True,False
",",",",",",",",PUNCT,False,False
thereby,thereby,thereby,thereby,ADV,True,True
alleviate,alleviate,alleviate,alleviate,VERB,True,False
spectrum,spectrum,spectrum,spectrum,NOUN,True,False
scarcity,scarcity,scarcity,scarcity,NOUN,True,False
which,which,which,which,DET,True,True
pose,pose,pose,pose,VERB,True,False
a,a,a,a,DET,True,True
serious,serious,serious,serious,ADJ,True,True
threat,threat,threat,threat,NOUN,True,False
for,for,for,for,ADP,True,True
the,the,the,the,DET,True,True
continue,continue,continue,continue,ADJ,True,False
growth,growth,growth,growth,NOUN,True,False
of,of,of,of,ADP,True,True
wireless,wireless,wireless,wireless,NOUN,True,False
service,service,service,service,NOUN,True,False
",",",",",",",",PUNCT,False,False
and,and,and,and,CCONJ,True,True
hence,hence,hence,hence,ADV,True,True
",",",",",",",",PUNCT,False,False
the,the,the,the,DET,True,True
engine,engine,engine,engine,NOUN,True,False
that,that,that,that,DET,True,True
help,help,help,help,VERB,True,False
drive,drive,drive,drive,VERB,True,False
the,the,the,the,DET,True,True
entire,entire,entire,entire,ADJ,True,False
innovation,innovation,innovation,innovation,NOUN,True,False
process,process,process,process,NOUN,True,False
.,.,.,.,PUNCT,False,False
previous,previous,previous,previous,ADJ,True,False
effort,effort,effort,effort,NOUN,True,False
by,by,by,by,ADP,True,True
the,the,the,the,DET,True,True
fcc,fcc,fcc,fcc,PROPN,True,False
to,to,to,to,PART,True,True
complement,complement,complement,complement,VERB,True,False
additional,additional,additional,additional,ADJ,True,False
spectrum,spectrum,spectrum,spectrum,NOUN,True,False
license,license,license,license,NOUN,True,False
with,with,with,with,ADP,True,True
a,a,a,a,DET,True,True
range,range,range,range,NOUN,True,False
of,of,of,of,ADP,True,True
spectrum,spectrum,spectrum,spectrum,NOUN,True,False
management,management,management,management,NOUN,True,False
model,model,model,model,NOUN,True,False
beyond,beyond,beyond,beyond,ADP,True,True
exclusive,exclusive,exclusive,exclusive,ADJ,True,False
licensing,licensing,licensing,licensing,NOUN,True,False
have,have,have,have,AUX,True,True
have,have,have,have,AUX,True,True
positive,positive,positive,positive,ADJ,True,False
industry,industry,industry,industry,NOUN,True,False
",",",",",",",",PUNCT,False,False
economic,economic,economic,economic,ADJ,True,False
and,and,and,and,CCONJ,True,True
societal,societal,societal,societal,ADJ,True,False
impact,impact,impact,impact,NOUN,True,False
.,.,.,.,PUNCT,False,False
the,the,the,the,DET,True,True
adoption,adoption,adoption,adoption,NOUN,True,False
of,of,of,of,ADP,True,True
part,part,part,part,PROPN,True,True
15,15,15,15,NUM,False,False
unlicensed,unlicensed,unlicensed,unlicensed,ADJ,True,False
rule,rule,rule,rule,NOUN,True,False
enable,enable,enable,enable,VERB,True,False
the,the,the,the,DET,True,True
development,development,development,development,NOUN,True,False
of,of,of,of,ADP,True,True
innovation,innovation,innovation,innovation,NOUN,True,False
from,from,from,from,ADP,True,True
baby,baby,baby,baby,NOUN,True,False
monitor,monitor,monitor,monitor,NOUN,True,False
to,to,to,to,ADP,True,True
bluetooth,bluetooth,bluetooth,bluetooth,ADJ,True,False
hand,hand,hand,hand,NOUN,True,False
-,-,-,-,PUNCT,False,False
free,free,free,free,ADJ,True,False
electronic,electronic,electronic,electronic,ADJ,True,False
in,in,in,in,ADP,True,True
car,car,car,car,NOUN,True,False
to,to,to,to,PART,True,True
wifi,wifi,wifi,wifi,VERB,True,False
in,in,in,in,ADP,True,True
home,home,home,home,NOUN,True,False
and,and,and,and,CCONJ,True,True
business,business,business,business,NOUN,True,False
include,include,include,include,VERB,True,False
wifis,wifis,wifis,wifis,PROPN,True,False
use,use,use,use,NOUN,True,False
for,for,for,for,ADP,True,True
cellular,cellular,cellular,cellular,ADJ,True,False
network,network,network,network,NOUN,True,False
offload,offload,offload,offload,NOUN,True,False
.,.,.,.,PUNCT,False,False
the,the,the,the,DET,True,True
lightly,lightly,lightly,lightly,ADV,True,False
-,-,-,-,PUNCT,False,False
license,license,license,license,NOUN,True,False
approach,approach,approach,approach,NOUN,True,False
in,in,in,in,ADP,True,True
the,the,the,the,DET,True,True
3650,3650,3650,3650,NUM,False,False
-,-,-,-,SYM,False,False
3700,3700,3700,3700,NUM,False,False
band,band,band,band,NOUN,True,False
help,help,help,help,NOUN,True,False
foster,foster,foster,foster,VERB,True,False
the,the,the,the,DET,True,True
provision,provision,provision,provision,NOUN,True,False
of,of,of,of,ADP,True,True
rural,rural,rural,rural,ADJ,True,False
broadband,broadband,broadband,broadband,NOUN,True,False
access,access,access,access,NOUN,True,False
by,by,by,by,ADP,True,True
wireless,wireless,wireless,wireless,ADJ,True,False
internet,internet,internet,internet,NOUN,True,False
service,service,service,service,NOUN,True,False
providers,providers,provider,provider,NOUN,True,False
wisps,wisps,wisp,wisp,NOUN,True,False
.,.,.,.,PUNCT,False,False
most,most,most,most,ADV,True,True
recently,recently,recently,recently,ADV,True,False
",",",",",",",",PUNCT,False,False
the,the,the,the,DET,True,True
fcc,fcc,fcc,fcc,PROPN,True,False
adoption,adoption,adoption,adoption,NOUN,True,False
of,of,of,of,ADP,True,True
rule,rule,rule,rule,NOUN,True,False
for,for,for,for,ADP,True,True
dynamic,dynamic,dynamic,dynamic,ADJ,True,False
access,access,access,access,NOUN,True,False
to,to,to,to,ADP,True,True
the,the,the,the,DET,True,True
tv,tv,tv,tv,NOUN,True,False
white,white,white,white,PROPN,True,False
space,space,space,space,NOUN,True,False
have,have,have,have,AUX,True,True
help,help,help,help,NOUN,True,False
stimulate,stimulate,stimulate,stimulate,VERB,True,False
the,the,the,the,DET,True,True
development,development,development,development,NOUN,True,False
of,of,of,of,ADP,True,True
standard,standard,standard,standard,NOUN,True,False
and,and,and,and,CCONJ,True,True
equipment,equipment,equipment,equipment,NOUN,True,False
to,to,to,to,PART,True,True
operate,operate,operate,operate,VERB,True,False
successfully,successfully,successfully,successfully,ADV,True,False
within,within,within,within,ADP,True,True
that,that,that,that,DET,True,True
framework,framework,framework,framework,NOUN,True,False
.,.,.,.,PUNCT,False,False
this,this,this,this,DET,True,True
proceeding,proceeding,proceeding,proceeding,NOUN,True,False
build,build,build,build,NOUN,True,False
on,on,on,on,ADP,True,True
these,these,these,these,DET,True,True
early,early,early,early,ADJ,True,False
effort,effort,effort,effort,NOUN,True,False
and,and,and,and,CCONJ,True,True
will,will,will,will,VERB,True,True
continue,continue,continue,continue,VERB,True,False
the,the,the,the,DET,True,True
progress,progress,progress,progress,NOUN,True,False
of,of,of,of,ADP,True,True
create,create,create,create,NOUN,True,False
value,value,value,value,NOUN,True,False
by,by,by,by,ADP,True,True
expand,expand,expand,expand,NOUN,True,False
sharing,sharing,sharing,sharing,NOUN,True,False
option,option,option,option,NOUN,True,False
into,into,into,into,ADP,True,True
new,new,new,new,ADJ,True,False
band,band,band,band,NOUN,True,False
and,and,and,and,CCONJ,True,True
new,new,new,new,PROPN,True,False
contexts,contexts,contexts,contexts,PROPN,True,False
.,.,.,.,PUNCT,False,False
focus,focus,focus,focus,VERB,True,False
on,on,on,on,ADP,True,True
enable,enable,enable,enable,ADJ,True,False
small,small,small,small,ADJ,True,False
cell,cell,cell,cell,NOUN,True,False
system,system,system,system,NOUN,True,False
",",",",",",",",PUNCT,False,False
which,which,which,which,DET,True,True
be,be,be,be,VERB,True,True
doubly,doubly,doubly,doubly,ADV,True,False
important,important,important,important,ADJ,True,False
first,first,first,first,ADV,True,True
",",",",",",",",PUNCT,False,False
because,because,because,because,SCONJ,True,True
small,small,small,small,ADJ,True,False
cell,cell,cell,cell,NOUN,True,False
facilitate,facilitate,facilitate,facilitate,VERB,True,False
spatial,spatial,spatial,spatial,ADJ,True,False
reuse,reuse,reuse,reuse,NOUN,True,False
which,which,which,which,DET,True,True
reduce,reduce,reduce,reduce,VERB,True,False
spectrum,spectrum,spectrum,spectrum,NOUN,True,False
scarcity,scarcity,scarcity,scarcity,NOUN,True,False
problem,problem,problem,problem,NOUN,True,False
and,and,and,and,CCONJ,True,True
second,second,second,second,ADV,True,False
",",",",",",",",PUNCT,False,False
because,because,because,because,SCONJ,True,True
much,much,much,much,ADJ,True,True
of,of,of,of,ADP,True,True
the,the,the,the,DET,True,True
focus,focus,focus,focus,NOUN,True,False
of,of,of,of,ADP,True,True
wireless,wireless,wireless,wireless,ADJ,True,False
innovation,innovation,innovation,innovation,NOUN,True,False
in,in,in,in,ADP,True,True
recent,recent,recent,recent,ADJ,True,False
year,year,year,year,NOUN,True,False
",",",",",",",",PUNCT,False,False
and,and,and,and,CCONJ,True,True
especially,especially,especially,especially,ADV,True,False
those,those,those,those,DET,True,True
that,that,that,that,DET,True,True
relate,relate,relate,relate,VERB,True,False
to,to,to,to,ADP,True,True
spectrum,spectrum,spectrum,spectrum,NOUN,True,False
sharing,sharing,sharing,sharing,NOUN,True,False
",",",",",",",",PUNCT,False,False
find,find,find,find,VERB,True,False
their,their,-PRON-,-pron-,DET,True,True
good,good,good,good,ADJ,True,False
application,application,application,application,NOUN,True,False
in,in,in,in,ADP,True,True
low,low,low,low,ADJ,True,False
power,power,power,power,NOUN,True,False
",",",",",",",",PUNCT,False,False
small,small,small,small,ADJ,True,False
cell,cell,cell,cell,NOUN,True,False
system,system,system,system,NOUN,True,False
.,.,.,.,PUNCT,False,False
for,for,for,for,ADP,True,True
example,example,example,example,NOUN,True,False
",",",",",",",",PUNCT,False,False
innovative,innovative,innovative,innovative,ADJ,True,False
technology,technology,technology,technology,NOUN,True,False
for,for,for,for,ADP,True,True
interference,interference,interference,interference,NOUN,True,False
management,management,management,management,NOUN,True,False
",",",",",",",",PUNCT,False,False
like,like,like,like,SCONJ,True,False
megamimo,megamimo,megamimo,megamimo,PROPN,True,False
also,also,also,also,ADV,True,True
know,know,know,know,VERB,True,False
as,as,as,as,SCONJ,True,True
joint,joint,joint,joint,ADJ,True,False
multi,multi,multi,multi,ADJ,True,False
-,-,-,-,NOUN,False,False
user,user,user,user,NOUN,True,False
beamforming,beamforming,beamforming,beamforming,NOUN,True,False
and,and,and,and,CCONJ,True,True
interferencealignment,interferencealignment,interferencealignment,interferencealignment,ADJ,True,False
",",",",",",",",PUNCT,False,False
address,address,address,address,NOUN,True,False
cell,cell,cell,cell,NOUN,True,False
edge,edge,edge,edge,NOUN,True,False
interference,interference,interference,interference,NOUN,True,False
issue,issue,issue,issue,NOUN,True,False
",",",",",",",",PUNCT,False,False
which,which,which,which,DET,True,True
be,be,be,be,VERB,True,True
of,of,of,of,ADP,True,True
particular,particular,particular,particular,ADJ,True,False
importance,importance,importance,importance,NOUN,True,False
for,for,for,for,ADP,True,True
small,small,small,small,ADJ,True,False
cell,cell,cell,cell,NOUN,True,False
.,.,.,.,PUNCT,False,False
move,move,move,move,VERB,True,True
expeditiously,expeditiously,expeditiously,expeditiously,ADV,True,False
in,in,in,in,ADP,True,True
target,target,target,target,NOUN,True,False
the,the,the,the,DET,True,True
3.5ghz,3.5ghz,3.5ghz,3.5ghz,PROPN,False,False
band,band,band,band,NOUN,True,False
that,that,that,that,SCONJ,True,True
the,the,the,the,DET,True,True
ntia,ntia,ntia,ntia,PROPN,True,False
oct2010,oct2010,oct2010,oct2010,PROPN,False,False
identify,identify,identify,identify,VERB,True,False
as,as,as,as,SCONJ,True,True
a,a,a,a,DET,True,True
fast,fast,fast,fast,ADJ,True,False
track,track,track,track,NOUN,True,False
candidate,candidate,candidate,candidate,NOUN,True,False
for,for,for,for,ADP,True,True
spectrum,spectrum,spectrum,spectrum,NOUN,True,False
sharing,sharing,sharing,sharing,NOUN,True,False
.,.,.,.,PUNCT,False,False
there,there,there,there,PRON,True,True
be,be,be,be,AUX,True,True
150mhz,150mhz,150mhz,150mhz,NUM,False,False
of,of,of,of,ADP,True,True
underutilize,underutilize,underutilize,underutilize,ADJ,True,False
spectrum,spectrum,spectrum,spectrum,NOUN,True,False
in,in,in,in,ADP,True,True
this,this,this,this,DET,True,True
band,band,band,band,NOUN,True,False
that,that,that,that,DET,True,True
be,be,be,be,AUX,True,True
currently,currently,currently,currently,ADV,True,False
dedicate,dedicate,dedicate,dedicate,ADJ,True,False
for,for,for,for,ADP,True,True
use,use,use,use,NOUN,True,False
by,by,by,by,ADP,True,True
naval,naval,naval,naval,ADJ,True,False
radar,radar,radar,radar,NOUN,True,False
system,system,system,system,NOUN,True,False
and,and,and,and,CCONJ,True,True
fixed,fixed,fix,fix,VERB,True,False
satellite,satellite,satellite,satellite,NOUN,True,False
system,system,system,system,NOUN,True,False
fss,fss,fss,fss,VERB,True,False
earth,earth,earth,earth,NOUN,True,False
station,station,station,station,NOUN,True,False
that,that,that,that,SCONJ,True,True
early,early,early,early,ADJ,True,False
study,study,study,study,NOUN,True,False
have,have,have,have,AUX,True,True
conclude,conclude,conclude,conclude,NOUN,True,False
can,can,can,can,VERB,True,True
not,not,not,not,PART,True,True
be,be,be,be,AUX,True,True
clear,clear,clear,clear,ADJ,True,False
from,from,from,from,ADP,True,True
the,the,the,the,DET,True,True
band,band,band,band,NOUN,True,False
economically,economically,economically,economically,ADV,True,False
.,.,.,.,PUNCT,False,False
make,make,make,make,VERB,True,True
this,this,this,this,DET,True,True
band,band,band,band,NOUN,True,False
available,available,available,available,ADJ,True,False
for,for,for,for,ADP,True,True
commercial,commercial,commercial,commercial,ADJ,True,False
user,user,user,user,NOUN,True,False
require,require,require,require,VERB,True,False
adoption,adoption,adoption,adoption,NOUN,True,False
of,of,of,of,ADP,True,True
new,new,new,new,ADJ,True,False
technique,technique,technique,technique,NOUN,True,False
for,for,for,for,ADP,True,True
enable,enable,enable,enable,ADJ,True,False
dynamic,dynamic,dynamic,dynamic,ADJ,True,False
sharing,sharing,sharing,sharing,NOUN,True,False
with,with,with,with,ADP,True,True
incumbent,incumbent,incumbent,incumbent,ADJ,True,False
system,system,system,system,NOUN,True,False
.,.,.,.,PUNCT,False,False
focus,focus,focus,focus,VERB,True,False
on,on,on,on,ADP,True,True
this,this,this,this,DET,True,True
band,band,band,band,NOUN,True,False
at,at,at,at,ADP,True,True
this,this,this,this,DET,True,True
time,time,time,time,NOUN,True,False
be,be,be,be,AUX,True,True
the,the,the,the,DET,True,True
right,right,right,right,ADJ,True,False
choice,choice,choice,choice,NOUN,True,False
it,it,-PRON-,-pron-,PRON,True,True
can,can,can,can,VERB,True,True
motivate,motivate,motivate,motivate,VERB,True,False
technology,technology,technology,technology,NOUN,True,False
transfer,transfer,transfer,transfer,NOUN,True,False
from,from,from,from,ADP,True,True
pen,pen,pen,pen,VERB,True,False
-,-,-,-,PUNCT,False,False
up,up,up,up,ADP,True,True
laboratory,laboratory,laboratory,laboratory,NOUN,True,False
research,research,research,research,NOUN,True,False
to,to,to,to,ADP,True,True
full,full,full,full,ADJ,True,True
-,-,-,-,PUNCT,False,False
scale,scale,scale,scale,NOUN,True,False
practice,practice,practice,practice,NOUN,True,False
",",",",",",",",PUNCT,False,False
and,and,and,and,CCONJ,True,True
can,can,can,can,VERB,True,True
set,set,set,set,VERB,True,False
the,the,the,the,DET,True,True
stage,stage,stage,stage,NOUN,True,False
for,for,for,for,ADP,True,True
regulatory,regulatory,regulatory,regulatory,ADJ,True,False
innovation,innovation,innovation,innovation,NOUN,True,False
in,in,in,in,ADP,True,True
governance,governance,governance,governance,NOUN,True,False
model,model,model,model,NOUN,True,False
for,for,for,for,ADP,True,True
share,share,share,share,NOUN,True,False
spectrum,spectrum,spectrum,spectrum,PROPN,True,False
go,go,go,go,VERB,True,True
forward,forward,forward,forward,ADV,True,False
",",",",",",",",PUNCT,False,False
support,support,support,support,VERB,True,False
a,a,a,a,DET,True,True
diverse,diverse,diverse,diverse,ADJ,True,False
range,range,range,range,NOUN,True,False
of,of,of,of,ADP,True,True
application,application,application,application,NOUN,True,False
and,and,and,and,CCONJ,True,True
stakeholder,stakeholder,stakeholder,stakeholder,NOUN,True,False
need,need,need,need,NOUN,True,False
.,.,.,.,PUNCT,False,False
the,the,the,the,DET,True,True
fcc,fcc,fcc,fcc,PROPN,True,False
's,'s,'s,'s,PART,False,True
effort,effort,effort,effort,NOUN,True,False
in,in,in,in,ADP,True,True
this,this,this,this,DET,True,True
proceeding,proceeding,proceeding,proceeding,NOUN,True,False
help,help,help,help,NOUN,True,False
to,to,to,to,PART,True,True
create,create,create,create,VERB,True,False
a,a,a,a,DET,True,True
market,market,market,market,NOUN,True,False
for,for,for,for,ADP,True,True
wireless,wireless,wireless,wireless,ADJ,True,False
innovation,innovation,innovation,innovation,NOUN,True,False
that,that,that,that,DET,True,True
improve,improve,improve,improve,VERB,True,False
device,device,device,device,NOUN,True,False
and,and,and,and,CCONJ,True,True
network,network,network,network,NOUN,True,False
performance,performance,performance,performance,NOUN,True,False
and,and,and,and,CCONJ,True,True
expand,expand,expand,expand,VERB,True,False
application,application,application,application,NOUN,True,False
capability,capability,capability,capability,NOUN,True,False
.,.,.,.,PUNCT,False,False
in,in,in,in,ADP,True,True
so,so,so,so,ADV,True,True
do,do,do,do,AUX,True,True
",",",",",",",",PUNCT,False,False
they,they,-PRON-,-pron-,PRON,True,True
help,help,help,help,VERB,True,False
drive,drive,drive,drive,VERB,True,False
the,the,the,the,DET,True,True
demand,demand,demand,demand,NOUN,True,False
for,for,for,for,ADP,True,True
spectrum,spectrum,spectrum,spectrum,NOUN,True,False
that,that,that,that,DET,True,True
make,make,make,make,VERB,True,True
sharing,sharing,share,share,VERB,True,False
underutilize,underutilize,underutilize,underutilize,ADJ,True,False
spectrum,spectrum,spectrum,spectrum,NOUN,True,False
more,more,more,more,ADV,True,True
intensively,intensively,intensively,intensively,ADV,True,False
a,a,a,a,DET,True,True
necessity,necessity,necessity,necessity,NOUN,True,False
",",",",",",",",PUNCT,False,False
as,as,as,as,ADV,True,True
well,well,well,well,ADV,True,True
as,as,as,as,SCONJ,True,True
for,for,for,for,ADP,True,True
the,the,the,the,DET,True,True
wireless,wireless,wireless,wireless,ADJ,True,False
innovation,innovation,innovation,innovation,NOUN,True,False
that,that,that,that,DET,True,True
make,make,make,make,VERB,True,True
it,it,-PRON-,-pron-,PRON,True,True
feasible,feasible,feasible,feasible,ADJ,True,False
to,to,to,to,PART,True,True
share,share,share,share,VERB,True,False
spectrum,spectrum,spectrum,spectrum,PROPN,True,False
efficiently,efficiently,efficiently,efficiently,ADV,True,False
.,.,.,.,PUNCT,False,False
promote,promote,promote,promote,VERB,True,False
progress,progress,progress,progress,NOUN,True,False
towards,towards,towards,towards,ADP,True,True
a,a,a,a,DET,True,True
more,more,more,more,ADV,True,True
flexible,flexible,flexible,flexible,ADJ,True,False
and,and,and,and,CCONJ,True,True
evolvable,evolvable,evolvable,evolvable,ADJ,True,False
spectrum,spectrum,spectrum,spectrum,NOUN,True,False
management,management,management,management,NOUN,True,False
framework,framework,framework,framework,NOUN,True,False
.,.,.,.,PUNCT,False,False
by,by,by,by,ADP,True,True
propose,propose,propose,propose,VERB,True,False
a,a,a,a,DET,True,True
dynamic,dynamic,dynamic,dynamic,ADJ,True,False
database,database,database,database,NOUN,True,False
that,that,that,that,DET,True,True
gather,gather,gather,gather,VERB,True,False
information,information,information,information,NOUN,True,False
about,about,about,about,ADP,True,True
spectrum,spectrum,spectrum,spectrum,PROPN,True,False
usage,usage,usage,usage,NOUN,True,False
",",",",",",",",PUNCT,False,False
this,this,this,this,DET,True,True
nprm,nprm,nprm,nprm,NOUN,True,False
lay,lay,lie,lie,VERB,True,False
the,the,the,the,DET,True,True
groundwork,groundwork,groundwork,groundwork,NOUN,True,False
for,for,for,for,ADP,True,True
adapt,adapt,adapt,adapt,PROPN,True,False
spectrum,spectrum,spectrum,spectrum,PROPN,True,False
regulation,regulation,regulation,regulation,NOUN,True,False
more,more,more,more,ADV,True,True
quickly,quickly,quickly,quickly,ADV,True,False
to,to,to,to,PART,True,True
provide,provide,provide,provide,VERB,True,False
spectrum,spectrum,spectrum,spectrum,NOUN,True,False
usage,usage,usage,usage,NOUN,True,False
right,right,right,right,ADV,True,False
that,that,that,that,DET,True,True
support,support,support,support,VERB,True,False
the,the,the,the,DET,True,True
good,good,good,good,ADJ,True,False
sharing,sharing,sharing,sharing,NOUN,True,False
technology,technology,technology,technology,NOUN,True,False
for,for,for,for,ADP,True,True
today,today,today,today,NOUN,True,False
's,'s,'s,'s,PART,False,True
and,and,and,and,CCONJ,True,True
tomorrow,tomorrow,tomorrow,tomorrow,NOUN,True,False
's,'s,'s,'s,PART,False,True
wireless,wireless,wireless,wireless,ADJ,True,False
innovation,innovation,innovation,innovation,NOUN,True,False
.,.,.,.,PUNCT,False,False
the,the,the,the,DET,True,True
3.5ghz,3.5ghz,3.5ghz,3.5ghz,PROPN,False,False
proposal,proposal,proposal,proposal,NOUN,True,False
build,build,build,build,VERB,True,False
on,on,on,on,ADP,True,True
the,the,the,the,DET,True,True
tvws,tvws,tvws,tvws,NOUN,True,False
approach,approach,approach,approach,NOUN,True,False
of,of,of,of,ADP,True,True
use,use,use,use,VERB,True,False
a,a,a,a,DET,True,True
dynamic,dynamic,dynamic,dynamic,ADJ,True,False
database,database,database,database,NOUN,True,False
as,as,as,as,SCONJ,True,True
part,part,part,part,NOUN,True,True
of,of,of,of,ADP,True,True
an,an,an,an,DET,True,True
evolve,evolve,evolve,evolve,ADJ,True,False
spectrum,spectrum,spectrum,spectrum,NOUN,True,False
access,access,access,access,NOUN,True,False
system,system,system,system,NOUN,True,False
sas,sas,sas,sas,PROPN,True,False
.,.,.,.,PUNCT,False,False
the,the,the,the,DET,True,True
sas,sas,sas,sas,PROPN,True,False
make,make,make,make,VERB,True,True
it,it,-PRON-,-pron-,PRON,True,True
feasible,feasible,feasible,feasible,ADJ,True,False
to,to,to,to,PART,True,True
manage,manage,manage,manage,VERB,True,False
spectrum,spectrum,spectrum,spectrum,NOUN,True,False
usage,usage,usage,usage,NOUN,True,False
right,right,right,right,ADV,True,False
more,more,more,more,ADV,True,True
flexibly,flexibly,flexibly,flexibly,ADV,True,False
over,over,over,over,ADP,True,True
different,different,different,different,ADJ,True,False
geography,geography,geography,geography,NOUN,True,False
and,and,and,and,CCONJ,True,True
at,at,at,at,ADP,True,True
multiple,multiple,multiple,multiple,ADJ,True,False
time,time,time,time,NOUN,True,False
scale,scale,scale,scale,NOUN,True,False
from,from,from,from,ADP,True,True
the,the,the,the,DET,True,True
increasingly,increasingly,increasingly,increasingly,ADV,True,False
short,short,short,short,ADJ,True,False
time,time,time,time,NOUN,True,False
scale,scale,scale,scale,NOUN,True,False
anticipate,anticipate,anticipate,anticipate,VERB,True,False
by,by,by,by,ADP,True,True
new,new,new,new,ADJ,True,False
dynamic,dynamic,dynamic,dynamic,ADJ,True,False
spectrum,spectrum,spectrum,spectrum,NOUN,True,False
access,access,access,access,NOUN,True,False
technology,technology,technology,technology,NOUN,True,False
to,to,to,to,ADP,True,True
the,the,the,the,DET,True,True
long,long,long,long,ADJ,True,False
time,time,time,time,NOUN,True,False
scale,scale,scale,scale,NOUN,True,False
of,of,of,of,ADP,True,True
regulatory,regulatory,regulatory,regulatory,ADJ,True,False
proceeding,proceeding,proceeding,proceeding,NOUN,True,False
.,.,.,.,PUNCT,False,False
the,the,the,the,DET,True,True
sas,sas,sas,sas,PROPN,True,False
may,may,may,may,VERB,True,True
be,be,be,be,AUX,True,True
enhance,enhance,enhance,enhance,NOUN,True,False
and,and,and,and,CCONJ,True,True
complement,complement,complement,complement,VERB,True,False
by,by,by,by,ADP,True,True
other,other,other,other,ADJ,True,True
evolve,evolve,evolve,evolve,VERB,True,False
spectrum,spectrum,spectrum,spectrum,NOUN,True,False
sharing,sharing,sharing,sharing,NOUN,True,False
technology,technology,technology,technology,NOUN,True,False
",",",",",",",",PUNCT,False,False
such,such,such,such,ADJ,True,True
as,as,as,as,SCONJ,True,True
sense,sense,sense,sense,NOUN,True,False
and,and,and,and,CCONJ,True,True
more,more,more,more,ADV,True,True
agile,agile,agile,agile,ADJ,True,False
wideband,wideband,wideband,wideband,PROPN,True,False
radio,radio,radio,radio,NOUN,True,False
that,that,that,that,DET,True,True
be,be,be,be,VERB,True,True
under,under,under,under,ADP,True,True
development,development,development,development,NOUN,True,False
.,.,.,.,PUNCT,False,False
in,in,in,in,ADP,True,True
summary,summary,summary,summary,NOUN,True,False
",",",",",",",",PUNCT,False,False
the,the,the,the,DET,True,True
scarcity,scarcity,scarcity,scarcity,NOUN,True,False
of,of,of,of,ADP,True,True
wholly,wholly,wholly,wholly,ADV,True,False
reallocable,reallocable,reallocable,reallocable,ADJ,True,False
spectrum,spectrum,spectrum,spectrum,PROPN,True,False
mean,mean,mean,mean,VERB,True,False
that,that,that,that,SCONJ,True,True
the,the,the,the,DET,True,True
fcc,fcc,fcc,fcc,PROPN,True,False
be,be,be,be,AUX,True,True
focus,focus,focus,focus,VERB,True,False
appropriately,appropriately,appropriately,appropriately,ADV,True,False
on,on,on,on,ADP,True,True
expand,expand,expand,expand,NOUN,True,False
option,option,option,option,NOUN,True,False
for,for,for,for,ADP,True,True
more,more,more,more,ADV,True,True
nuanced,nuanced,nuanced,nuanced,ADJ,True,False
spectrum,spectrum,spectrum,spectrum,NOUN,True,False
management,management,management,management,NOUN,True,False
technique,technique,technique,technique,NOUN,True,False
beyond,beyond,beyond,beyond,ADP,True,True
the,the,the,the,DET,True,True
extreme,extreme,extreme,extreme,NOUN,True,False
of,of,of,of,ADP,True,True
exclusive,exclusive,exclusive,exclusive,ADJ,True,False
-,-,-,-,PUNCT,False,False
use,use,use,use,NOUN,True,False
licensing,licensing,licensing,licensing,NOUN,True,False
and,and,and,and,CCONJ,True,True
low,low,low,low,ADJ,True,False
-,-,-,-,PUNCT,False,False
power,power,power,power,NOUN,True,False
unlicensed,unlicensed,unlicensed,unlicensed,ADJ,True,False
use,use,use,use,NOUN,True,False
.,.,.,.,PUNCT,False,False
furthermore,furthermore,furthermore,furthermore,ADV,True,False
",",",",",",",",PUNCT,False,False
the,the,the,the,DET,True,True
fcc,fcc,fcc,fcc,PROPN,True,False
proposal,proposal,proposal,proposal,NOUN,True,False
in,in,in,in,ADP,True,True
this,this,this,this,DET,True,True
proceeding,proceeding,proceeding,proceeding,NOUN,True,False
have,have,have,have,AUX,True,True
the,the,the,the,DET,True,True
potential,potential,potential,potential,NOUN,True,False
to,to,to,to,PART,True,True
develop,develop,develop,develop,VERB,True,False
amanagement,amanagement,amanagement,amanagement,ADJ,True,False
framework,framework,framework,framework,NOUN,True,False
that,that,that,that,DET,True,True
can,can,can,can,VERB,True,True
adapt,adapt,adapt,adapt,VERB,True,False
at,at,at,at,ADP,True,True
a,a,a,a,DET,True,True
fast,fast,fast,fast,ADJ,True,False
clock,clock,clock,clock,NOUN,True,False
speed,speed,speed,speed,NOUN,True,False
that,that,that,that,DET,True,True
more,more,more,more,ADV,True,True
closely,closely,closely,closely,ADV,True,False
approximate,approximate,approximate,approximate,ADJ,True,False
the,the,the,the,DET,True,True
pace,pace,pace,pace,NOUN,True,False
of,of,of,of,ADP,True,True
wireless,wireless,wireless,wireless,ADJ,True,False
innovation,innovation,innovation,innovation,NOUN,True,False
and,and,and,and,CCONJ,True,True
the,the,the,the,DET,True,True
evolution,evolution,evolution,evolution,NOUN,True,False
of,of,of,of,ADP,True,True
commercial,commercial,commercial,commercial,ADJ,True,False
market,market,market,market,NOUN,True,False
.,.,.,.,PUNCT,False,False
we,we,-PRON-,-pron-,PRON,True,True
appreciate,appreciate,appreciate,appreciate,VERB,True,False
and,and,and,and,CCONJ,True,True
support,support,support,support,VERB,True,False
the,the,the,the,DET,True,True
fcc,fcc,fcc,fcc,PROPN,True,False
proposal,proposal,proposal,proposal,NOUN,True,False
to,to,to,to,PART,True,True
move,move,move,move,VERB,True,True
forward,forward,forward,forward,ADV,True,False
on,on,on,on,ADP,True,True
these,these,these,these,DET,True,True
issue,issue,issue,issue,NOUN,True,False
that,that,that,that,DET,True,True
be,be,be,be,VERB,True,True
so,so,so,so,ADV,True,True
important,important,important,important,ADJ,True,False
to,to,to,to,ADP,True,True
continued,continued,continued,continued,ADJ,True,False
innovation,innovation,innovation,innovation,NOUN,True,False
in,in,in,in,ADP,True,True
wireless,wireless,wireless,wireless,ADJ,True,False
broadband,broadband,broadband,broadband,NOUN,True,False
and,and,and,and,CCONJ,True,True
other,other,other,other,ADJ,True,True
wireless,wireless,wireless,wireless,NOUN,True,False
application,application,application,application,NOUN,True,False
.,.,.,.,PUNCT,False,False
