text,text_lower,lemma,lemma_lower,part_of_speech,is_alphabet,is_stopword
the,the,the,the,DET,True,True
wimax,wimax,wimax,wimax,PROPN,True,False
forum,forum,forum,forum,PROPN,True,False
be,be,be,be,AUX,True,True
not,not,not,not,PART,True,True
-,-,-,-,PUNCT,False,False
for,for,for,for,ADP,True,True
-,-,-,-,PUNCT,False,False
profit,profit,profit,profit,NOUN,True,False
industry,industry,industry,industry,NOUN,True,False
association,association,association,association,NOUN,True,False
that,that,that,that,SCONJ,True,True
certifie,certifie,certifie,certifie,NOUN,True,False
and,and,and,and,CCONJ,True,True
promote,promote,promote,promote,VERB,True,False
the,the,the,the,DET,True,True
compatibility,compatibility,compatibility,compatibility,NOUN,True,False
and,and,and,and,CCONJ,True,True
interoperability,interoperability,interoperability,interoperability,NOUN,True,False
of,of,of,of,ADP,True,True
broadband,broadband,broadband,broadband,PROPN,True,False
wireless,wireless,wireless,wireless,ADJ,True,False
product,product,product,product,NOUN,True,False
base,base,base,base,NOUN,True,False
upon,upon,upon,upon,SCONJ,True,True
ieee,ieee,ieee,ieee,PROPN,True,False
standard,standard,standard,standard,PROPN,True,False
802.16,802.16,802.16,802.16,PROPN,False,False
.,.,.,.,PUNCT,False,False
wimax,wimax,wimax,wimax,PROPN,True,False
forum,forum,forum,forum,PROPN,True,False
certified,certified,certify,certify,VERB,True,False
product,product,product,product,NOUN,True,False
be,be,be,be,AUX,True,True
interoperable,interoperable,interoperable,interoperable,ADJ,True,False
and,and,and,and,CCONJ,True,True
support,support,support,support,VERB,True,False
broadband,broadband,broadband,broadband,NOUN,True,False
fixed,fixed,fixed,fixed,ADJ,True,False
",",",",",",",",PUNCT,False,False
nomadic,nomadic,nomadic,nomadic,ADJ,True,False
",",",",",",",",PUNCT,False,False
portable,portable,portable,portable,ADJ,True,False
and,and,and,and,CCONJ,True,True
mobile,mobile,mobile,mobile,ADJ,True,False
service,service,service,service,NOUN,True,False
.,.,.,.,PUNCT,False,False
the,the,the,the,DET,True,True
wimax,wimax,wimax,wimax,PROPN,True,False
forum,forum,forum,forum,PROPN,True,False
hereby,hereby,hereby,hereby,PROPN,True,True
submit,submit,submit,submit,VERB,True,False
its,its,-PRON-,-pron-,DET,True,True
comment,comment,comment,comment,NOUN,True,False
in,in,in,in,ADP,True,True
response,response,response,response,NOUN,True,False
to,to,to,to,ADP,True,True
the,the,the,the,DET,True,True
notice,notice,notice,notice,NOUN,True,False
of,of,of,of,ADP,True,True
proposed,proposed,propose,propose,VERB,True,False
rulemaking,rulemaking,rulemaking,rulemaking,NOUN,True,False
and,and,and,and,CCONJ,True,True
order,order,order,order,VERB,True,False
the,the,the,the,DET,True,True
nprm,nprm,nprm,nprm,NOUN,True,False
in,in,in,in,ADP,True,True
the,the,the,the,DET,True,True
above,above,above,above,ADJ,True,True
-,-,-,-,PUNCT,False,False
caption,caption,caption,caption,NOUN,True,False
proceeding,proceeding,proceeding,proceeding,NOUN,True,False
of,of,of,of,ADP,True,True
the,the,the,the,DET,True,True
federal,federal,federal,federal,PROPN,True,False
communications,communications,communications,communications,PROPN,True,False
commission,commission,commission,commission,PROPN,True,False
commission,commission,commission,commission,PROPN,True,False
.,.,.,.,PUNCT,False,False
introductionon,introductionon,introductionon,introductionon,PROPN,True,False
december,december,december,december,PROPN,True,False
12,12,12,12,NUM,False,False
",",",",",",",",PUNCT,False,False
2012,2012,2012,2012,NUM,False,False
the,the,the,the,DET,True,True
commission,commission,commission,commission,NOUN,True,False
issue,issue,issue,issue,VERB,True,False
a,a,a,a,DET,True,True
notice,notice,notice,notice,NOUN,True,False
of,of,of,of,ADP,True,True
propose,propose,propose,propose,NOUN,True,False
rulemaking,rulemaking,rulemaking,rulemaking,NOUN,True,False
nprm,nprm,nprm,nprm,NOUN,True,False
",",",",",",",",PUNCT,False,False
under,under,under,under,ADP,True,True
gt,gt,gt,gt,CCONJ,True,False
docket,docket,docket,docket,PROPN,True,False
12,12,12,12,NUM,False,False
-,-,-,-,SYM,False,False
354,354,354,354,NUM,False,False
",",",",",",",",PUNCT,False,False
propose,propose,propose,propose,VERB,True,False
the,the,the,the,DET,True,True
creation,creation,creation,creation,NOUN,True,False
of,of,of,of,ADP,True,True
a,a,a,a,DET,True,True
new,new,new,new,ADJ,True,False
citizens,citizens,citizen,citizen,NOUN,True,False
broadband,broadband,broadband,broadband,PROPN,True,False
service,service,service,service,PROPN,True,False
cbs,cbs,cbs,cbs,PROPN,True,False
share,share,share,share,VERB,True,False
the,the,the,the,DET,True,True
3550,3550,3550,3550,NUM,False,False
-,-,-,-,SYM,False,False
3650,3650,3650,3650,NUM,False,False
mhz,mhz,mhz,mhz,PROPN,True,False
band,band,band,band,NOUN,True,False
with,with,with,with,ADP,True,True
incumbent,incumbent,incumbent,incumbent,ADJ,True,False
user,user,user,user,NOUN,True,False
",",",",",",",",PUNCT,False,False
with,with,with,with,ADP,True,True
a,a,a,a,DET,True,True
supplementary,supplementary,supplementary,supplementary,ADJ,True,False
proposal,proposal,proposal,proposal,NOUN,True,False
to,to,to,to,PART,True,True
incorporate,incorporate,incorporate,incorporate,VERB,True,False
the,the,the,the,DET,True,True
3650,3650,3650,3650,NUM,False,False
-,-,-,-,SYM,False,False
3700,3700,3700,3700,NUM,False,False
mhz,mhz,mhz,mhz,PROPN,True,False
band,band,band,band,NOUN,True,False
under,under,under,under,ADP,True,True
the,the,the,the,DET,True,True
new,new,new,new,ADJ,True,False
regulatory,regulatory,regulatory,regulatory,ADJ,True,False
regime,regime,regime,regime,NOUN,True,False
.,.,.,.,PUNCT,False,False
the,the,the,the,DET,True,True
wimax,wimax,wimax,wimax,PROPN,True,False
forum,forum,forum,forum,PROPN,True,False
support,support,support,support,VERB,True,False
the,the,the,the,DET,True,True
commission,commission,commission,commission,NOUN,True,False
effort,effort,effort,effort,NOUN,True,False
to,to,to,to,PART,True,True
further,further,further,further,VERB,True,True
the,the,the,the,DET,True,True
overall,overall,overall,overall,ADJ,True,False
efficiency,efficiency,efficiency,efficiency,NOUN,True,False
of,of,of,of,ADP,True,True
usage,usage,usage,usage,NOUN,True,False
within,within,within,within,ADP,True,True
this,this,this,this,DET,True,True
spectrum,spectrum,spectrum,spectrum,NOUN,True,False
band,band,band,band,NOUN,True,False
by,by,by,by,ADP,True,True
mean,mean,mean,mean,NOUN,True,False
of,of,of,of,ADP,True,True
the,the,the,the,DET,True,True
two,two,two,two,NUM,True,True
propose,propose,propose,propose,NOUN,True,False
technique,technique,technique,technique,NOUN,True,False
small,small,small,small,ADJ,True,False
cell,cell,cell,cell,NOUN,True,False
and,and,and,and,CCONJ,True,True
spectrum,spectrum,spectrum,spectrum,NOUN,True,False
sharing,sharing,sharing,sharing,NOUN,True,False
.,.,.,.,PUNCT,False,False
as,as,as,as,SCONJ,True,True
note,note,note,note,NOUN,True,False
in,in,in,in,ADP,True,True
the,the,the,the,DET,True,True
nprm,nprm,nprm,nprm,NOUN,True,False
1,1,1,1,NUM,False,False
",",",",",",",",PUNCT,False,False
the,the,the,the,DET,True,True
3.5,3.5,3.5,3.5,NUM,False,False
ghz,ghz,ghz,ghz,PROPN,True,False
band,band,band,band,NOUN,True,False
be,be,be,be,AUX,True,True
identify,identify,identify,identify,NOUN,True,False
by,by,by,by,ADP,True,True
the,the,the,the,DET,True,True
national,national,national,national,ADJ,True,False
telecommunications,telecommunications,telecommunication,telecommunication,NOUN,True,False
and,and,and,and,CCONJ,True,True
information,information,information,information,NOUN,True,False
administration,administration,administration,administration,PROPN,True,False
ntia,ntia,ntia,ntia,NOUN,True,False
for,for,for,for,ADP,True,True
share,share,share,share,NOUN,True,False
federal,federal,federal,federal,PROPN,True,False
andnon,andnon,andnon,andnon,PROPN,True,False
-,-,-,-,PUNCT,False,False
federal,federal,federal,federal,ADJ,True,False
use,use,use,use,NOUN,True,False
in,in,in,in,ADP,True,True
the,the,the,the,DET,True,True
2010,2010,2010,2010,NUM,False,False
fast,fast,fast,fast,ADJ,True,False
track,track,track,track,NOUN,True,False
report,report,report,report,NOUN,True,False
.,.,.,.,PUNCT,False,False
as,as,as,as,SCONJ,True,True
note,note,note,note,NOUN,True,False
in,in,in,in,ADP,True,True
the,the,the,the,DET,True,True
nprm,nprm,nprm,nprm,NOUN,True,False
6,6,6,6,NUM,False,False
",",",",",",",",PUNCT,False,False
the,the,the,the,DET,True,True
fast,fast,fast,fast,ADJ,True,False
track,track,track,track,NOUN,True,False
report,report,report,report,NOUN,True,False
recommendation,recommendation,recommendation,recommendation,NOUN,True,False
for,for,for,for,ADP,True,True
the,the,the,the,DET,True,True
3.5,3.5,3.5,3.5,NUM,False,False
ghz,ghz,ghz,ghz,PROPN,True,False
band,band,band,band,NOUN,True,False
be,be,be,be,AUX,True,True
base,base,base,base,NOUN,True,False
on,on,on,on,ADP,True,True
an,an,an,an,DET,True,True
assessment,assessment,assessment,assessment,NOUN,True,False
of,of,of,of,ADP,True,True
commercial,commercial,commercial,commercial,ADJ,True,False
deployment,deployment,deployment,deployment,NOUN,True,False
of,of,of,of,ADP,True,True
wimax,wimax,wimax,wimax,PROPN,True,False
equipment,equipment,equipment,equipment,PROPN,True,False
in,in,in,in,ADP,True,True
the,the,the,the,DET,True,True
band,band,band,band,NOUN,True,False
.,.,.,.,PUNCT,False,False
as,as,as,as,SCONJ,True,True
note,note,note,note,NOUN,True,False
in,in,in,in,ADP,True,True
the,the,the,the,DET,True,True
nprm,nprm,nprm,nprm,NOUN,True,False
28,28,28,28,NUM,False,False
",",",",",",",",PUNCT,False,False
the,the,the,the,DET,True,True
3650,3650,3650,3650,NUM,False,False
-,-,-,-,SYM,False,False
3700,3700,3700,3700,NUM,False,False
mhz,mhz,mhz,mhz,PROPN,True,False
band,band,band,band,NOUN,True,False
be,be,be,be,AUX,True,True
also,also,also,also,ADV,True,True
allocate,allocate,allocate,allocate,VERB,True,False
for,for,for,for,ADP,True,True
terrestrial,terrestrial,terrestrial,terrestrial,ADJ,True,False
non,non,non,non,ADJ,True,False
-,-,-,-,ADJ,False,False
federal,federal,federal,federal,ADJ,True,False
use,use,use,use,NOUN,True,False
.,.,.,.,PUNCT,False,False
wireless,wireless,wireless,wireless,ADJ,True,False
broadband,broadband,broadband,broadband,NOUN,True,False
services,services,service,service,NOUN,True,False
in,in,in,in,ADP,True,True
that,that,that,that,DET,True,True
band,band,band,band,NOUN,True,False
be,be,be,be,VERB,True,True
authorize,authorize,authorize,authorize,VERB,True,False
through,through,through,through,ADP,True,True
non,non,non,non,ADJ,True,False
-,-,-,-,ADJ,False,False
exclusive,exclusive,exclusive,exclusive,ADJ,True,False
nationwide,nationwide,nationwide,nationwide,ADJ,True,False
license,license,license,license,NOUN,True,False
require,require,require,require,VERB,True,False
the,the,the,the,DET,True,True
registration,registration,registration,registration,NOUN,True,False
of,of,of,of,ADP,True,True
individual,individual,individual,individual,ADJ,True,False
fix,fix,fix,fix,NOUN,True,False
and,and,and,and,CCONJ,True,True
base,base,base,base,NOUN,True,False
station,station,station,station,NOUN,True,False
.,.,.,.,PUNCT,False,False
all,all,all,all,DET,True,True
station,station,station,station,NOUN,True,False
operate,operate,operate,operate,VERB,True,False
in,in,in,in,ADP,True,True
this,this,this,this,DET,True,True
band,band,band,band,NOUN,True,False
must,must,must,must,VERB,True,True
employ,employ,employ,employ,VERB,True,False
a,a,a,a,DET,True,True
contention,contention,contention,contention,NOUN,True,False
-,-,-,-,PUNCT,False,False
base,base,base,base,NOUN,True,False
protocol,protocol,protocol,protocol,NOUN,True,False
.,.,.,.,PUNCT,False,False
the,the,the,the,DET,True,True
nprm,nprm,nprm,nprm,PROPN,True,False
29,29,29,29,NUM,False,False
report,report,report,report,NOUN,True,False
"2,117","2,117","2,117","2,117",NUM,False,False
licensee,licensee,licensee,licensee,NOUN,True,False
with,with,with,with,ADP,True,True
more,more,more,more,ADJ,True,True
than,than,than,than,SCONJ,True,True
"25,000","25,000","25,000","25,000",NUM,False,False
register,register,register,register,NOUN,True,False
site,site,site,site,NOUN,True,False
throughout,throughout,throughout,throughout,ADP,True,True
the,the,the,the,DET,True,True
united,united,united,united,PROPN,True,False
states,states,states,states,PROPN,True,False
as,as,as,as,SCONJ,True,True
of,of,of,of,ADP,True,True
october,october,october,october,PROPN,True,False
2012,2012,2012,2012,NUM,False,False
.,.,.,.,PUNCT,False,False
it,it,-PRON-,-pron-,PRON,True,True
refer,refer,refer,refer,VERB,True,False
125,125,125,125,NUM,False,False
to,to,to,to,ADP,True,True
the,the,the,the,DET,True,True
assumption,assumption,assumption,assumption,NOUN,True,False
in,in,in,in,ADP,True,True
the,the,the,the,DET,True,True
3650,3650,3650,3650,NUM,False,False
-,-,-,-,SYM,False,False
3700,3700,3700,3700,NUM,False,False
mhz,mhz,mhz,mhz,PROPN,True,False
rulemake,rulemake,rulemake,rulemake,NOUN,True,False
that,that,that,that,SCONJ,True,True
commercial,commercial,commercial,commercial,ADJ,True,False
mobile,mobile,mobile,mobile,ADJ,True,False
radio,radio,radio,radio,NOUN,True,False
services,services,service,service,NOUN,True,False
licensee,licensee,licensee,licensee,NOUN,True,False
would,would,would,would,VERB,True,True
operate,operate,operate,operate,VERB,True,False
high,high,high,high,ADV,True,False
-,-,-,-,PUNCT,False,False
powered,powered,powered,powered,ADJ,True,False
wimax,wimax,wimax,wimax,PROPN,True,False
device,device,device,device,NOUN,True,False
.,.,.,.,PUNCT,False,False
as,as,as,as,SCONJ,True,True
note,note,note,note,NOUN,True,False
in,in,in,in,ADP,True,True
the,the,the,the,DET,True,True
nprm,nprm,nprm,nprm,NOUN,True,False
29,29,29,29,NUM,False,False
",",",",",",",",PUNCT,False,False
the,the,the,the,DET,True,True
2007,2007,2007,2007,NUM,False,False
world,world,world,world,PROPN,True,False
radiocommunication,radiocommunication,radiocommunication,radiocommunication,PROPN,True,False
conference,conference,conference,conference,NOUN,True,False
wrc-07,wrc-07,wrc-07,wrc-07,PROPN,False,False
identify,identify,identify,identify,VERB,True,False
the,the,the,the,DET,True,True
3400,3400,3400,3400,NUM,False,False
-,-,-,-,SYM,False,False
3600,3600,3600,3600,NUM,False,False
mhz,mhz,mhz,mhz,PROPN,True,False
band,band,band,band,NOUN,True,False
for,for,for,for,ADP,True,True
international,international,international,international,PROPN,True,False
mobile,mobile,mobile,mobile,ADJ,True,False
telecommunications,telecommunications,telecommunication,telecommunication,NOUN,True,False
imt,imt,imt,imt,PROPN,True,False
in,in,in,in,ADP,True,True
much,much,much,much,ADJ,True,True
of,of,of,of,ADP,True,True
itu,itu,itu,itu,NOUN,True,False
region,region,region,region,NOUN,True,False
1,1,1,1,NUM,False,False
and,and,and,and,CCONJ,True,True
in,in,in,in,ADP,True,True
area,area,area,area,NOUN,True,False
within,within,within,within,ADP,True,True
itu,itu,itu,itu,NOUN,True,False
region,region,region,region,NOUN,True,False
3.world,3.world,3.world,3.world,NUM,False,False
radiocommunication,radiocommunication,radiocommunication,radiocommunication,NOUN,True,False
conference,conference,conference,conference,NOUN,True,False
resolution,resolution,resolution,resolution,NOUN,True,False
such,such,such,such,ADJ,True,True
as,as,as,as,SCONJ,True,True
wrc-12,wrc-12,wrc-12,wrc-12,PROPN,False,False
resolution,resolution,resolution,resolution,NOUN,True,False
223,223,223,223,NUM,False,False
specify,specify,specify,specify,VERB,True,False
that,that,that,that,SCONJ,True,True
that,that,that,that,DET,True,True
imt,imt,imt,imt,PROPN,True,False
incorporate,incorporate,incorporate,incorporate,PROPN,True,False
imt-2000,imt-2000,imt-2000,imt-2000,NOUN,False,False
and,and,and,and,CCONJ,True,True
imt,imt,imt,imt,ADJ,True,False
-,-,-,-,PUNCT,False,False
advanced,advanced,advanced,advanced,ADJ,True,False
.,.,.,.,PUNCT,False,False
the,the,the,the,DET,True,True
imt-2000,imt-2000,imt-2000,imt-2000,NOUN,False,False
recommendation,recommendation,recommendation,recommendation,NOUN,True,False
itu,itu,itu,itu,PROPN,True,False
-,-,-,-,PUNCT,False,False
r,r,r,r,NOUN,True,False
m.1457,m.1457,m.1457,m.1457,NOUN,False,False
incorporate,incorporate,incorporate,incorporate,VERB,True,False
the,the,the,the,DET,True,True
wirelessman,wirelessman,wirelessman,wirelessman,PROPN,True,False
-,-,-,-,PUNCT,False,False
ofdma,ofdma,ofdma,ofdma,PROPN,True,False
airinterface,airinterface,airinterface,airinterface,PROPN,True,False
specification,specification,specification,specification,PROPN,True,False
of,of,of,of,ADP,True,True
ieee,ieee,ieee,ieee,PROPN,True,False
std,std,std,std,PROPN,True,False
802.16,802.16,802.16,802.16,NUM,False,False
",",",",",",",",PUNCT,False,False
as,as,as,as,SCONJ,True,True
incorporate,incorporate,incorporate,incorporate,NOUN,True,False
in,in,in,in,ADP,True,True
wimax,wimax,wimax,wimax,PROPN,True,False
.,.,.,.,PUNCT,False,False
the,the,the,the,DET,True,True
imt,imt,imt,imt,PROPN,True,False
-,-,-,-,PUNCT,False,False
advanced,advanced,advanced,advanced,ADJ,True,False
recommendation,recommendation,recommendation,recommendation,NOUN,True,False
itu,itu,itu,itu,NOUN,True,False
-,-,-,-,PUNCT,False,False
r,r,r,r,NOUN,True,False
m.2012,m.2012,m.2012,m.2012,PROPN,False,False
incorporate,incorporate,incorporate,incorporate,NOUN,True,False
the,the,the,the,DET,True,True
wirelessman,wirelessman,wirelessman,wirelessman,NOUN,True,False
-,-,-,-,PUNCT,False,False
advance,advance,advance,advance,NOUN,True,False
air,air,air,air,NOUN,True,False
interface,interface,interface,interface,NOUN,True,False
specification,specification,specification,specification,NOUN,True,False
of,of,of,of,ADP,True,True
ieee,ieee,ieee,ieee,PROPN,True,False
std,std,std,std,PROPN,True,False
802.16.1,802.16.1,802.16.1,802.16.1,NUM,False,False
",",",",",",",",PUNCT,False,False
as,as,as,as,SCONJ,True,True
incorporate,incorporate,incorporate,incorporate,NOUN,True,False
in,in,in,in,ADP,True,True
wimax,wimax,wimax,wimax,PROPN,True,False
forum,forum,forum,forum,PROPN,True,False
specification,specification,specification,specification,PROPN,True,False
t28,t28,t28,t28,PROPN,False,False
-,-,-,-,PUNCT,False,False
001-r020v01.in,001-r020v01.in,001-r020v01.in,001-r020v01.in,NOUN,False,False
many,many,many,many,ADJ,True,True
country,country,country,country,NOUN,True,False
",",",",",",",",PUNCT,False,False
the,the,the,the,DET,True,True
band,band,band,band,NOUN,True,False
3600,3600,3600,3600,NUM,False,False
-,-,-,-,SYM,False,False
3800,3800,3800,3800,NUM,False,False
mhz,mhz,mhz,mhz,NOUN,True,False
be,be,be,be,AUX,True,True
also,also,also,also,ADV,True,True
be,be,be,be,AUX,True,True
consider,consider,consider,consider,VERB,True,False
for,for,for,for,ADP,True,True
imt,imt,imt,imt,PROPN,True,False
.,.,.,.,PUNCT,False,False
for,for,for,for,ADP,True,True
example,example,example,example,NOUN,True,False
",",",",",",",",PUNCT,False,False
a,a,a,a,DET,True,True
european,european,european,european,PROPN,True,False
commission,commission,commission,commission,PROPN,True,False
decision,decision,decision,decision,NOUN,True,False
2008,2008,2008,2008,NUM,False,False
move,move,move,move,VERB,True,True
to,to,to,to,PART,True,True
harmonize,harmonize,harmonize,harmonize,VERB,True,False
the,the,the,the,DET,True,True
entire3400,entire3400,entire3400,entire3400,PROPN,False,False
-,-,-,-,PUNCT,False,False
3800,3800,3800,3800,NUM,False,False
mhz,mhz,mhz,mhz,PROPN,True,False
band,band,band,band,NOUN,True,False
.,.,.,.,PUNCT,False,False
the,the,the,the,DET,True,True
cept,cept,cept,cept,PROPN,True,False
european,european,european,european,PROPN,True,False
conference,conference,conference,conference,PROPN,True,False
of,of,of,of,ADP,True,True
postal,postal,postal,postal,ADJ,True,False
and,and,and,and,CCONJ,True,True
telecommunications,telecommunications,telecommunication,telecommunication,NOUN,True,False
administrations,administrations,administration,administration,VERB,True,False
electronic,electronic,electronic,electronic,ADJ,True,False
communications,communications,communication,communication,NOUN,True,False
committee,committee,committee,committee,PROPN,True,False
in,in,in,in,ADP,True,True
2011,2011,2011,2011,NUM,False,False
agree,agree,agree,agree,VERB,True,False
on,on,on,on,ADP,True,True
a,a,a,a,DET,True,True
harmonized,harmonized,harmonized,harmonized,ADJ,True,False
tdd,tdd,tdd,tdd,NOUN,True,False
time,time,time,time,NOUN,True,False
division,division,division,division,NOUN,True,False
duplex,duplex,duplex,duplex,PROPN,True,False
frequency,frequency,frequency,frequency,PROPN,True,False
arrangement,arrangement,arrangement,arrangement,NOUN,True,False
in,in,in,in,ADP,True,True
the,the,the,the,DET,True,True
3600,3600,3600,3600,NUM,False,False
-,-,-,-,SYM,False,False
3800,3800,3800,3800,NUM,False,False
mhz,mhz,mhz,mhz,PROPN,True,False
band,band,band,band,NOUN,True,False
",",",",",",",",PUNCT,False,False
move,move,move,move,VERB,True,True
to,to,to,to,PART,True,True
provide,provide,provide,provide,VERB,True,False
a,a,a,a,DET,True,True
contiguous,contiguous,contiguous,contiguous,ADJ,True,False
400,400,400,400,NUM,False,False
mhz,mhz,mhz,mhz,NOUN,True,False
of,of,of,of,ADP,True,True
radio,radio,radio,radio,NOUN,True,False
frequency,frequency,frequency,frequency,NOUN,True,False
spectrum,spectrum,spectrum,spectrum,NOUN,True,False
to,to,to,to,ADP,True,True
a,a,a,a,DET,True,True
unique,unique,unique,unique,ADJ,True,False
opportunity,opportunity,opportunity,opportunity,NOUN,True,False
to,to,to,to,PART,True,True
meet,meet,meet,meet,VERB,True,False
some,some,some,some,DET,True,True
of,of,of,of,ADP,True,True
the,the,the,the,DET,True,True
new,new,new,new,ADJ,True,False
demand,demand,demand,demand,NOUN,True,False
for,for,for,for,ADP,True,True
mobile,mobile,mobile,mobile,ADJ,True,False
broadband,broadband,broadband,broadband,PROPN,True,False
.,.,.,.,PUNCT,False,False
many,many,many,many,ADJ,True,True
in,in,in,in,ADP,True,True
the,the,the,the,DET,True,True
industry,industry,industry,industry,NOUN,True,False
worldwide,worldwide,worldwide,worldwide,ADV,True,False
be,be,be,be,AUX,True,True
view,view,view,view,NOUN,True,False
the,the,the,the,DET,True,True
3.5,3.5,3.5,3.5,NUM,False,False
ghz,ghz,ghz,ghz,PROPN,True,False
band,band,band,band,NOUN,True,False
as,as,as,as,SCONJ,True,True
favorable,favorable,favorable,favorable,ADJ,True,False
for,for,for,for,ADP,True,True
small,small,small,small,ADJ,True,False
-,-,-,-,PUNCT,False,False
cell,cell,cell,cell,NOUN,True,False
operation,operation,operation,operation,NOUN,True,False
.,.,.,.,PUNCT,False,False
in,in,in,in,ADP,True,True
february,february,february,february,PROPN,True,False
2013,2013,2013,2013,NUM,False,False
",",",",",",",",PUNCT,False,False
itu,itu,itu,itu,NOUN,True,False
-,-,-,-,PUNCT,False,False
r,r,r,r,NOUN,True,False
working,working,work,work,VERB,True,False
party,party,party,party,NOUN,True,False
5d,5d,5d,5d,NUM,False,False
which,which,which,which,DET,True,True
develop,develop,develop,develop,VERB,True,False
and,and,and,and,CCONJ,True,True
maintain,maintain,maintain,maintain,VERB,True,False
imt,imt,imt,imt,PROPN,True,False
specification,specification,specification,specification,NOUN,True,False
begin,begin,begin,begin,VERB,True,False
preliminary,preliminary,preliminary,preliminary,ADJ,True,False
drafting,drafting,drafting,drafting,NOUN,True,False
of,of,of,of,ADP,True,True
a,a,a,a,DET,True,True
compatibility,compatibility,compatibility,compatibility,NOUN,True,False
study,study,study,study,NOUN,True,False
between,between,between,between,ADP,True,True
fss,fss,fss,fss,NOUN,True,False
network,network,network,network,NOUN,True,False
and,and,and,and,CCONJ,True,True
imt,imt,imt,imt,PROPN,True,False
system,system,system,system,NOUN,True,False
in,in,in,in,ADP,True,True
the,the,the,the,DET,True,True
band,band,band,band,NOUN,True,False
3,3,3,3,NUM,False,False
400,400,400,400,NUM,False,False
-,-,-,-,SYM,False,False
3,3,3,3,NUM,False,False
600,600,600,600,NUM,False,False
mhz,mhz,mhz,mhz,NOUN,True,False
for,for,for,for,ADP,True,True
small,small,small,small,ADJ,True,False
cell,cell,cell,cell,NOUN,True,False
deployment,deployment,deployment,deployment,NOUN,True,False
.,.,.,.,PUNCT,False,False
the,the,the,the,DET,True,True
ieee,ieee,ieee,ieee,PROPN,True,False
802.16,802.16,802.16,802.16,NUM,False,False
working,working,working,working,NOUN,True,False
group,group,group,group,NOUN,True,False
begin,begin,begin,begin,VERB,True,False
",",",",",",",",PUNCT,False,False
in,in,in,in,ADP,True,True
january,january,january,january,PROPN,True,False
2013,2013,2013,2013,NUM,False,False
",",",",",",",",PUNCT,False,False
to,to,to,to,PART,True,True
develop,develop,develop,develop,VERB,True,False
projectp802.16r,projectp802.16r,projectp802.16r,projectp802.16r,PROPN,False,False
to,to,to,to,PART,True,True
enhance,enhance,enhance,enhance,VERB,True,False
the,the,the,the,DET,True,True
wirelessman,wirelessman,wirelessman,wirelessman,NOUN,True,False
-,-,-,-,PUNCT,False,False
ofdma,ofdma,ofdma,ofdma,PROPN,True,False
air,air,air,air,PROPN,True,False
interface,interface,interface,interface,NOUN,True,False
use,use,use,use,NOUN,True,False
in,in,in,in,ADP,True,True
mobile,mobile,mobile,mobile,PROPN,True,False
wimax,wimax,wimax,wimax,PROPN,True,False
for,for,for,for,ADP,True,True
application,application,application,application,NOUN,True,False
to,to,to,to,ADP,True,True
small,small,small,small,ADJ,True,False
cell,cell,cell,cell,NOUN,True,False
backhaul,backhaul,backhaul,backhaul,PROPN,True,False
.,.,.,.,PUNCT,False,False
the,the,the,the,DET,True,True
work,work,work,work,NOUN,True,False
address,address,address,address,NOUN,True,False
small,small,small,small,ADJ,True,False
cell,cell,cell,cell,NOUN,True,False
base,base,base,base,NOUN,True,False
station,station,station,station,NOUN,True,False
that,that,that,that,DET,True,True
be,be,be,be,VERB,True,True
fix,fix,fix,fix,NOUN,True,False
or,or,or,or,CCONJ,True,True
nomadic,nomadic,nomadic,nomadic,ADJ,True,False
and,and,and,and,CCONJ,True,True
may,may,may,may,VERB,True,True
support,support,support,support,VERB,True,False
mobile,mobile,mobile,mobile,ADJ,True,False
device,device,device,device,NOUN,True,False
.,.,.,.,PUNCT,False,False
the,the,the,the,DET,True,True
backhaul,backhaul,backhaul,backhaul,PROPN,True,False
band,band,band,band,NOUN,True,False
be,be,be,be,VERB,True,True
presume,presume,presume,presume,ADJ,True,False
to,to,to,to,PART,True,True
be,be,be,be,AUX,True,True
below,below,below,below,ADP,True,True
6,6,6,6,NUM,False,False
ghz,ghz,ghz,ghz,PROPN,True,False
and,and,and,and,CCONJ,True,True
distinct,distinct,distinct,distinct,ADJ,True,False
from,from,from,from,ADP,True,True
the,the,the,the,DET,True,True
mobile,mobile,mobile,mobile,ADJ,True,False
band,band,band,band,NOUN,True,False
of,of,of,of,ADP,True,True
the,the,the,the,DET,True,True
small,small,small,small,ADJ,True,False
cell,cell,cell,cell,NOUN,True,False
.,.,.,.,PUNCT,False,False
the,the,the,the,DET,True,True
exist,exist,exist,exist,PROPN,True,False
ieee,ieee,ieee,ieee,PROPN,True,False
802.16,802.16,802.16,802.16,NUM,False,False
point,point,point,point,NOUN,True,False
-,-,-,-,PUNCT,False,False
to,to,to,to,ADP,True,True
-,-,-,-,PUNCT,False,False
multipoint,multipoint,multipoint,multipoint,NOUN,True,False
architecture,architecture,architecture,architecture,NOUN,True,False
will,will,will,will,VERB,True,True
be,be,be,be,AUX,True,True
maintain,maintain,maintain,maintain,VERB,True,False
",",",",",",",",PUNCT,False,False
with,with,with,with,ADP,True,True
a,a,a,a,DET,True,True
single,single,single,single,ADJ,True,False
p802.16r,p802.16r,p802.16r,p802.16r,PROPN,False,False
base,base,base,base,NOUN,True,False
station,station,station,station,NOUN,True,False
support,support,support,support,NOUN,True,False
multiple,multiple,multiple,multiple,ADJ,True,False
small,small,small,small,ADJ,True,False
cell,cell,cell,cell,NOUN,True,False
",",",",",",",",PUNCT,False,False
without,without,without,without,ADP,True,True
a,a,a,a,DET,True,True
line,line,line,line,NOUN,True,False
-,-,-,-,PUNCT,False,False
of,of,of,of,ADP,True,True
-,-,-,-,PUNCT,False,False
sight,sight,sight,sight,NOUN,True,False
requirement,requirement,requirement,requirement,NOUN,True,False
.,.,.,.,PUNCT,False,False
the,the,the,the,DET,True,True
p802.16r,p802.16r,p802.16r,p802.16r,PROPN,False,False
project,project,project,project,NOUN,True,False
will,will,will,will,VERB,True,True
utilize,utilize,utilize,utilize,VERB,True,False
standardize,standardize,standardize,standardize,VERB,True,False
carrier,carrier,carrier,carrier,NOUN,True,False
ethernet,ethernet,ethernet,ethernet,NOUN,True,False
transport,transport,transport,transport,NOUN,True,False
connectivityto,connectivityto,connectivityto,connectivityto,PROPN,True,False
backhaul,backhaul,backhaul,backhaul,PROPN,True,False
small,small,small,small,ADJ,True,False
cell,cell,cell,cell,NOUN,True,False
.,.,.,.,PUNCT,False,False
the,the,the,the,DET,True,True
user,user,user,user,NOUN,True,False
side,side,side,side,NOUN,True,True
of,of,of,of,ADP,True,True
the,the,the,the,DET,True,True
small,small,small,small,ADJ,True,False
cell,cell,cell,cell,NOUN,True,False
can,can,can,can,VERB,True,True
support,support,support,support,VERB,True,False
arbitrary,arbitrary,arbitrary,arbitrary,ADJ,True,False
radio,radio,radio,radio,NOUN,True,False
technology,technology,technology,technology,NOUN,True,False
",",",",",",",",PUNCT,False,False
such,such,such,such,ADJ,True,True
as,as,as,as,SCONJ,True,True
lte,lte,lte,lte,PROPN,True,False
",",",",",",",",PUNCT,False,False
wi,wi,wi,wi,PROPN,True,False
-,-,-,-,PUNCT,False,False
fi,fi,fi,fi,PROPN,True,False
",",",",",",",",PUNCT,False,False
mobile,mobile,mobile,mobile,PROPN,True,False
wimax,wimax,wimax,wimax,PROPN,True,False
",",",",",",",",PUNCT,False,False
etc,etc,etc,etc,X,True,False
.,.,.,.,PUNCT,False,False
by,by,by,by,ADP,True,True
utilize,utilize,utilize,utilize,PROPN,True,False
standardized,standardized,standardized,standardized,ADJ,True,False
carrier,carrier,carrier,carrier,NOUN,True,False
ethernet,ethernet,ethernet,ethernet,NOUN,True,False
transport,transport,transport,transport,NOUN,True,False
",",",",",",",",PUNCT,False,False
the,the,the,the,DET,True,True
p802.16r,p802.16r,p802.16r,p802.16r,PROPN,False,False
project,project,project,project,NOUN,True,False
will,will,will,will,VERB,True,True
provide,provide,provide,provide,VERB,True,False
support,support,support,support,NOUN,True,False
not,not,not,not,PART,True,True
only,only,only,only,ADV,True,True
for,for,for,for,ADP,True,True
small,small,small,small,ADJ,True,False
cell,cell,cell,cell,NOUN,True,False
but,but,but,but,CCONJ,True,True
also,also,also,also,ADV,True,True
for,for,for,for,ADP,True,True
a,a,a,a,DET,True,True
variety,variety,variety,variety,NOUN,True,False
of,of,of,of,ADP,True,True
industrial,industrial,industrial,industrial,ADJ,True,False
application,application,application,application,NOUN,True,False
",",",",",",",",PUNCT,False,False
such,such,such,such,ADJ,True,True
as,as,as,as,SCONJ,True,True
oil,oil,oil,oil,NOUN,True,False
and,and,and,and,CCONJ,True,True
gas,gas,gas,gas,NOUN,True,False
field,field,field,field,NOUN,True,False
communication,communication,communication,communication,NOUN,True,False
",",",",",",",",PUNCT,False,False
smart,smart,smart,smart,ADJ,True,False
grid,grid,grid,grid,NOUN,True,False
communication,communication,communication,communication,NOUN,True,False
",",",",",",",",PUNCT,False,False
and,and,and,and,CCONJ,True,True
other,other,other,other,ADJ,True,True
utility,utility,utility,utility,NOUN,True,False
application,application,application,application,NOUN,True,False
.,.,.,.,PUNCT,False,False
all,all,all,all,DET,True,True
of,of,of,of,ADP,True,True
these,these,these,these,DET,True,True
could,could,could,could,VERB,True,True
readily,readily,readily,readily,ADV,True,False
be,be,be,be,AUX,True,True
deploy,deploy,deploy,deploy,NOUN,True,False
in,in,in,in,ADP,True,True
the,the,the,the,DET,True,True
3.5,3.5,3.5,3.5,NUM,False,False
ghz,ghz,ghz,ghz,PROPN,True,False
band,band,band,band,NOUN,True,False
under,under,under,under,ADP,True,True
a,a,a,a,DET,True,True
suitable,suitable,suitable,suitable,ADJ,True,False
regulatory,regulatory,regulatory,regulatory,ADJ,True,False
scenario,scenario,scenario,scenario,NOUN,True,False
.,.,.,.,PUNCT,False,False
for,for,for,for,ADP,True,True
these,these,these,these,DET,True,True
reason,reason,reason,reason,NOUN,True,False
",",",",",",",",PUNCT,False,False
we,we,-PRON-,-pron-,PRON,True,True
believe,believe,believe,believe,VERB,True,False
that,that,that,that,SCONJ,True,True
the,the,the,the,DET,True,True
significant,significant,significant,significant,ADJ,True,False
trend,trend,trend,trend,NOUN,True,False
in,in,in,in,ADP,True,True
industry,industry,industry,industry,NOUN,True,False
as,as,as,as,ADV,True,True
well,well,well,well,ADV,True,True
as,as,as,as,SCONJ,True,True
within,within,within,within,ADP,True,True
worldwide,worldwide,worldwide,worldwide,ADJ,True,False
regulatory,regulatory,regulatory,regulatory,ADJ,True,False
body,body,body,body,NOUN,True,False
be,be,be,be,AUX,True,True
to,to,to,to,PART,True,True
view,view,view,view,VERB,True,False
the,the,the,the,DET,True,True
3400,3400,3400,3400,NUM,False,False
-,-,-,-,SYM,False,False
3800,3800,3800,3800,NUM,False,False
mhz,mhz,mhz,mhz,PROPN,True,False
band,band,band,band,NOUN,True,False
as,as,as,as,SCONJ,True,True
a,a,a,a,DET,True,True
core,core,core,core,NOUN,True,False
band,band,band,band,NOUN,True,False
for,for,for,for,ADP,True,True
future,future,future,future,ADJ,True,False
deployment,deployment,deployment,deployment,NOUN,True,False
of,of,of,of,ADP,True,True
wimax,wimax,wimax,wimax,PROPN,True,False
and,and,and,and,CCONJ,True,True
other,other,other,other,ADJ,True,True
4,4,4,4,NUM,False,False
g,g,g,g,NOUN,True,False
technology,technology,technology,technology,NOUN,True,False
for,for,for,for,ADP,True,True
fixed,fixed,fixed,fixed,ADJ,True,False
and,and,and,and,CCONJ,True,True
mobile,mobile,mobile,mobile,ADJ,True,False
broadband,broadband,broadband,broadband,NOUN,True,False
",",",",",",",",PUNCT,False,False
include,include,include,include,VERB,True,False
small,small,small,small,ADJ,True,False
cell,cell,cell,cell,NOUN,True,False
deployment,deployment,deployment,deployment,NOUN,True,False
and,and,and,and,CCONJ,True,True
backhaul,backhaul,backhaul,backhaul,PROPN,True,False
.,.,.,.,PUNCT,False,False
we,we,-PRON-,-pron-,PRON,True,True
believe,believe,believe,believe,VERB,True,False
that,that,that,that,SCONJ,True,True
the,the,the,the,DET,True,True
commissions,commissions,commission,commission,NOUN,True,False
effort,effort,effort,effort,NOUN,True,False
to,to,to,to,PART,True,True
provide,provide,provide,provide,VERB,True,False
additional,additional,additional,additional,ADJ,True,False
opportunity,opportunity,opportunity,opportunity,NOUN,True,False
for,for,for,for,ADP,True,True
imt,imt,imt,imt,ADJ,True,False
-,-,-,-,PUNCT,False,False
like,like,like,like,ADJ,True,False
technology,technology,technology,technology,NOUN,True,False
in,in,in,in,ADP,True,True
the,the,the,the,DET,True,True
3.5,3.5,3.5,3.5,NUM,False,False
ghz,ghz,ghz,ghz,PROPN,True,False
band,band,band,band,NOUN,True,False
be,be,be,be,AUX,True,True
consistent,consistent,consistent,consistent,ADJ,True,False
with,with,with,with,ADP,True,True
these,these,these,these,DET,True,True
worldwide,worldwide,worldwide,worldwide,ADJ,True,False
trend,trend,trend,trend,NOUN,True,False
and,and,and,and,CCONJ,True,True
will,will,will,will,VERB,True,True
leverage,leverage,leverage,leverage,VERB,True,False
the,the,the,the,DET,True,True
result,result,result,result,NOUN,True,False
synergy,synergy,synergy,synergy,NOUN,True,False
and,and,and,and,CCONJ,True,True
economic,economic,economic,economic,ADJ,True,False
efficiency,efficiency,efficiency,efficiency,NOUN,True,False
.,.,.,.,PUNCT,False,False
unnecessary,unnecessary,unnecessary,unnecessary,ADJ,True,False
restriction,restriction,restriction,restriction,NOUN,True,False
in,in,in,in,ADP,True,True
the,the,the,the,DET,True,True
band,band,band,band,NOUN,True,False
3650,3650,3650,3650,NUM,False,False
-,-,-,-,SYM,False,False
3700,3700,3700,3700,NUM,False,False
mhzwimax,mhzwimax,mhzwimax,mhzwimax,PROPN,True,False
technology,technology,technology,technology,NOUN,True,False
have,have,have,have,AUX,True,True
be,be,be,be,AUX,True,True
widely,widely,widely,widely,ADV,True,False
deploy,deploy,deploy,deploy,VERB,True,False
in,in,in,in,ADP,True,True
the,the,the,the,DET,True,True
3650,3650,3650,3650,NUM,False,False
-,-,-,-,SYM,False,False
3700,3700,3700,3700,NUM,False,False
mhz,mhz,mhz,mhz,PROPN,True,False
band,band,band,band,NOUN,True,False
",",",",",",",",PUNCT,False,False
as,as,as,as,SCONJ,True,True
discuss,discuss,discuss,discuss,VERB,True,False
above,above,above,above,ADV,True,True
.,.,.,.,PUNCT,False,False
however,however,however,however,ADV,True,True
",",",",",",",",PUNCT,False,False
such,such,such,such,ADJ,True,True
deployment,deployment,deployment,deployment,NOUN,True,False
have,have,have,have,AUX,True,True
be,be,be,be,AUX,True,True
restrain,restrain,restrain,restrain,VERB,True,False
by,by,by,by,ADP,True,True
regulatory,regulatory,regulatory,regulatory,ADJ,True,False
limitation,limitation,limitation,limitation,NOUN,True,False
.,.,.,.,PUNCT,False,False
deployment,deployment,deployment,deployment,NOUN,True,False
of,of,of,of,ADP,True,True
equipment,equipment,equipment,equipment,NOUN,True,False
be,be,be,be,AUX,True,True
significantly,significantly,significantly,significantly,ADV,True,False
restrain,restrain,restrain,restrain,VERB,True,False
by,by,by,by,ADP,True,True
the,the,the,the,DET,True,True
excessive,excessive,excessive,excessive,ADJ,True,False
150,150,150,150,NUM,False,False
km,km,km,km,NOUN,True,False
exclusion,exclusion,exclusion,exclusion,NOUN,True,False
zone,zone,zone,zone,NOUN,True,False
surround,surround,surround,surround,PROPN,True,False
grandfathere,grandfathere,grandfathere,grandfathere,PROPN,True,False
fss,fss,fss,fss,PROPN,True,False
earth,earth,earth,earth,PROPN,True,False
station,station,station,station,NOUN,True,False
fss,fss,fss,fss,NOUN,True,False
earth,earth,earth,earth,NOUN,True,False
station,station,station,station,NOUN,True,False
.,.,.,.,PUNCT,False,False
deployment,deployment,deployment,deployment,NOUN,True,False
of,of,of,of,ADP,True,True
wimax,wimax,wimax,wimax,PROPN,True,False
equipment,equipment,equipment,equipment,PROPN,True,False
be,be,be,be,AUX,True,True
also,also,also,also,ADV,True,True
hamper,hamper,hamper,hamper,ADJ,True,False
by,by,by,by,ADP,True,True
failure,failure,failure,failure,NOUN,True,False
to,to,to,to,PART,True,True
account,account,account,account,VERB,True,False
for,for,for,for,ADP,True,True
the,the,the,the,DET,True,True
fact,fact,fact,fact,NOUN,True,False
that,that,that,that,SCONJ,True,True
wimax,wimax,wimax,wimax,PROPN,True,False
technology,technology,technology,technology,NOUN,True,False
provide,provide,provide,provide,VERB,True,False
a,a,a,a,DET,True,True
point,point,point,point,NOUN,True,False
-,-,-,-,PUNCT,False,False
to,to,to,to,ADP,True,True
-,-,-,-,PUNCT,False,False
multipoint,multipoint,multipoint,multipoint,NOUN,True,False
architecture,architecture,architecture,architecture,NOUN,True,False
in,in,in,in,ADP,True,True
which,which,which,which,DET,True,True
subscriber,subscriber,subscriber,subscriber,NOUN,True,False
station,station,station,station,NOUN,True,False
",",",",",",",",PUNCT,False,False
whether,whether,whether,whether,SCONJ,True,True
fixed,fixed,fixed,fixed,ADJ,True,False
or,or,or,or,CCONJ,True,True
mobile,mobile,mobile,mobile,ADJ,True,False
",",",",",",",",PUNCT,False,False
be,be,be,be,AUX,True,True
under,under,under,under,ADP,True,True
the,the,the,the,DET,True,True
control,control,control,control,NOUN,True,False
of,of,of,of,ADP,True,True
a,a,a,a,DET,True,True
base,base,base,base,NOUN,True,False
station,station,station,station,NOUN,True,False
.,.,.,.,PUNCT,False,False
the,the,the,the,DET,True,True
regulation,regulation,regulation,regulation,NOUN,True,False
part,part,part,part,NOUN,True,True
90,90,90,90,NUM,False,False
",",",",",",",",PUNCT,False,False
subpart,subpart,subpart,subpart,PROPN,True,False
z,z,z,z,X,True,False
require,require,require,require,VERB,True,False
that,that,that,that,SCONJ,True,True
a,a,a,a,DET,True,True
licensee,licensee,licensee,licensee,NOUN,True,False
can,can,can,can,VERB,True,True
not,not,not,not,PART,True,True
operate,operate,operate,operate,VERB,True,False
a,a,a,a,DET,True,True
fix,fix,fix,fix,NOUN,True,False
or,or,or,or,CCONJ,True,True
base,base,base,base,NOUN,True,False
station,station,station,station,NOUN,True,False
before,before,before,before,ADP,True,True
register,register,register,register,VERB,True,False
it,it,-PRON-,-pron-,PRON,True,True
under,under,under,under,ADP,True,True
its,its,-PRON-,-pron-,DET,True,True
license,license,license,license,NOUN,True,False
47,47,47,47,NUM,False,False
c.f.r,c.f.r,c.f.r,c.f.r,ADV,False,False
.,.,.,.,PUNCT,False,False
90.1307,90.1307,90.1307,90.1307,NUM,False,False
.,.,.,.,PUNCT,False,False
however,however,however,however,ADV,True,True
",",",",",",",",PUNCT,False,False
they,they,-PRON-,-pron-,PRON,True,True
also,also,also,also,ADV,True,True
allow,allow,allow,allow,VERB,True,False
47,47,47,47,NUM,False,False
c.f.r,c.f.r,c.f.r,c.f.r,ADV,False,False
.,.,.,.,PUNCT,False,False
90.1333,90.1333,90.1333,90.1333,NUM,False,False
mobile,mobile,mobile,mobile,ADJ,True,False
and,and,and,and,CCONJ,True,True
portable,portable,portable,portable,ADJ,True,False
station,station,station,station,NOUN,True,False
only,only,only,only,ADV,True,True
if,if,if,if,SCONJ,True,True
they,they,-PRON-,-pron-,PRON,True,True
can,can,can,can,VERB,True,True
positively,positively,positively,positively,ADV,True,False
receive,receive,receive,receive,VERB,True,False
and,and,and,and,CCONJ,True,True
decode,decode,decode,decode,VERB,True,False
an,an,an,an,DET,True,True
enable,enable,enable,enable,ADJ,True,False
signal,signal,signal,signal,NOUN,True,False
transmit,transmit,transmit,transmit,NOUN,True,False
by,by,by,by,ADP,True,True
a,a,a,a,DET,True,True
basestation,basestation,basestation,basestation,NOUN,True,False
.,.,.,.,PUNCT,False,False
we,we,-PRON-,-pron-,PRON,True,True
introduce,introduce,introduce,introduce,VERB,True,False
the,the,the,the,DET,True,True
term,term,term,term,NOUN,True,False
subsidiary,subsidiary,subsidiary,subsidiary,NOUN,True,False
station,station,station,station,NOUN,True,False
in,in,in,in,ADP,True,True
this,this,this,this,DET,True,True
document,document,document,document,NOUN,True,False
to,to,to,to,PART,True,True
refer,refer,refer,refer,VERB,True,False
to,to,to,to,PART,True,True
station,station,station,station,NOUN,True,False
that,that,that,that,SCONJ,True,True
operate,operate,operate,operate,VERB,True,False
under,under,under,under,ADP,True,True
control,control,control,control,NOUN,True,False
of,of,of,of,ADP,True,True
an,an,an,an,DET,True,True
enable,enable,enable,enable,ADJ,True,False
signal,signal,signal,signal,NOUN,True,False
transmit,transmit,transmit,transmit,NOUN,True,False
by,by,by,by,ADP,True,True
a,a,a,a,DET,True,True
base,base,base,base,NOUN,True,False
station,station,station,station,NOUN,True,False
.,.,.,.,PUNCT,False,False
the,the,the,the,DET,True,True
language,language,language,language,NOUN,True,False
of,of,of,of,ADP,True,True
47,47,47,47,NUM,False,False
c.f.r,c.f.r,c.f.r,c.f.r,ADV,False,False
.,.,.,.,PUNCT,False,False
90.1333,90.1333,90.1333,90.1333,NUM,False,False
appropriately,appropriately,appropriately,appropriately,ADV,True,False
recognize,recognize,recognize,recognize,VERB,True,False
the,the,the,the,DET,True,True
principle,principle,principle,principle,NOUN,True,False
that,that,that,that,SCONJ,True,True
a,a,a,a,DET,True,True
subsidiary,subsidiary,subsidiary,subsidiary,NOUN,True,False
station,station,station,station,NOUN,True,False
nee,nee,nee,nee,NOUN,True,False
not,not,not,not,PART,True,True
be,be,be,be,AUX,True,True
subject,subject,subject,subject,ADJ,True,False
to,to,to,to,ADP,True,True
the,the,the,the,DET,True,True
same,same,same,same,ADJ,True,True
restriction,restriction,restriction,restriction,NOUN,True,False
as,as,as,as,SCONJ,True,True
the,the,the,the,DET,True,True
base,base,base,base,NOUN,True,False
station,station,station,station,NOUN,True,False
itself,itself,-PRON-,-pron-,PRON,True,True
.,.,.,.,PUNCT,False,False
unfortunately,unfortunately,unfortunately,unfortunately,ADV,True,False
",",",",",",",",PUNCT,False,False
part,part,part,part,NOUN,True,True
90,90,90,90,NUM,False,False
",",",",",",",",PUNCT,False,False
subpart,subpart,subpart,subpart,PROPN,True,False
z,z,z,z,X,True,False
recognize,recognize,recognize,recognize,VERB,True,False
the,the,the,the,DET,True,True
subsidiary,subsidiary,subsidiary,subsidiary,NOUN,True,False
station,station,station,station,NOUN,True,False
concept,concept,concept,concept,NOUN,True,False
only,only,only,only,ADV,True,True
with,with,with,with,ADP,True,True
regard,regard,regard,regard,NOUN,True,False
to,to,to,to,ADP,True,True
mobile,mobile,mobile,mobile,ADJ,True,False
and,and,and,and,CCONJ,True,True
portable,portable,portable,portable,ADJ,True,False
station,station,station,station,NOUN,True,False
.,.,.,.,PUNCT,False,False
fix,fix,fix,fix,PROPN,True,False
subscriber,subscriber,subscriber,subscriber,PROPN,True,False
station,station,station,station,NOUN,True,False
be,be,be,be,AUX,True,True
subject,subject,subject,subject,ADJ,True,False
to,to,to,to,ADP,True,True
the,the,the,the,DET,True,True
same,same,same,same,ADJ,True,True
requirement,requirement,requirement,requirement,NOUN,True,False
as,as,as,as,SCONJ,True,True
base,base,base,base,NOUN,True,False
station,station,station,station,NOUN,True,False
",",",",",",",",PUNCT,False,False
include,include,include,include,VERB,True,False
the,the,the,the,DET,True,True
requirement,requirement,requirement,requirement,NOUN,True,False
that,that,that,that,SCONJ,True,True
the,the,the,the,DET,True,True
subscriber,subscriber,subscriber,subscriber,NOUN,True,False
station,station,station,station,NOUN,True,False
be,be,be,be,AUX,True,True
register,register,register,register,NOUN,True,False
.,.,.,.,PUNCT,False,False
the,the,the,the,DET,True,True
requirement,requirement,requirement,requirement,NOUN,True,False
to,to,to,to,PART,True,True
register,register,register,register,VERB,True,False
each,each,each,each,DET,True,True
fix,fix,fix,fix,NOUN,True,False
subscriber,subscriber,subscriber,subscriber,NOUN,True,False
station,station,station,station,NOUN,True,False
in,in,in,in,ADP,True,True
the,the,the,the,DET,True,True
fcc,fcc,fcc,fcc,PROPN,True,False
public,public,public,public,ADJ,True,False
universal,universal,universal,universal,ADJ,True,False
licensing,licensing,licensing,licensing,NOUN,True,False
system,system,system,system,NOUN,True,False
uls,uls,uls,uls,PROPN,True,False
database,database,database,database,NOUN,True,False
be,be,be,be,AUX,True,True
a,a,a,a,DET,True,True
major,major,major,major,ADJ,True,False
deterrent,deterrent,deterrent,deterrent,NOUN,True,False
to,to,to,to,PART,True,True
deployment,deployment,deployment,deployment,NOUN,True,False
aside,aside,aside,aside,ADV,True,False
from,from,from,from,ADP,True,True
the,the,the,the,DET,True,True
administrative,administrative,administrative,administrative,ADJ,True,False
burden,burden,burden,burden,NOUN,True,False
",",",",",",",",PUNCT,False,False
it,it,-PRON-,-pron-,PRON,True,True
violate,violate,violate,violate,VERB,True,False
the,the,the,the,DET,True,True
demand,demand,demand,demand,NOUN,True,False
of,of,of,of,ADP,True,True
both,both,both,both,CCONJ,True,True
the,the,the,the,DET,True,True
operator,operator,operator,operator,NOUN,True,False
and,and,and,and,CCONJ,True,True
the,the,the,the,DET,True,True
subscriber,subscriber,subscriber,subscriber,NOUN,True,False
to,to,to,to,PART,True,True
maintain,maintain,maintain,maintain,VERB,True,False
privacy,privacy,privacy,privacy,NOUN,True,False
regard,regard,regard,regard,VERB,True,False
the,the,the,the,DET,True,True
nature,nature,nature,nature,NOUN,True,False
of,of,of,of,ADP,True,True
the,the,the,the,DET,True,True
subscription,subscription,subscription,subscription,NOUN,True,False
service,service,service,service,NOUN,True,False
provide,provide,provide,provide,VERB,True,False
to,to,to,to,ADP,True,True
private,private,private,private,ADJ,True,False
address,address,address,address,NOUN,True,False
.,.,.,.,PUNCT,False,False
the,the,the,the,DET,True,True
wimax,wimax,wimax,wimax,PROPN,True,False
forum,forum,forum,forum,PROPN,True,False
propose,propose,propose,propose,VERB,True,False
a,a,a,a,DET,True,True
broad,broad,broad,broad,ADJ,True,False
recognition,recognition,recognition,recognition,NOUN,True,False
of,of,of,of,ADP,True,True
the,the,the,the,DET,True,True
opportunity,opportunity,opportunity,opportunity,NOUN,True,False
to,to,to,to,PART,True,True
reduce,reduce,reduce,reduce,VERB,True,False
restriction,restriction,restriction,restriction,NOUN,True,False
on,on,on,on,ADP,True,True
all,all,all,all,DET,True,True
subsidiary,subsidiary,subsidiary,subsidiary,NOUN,True,False
station,station,station,station,NOUN,True,False
",",",",",",",",PUNCT,False,False
fix,fix,fix,fix,VERB,True,False
as,as,as,as,ADV,True,True
well,well,well,well,ADV,True,True
as,as,as,as,SCONJ,True,True
mobile,mobile,mobile,mobile,ADJ,True,False
.,.,.,.,PUNCT,False,False
we,we,-PRON-,-pron-,PRON,True,True
return,return,return,return,VERB,True,False
to,to,to,to,ADP,True,True
this,this,this,this,DET,True,True
concept,concept,concept,concept,NOUN,True,False
below,below,below,below,ADV,True,True
.,.,.,.,PUNCT,False,False
in,in,in,in,ADP,True,True
the,the,the,the,DET,True,True
case,case,case,case,NOUN,True,False
of,of,of,of,ADP,True,True
the,the,the,the,DET,True,True
3650,3650,3650,3650,NUM,False,False
-,-,-,-,SYM,False,False
3700,3700,3700,3700,NUM,False,False
mhz,mhz,mhz,mhz,PROPN,True,False
band,band,band,band,NOUN,True,False
",",",",",",",",PUNCT,False,False
we,we,-PRON-,-pron-,PRON,True,True
urge,urge,urge,urge,VERB,True,False
the,the,the,the,DET,True,True
commission,commission,commission,commission,NOUN,True,False
to,to,to,to,PART,True,True
remove,remove,remove,remove,VERB,True,False
the,the,the,the,DET,True,True
requirement,requirement,requirement,requirement,NOUN,True,False
for,for,for,for,ADP,True,True
uls,uls,ul,ul,NOUN,True,False
for,for,for,for,ADP,True,True
all,all,all,all,DET,True,True
subsidiary,subsidiary,subsidiary,subsidiary,NOUN,True,False
station,station,station,station,NOUN,True,False
",",",",",",",",PUNCT,False,False
fix,fix,fix,fix,VERB,True,False
as,as,as,as,ADV,True,True
well,well,well,well,ADV,True,True
as,as,as,as,SCONJ,True,True
mobile,mobile,mobile,mobile,ADJ,True,False
.,.,.,.,PUNCT,False,False
small,small,small,small,ADJ,True,False
cell,cell,cell,cell,NOUN,True,False
deployment,deployment,deployment,deployment,NOUN,True,False
demand,demand,demand,demand,NOUN,True,False
wireless,wireless,wireless,wireless,PROPN,True,False
backhaulthe,backhaulthe,backhaulthe,backhaulthe,DET,True,False
wimax,wimax,wimax,wimax,PROPN,True,False
forum,forum,forum,forum,NOUN,True,False
endorse,endorse,endorse,endorse,VERB,True,False
the,the,the,the,DET,True,True
view,view,view,view,NOUN,True,False
of,of,of,of,ADP,True,True
the,the,the,the,DET,True,True
nprm,nprm,nprm,nprm,NOUN,True,False
",",",",",",",",PUNCT,False,False
and,and,and,and,CCONJ,True,True
of,of,of,of,ADP,True,True
its,its,-PRON-,-pron-,DET,True,True
cited,cited,cited,cited,ADJ,True,False
pcastreport,pcastreport,pcastreport,pcastreport,NOUN,True,False
",",",",",",",",PUNCT,False,False
that,that,that,that,DET,True,True
increase,increase,increase,increase,VERB,True,False
use,use,use,use,NOUN,True,False
of,of,of,of,ADP,True,True
small,small,small,small,ADJ,True,False
cell,cell,cell,cell,NOUN,True,False
network,network,network,network,NOUN,True,False
deployment,deployment,deployment,deployment,NOUN,True,False
will,will,will,will,VERB,True,True
enhance,enhance,enhance,enhance,VERB,True,False
capacity,capacity,capacity,capacity,NOUN,True,False
within,within,within,within,ADP,True,True
exist,exist,exist,exist,ADJ,True,False
spectrum,spectrum,spectrum,spectrum,NOUN,True,False
resource,resource,resource,resource,NOUN,True,False
by,by,by,by,ADP,True,True
take,take,take,take,VERB,True,True
advantage,advantage,advantage,advantage,NOUN,True,False
of,of,of,of,ADP,True,True
spatial,spatial,spatial,spatial,ADJ,True,False
reuse,reuse,reuse,reuse,NOUN,True,False
.,.,.,.,PUNCT,False,False
high,high,high,high,ADJ,True,False
-,-,-,-,PUNCT,False,False
capacity,capacity,capacity,capacity,NOUN,True,False
deployment,deployment,deployment,deployment,NOUN,True,False
demand,demand,demand,demand,NOUN,True,False
high,high,high,high,ADJ,True,False
-,-,-,-,PUNCT,False,False
capacity,capacity,capacity,capacity,NOUN,True,False
backhaul,backhaul,backhaul,backhaul,NOUN,True,False
.,.,.,.,PUNCT,False,False
small,small,small,small,ADJ,True,False
-,-,-,-,PUNCT,False,False
cell,cell,cell,cell,NOUN,True,False
deployment,deployment,deployment,deployment,NOUN,True,False
demand,demand,demand,demand,NOUN,True,False
distribute,distribute,distribute,distribute,VERB,True,False
high,high,high,high,ADJ,True,False
-,-,-,-,PUNCT,False,False
capacity,capacity,capacity,capacity,NOUN,True,False
backhaul,backhaul,backhaul,backhaul,NOUN,True,False
.,.,.,.,PUNCT,False,False
to,to,to,to,PART,True,True
provide,provide,provide,provide,VERB,True,False
efficient,efficient,efficient,efficient,ADJ,True,False
service,service,service,service,NOUN,True,False
",",",",",",",",PUNCT,False,False
small,small,small,small,ADJ,True,False
cell,cell,cell,cell,NOUN,True,False
must,must,must,must,VERB,True,True
be,be,be,be,AUX,True,True
locate,locate,locate,locate,ADJ,True,False
accord,accord,accord,accord,NOUN,True,False
to,to,to,to,ADP,True,True
capacity,capacity,capacity,capacity,NOUN,True,False
demand,demand,demand,demand,NOUN,True,False
",",",",",",",",PUNCT,False,False
not,not,not,not,PART,True,True
only,only,only,only,ADV,True,True
accord,accord,accord,accord,NOUN,True,False
to,to,to,to,ADP,True,True
wireline,wireline,wireline,wireline,VERB,True,False
backhaul,backhaul,backhaul,backhaul,PROPN,True,False
availability,availability,availability,availability,NOUN,True,False
.,.,.,.,PUNCT,False,False
in,in,in,in,ADP,True,True
an,an,an,an,DET,True,True
effective,effective,effective,effective,ADJ,True,False
small,small,small,small,ADJ,True,False
cell,cell,cell,cell,NOUN,True,False
deployment,deployment,deployment,deployment,NOUN,True,False
",",",",",",",",PUNCT,False,False
a,a,a,a,DET,True,True
wireless,wireless,wireless,wireless,ADJ,True,False
backhaulsystem,backhaulsystem,backhaulsystem,backhaulsystem,NOUN,True,False
",",",",",",",",PUNCT,False,False
in,in,in,in,ADP,True,True
which,which,which,which,DET,True,True
the,the,the,the,DET,True,True
small,small,small,small,ADJ,True,False
cell,cell,cell,cell,NOUN,True,False
backhaul,backhaul,backhaul,backhaul,NOUN,True,False
connectivity,connectivity,connectivity,connectivity,NOUN,True,False
be,be,be,be,AUX,True,True
wireless,wireless,wireless,wireless,ADJ,True,False
",",",",",",",",PUNCT,False,False
will,will,will,will,VERB,True,True
allow,allow,allow,allow,VERB,True,False
cell,cell,cell,cell,NOUN,True,False
to,to,to,to,PART,True,True
be,be,be,be,AUX,True,True
site,site,site,site,NOUN,True,False
without,without,without,without,ADP,True,True
regard,regard,regard,regard,NOUN,True,False
to,to,to,to,ADP,True,True
wired,wired,wired,wired,ADJ,True,False
connectivity,connectivity,connectivity,connectivity,NOUN,True,False
.,.,.,.,PUNCT,False,False
since,since,since,since,SCONJ,True,True
fixednomadic,fixednomadic,fixednomadic,fixednomadic,ADJ,True,False
wireless,wireless,wireless,wireless,NOUN,True,False
technology,technology,technology,technology,NOUN,True,False
be,be,be,be,AUX,True,True
well,well,well,well,ADV,True,True
suited,suited,suited,suited,ADJ,True,False
to,to,to,to,PART,True,True
provide,provide,provide,provide,VERB,True,False
distribute,distribute,distribute,distribute,NOUN,True,False
backhaul,backhaul,backhaul,backhaul,NOUN,True,False
",",",",",",",",PUNCT,False,False
and,and,and,and,CCONJ,True,True
since,since,since,since,SCONJ,True,True
mobile,mobile,mobile,mobile,NOUN,True,False
spectrum,spectrum,spectrum,spectrum,PROPN,True,False
be,be,be,be,AUX,True,True
well,well,well,well,ADV,True,True
use,use,use,use,NOUN,True,False
for,for,for,for,ADP,True,True
access,access,access,access,NOUN,True,False
rather,rather,rather,rather,ADV,True,True
than,than,than,than,SCONJ,True,True
for,for,for,for,ADP,True,True
backhaul,backhaul,backhaul,backhaul,NOUN,True,False
",",",",",",",",PUNCT,False,False
we,we,-PRON-,-pron-,PRON,True,True
urge,urge,urge,urge,VERB,True,False
the,the,the,the,DET,True,True
commission,commission,commission,commission,NOUN,True,False
to,to,to,to,PART,True,True
consider,consider,consider,consider,VERB,True,False
fixednomadic,fixednomadic,fixednomadic,fixednomadic,ADJ,True,False
backhaul,backhaul,backhaul,backhaul,NOUN,True,False
spectrum,spectrum,spectrum,spectrum,NOUN,True,False
as,as,as,as,SCONJ,True,True
a,a,a,a,DET,True,True
critical,critical,critical,critical,ADJ,True,False
element,element,element,element,NOUN,True,False
of,of,of,of,ADP,True,True
the,the,the,the,DET,True,True
small,small,small,small,ADJ,True,False
-,-,-,-,PUNCT,False,False
cell,cell,cell,cell,NOUN,True,False
deployment,deployment,deployment,deployment,NOUN,True,False
scenario,scenario,scenario,scenario,NOUN,True,False
.,.,.,.,PUNCT,False,False
the,the,the,the,DET,True,True
wimax,wimax,wimax,wimax,PROPN,True,False
forum,forum,forum,forum,PROPN,True,False
support,support,support,support,VERB,True,False
the,the,the,the,DET,True,True
use,use,use,use,NOUN,True,False
of,of,of,of,ADP,True,True
a,a,a,a,DET,True,True
spectrum,spectrum,spectrum,spectrum,NOUN,True,False
access,access,access,access,NOUN,True,False
system,system,system,system,NOUN,True,False
sas,sas,sas,sas,PROPN,True,False
with,with,with,with,ADP,True,True
provision,provision,provision,provision,NOUN,True,False
for,for,for,for,ADP,True,True
subsidiary,subsidiary,subsidiary,subsidiary,NOUN,True,False
stationsthe,stationsthe,stationsthe,stationsthe,PROPN,True,False
wimax,wimax,wimax,wimax,PROPN,True,False
forum,forum,forum,forum,PROPN,True,False
support,support,support,support,VERB,True,False
the,the,the,the,DET,True,True
nprms,nprms,nprm,nprm,NOUN,True,False
proposal,proposal,proposal,proposal,NOUN,True,False
to,to,to,to,PART,True,True
enable,enable,enable,enable,VERB,True,False
sharing,sharing,share,share,VERB,True,False
base,base,base,base,NOUN,True,False
on,on,on,on,ADP,True,True
a,a,a,a,DET,True,True
spectrum,spectrum,spectrum,spectrum,NOUN,True,False
access,access,access,access,NOUN,True,False
system,system,system,system,NOUN,True,False
sas,sas,sas,sas,PROPN,True,False
incorporate,incorporate,incorporate,incorporate,VERB,True,False
a,a,a,a,DET,True,True
dynamic,dynamic,dynamic,dynamic,ADJ,True,False
geolocation,geolocation,geolocation,geolocation,NOUN,True,False
database,database,database,database,NOUN,True,False
.,.,.,.,PUNCT,False,False
many,many,many,many,ADJ,True,True
radio,radio,radio,radio,NOUN,True,False
system,system,system,system,NOUN,True,False
such,such,such,such,ADJ,True,True
as,as,as,as,SCONJ,True,True
wimax,wimax,wimax,wimax,PROPN,True,False
and,and,and,and,CCONJ,True,True
lte,lte,lte,lte,PROPN,True,False
system,system,system,system,NOUN,True,False
will,will,will,will,VERB,True,True
operate,operate,operate,operate,VERB,True,False
as,as,as,as,SCONJ,True,True
base,base,base,base,NOUN,True,False
station,station,station,station,NOUN,True,False
communicate,communicate,communicate,communicate,VERB,True,False
with,with,with,with,ADP,True,True
subsidiary,subsidiary,subsidiary,subsidiary,NOUN,True,False
station,station,station,station,NOUN,True,False
that,that,that,that,SCONJ,True,True
as,as,as,as,SCONJ,True,True
define,define,define,define,NOUN,True,False
in,in,in,in,ADP,True,True
paragraph,paragraph,paragraph,paragraph,NOUN,True,False
18,18,18,18,NUM,False,False
above,above,above,above,ADP,True,True
operate,operate,operate,operate,VERB,True,False
under,under,under,under,ADP,True,True
control,control,control,control,NOUN,True,False
of,of,of,of,ADP,True,True
an,an,an,an,DET,True,True
enable,enable,enable,enable,ADJ,True,False
signal,signal,signal,signal,NOUN,True,False
transmit,transmit,transmit,transmit,NOUN,True,False
by,by,by,by,ADP,True,True
a,a,a,a,DET,True,True
base,base,base,base,NOUN,True,False
station,station,station,station,NOUN,True,False
.,.,.,.,PUNCT,False,False
the,the,the,the,DET,True,True
wimax,wimax,wimax,wimax,PROPN,True,False
forum,forum,forum,forum,PROPN,True,False
urge,urge,urge,urge,VERB,True,False
the,the,the,the,DET,True,True
commission,commission,commission,commission,NOUN,True,False
to,to,to,to,PART,True,True
specify,specify,specify,specify,VERB,True,False
that,that,that,that,SCONJ,True,True
subsidiary,subsidiary,subsidiary,subsidiary,NOUN,True,False
station,station,station,station,NOUN,True,False
need,need,nee,nee,VERB,True,False
not,not,not,not,PART,True,True
communicate,communicate,communicate,communicate,VERB,True,False
directly,directly,directly,directly,ADV,True,False
with,with,with,with,ADP,True,True
the,the,the,the,DET,True,True
sas,sas,sas,sas,PROPN,True,False
but,but,but,but,CCONJ,True,True
can,can,can,can,VERB,True,True
instead,instead,instead,instead,ADV,True,False
operate,operate,operate,operate,VERB,True,False
under,under,under,under,ADP,True,True
the,the,the,the,DET,True,True
control,control,control,control,NOUN,True,False
of,of,of,of,ADP,True,True
a,a,a,a,DET,True,True
base,base,base,base,NOUN,True,False
station,station,station,station,NOUN,True,False
that,that,that,that,DET,True,True
communicate,communicate,communicate,communicate,VERB,True,False
with,with,with,with,ADP,True,True
the,the,the,the,DET,True,True
sas,sas,sas,sas,PROPN,True,False
directly,directly,directly,directly,ADV,True,False
or,or,or,or,CCONJ,True,True
indirectly,indirectly,indirectly,indirectly,ADV,True,False
.,.,.,.,PUNCT,False,False
thus,thus,thus,thus,ADV,True,True
",",",",",",",",PUNCT,False,False
for,for,for,for,ADP,True,True
example,example,example,example,NOUN,True,False
",",",",",",",",PUNCT,False,False
and,and,and,and,CCONJ,True,True
lte,lte,lte,lte,PROPN,True,False
handset,handset,handset,handset,PROPN,True,False
may,may,may,may,VERB,True,True
operate,operate,operate,operate,VERB,True,False
under,under,under,under,ADP,True,True
the,the,the,the,DET,True,True
control,control,control,control,NOUN,True,False
of,of,of,of,ADP,True,True
an,an,an,an,DET,True,True
lte,lte,lte,lte,ADJ,True,False
small,small,small,small,ADJ,True,False
cell,cell,cell,cell,NOUN,True,False
base,base,base,base,NOUN,True,False
station,station,station,station,NOUN,True,False
.,.,.,.,PUNCT,False,False
if,if,if,if,SCONJ,True,True
the,the,the,the,DET,True,True
small,small,small,small,ADJ,True,False
cell,cell,cell,cell,NOUN,True,False
base,base,base,base,NOUN,True,False
station,station,station,station,NOUN,True,False
control,control,control,control,VERB,True,False
the,the,the,the,DET,True,True
transmission,transmission,transmission,transmission,NOUN,True,False
of,of,of,of,ADP,True,True
the,the,the,the,DET,True,True
handset,handset,handset,handset,NOUN,True,False
and,and,and,and,CCONJ,True,True
be,be,be,be,AUX,True,True
configure,configure,configure,configure,NOUN,True,False
so,so,so,so,SCONJ,True,True
as,as,as,as,SCONJ,True,True
to,to,to,to,PART,True,True
be,be,be,be,AUX,True,True
control,control,control,control,NOUN,True,False
directly,directly,directly,directly,ADV,True,False
or,or,or,or,CCONJ,True,True
indirectly,indirectly,indirectly,indirectly,ADV,True,False
by,by,by,by,ADP,True,True
the,the,the,the,DET,True,True
sas,sas,sas,sas,PROPN,True,False
",",",",",",",",PUNCT,False,False
then,then,then,then,ADV,True,True
the,the,the,the,DET,True,True
handset,handset,handset,handset,NOUN,True,False
should,should,should,should,VERB,True,True
not,not,not,not,PART,True,True
be,be,be,be,AUX,True,True
require,require,require,require,ADJ,True,False
to,to,to,to,PART,True,True
directly,directly,directly,directly,ADV,True,False
access,access,access,access,VERB,True,False
or,or,or,or,CCONJ,True,True
respond,respond,respond,respond,VERB,True,False
to,to,to,to,ADP,True,True
the,the,the,the,DET,True,True
sas,sas,sas,sas,PROPN,True,False
.,.,.,.,PUNCT,False,False
such,such,such,such,ADJ,True,True
indirect,indirect,indirect,indirect,ADJ,True,False
control,control,control,control,NOUN,True,False
could,could,could,could,VERB,True,True
be,be,be,be,AUX,True,True
provide,provide,provide,provide,VERB,True,False
over,over,over,over,ADP,True,True
the,the,the,the,DET,True,True
wired,wired,wired,wired,ADJ,True,False
or,or,or,or,CCONJ,True,True
wireless,wireless,wireless,wireless,ADJ,True,False
link,link,link,link,NOUN,True,False
provide,provide,provide,provide,VERB,True,False
backhaul,backhaul,backhaul,backhaul,PROPN,True,False
to,to,to,to,ADP,True,True
the,the,the,the,DET,True,True
small,small,small,small,ADJ,True,False
cell,cell,cell,cell,NOUN,True,False
base,base,base,base,NOUN,True,False
station,station,station,station,NOUN,True,False
.,.,.,.,PUNCT,False,False
the,the,the,the,DET,True,True
wimax,wimax,wimax,wimax,PROPN,True,False
forum,forum,forum,forum,PROPN,True,False
do,do,do,do,AUX,True,True
not,not,not,not,PART,True,True
object,object,object,object,VERB,True,False
to,to,to,to,ADP,True,True
mitigation,mitigation,mitigation,mitigation,NOUN,True,False
technique,technique,technique,technique,NOUN,True,False
such,such,such,such,ADJ,True,True
as,as,as,as,SCONJ,True,True
beaconing,beaconing,beacon,beacon,VERB,True,False
",",",",",",",",PUNCT,False,False
but,but,but,but,CCONJ,True,True
it,it,-PRON-,-pron-,PRON,True,True
have,have,have,have,AUX,True,True
serious,serious,serious,serious,ADJ,True,True
concern,concern,concern,concern,NOUN,True,False
regard,regard,regard,regard,NOUN,True,False
a,a,a,a,DET,True,True
mandate,mandate,mandate,mandate,NOUN,True,False
of,of,of,of,ADP,True,True
individual,individual,individual,individual,ADJ,True,False
device,device,device,device,NOUN,True,False
to,to,to,to,PART,True,True
sense,sense,sense,sense,VERB,True,False
and,and,and,and,CCONJ,True,True
respond,respond,respond,respond,VERB,True,False
to,to,to,to,ADP,True,True
beacon,beacon,beacon,beacon,NOUN,True,False
.,.,.,.,PUNCT,False,False
give,give,give,give,VERB,True,True
that,that,that,that,DET,True,True
device,device,device,device,NOUN,True,False
will,will,will,will,VERB,True,True
be,be,be,be,AUX,True,True
responsive,responsive,responsive,responsive,ADJ,True,False
to,to,to,to,ADP,True,True
a,a,a,a,DET,True,True
sas,sas,sas,sas,PROPN,True,False
",",",",",",",",PUNCT,False,False
we,we,-PRON-,-pron-,PRON,True,True
believe,believe,believe,believe,VERB,True,False
it,it,-PRON-,-pron-,PRON,True,True
would,would,would,would,VERB,True,True
be,be,be,be,AUX,True,True
incumbent,incumbent,incumbent,incumbent,ADJ,True,False
for,for,for,for,ADP,True,True
the,the,the,the,DET,True,True
generator,generator,generator,generator,NOUN,True,False
of,of,of,of,ADP,True,True
the,the,the,the,DET,True,True
protective,protective,protective,protective,ADJ,True,False
beacon,beacon,beacon,beacon,NOUN,True,False
to,to,to,to,PART,True,True
provide,provide,provide,provide,VERB,True,False
sensor,sensor,sensor,sensor,NOUN,True,False
technology,technology,technology,technology,NOUN,True,False
to,to,to,to,PART,True,True
sense,sense,sense,sense,VERB,True,False
the,the,the,the,DET,True,True
beacon,beacon,beacon,beacon,NOUN,True,False
and,and,and,and,CCONJ,True,True
insert,insert,insert,insert,VERB,True,False
information,information,information,information,NOUN,True,False
into,into,into,into,ADP,True,True
the,the,the,the,DET,True,True
sas,sas,sas,sas,PROPN,True,False
database,database,database,database,PROPN,True,False
accordingly,accordingly,accordingly,accordingly,ADV,True,False
.,.,.,.,PUNCT,False,False
this,this,this,this,DET,True,True
would,would,would,would,VERB,True,True
allow,allow,allow,allow,VERB,True,False
the,the,the,the,DET,True,True
individual,individual,individual,individual,ADJ,True,False
device,device,device,device,NOUN,True,False
to,to,to,to,PART,True,True
refer,refer,refer,refer,VERB,True,False
to,to,to,to,ADP,True,True
the,the,the,the,DET,True,True
sas,sas,sas,sas,PROPN,True,False
database,database,database,database,NOUN,True,False
alone,alone,alone,alone,ADV,True,True
for,for,for,for,ADP,True,True
information,information,information,information,NOUN,True,False
about,about,about,about,ADP,True,True
current,current,current,current,ADJ,True,False
usage,usage,usage,usage,NOUN,True,False
among,among,among,among,ADP,True,True
the,the,the,the,DET,True,True
incumbent,incumbent,incumbent,incumbent,NOUN,True,False
and,and,and,and,CCONJ,True,True
priority,priority,priority,priority,NOUN,True,False
accessusers,accessusers,accessuser,accessuser,NOUN,True,False
",",",",",",",",PUNCT,False,False
without,without,without,without,ADP,True,True
be,be,be,be,AUX,True,True
force,force,force,force,NOUN,True,False
to,to,to,to,PART,True,True
bear,bear,bear,bear,VERB,True,False
the,the,the,the,DET,True,True
capital,capital,capital,capital,NOUN,True,False
expense,expense,expense,expense,NOUN,True,False
and,and,and,and,CCONJ,True,True
electrical,electrical,electrical,electrical,ADJ,True,False
-,-,-,-,PUNCT,False,False
power,power,power,power,NOUN,True,False
burden,burden,burden,burden,NOUN,True,False
of,of,of,of,ADP,True,True
operate,operate,operate,operate,VERB,True,False
a,a,a,a,DET,True,True
sharing,sharing,sharing,sharing,NOUN,True,False
receiver,receiver,receiver,receiver,NOUN,True,False
.,.,.,.,PUNCT,False,False
the,the,the,the,DET,True,True
wimax,wimax,wimax,wimax,PROPN,True,False
forum,forum,forum,forum,PROPN,True,False
generally,generally,generally,generally,ADV,True,False
support,support,support,support,VERB,True,False
the,the,the,the,DET,True,True
supplemental,supplemental,supplemental,supplemental,ADJ,True,False
proposal,proposal,proposal,proposal,NOUN,True,False
to,to,to,to,PART,True,True
incorporate,incorporate,incorporate,incorporate,VERB,True,False
the,the,the,the,DET,True,True
3650,3650,3650,3650,NUM,False,False
-,-,-,-,SYM,False,False
3700,3700,3700,3700,NUM,False,False
mhz,mhz,mhz,mhz,PROPN,True,False
band,band,band,band,NOUN,True,False
into,into,into,into,ADP,True,True
the,the,the,the,DET,True,True
propose,propose,propose,propose,NOUN,True,False
regulatory,regulatory,regulatory,regulatory,ADJ,True,False
regimethe,regimethe,regimethe,regimethe,ADJ,True,False
nprms,nprms,nprm,nprm,NOUN,True,False
offer,offer,offer,offer,VERB,True,False
a,a,a,a,DET,True,True
supplemental,supplemental,supplemental,supplemental,ADJ,True,False
proposal,proposal,proposal,proposal,NOUN,True,False
to,to,to,to,PART,True,True
include,include,include,include,VERB,True,False
the,the,the,the,DET,True,True
3650,3650,3650,3650,NUM,False,False
-,-,-,-,SYM,False,False
3700,3700,3700,3700,NUM,False,False
mhz,mhz,mhz,mhz,PROPN,True,False
band,band,band,band,NOUN,True,False
77,77,77,77,NUM,False,False
-,-,-,-,PUNCT,False,False
82.generally,82.generally,82.generally,82.generally,NUM,False,False
speaking,speaking,speaking,speaking,NOUN,True,False
",",",",",",",",PUNCT,False,False
the,the,the,the,DET,True,True
wimax,wimax,wimax,wimax,PROPN,True,False
forum,forum,forum,forum,PROPN,True,False
support,support,support,support,VERB,True,False
the,the,the,the,DET,True,True
nprms,nprms,nprm,nprm,NOUN,True,False
supplemental,supplemental,supplemental,supplemental,ADJ,True,False
proposal,proposal,proposal,proposal,NOUN,True,False
for,for,for,for,ADP,True,True
the,the,the,the,DET,True,True
3650,3650,3650,3650,NUM,False,False
-,-,-,-,SYM,False,False
3700,3700,3700,3700,NUM,False,False
mhz,mhz,mhz,mhz,PROPN,True,False
band,band,band,band,NOUN,True,False
.,.,.,.,PUNCT,False,False
the,the,the,the,DET,True,True
exist,exist,exist,exist,VERB,True,False
non,non,non,non,ADJ,True,False
-,-,-,-,ADJ,False,False
exclusive,exclusive,exclusive,exclusive,ADJ,True,False
",",",",",",",",PUNCT,False,False
nationwide,nationwide,nationwide,nationwide,ADJ,True,False
licensing,licensing,licensing,licensing,NOUN,True,False
system,system,system,system,NOUN,True,False
have,have,have,have,AUX,True,True
be,be,be,be,VERB,True,True
reasonably,reasonably,reasonably,reasonably,ADV,True,False
effective,effective,effective,effective,ADJ,True,False
",",",",",",",",PUNCT,False,False
although,although,although,although,SCONJ,True,True
we,we,-PRON-,-pron-,PRON,True,True
have,have,have,have,AUX,True,True
concern,concern,concern,concern,NOUN,True,False
state,state,state,state,NOUN,True,False
above,above,above,above,ADP,True,True
regard,regard,regard,regard,VERB,True,False
the,the,the,the,DET,True,True
need,need,need,need,NOUN,True,False
for,for,for,for,ADP,True,True
more,more,more,more,ADJ,True,True
flexibility,flexibility,flexibility,flexibility,NOUN,True,False
in,in,in,in,ADP,True,True
the,the,the,the,DET,True,True
regulation,regulation,regulation,regulation,NOUN,True,False
.,.,.,.,PUNCT,False,False
the,the,the,the,DET,True,True
spectrum,spectrum,spectrum,spectrum,PROPN,True,False
access,access,access,access,PROPN,True,False
system,system,system,system,NOUN,True,False
sas,sas,sas,sas,PROPN,True,False
propose,propose,propose,propose,VERB,True,False
in,in,in,in,ADP,True,True
the,the,the,the,DET,True,True
nprm,nprm,nprm,nprm,NOUN,True,False
could,could,could,could,VERB,True,True
provide,provide,provide,provide,VERB,True,False
a,a,a,a,DET,True,True
more,more,more,more,ADV,True,True
definitive,definitive,definitive,definitive,ADJ,True,False
and,and,and,and,CCONJ,True,True
effective,effective,effective,effective,ADJ,True,False
solution,solution,solution,solution,NOUN,True,False
to,to,to,to,ADP,True,True
the,the,the,the,DET,True,True
problem,problem,problem,problem,NOUN,True,False
address,address,address,address,NOUN,True,False
by,by,by,by,ADP,True,True
the,the,the,the,DET,True,True
contention,contention,contention,contention,NOUN,True,False
-,-,-,-,PUNCT,False,False
base,base,base,base,NOUN,True,False
protocol,protocol,protocol,protocol,NOUN,True,False
requirement,requirement,requirement,requirement,NOUN,True,False
",",",",",",",",PUNCT,False,False
while,while,while,while,SCONJ,True,True
also,also,also,also,ADV,True,True
allow,allow,allow,allow,VERB,True,False
geographically,geographically,geographically,geographically,ADV,True,False
broad,broad,broad,broad,ADJ,True,False
deployment,deployment,deployment,deployment,NOUN,True,False
consistent,consistent,consistent,consistent,ADJ,True,False
with,with,with,with,ADP,True,True
appropriate,appropriate,appropriate,appropriate,ADJ,True,False
protection,protection,protection,protection,NOUN,True,False
.,.,.,.,PUNCT,False,False
the,the,the,the,DET,True,True
propose,propose,propose,propose,NOUN,True,False
license,license,license,license,NOUN,True,False
by,by,by,by,ADP,True,True
rule,rule,rule,rule,NOUN,True,False
framework,framework,framework,framework,NOUN,True,False
63,63,63,63,NUM,False,False
would,would,would,would,VERB,True,True
streamline,streamline,streamline,streamline,VERB,True,False
deployment,deployment,deployment,deployment,NOUN,True,False
as,as,as,as,SCONJ,True,True
compare,compare,compare,compare,VERB,True,False
to,to,to,to,ADP,True,True
the,the,the,the,DET,True,True
light,light,light,light,ADJ,True,False
license,license,license,license,NOUN,True,False
scenario,scenario,scenario,scenario,NOUN,True,False
of,of,of,of,ADP,True,True
the,the,the,the,DET,True,True
current,current,current,current,ADJ,True,False
3650,3650,3650,3650,NUM,False,False
-,-,-,-,SYM,False,False
3700,3700,3700,3700,NUM,False,False
mhz,mhz,mhz,mhz,PROPN,True,False
band,band,band,band,NOUN,True,False
",",",",",",",",PUNCT,False,False
particularly,particularly,particularly,particularly,ADV,True,False
with,with,with,with,ADP,True,True
its,its,-PRON-,-pron-,DET,True,True
onerous,onerous,onerous,onerous,ADJ,True,False
requirement,requirement,requirement,requirement,NOUN,True,False
to,to,to,to,PART,True,True
register,register,register,register,VERB,True,False
each,each,each,each,DET,True,True
fix,fix,fix,fix,NOUN,True,False
device,device,device,device,NOUN,True,False
.,.,.,.,PUNCT,False,False
we,we,-PRON-,-pron-,PRON,True,True
believe,believe,believe,believe,VERB,True,False
that,that,that,that,SCONJ,True,True
the,the,the,the,DET,True,True
150,150,150,150,NUM,False,False
mhz,mhz,mhz,mhz,VERB,True,False
contiguous,contiguous,contiguous,contiguous,ADJ,True,False
block,block,block,block,NOUN,True,False
would,would,would,would,VERB,True,True
be,be,be,be,AUX,True,True
in,in,in,in,ADP,True,True
the,the,the,the,DET,True,True
public,public,public,public,ADJ,True,False
interest,interest,interest,interest,NOUN,True,False
.,.,.,.,PUNCT,False,False
we,we,-PRON-,-pron-,PRON,True,True
support,support,support,support,VERB,True,False
the,the,the,the,DET,True,True
view,view,view,view,NOUN,True,False
80,80,80,80,NUM,False,False
that,that,that,that,SCONJ,True,True
the,the,the,the,DET,True,True
utility,utility,utility,utility,NOUN,True,False
of,of,of,of,ADP,True,True
the,the,the,the,DET,True,True
band,band,band,band,NOUN,True,False
could,could,could,could,VERB,True,True
increase,increase,increase,increase,VERB,True,False
",",",",",",",",PUNCT,False,False
attract,attract,attract,attract,VERB,True,False
new,new,new,new,ADJ,True,False
operator,operator,operator,operator,NOUN,True,False
and,and,and,and,CCONJ,True,True
encourage,encourage,encourage,encourage,VERB,True,False
the,the,the,the,DET,True,True
development,development,development,development,NOUN,True,False
of,of,of,of,ADP,True,True
a,a,a,a,DET,True,True
large,large,large,large,ADJ,True,False
equipment,equipment,equipment,equipment,NOUN,True,False
market,market,market,market,NOUN,True,False
and,and,and,and,CCONJ,True,True
that,that,that,that,SCONJ,True,True
economy,economy,economy,economy,NOUN,True,False
of,of,of,of,ADP,True,True
scale,scale,scale,scale,NOUN,True,False
could,could,could,could,VERB,True,True
drive,drive,drive,drive,VERB,True,False
down,down,down,down,ADP,True,True
the,the,the,the,DET,True,True
price,price,price,price,NOUN,True,False
of,of,of,of,ADP,True,True
equipment,equipment,equipment,equipment,NOUN,True,False
for,for,for,for,ADP,True,True
current,current,current,current,ADJ,True,False
3650,3650,3650,3650,NUM,False,False
-,-,-,-,SYM,False,False
3700,3700,3700,3700,NUM,False,False
mhz,mhz,mhz,mhz,PROPN,True,False
licensee,licensee,licensee,licensee,NOUN,True,False
and,and,and,and,CCONJ,True,True
future,future,future,future,ADJ,True,False
citizens,citizens,citizen,citizen,NOUN,True,False
broadband,broadband,broadband,broadband,NOUN,True,False
licensee,licensee,licensee,licensee,NOUN,True,False
",",",",",",",",PUNCT,False,False
make,make,make,make,VERB,True,True
it,it,-PRON-,-pron-,PRON,True,True
more,more,more,more,ADV,True,True
affordable,affordable,affordable,affordable,ADJ,True,False
for,for,for,for,ADP,True,True
new,new,new,new,ADJ,True,False
and,and,and,and,CCONJ,True,True
exist,exist,exist,exist,VERB,True,False
operator,operator,operator,operator,NOUN,True,False
to,to,to,to,PART,True,True
expand,expand,expand,expand,VERB,True,False
their,their,-PRON-,-pron-,DET,True,True
service,service,service,service,NOUN,True,False
offering,offering,offering,offering,NOUN,True,False
.,.,.,.,PUNCT,False,False
incorporation,incorporation,incorporation,incorporation,NOUN,True,False
of,of,of,of,ADP,True,True
the,the,the,the,DET,True,True
3650,3650,3650,3650,NUM,False,False
-,-,-,-,SYM,False,False
3700,3700,3700,3700,NUM,False,False
mhz,mhz,mhz,mhz,PROPN,True,False
band,band,band,band,NOUN,True,False
into,into,into,into,ADP,True,True
the,the,the,the,DET,True,True
propose,propose,propose,propose,NOUN,True,False
regulatory,regulatory,regulatory,regulatory,ADJ,True,False
regimeas,regimeas,regimea,regimea,NOUN,True,False
note,note,note,note,VERB,True,False
previously,previously,previously,previously,ADV,True,False
",",",",",",",",PUNCT,False,False
the,the,the,the,DET,True,True
wimax,wimax,wimax,wimax,PROPN,True,False
forum,forum,forum,forum,PROPN,True,False
generally,generally,generally,generally,ADV,True,False
support,support,support,support,VERB,True,False
the,the,the,the,DET,True,True
nprms,nprms,nprm,nprm,NOUN,True,False
supplemental,supplemental,supplemental,supplemental,ADJ,True,False
proposal,proposal,proposal,proposal,NOUN,True,False
to,to,to,to,PART,True,True
include,include,include,include,VERB,True,False
the,the,the,the,DET,True,True
3650,3650,3650,3650,NUM,False,False
-,-,-,-,SYM,False,False
3700,3700,3700,3700,NUM,False,False
mhz,mhz,mhz,mhz,PROPN,True,False
band,band,band,band,NOUN,True,False
77,77,77,77,NUM,False,False
-,-,-,-,PUNCT,False,False
82.the,82.the,82.the,82.the,PROPN,False,False
wimax,wimax,wimax,wimax,PROPN,True,False
forum,forum,forum,forum,NOUN,True,False
agree,agree,agree,agree,VERB,True,False
with,with,with,with,ADP,True,True
the,the,the,the,DET,True,True
observation,observation,observation,observation,NOUN,True,False
81,81,81,81,NUM,False,False
that,that,that,that,SCONJ,True,True
such,such,such,such,DET,True,True
a,a,a,a,DET,True,True
transition,transition,transition,transition,NOUN,True,False
wouldlikely,wouldlikely,wouldlikely,wouldlikely,ADV,True,False
entail,entail,entail,entail,NOUN,True,False
equipment,equipment,equipment,equipment,NOUN,True,False
upgrade,upgrade,upgrade,upgrade,NOUN,True,False
and,and,and,and,CCONJ,True,True
technology,technology,technology,technology,NOUN,True,False
conversion,conversion,conversion,conversion,NOUN,True,False
and,and,and,and,CCONJ,True,True
urge,urge,urge,urge,VERB,True,False
the,the,the,the,DET,True,True
commission,commission,commission,commission,NOUN,True,False
to,to,to,to,PART,True,True
take,take,take,take,VERB,True,True
these,these,these,these,DET,True,True
into,into,into,into,ADP,True,True
consideration,consideration,consideration,consideration,NOUN,True,False
.,.,.,.,PUNCT,False,False
we,we,-PRON-,-pron-,PRON,True,True
recommend,recommend,recommend,recommend,VERB,True,False
a,a,a,a,DET,True,True
three,three,three,three,NUM,True,True
-,-,-,-,PUNCT,False,False
year,year,year,year,NOUN,True,False
transition,transition,transition,transition,NOUN,True,False
period,period,period,period,NOUN,True,False
.,.,.,.,PUNCT,False,False
the,the,the,the,DET,True,True
current,current,current,current,ADJ,True,False
out,out,out,out,ADV,True,True
-,-,-,-,PUNCT,False,False
of,of,of,of,ADP,True,True
-,-,-,-,PUNCT,False,False
band,band,band,band,NOUN,True,False
emission,emission,emission,emission,NOUN,True,False
limit,limit,limit,limit,NOUN,True,False
in,in,in,in,ADP,True,True
the,the,the,the,DET,True,True
3650,3650,3650,3650,NUM,False,False
-,-,-,-,SYM,False,False
3700,3700,3700,3700,NUM,False,False
mhz,mhz,mhz,mhz,PROPN,True,False
band,band,band,band,PROPN,True,False
4310log,4310log,4310log,4310log,PROPN,False,False
p,p,p,p,PROPN,True,False
db,db,db,db,PROPN,True,False
at,at,at,at,ADP,True,True
the,the,the,the,DET,True,True
edge,edge,edge,edge,NOUN,True,False
of,of,of,of,ADP,True,True
the,the,the,the,DET,True,True
authorize,authorize,authorize,authorize,PROPN,True,False
licensed,licensed,license,license,VERB,True,False
block,block,block,block,NOUN,True,False
",",",",",",",",PUNCT,False,False
as,as,as,as,SCONJ,True,True
note,note,note,note,NOUN,True,False
in,in,in,in,ADP,True,True
137,137,137,137,NUM,False,False
be,be,be,be,AUX,True,True
appropriate,appropriate,appropriate,appropriate,ADJ,True,False
for,for,for,for,ADP,True,True
consideration,consideration,consideration,consideration,NOUN,True,False
for,for,for,for,ADP,True,True
the,the,the,the,DET,True,True
3550,3550,3550,3550,NUM,False,False
-,-,-,-,SYM,False,False
3650,3650,3650,3650,NUM,False,False
mhz,mhz,mhz,mhz,PROPN,True,False
cbs,cbs,cbs,cbs,PROPN,True,False
band,band,band,band,PROPN,True,False
.,.,.,.,PUNCT,False,False
as,as,as,as,SCONJ,True,True
note,note,note,note,NOUN,True,False
early,early,early,early,ADV,True,False
",",",",",",",",PUNCT,False,False
fixednomadic,fixednomadic,fixednomadic,fixednomadic,ADJ,True,False
wireless,wireless,wireless,wireless,NOUN,True,False
backhaul,backhaul,backhaul,backhaul,NOUN,True,False
should,should,should,should,VERB,True,True
be,be,be,be,AUX,True,True
consider,consider,consider,consider,VERB,True,False
as,as,as,as,SCONJ,True,True
a,a,a,a,DET,True,True
necessary,necessary,necessary,necessary,ADJ,True,False
element,element,element,element,NOUN,True,False
of,of,of,of,ADP,True,True
a,a,a,a,DET,True,True
small,small,small,small,ADJ,True,False
-,-,-,-,PUNCT,False,False
cell,cell,cell,cell,NOUN,True,False
deployment,deployment,deployment,deployment,NOUN,True,False
scenario,scenario,scenario,scenario,NOUN,True,False
.,.,.,.,PUNCT,False,False
if,if,if,if,SCONJ,True,True
small,small,small,small,ADJ,True,False
-,-,-,-,PUNCT,False,False
cell,cell,cell,cell,NOUN,True,False
deployment,deployment,deployment,deployment,NOUN,True,False
flourish,flourish,flourish,flourish,NOUN,True,False
in,in,in,in,ADP,True,True
the,the,the,the,DET,True,True
3550,3550,3550,3550,NUM,False,False
-,-,-,-,SYM,False,False
3650,3650,3650,3650,NUM,False,False
mhz,mhz,mhz,mhz,PROPN,True,False
band,band,band,band,NOUN,True,False
under,under,under,under,ADP,True,True
the,the,the,the,DET,True,True
propose,propose,propose,propose,NOUN,True,False
rule,rule,rule,rule,NOUN,True,False
",",",",",",",",PUNCT,False,False
then,then,then,then,ADV,True,True
the,the,the,the,DET,True,True
lightly,lightly,lightly,lightly,ADV,True,False
-,-,-,-,PUNCT,False,False
license,license,license,license,NOUN,True,False
3650,3650,3650,3650,NUM,False,False
-,-,-,-,SYM,False,False
3700,3700,3700,3700,NUM,False,False
mhz,mhz,mhz,mhz,PROPN,True,False
band,band,band,band,NOUN,True,False
could,could,could,could,VERB,True,True
become,become,become,become,VERB,True,True
significantly,significantly,significantly,significantly,ADV,True,False
deploy,deploy,deploy,deploy,VERB,True,False
for,for,for,for,ADP,True,True
backhaul,backhaul,backhaul,backhaul,PROPN,True,False
service,service,service,service,NOUN,True,False
of,of,of,of,ADP,True,True
those,those,those,those,DET,True,True
same,same,same,same,ADJ,True,True
small,small,small,small,ADJ,True,False
cell,cell,cell,cell,NOUN,True,False
.,.,.,.,PUNCT,False,False
we,we,-PRON-,-pron-,PRON,True,True
suggest,suggest,suggest,suggest,VERB,True,False
that,that,that,that,SCONJ,True,True
",",",",",",",",PUNCT,False,False
if,if,if,if,SCONJ,True,True
the,the,the,the,DET,True,True
citizens,citizens,citizen,citizen,NOUN,True,False
broadband,broadband,broadband,broadband,NOUN,True,False
service,service,service,service,NOUN,True,False
emerge,emerge,emerge,emerge,NOUN,True,False
under,under,under,under,ADP,True,True
the,the,the,the,DET,True,True
propose,propose,propose,propose,NOUN,True,False
three,three,three,three,NUM,True,True
-,-,-,-,PUNCT,False,False
tier,tier,tier,tier,NOUN,True,False
share,share,share,share,NOUN,True,False
access,access,access,access,NOUN,True,False
model,model,model,model,NOUN,True,False
",",",",",",",",PUNCT,False,False
then,then,then,then,ADV,True,True
backhaul,backhaul,backhaul,backhaul,PROPN,True,False
of,of,of,of,ADP,True,True
small,small,small,small,ADJ,True,False
cell,cell,cell,cell,NOUN,True,False
be,be,be,be,AUX,True,True
grant,grant,grant,grant,NOUN,True,False
priority,priority,priority,priority,NOUN,True,False
access,access,access,access,NOUN,True,False
status,status,status,status,NOUN,True,False
in,in,in,in,ADP,True,True
the,the,the,the,DET,True,True
3650,3650,3650,3650,NUM,False,False
-,-,-,-,SYM,False,False
3700,3700,3700,3700,NUM,False,False
mhz,mhz,mhz,mhz,PROPN,True,False
band,band,band,band,NOUN,True,False
.,.,.,.,PUNCT,False,False
conclusionthe,conclusionthe,conclusionthe,conclusionthe,PROPN,True,False
wimax,wimax,wimax,wimax,PROPN,True,False
forum,forum,forum,forum,PROPN,True,False
endorse,endorse,endorse,endorse,VERB,True,False
propose,propose,propose,propose,PROPN,True,False
citizens,citizens,citizen,citizen,NOUN,True,False
broadband,broadband,broadband,broadband,NOUN,True,False
service,service,service,service,NOUN,True,False
in,in,in,in,ADP,True,True
the,the,the,the,DET,True,True
3550,3550,3550,3550,NUM,False,False
-,-,-,-,SYM,False,False
3650,3650,3650,3650,NUM,False,False
mhz,mhz,mhz,mhz,PROPN,True,False
band,band,band,band,NOUN,True,False
",",",",",",",",PUNCT,False,False
with,with,with,with,ADP,True,True
appropriate,appropriate,appropriate,appropriate,ADJ,True,False
regulatory,regulatory,regulatory,regulatory,ADJ,True,False
support,support,support,support,NOUN,True,False
to,to,to,to,PART,True,True
allow,allow,allow,allow,VERB,True,False
that,that,that,that,DET,True,True
service,service,service,service,NOUN,True,False
to,to,to,to,PART,True,True
flourish,flourish,flourish,flourish,VERB,True,False
.,.,.,.,PUNCT,False,False
the,the,the,the,DET,True,True
wimax,wimax,wimax,wimax,PROPN,True,False
forum,forum,forum,forum,PROPN,True,False
endorse,endorse,endorse,endorse,VERB,True,False
the,the,the,the,DET,True,True
supplementary,supplementary,supplementary,supplementary,ADJ,True,False
proposal,proposal,proposal,proposal,NOUN,True,False
to,to,to,to,PART,True,True
include,include,include,include,VERB,True,False
the,the,the,the,DET,True,True
3650,3650,3650,3650,NUM,False,False
-,-,-,-,SYM,False,False
3700,3700,3700,3700,NUM,False,False
mhz,mhz,mhz,mhz,PROPN,True,False
band,band,band,band,NOUN,True,False
into,into,into,into,ADP,True,True
the,the,the,the,DET,True,True
new,new,new,new,ADJ,True,False
propose,propose,propose,propose,NOUN,True,False
regulatory,regulatory,regulatory,regulatory,ADJ,True,False
regime,regime,regime,regime,NOUN,True,False
",",",",",",",",PUNCT,False,False
incorporate,incorporate,incorporate,incorporate,VERB,True,False
opportunity,opportunity,opportunity,opportunity,NOUN,True,False
to,to,to,to,PART,True,True
support,support,support,support,VERB,True,False
the,the,the,the,DET,True,True
backhaul,backhaul,backhaul,backhaul,NOUN,True,False
of,of,of,of,ADP,True,True
fixed,fixed,fixed,fixed,ADJ,True,False
and,and,and,and,CCONJ,True,True
nomadic,nomadic,nomadic,nomadic,ADJ,True,False
small,small,small,small,ADJ,True,False
cell,cell,cell,cell,NOUN,True,False
.,.,.,.,PUNCT,False,False
