text,text_lower,lemma,lemma_lower,part_of_speech,is_alphabet,is_stopword
ctvr,ctvr,ctvr,ctvr,NOUN,True,False
be,be,be,be,AUX,True,True
a,a,a,a,DET,True,True
national,national,national,national,ADJ,True,False
telecommunications,telecommunications,telecommunications,telecommunications,NOUN,True,False
research,research,research,research,NOUN,True,False
centre,centre,centre,centre,NOUN,True,False
base,base,base,base,NOUN,True,False
in,in,in,in,ADP,True,True
ireland,ireland,ireland,ireland,PROPN,True,False
.,.,.,.,PUNCT,False,False
we,we,-PRON-,-pron-,PRON,True,True
have,have,have,have,AUX,True,True
experience,experience,experience,experience,NOUN,True,False
in,in,in,in,ADP,True,True
the,the,the,the,DET,True,True
area,area,area,area,NOUN,True,False
of,of,of,of,ADP,True,True
industry,industry,industry,industry,NOUN,True,False
-,-,-,-,PUNCT,False,False
inform,inform,inform,inform,NOUN,True,False
research,research,research,research,NOUN,True,False
",",",",",",",",PUNCT,False,False
development,development,development,development,NOUN,True,False
and,and,and,and,CCONJ,True,True
prototyping,prototyping,prototyping,prototyping,NOUN,True,False
of,of,of,of,ADP,True,True
software,software,software,software,NOUN,True,False
radio,radio,radio,radio,NOUN,True,False
system,system,system,system,NOUN,True,False
",",",",",",",",PUNCT,False,False
cognitive,cognitive,cognitive,cognitive,ADJ,True,False
system,system,system,system,NOUN,True,False
",",",",",",",",PUNCT,False,False
dsa,dsa,dsa,dsa,NOUN,True,False
system,system,system,system,NOUN,True,False
and,and,and,and,CCONJ,True,True
tvws,tvws,tvws,tvws,NOUN,True,False
system,system,system,system,NOUN,True,False
.,.,.,.,PUNCT,False,False
we,we,-PRON-,-pron-,PRON,True,True
welcome,welcome,welcome,welcome,VERB,True,False
the,the,the,the,DET,True,True
commissions,commissions,commission,commission,NOUN,True,False
proposal,proposal,proposal,proposal,NOUN,True,False
to,to,to,to,PART,True,True
create,create,create,create,VERB,True,False
a,a,a,a,DET,True,True
new,new,new,new,ADJ,True,False
citizens,citizens,citizen,citizen,NOUN,True,False
broadband,broadband,broadband,broadband,NOUN,True,False
service,service,service,service,NOUN,True,False
in,in,in,in,ADP,True,True
the,the,the,the,DET,True,True
3550,3550,3550,3550,NUM,False,False
-,-,-,-,SYM,False,False
3650,3650,3650,3650,NUM,False,False
mhz,mhz,mhz,mhz,PROPN,True,False
band,band,band,band,NOUN,True,False
use,use,use,use,NOUN,True,False
technique,technique,technique,technique,NOUN,True,False
which,which,which,which,DET,True,True
will,will,will,will,VERB,True,True
exploit,exploit,exploit,exploit,VERB,True,False
both,both,both,both,DET,True,True
small,small,small,small,ADJ,True,False
cells,cells,cell,cell,NOUN,True,False
and,and,and,and,CCONJ,True,True
spectrum,spectrum,spectrum,spectrum,NOUN,True,False
sharing,sharing,sharing,sharing,NOUN,True,False
.,.,.,.,PUNCT,False,False
more,more,more,more,ADV,True,True
specifically,specifically,specifically,specifically,ADV,True,False
in,in,in,in,ADP,True,True
this,this,this,this,DET,True,True
comment,comment,comment,comment,NOUN,True,False
we,we,-PRON-,-pron-,PRON,True,True
suggest,suggest,suggest,suggest,VERB,True,False
a,a,a,a,DET,True,True
mechanism,mechanism,mechanism,mechanism,NOUN,True,False
for,for,for,for,ADP,True,True
use,use,use,use,NOUN,True,False
by,by,by,by,ADP,True,True
the,the,the,the,DET,True,True
sas,sas,sas,sas,PROPN,True,False
which,which,which,which,DET,True,True
can,can,can,can,VERB,True,True
address,address,address,address,VERB,True,False
concern,concern,concern,concern,NOUN,True,False
relate,relate,relate,relate,VERB,True,False
to,to,to,to,ADP,True,True
access,access,access,access,NOUN,True,False
coordination,coordination,coordination,coordination,NOUN,True,False
and,and,and,and,CCONJ,True,True
interference,interference,interference,interference,NOUN,True,False
mitigation,mitigation,mitigation,mitigation,NOUN,True,False
firstly,firstly,firstly,firstly,ADV,True,False
among,among,among,among,ADP,True,True
priority,priority,priority,priority,NOUN,True,False
access,access,access,access,NOUN,True,False
users,users,user,user,NOUN,True,False
",",",",",",",",PUNCT,False,False
secondly,secondly,secondly,secondly,ADV,True,False
between,between,between,between,ADP,True,True
gaa,gaa,gaa,gaa,NOUN,True,False
user,user,user,user,NOUN,True,False
and,and,and,and,CCONJ,True,True
priority,priority,priority,priority,NOUN,True,False
access,access,access,access,NOUN,True,False
user,user,user,user,NOUN,True,False
and,and,and,and,CCONJ,True,True
finally,finally,finally,finally,ADV,True,False
among,among,among,among,ADP,True,True
gaa,gaa,gaa,gaa,NOUN,True,False
user,user,user,user,NOUN,True,False
themselves,themselves,-PRON-,-pron-,PRON,True,True
.,.,.,.,PUNCT,False,False
simply,simply,simply,simply,ADV,True,False
put,put,put,put,VERB,True,True
",",",",",",",",PUNCT,False,False
we,we,-PRON-,-pron-,PRON,True,True
suggest,suggest,suggest,suggest,VERB,True,False
that,that,that,that,SCONJ,True,True
the,the,the,the,DET,True,True
sas,sas,sas,sas,PROPN,True,False
should,should,should,should,VERB,True,True
employ,employ,employ,employ,VERB,True,False
a,a,a,a,DET,True,True
dynamic,dynamic,dynamic,dynamic,ADJ,True,False
least,least,least,least,ADJ,True,True
restrictive,restrictive,restrictive,restrictive,ADJ,True,False
mask,mask,mask,mask,NOUN,True,False
assignment,assignment,assignment,assignment,NOUN,True,False
mechanism,mechanism,mechanism,mechanism,NOUN,True,False
which,which,which,which,DET,True,True
adapt,adapt,adapt,adapt,VERB,True,False
the,the,the,the,DET,True,True
in,in,in,in,ADP,True,True
-,-,-,-,PUNCT,False,False
band,band,band,band,NOUN,True,False
and,and,and,and,CCONJ,True,True
out,out,out,out,ADV,True,True
-,-,-,-,PUNCT,False,False
of,of,of,of,ADP,True,True
-,-,-,-,PUNCT,False,False
band,band,band,band,NOUN,True,False
power,power,power,power,NOUN,True,False
restriction,restriction,restriction,restriction,NOUN,True,False
on,on,on,on,ADP,True,True
the,the,the,the,DET,True,True
licensed,licensed,license,license,VERB,True,False
priority,priority,priority,priority,NOUN,True,False
access,access,access,access,NOUN,True,False
and,and,and,and,CCONJ,True,True
gaa,gaa,gaa,gaa,NOUN,True,False
user,user,user,user,NOUN,True,False
in,in,in,in,ADP,True,True
accordance,accordance,accordance,accordance,NOUN,True,False
with,with,with,with,ADP,True,True
the,the,the,the,DET,True,True
observed,observed,observed,observed,ADJ,True,False
local,local,local,local,ADJ,True,False
scenario,scenario,scenario,scenario,NOUN,True,False
which,which,which,which,DET,True,True
be,be,be,be,VERB,True,True
register,register,register,register,VERB,True,False
with,with,with,with,ADP,True,True
the,the,the,the,DET,True,True
sas,sas,sas,sas,PROPN,True,False
.,.,.,.,PUNCT,False,False
the,the,the,the,DET,True,True
suggest,suggest,suggest,suggest,VERB,True,False
modality,modality,modality,modality,NOUN,True,False
of,of,of,of,ADP,True,True
such,such,such,such,DET,True,True
a,a,a,a,DET,True,True
mechanism,mechanism,mechanism,mechanism,NOUN,True,False
",",",",",",",",PUNCT,False,False
which,which,which,which,DET,True,True
be,be,be,be,VERB,True,True
build,build,build,build,VERB,True,False
around,around,around,around,ADP,True,True
an,an,an,an,DET,True,True
adaptation,adaptation,adaptation,adaptation,NOUN,True,False
of,of,of,of,ADP,True,True
the,the,the,the,DET,True,True
regulatory,regulatory,regulatory,regulatory,ADJ,True,False
tool,tool,tool,tool,NOUN,True,False
know,know,know,know,VERB,True,False
as,as,as,as,SCONJ,True,True
the,the,the,the,DET,True,True
block,block,block,block,NOUN,True,False
edge,edge,edge,edge,NOUN,True,False
mask,mask,mask,mask,PROPN,True,False
bem,bem,bem,bem,PROPN,True,False
",",",",",",",",PUNCT,False,False
arebriefly,arebriefly,arebriefly,arebriefly,PROPN,True,False
outline,outline,outline,outline,NOUN,True,False
in,in,in,in,ADP,True,True
this,this,this,this,DET,True,True
comment,comment,comment,comment,NOUN,True,False
.,.,.,.,PUNCT,False,False
the,the,the,the,DET,True,True
use,use,use,use,NOUN,True,False
of,of,of,of,ADP,True,True
dynamically,dynamically,dynamically,dynamically,ADV,True,False
assign,assign,assign,assign,NOUN,True,False
least,least,least,least,ADJ,True,True
restrictive,restrictive,restrictive,restrictive,ADJ,True,False
mask,mask,mask,mask,NOUN,True,False
will,will,will,will,VERB,True,True
also,also,also,also,ADV,True,True
help,help,help,help,VERB,True,False
to,to,to,to,PART,True,True
maximise,maximise,maximise,maximise,VERB,True,False
spectral,spectral,spectral,spectral,ADJ,True,False
efficiency,efficiency,efficiency,efficiency,NOUN,True,False
for,for,for,for,ADP,True,True
small,small,small,small,ADJ,True,False
cells,cells,cell,cell,NOUN,True,False
on,on,on,on,ADP,True,True
a,a,a,a,DET,True,True
scenario,scenario,scenario,scenario,NOUN,True,False
-,-,-,-,PUNCT,False,False
by,by,by,by,ADP,True,True
-,-,-,-,PUNCT,False,False
scenario,scenario,scenario,scenario,NOUN,True,False
basis.1,basis.1,basis.1,basis.1,NUM,False,False
.,.,.,.,PUNCT,False,False
a,a,a,a,DET,True,True
least,least,least,least,ADJ,True,True
restrictive,restrictive,restrictive,restrictive,ADJ,True,False
mask,mask,mask,mask,NOUN,True,False
assignment,assignment,assignment,assignment,NOUN,True,False
mechanism,mechanism,mechanism,mechanism,NOUN,True,False
for,for,for,for,ADP,True,True
the,the,the,the,DET,True,True
sasthis,sasthis,sasthis,sasthis,NOUN,True,False
proposal,proposal,proposal,proposal,NOUN,True,False
be,be,be,be,AUX,True,True
base,base,base,base,NOUN,True,False
on,on,on,on,ADP,True,True
three,three,three,three,NUM,True,True
building,building,building,building,NOUN,True,False
block,block,block,block,NOUN,True,False
",",",",",",",",PUNCT,False,False
none,none,none,none,NOUN,True,True
of,of,of,of,ADP,True,True
which,which,which,which,DET,True,True
be,be,be,be,VERB,True,True
radical,radical,radical,radical,ADJ,True,False
a,a,a,a,DET,True,True
pixelate,pixelate,pixelate,pixelate,ADJ,True,False
geo,geo,geo,geo,NOUN,True,False
-,-,-,-,PUNCT,False,False
location,location,location,location,NOUN,True,False
registration,registration,registration,registration,NOUN,True,False
system,system,system,system,NOUN,True,False
for,for,for,for,ADP,True,True
both,both,both,both,CCONJ,True,True
priority,priority,priority,priority,NOUN,True,False
access,access,access,access,NOUN,True,False
and,and,and,and,CCONJ,True,True
gaa,gaa,gaa,gaa,VERB,True,False
small,small,small,small,ADJ,True,False
cell,cell,cell,cell,NOUN,True,False
system,system,system,system,NOUN,True,False
a,a,a,a,DET,True,True
scenario,scenario,scenario,scenario,NOUN,True,False
-,-,-,-,PUNCT,False,False
specific,specific,specific,specific,ADJ,True,False
modelling,modelling,modelling,modelling,NOUN,True,False
of,of,of,of,ADP,True,True
interferer,interferer,interferer,interferer,NOUN,True,False
-,-,-,-,PUNCT,False,False
to,to,to,to,ADP,True,True
-,-,-,-,PUNCT,False,False
victim,victim,victim,victim,NOUN,True,False
protection,protection,protection,protection,NOUN,True,False
use,use,use,use,NOUN,True,False
pixel,pixel,pixel,pixel,NOUN,True,False
-,-,-,-,PUNCT,False,False
base,base,base,base,NOUN,True,False
system,system,system,system,NOUN,True,False
location,location,location,location,NOUN,True,False
an,an,an,an,DET,True,True
assignment,assignment,assignment,assignment,NOUN,True,False
of,of,of,of,ADP,True,True
the,the,the,the,DET,True,True
minimally,minimally,minimally,minimally,ADV,True,False
restrictive,restrictive,restrictive,restrictive,ADJ,True,False
small,small,small,small,ADJ,True,False
cell,cell,cell,cell,NOUN,True,False
edge,edge,edge,edge,NOUN,True,False
mask,mask,mask,mask,VERB,True,False
scem,scem,scem,scem,PROPN,True,False
to,to,to,to,ADP,True,True
each,each,each,each,DET,True,True
small,small,small,small,ADJ,True,False
cell,cell,cell,cell,NOUN,True,False
system.a,system.a,system.a,system.a,NOUN,False,False
.,.,.,.,PUNCT,False,False
pixelated,pixelated,pixelate,pixelate,VERB,True,False
geo,geo,geo,geo,NOUN,True,False
-,-,-,-,PUNCT,False,False
location,location,location,location,NOUN,True,False
databaseour,databaseour,databaseour,databaseour,NOUN,True,False
comment,comment,comment,comment,NOUN,True,False
build,build,build,build,NOUN,True,False
on,on,on,on,ADP,True,True
the,the,the,the,DET,True,True
concept,concept,concept,concept,NOUN,True,False
of,of,of,of,ADP,True,True
the,the,the,the,DET,True,True
gaa,gaa,gaa,gaa,NOUN,True,False
zones,zones,zone,zone,NOUN,True,False
and,and,and,and,CCONJ,True,True
priority,priority,priority,priority,NOUN,True,False
access,access,access,access,NOUN,True,False
zones,zones,zone,zone,NOUN,True,False
suggest,suggest,suggest,suggest,VERB,True,False
in,in,in,in,ADP,True,True
the,the,the,the,DET,True,True
nprm,nprm,nprm,nprm,NOUN,True,False
.,.,.,.,PUNCT,False,False
the,the,the,the,DET,True,True
geographical,geographical,geographical,geographical,ADJ,True,False
area,area,area,area,NOUN,True,False
of,of,of,of,ADP,True,True
these,these,these,these,DET,True,True
zone,zone,zone,zone,NOUN,True,False
would,would,would,would,VERB,True,True
be,be,be,be,AUX,True,True
divide,divide,divide,divide,NOUN,True,False
into,into,into,into,ADP,True,True
a,a,a,a,DET,True,True
2d,2d,2d,2d,NUM,False,False
grid,grid,grid,grid,NOUN,True,False
of,of,of,of,ADP,True,True
pixel,pixel,pixel,pixel,PROPN,True,False
",",",",",",",",PUNCT,False,False
with,with,with,with,ADP,True,True
a,a,a,a,DET,True,True
third,third,third,third,ADJ,True,True
dimension,dimension,dimension,dimension,NOUN,True,False
of,of,of,of,ADP,True,True
frequency,frequency,frequency,frequency,NOUN,True,False
.,.,.,.,PUNCT,False,False
for,for,for,for,ADP,True,True
example,example,example,example,NOUN,True,False
",",",",",",",",PUNCT,False,False
in,in,in,in,ADP,True,True
figure,figure,figure,figure,NOUN,True,False
1,1,1,1,NUM,False,False
",",",",",",",",PUNCT,False,False
the,the,the,the,DET,True,True
star,star,star,star,NOUN,True,False
pixel,pixel,pixel,pixel,PROPN,True,False
be,be,be,be,AUX,True,True
register,register,register,register,VERB,True,False
as,as,as,as,SCONJ,True,True
be,be,be,be,AUX,True,True
occupy,occupy,occupy,occupy,ADJ,True,False
by,by,by,by,ADP,True,True
a,a,a,a,DET,True,True
priority,priority,priority,priority,NOUN,True,False
access,access,access,access,NOUN,True,False
small,small,small,small,ADJ,True,False
cell,cell,cell,cell,NOUN,True,False
system,system,system,system,NOUN,True,False
.,.,.,.,PUNCT,False,False
consequently,consequently,consequently,consequently,ADV,True,False
",",",",",",",",PUNCT,False,False
the,the,the,the,DET,True,True
surround,surround,surround,surround,NOUN,True,False
pixel,pixel,pixel,pixel,PROPN,True,False
have,have,have,have,AUX,True,True
be,be,be,be,AUX,True,True
mark,mark,mark,mark,PROPN,True,False
occupy,occupy,occupy,occupy,PROPN,True,False
at,at,at,at,ADP,True,True
that,that,that,that,DET,True,True
frequency,frequency,frequency,frequency,NOUN,True,False
.,.,.,.,PUNCT,False,False
the,the,the,the,DET,True,True
size,size,size,size,NOUN,True,False
of,of,of,of,ADP,True,True
the,the,the,the,DET,True,True
pixel,pixel,pixel,pixel,NOUN,True,False
be,be,be,be,AUX,True,True
choose,choose,choose,choose,VERB,True,False
such,such,such,such,ADJ,True,True
that,that,that,that,SCONJ,True,True
",",",",",",",",PUNCT,False,False
even,even,even,even,ADV,True,True
when,when,when,when,ADV,True,True
the,the,the,the,DET,True,True
base,base,base,base,NOUN,True,False
station,station,station,station,NOUN,True,False
be,be,be,be,AUX,True,True
as,as,as,as,ADV,True,True
close,close,close,close,ADJ,True,False
as,as,as,as,SCONJ,True,True
they,they,-PRON-,-pron-,PRON,True,True
could,could,could,could,VERB,True,True
possibly,possibly,possibly,possibly,ADV,True,False
be,be,be,be,AUX,True,True
within,within,within,within,ADP,True,True
the,the,the,the,DET,True,True
non,non,non,non,ADJ,True,False
-,-,-,-,ADJ,False,False
blocked,blocked,blocked,blocked,ADJ,True,False
pixel,pixel,pixel,pixel,NOUN,True,False
",",",",",",",",PUNCT,False,False
there,there,there,there,PRON,True,True
be,be,be,be,AUX,True,True
still,still,still,still,ADV,True,True
enough,enough,enough,enough,ADJ,True,True
path,path,path,path,NOUN,True,False
loss,loss,loss,loss,NOUN,True,False
to,to,to,to,PART,True,True
bring,bring,bring,bring,VERB,True,False
the,the,the,the,DET,True,True
co,co,co,co,NOUN,True,False
-,-,-,-,NOUN,False,False
channelinterference,channelinterference,channelinterference,channelinterference,NOUN,True,False
below,below,below,below,ADP,True,True
the,the,the,the,DET,True,True
noise,noise,noise,noise,NOUN,True,False
floor,floor,floor,floor,NOUN,True,False
.,.,.,.,PUNCT,False,False
such,such,such,such,DET,True,True
a,a,a,a,DET,True,True
pixelate,pixelate,pixelate,pixelate,ADJ,True,False
approach,approach,approach,approach,NOUN,True,False
allow,allow,allow,allow,VERB,True,False
for,for,for,for,ADP,True,True
a,a,a,a,DET,True,True
highly,highly,highly,highly,ADV,True,False
tractable,tractable,tractable,tractable,ADJ,True,False
and,and,and,and,CCONJ,True,True
efficient,efficient,efficient,efficient,ADJ,True,False
mean,mean,mean,mean,NOUN,True,False
of,of,of,of,ADP,True,True
calculate,calculate,calculate,calculate,NOUN,True,False
the,the,the,the,DET,True,True
interferer,interferer,interferer,interferer,NOUN,True,False
-,-,-,-,PUNCT,False,False
victim,victim,victim,victim,NOUN,True,False
relationship,relationship,relationship,relationship,NOUN,True,False
from,from,from,from,ADP,True,True
one,one,one,one,NUM,True,True
pixel,pixel,pixel,pixel,NOUN,True,False
to,to,to,to,ADP,True,True
an,an,an,an,DET,True,True
adjacent,adjacent,adjacent,adjacent,ADJ,True,False
one,one,one,one,NOUN,True,True
as,as,as,as,SCONJ,True,True
there,there,there,there,PRON,True,True
will,will,will,will,VERB,True,True
be,be,be,be,AUX,True,True
a,a,a,a,DET,True,True
finite,finite,finite,finite,ADJ,True,False
number,number,number,number,NOUN,True,False
of,of,of,of,ADP,True,True
interaction,interaction,interaction,interaction,NOUN,True,False
to,to,to,to,PART,True,True
consider,consider,consider,consider,VERB,True,False
.,.,.,.,PUNCT,False,False
we,we,-PRON-,-pron-,PRON,True,True
suggest,suggest,suggest,suggest,VERB,True,False
pixilation,pixilation,pixilation,pixilation,NOUN,True,False
be,be,be,be,AUX,True,True
well,well,well,well,ADV,True,True
suited,suited,suited,suited,ADJ,True,False
for,for,for,for,ADP,True,True
a,a,a,a,DET,True,True
database,database,database,database,NOUN,True,False
manage,manage,manage,manage,VERB,True,False
small,small,small,small,ADJ,True,False
cell,cell,cell,cell,NOUN,True,False
system,system,system,system,NOUN,True,False
at,at,at,at,ADP,True,True
3.5,3.5,3.5,3.5,NUM,False,False
ghz,ghz,ghz,ghz,PROPN,True,False
as,as,as,as,SCONJ,True,True
the,the,the,the,DET,True,True
fidelity,fidelity,fidelity,fidelity,NOUN,True,False
of,of,of,of,ADP,True,True
a,a,a,a,DET,True,True
pixelate,pixelate,pixelate,pixelate,ADJ,True,False
approach,approach,approach,approach,NOUN,True,False
when,when,when,when,ADV,True,True
compare,compare,compare,compare,VERB,True,False
to,to,to,to,ADP,True,True
one,one,one,one,NUM,True,True
use,use,use,use,VERB,True,False
exact,exact,exact,exact,ADJ,True,False
location,location,location,location,NOUN,True,False
be,be,be,be,AUX,True,True
high,high,high,high,ADJ,True,False
.,.,.,.,PUNCT,False,False
this,this,this,this,DET,True,True
would,would,would,would,VERB,True,True
not,not,not,not,PART,True,True
be,be,be,be,AUX,True,True
the,the,the,the,DET,True,True
case,case,case,case,NOUN,True,False
for,for,for,for,ADP,True,True
high,high,high,high,ADJ,True,False
powered,powered,powered,powered,ADJ,True,False
system,system,system,system,NOUN,True,False
at,at,at,at,ADP,True,True
low,low,low,low,ADJ,True,False
frequency,frequency,frequency,frequency,NOUN,True,False
such,such,such,such,ADJ,True,True
as,as,as,as,SCONJ,True,True
for,for,for,for,ADP,True,True
the,the,the,the,DET,True,True
tvws,tvws,tvws,tvws,PROPN,True,False
database.b,database.b,database.b,database.b,PROPN,False,False
.,.,.,.,PUNCT,False,False
pixel,pixel,pixel,pixel,PROPN,True,False
-,-,-,-,PUNCT,False,False
base,base,base,base,PROPN,True,False
interference,interference,interference,interference,NOUN,True,False
modellingthe,modellingthe,modellingthe,modellingthe,PROPN,True,False
interference,interference,interference,interference,NOUN,True,False
mitigation,mitigation,mitigation,mitigation,NOUN,True,False
approach,approach,approach,approach,NOUN,True,False
we,we,-PRON-,-pron-,PRON,True,True
propose,propose,propose,propose,VERB,True,False
be,be,be,be,VERB,True,True
base,base,base,base,NOUN,True,False
on,on,on,on,ADP,True,True
the,the,the,the,DET,True,True
use,use,use,use,NOUN,True,False
power,power,power,power,NOUN,True,False
limit,limit,limit,limit,NOUN,True,False
for,for,for,for,ADP,True,True
the,the,the,the,DET,True,True
interferer,interferer,interferer,interferer,NOUN,True,False
.,.,.,.,PUNCT,False,False
a,a,a,a,DET,True,True
scem,scem,scem,scem,NOUN,True,False
be,be,be,be,AUX,True,True
functionally,functionally,functionally,functionally,ADV,True,False
similar,similar,similar,similar,ADJ,True,False
to,to,to,to,ADP,True,True
the,the,the,the,DET,True,True
bem,bem,bem,bem,NOUN,True,False
in,in,in,in,ADP,True,True
that,that,that,that,SCONJ,True,True
it,it,-PRON-,-pron-,PRON,True,True
consist,consist,consist,consist,VERB,True,False
of,of,of,of,ADP,True,True
an,an,an,an,DET,True,True
in,in,in,in,ADP,True,True
-,-,-,-,PUNCT,False,False
block,block,block,block,NOUN,True,False
ib,ib,ib,ib,ADP,True,False
power,power,power,power,NOUN,True,False
limit,limit,limit,limit,NOUN,True,False
as,as,as,as,ADV,True,True
well,well,well,well,ADV,True,True
as,as,as,as,SCONJ,True,True
two,two,two,two,NUM,True,True
out,out,out,out,ADJ,True,True
-,-,-,-,PUNCT,False,False
of,of,of,of,ADP,True,True
-,-,-,-,PUNCT,False,False
block,block,block,block,NOUN,True,False
oob,oob,oob,oob,PROPN,True,False
limit,limit,limit,limit,NOUN,True,False
",",",",",",",",PUNCT,False,False
one,one,one,one,NUM,True,True
on,on,on,on,ADP,True,True
each,each,each,each,DET,True,True
side,side,side,side,NOUN,True,True
.,.,.,.,PUNCT,False,False
these,these,these,these,DET,True,True
limit,limit,limit,limit,NOUN,True,False
address,address,address,address,NOUN,True,False
interference,interference,interference,interference,NOUN,True,False
issue,issue,issue,issue,NOUN,True,False
in,in,in,in,ADP,True,True
a,a,a,a,DET,True,True
service,service,service,service,NOUN,True,False
and,and,and,and,CCONJ,True,True
technology,technology,technology,technology,NOUN,True,False
neutral,neutral,neutral,neutral,ADJ,True,False
manner,manner,manner,manner,NOUN,True,False
at,at,at,at,ADP,True,True
the,the,the,the,DET,True,True
interface,interface,interface,interface,NOUN,True,False
identify,identify,identify,identify,VERB,True,False
in,in,in,in,ADP,True,True
figure,figure,figure,figure,NOUN,True,False
2.the,2.the,2.the,2.the,DET,False,False
difference,difference,difference,difference,NOUN,True,False
be,be,be,be,AUX,True,True
that,that,that,that,SCONJ,True,True
a,a,a,a,DET,True,True
scem,scem,scem,scem,NOUN,True,False
define,define,define,define,VERB,True,False
an,an,an,an,DET,True,True
emission,emission,emission,emission,NOUN,True,False
profile,profile,profile,profile,NOUN,True,False
for,for,for,for,ADP,True,True
a,a,a,a,DET,True,True
single,single,single,single,ADJ,True,False
small,small,small,small,ADJ,True,False
cell,cell,cell,cell,NOUN,True,False
system,system,system,system,NOUN,True,False
as,as,as,as,SCONJ,True,True
oppose,oppose,oppose,oppose,NOUN,True,False
to,to,to,to,ADP,True,True
an,an,an,an,DET,True,True
entire,entire,entire,entire,ADJ,True,False
frequency,frequency,frequency,frequency,NOUN,True,False
block,block,block,block,NOUN,True,False
.,.,.,.,PUNCT,False,False
the,the,the,the,DET,True,True
scem,scem,scem,scem,PROPN,True,False
will,will,will,will,VERB,True,True
also,also,also,also,ADV,True,True
be,be,be,be,AUX,True,True
dynamically,dynamically,dynamically,dynamically,ADV,True,False
define,define,define,define,NOUN,True,False
base,base,base,base,NOUN,True,False
on,on,on,on,ADP,True,True
the,the,the,the,DET,True,True
current,current,current,current,ADJ,True,False
scenario,scenario,scenario,scenario,NOUN,True,False
",",",",",",",",PUNCT,False,False
i.e.,i.e.,i.e.,i.e.,X,False,False
take,take,take,take,VERB,True,True
into,into,into,into,ADP,True,True
account,account,account,account,NOUN,True,False
the,the,the,the,DET,True,True
other,other,other,other,ADJ,True,True
neighbouring,neighbouring,neighbouring,neighbouring,NOUN,True,False
independent,independent,independent,independent,ADJ,True,False
and,and,and,and,CCONJ,True,True
unaffiliated,unaffiliated,unaffiliated,unaffiliated,ADJ,True,False
system,system,system,system,NOUN,True,False
",",",",",",",",PUNCT,False,False
such,such,such,such,ADJ,True,True
that,that,that,that,SCONJ,True,True
the,the,the,the,DET,True,True
least,least,least,least,ADJ,True,True
restrictive,restrictive,restrictive,restrictive,ADJ,True,False
mask,mask,mask,mask,NOUN,True,False
be,be,be,be,AUX,True,True
assign,assign,assign,assign,ADJ,True,False
.,.,.,.,PUNCT,False,False
this,this,this,this,DET,True,True
approach,approach,approach,approach,NOUN,True,False
have,have,have,have,AUX,True,True
the,the,the,the,DET,True,True
effect,effect,effect,effect,NOUN,True,False
of,of,of,of,ADP,True,True
maximise,maximise,maximise,maximise,NOUN,True,False
the,the,the,the,DET,True,True
spectral,spectral,spectral,spectral,ADJ,True,False
efficiency,efficiency,efficiency,efficiency,NOUN,True,False
for,for,for,for,ADP,True,True
each,each,each,each,DET,True,True
scenario,scenario,scenario,scenario,NOUN,True,False
.,.,.,.,PUNCT,False,False
these,these,these,these,DET,True,True
mask,mask,mask,mask,NOUN,True,False
be,be,be,be,AUX,True,True
determine,determine,determine,determine,VERB,True,False
by,by,by,by,ADP,True,True
assess,assess,assess,assess,NOUN,True,False
the,the,the,the,DET,True,True
impact,impact,impact,impact,NOUN,True,False
of,of,of,of,ADP,True,True
interferer,interferer,interferer,interferer,NOUN,True,False
onvictims,onvictims,onvictim,onvictim,NOUN,True,False
system,system,system,system,NOUN,True,False
use,use,use,use,VERB,True,False
a,a,a,a,DET,True,True
statistical,statistical,statistical,statistical,ADJ,True,False
modelling,modelling,modelling,modelling,NOUN,True,False
technique,technique,technique,technique,NOUN,True,False
.,.,.,.,PUNCT,False,False
each,each,each,each,DET,True,True
small,small,small,small,ADJ,True,False
cell,cell,cell,cell,NOUN,True,False
system,system,system,system,NOUN,True,False
will,will,will,will,VERB,True,True
be,be,be,be,AUX,True,True
assign,assign,assign,assign,PROPN,True,False
two,two,two,two,NUM,True,True
mask,mask,mask,mask,VERB,True,False
one,one,one,one,NUM,True,True
for,for,for,for,ADP,True,True
its,its,-PRON-,-pron-,DET,True,True
base,base,base,base,NOUN,True,False
station,station,station,station,NOUN,True,False
bs,bs,bs,bs,PROPN,True,False
and,and,and,and,CCONJ,True,True
one,one,one,one,NUM,True,True
for,for,for,for,ADP,True,True
its,its,-PRON-,-pron-,DET,True,True
terminal,terminal,terminal,terminal,ADJ,True,False
station,station,station,station,NOUN,True,False
ts,ts,ts,ts,PROPN,True,False
.,.,.,.,PUNCT,False,False
owe,owe,owe,owe,VERB,True,False
to,to,to,to,ADP,True,True
the,the,the,the,DET,True,True
use,use,use,use,NOUN,True,False
of,of,of,of,ADP,True,True
a,a,a,a,DET,True,True
pixelate,pixelate,pixelate,pixelate,ADJ,True,False
geo,geo,geo,geo,NOUN,True,False
-,-,-,-,PUNCT,False,False
location,location,location,location,NOUN,True,False
database,database,database,database,NOUN,True,False
there,there,there,there,PRON,True,True
will,will,will,will,VERB,True,True
be,be,be,be,AUX,True,True
a,a,a,a,DET,True,True
large,large,large,large,ADJ,True,False
",",",",",",",",PUNCT,False,False
but,but,but,but,CCONJ,True,True
finite,finite,finite,finite,NOUN,True,False
",",",",",",",",PUNCT,False,False
number,number,number,number,NOUN,True,False
of,of,of,of,ADP,True,True
possible,possible,possible,possible,ADJ,True,False
interaction,interaction,interaction,interaction,NOUN,True,False
between,between,between,between,ADP,True,True
various,various,various,various,ADJ,True,True
combination,combination,combination,combination,NOUN,True,False
of,of,of,of,ADP,True,True
pa,pa,pa,pa,PROPN,True,False
and,and,and,and,CCONJ,True,True
gaa,gaa,gaa,gaa,VERB,True,False
small,small,small,small,ADJ,True,False
cell,cell,cell,cell,NOUN,True,False
system,system,system,system,NOUN,True,False
.,.,.,.,PUNCT,False,False
for,for,for,for,ADP,True,True
each,each,each,each,DET,True,True
scenario,scenario,scenario,scenario,NOUN,True,False
",",",",",",",",PUNCT,False,False
the,the,the,the,DET,True,True
in,in,in,in,ADP,True,True
-,-,-,-,PUNCT,False,False
block,block,block,block,NOUN,True,False
mask,mask,mask,mask,NOUN,True,False
limit,limit,limit,limit,NOUN,True,False
for,for,for,for,ADP,True,True
a,a,a,a,DET,True,True
small,small,small,small,ADJ,True,False
cell,cell,cell,cell,NOUN,True,False
system,system,system,system,NOUN,True,False
take,take,take,take,VERB,True,True
into,into,into,into,ADP,True,True
account,account,account,account,NOUN,True,False
the,the,the,the,DET,True,True
size,size,size,size,NOUN,True,False
of,of,of,of,ADP,True,True
the,the,the,the,DET,True,True
cell,cell,cell,cell,NOUN,True,False
radius,radius,radius,radius,NOUN,True,False
and,and,and,and,CCONJ,True,True
cell,cell,cell,cell,NOUN,True,False
ts,ts,ts,ts,DET,True,False
density,density,density,density,NOUN,True,False
",",",",",",",",PUNCT,False,False
i.e.,i.e.,i.e.,i.e.,X,False,False
the,the,the,the,DET,True,True
number,number,number,number,NOUN,True,False
of,of,of,of,ADP,True,True
ts,ts,ts,ts,NOUN,True,False
device,device,device,device,NOUN,True,False
that,that,that,that,DET,True,True
be,be,be,be,VERB,True,True
attach,attach,attach,attach,ADJ,True,False
to,to,to,to,ADP,True,True
the,the,the,the,DET,True,True
licensed,licensed,licensed,licensed,ADJ,True,False
small,small,small,small,ADJ,True,False
cell,cell,cell,cell,NOUN,True,False
system,system,system,system,NOUN,True,False
",",",",",",",",PUNCT,False,False
as,as,as,as,ADV,True,True
well,well,well,well,ADV,True,True
its,its,-PRON-,-pron-,DET,True,True
proximity,proximity,proximity,proximity,NOUN,True,False
to,to,to,to,ADP,True,True
other,other,other,other,ADJ,True,True
system,system,system,system,NOUN,True,False
on,on,on,on,ADP,True,True
the,the,the,the,DET,True,True
same,same,same,same,ADJ,True,True
frequency,frequency,frequency,frequency,NOUN,True,False
.,.,.,.,PUNCT,False,False
the,the,the,the,DET,True,True
oob,oob,oob,oob,PROPN,True,False
limit,limit,limit,limit,NOUN,True,False
for,for,for,for,ADP,True,True
a,a,a,a,DET,True,True
small,small,small,small,ADJ,True,False
cell,cell,cell,cell,NOUN,True,False
in,in,in,in,ADP,True,True
a,a,a,a,DET,True,True
give,give,give,give,ADJ,True,True
scenario,scenario,scenario,scenario,NOUN,True,False
be,be,be,be,AUX,True,True
also,also,also,also,ADV,True,True
determine,determine,determine,determine,VERB,True,False
by,by,by,by,ADP,True,True
its,its,-PRON-,-pron-,DET,True,True
cell,cell,cell,cell,NOUN,True,False
radius,radius,radius,radius,NOUN,True,False
and,and,and,and,CCONJ,True,True
cell,cell,cell,cell,NOUN,True,False
ts,ts,ts,ts,DET,True,False
density,density,density,density,NOUN,True,False
and,and,and,and,CCONJ,True,True
by,by,by,by,ADP,True,True
the,the,the,the,DET,True,True
cell,cell,cell,cell,NOUN,True,False
radius,radius,radius,radius,NOUN,True,False
and,and,and,and,CCONJ,True,True
cell,cell,cell,cell,NOUN,True,False
ts,ts,ts,ts,DET,True,False
density,density,density,density,NOUN,True,False
of,of,of,of,ADP,True,True
the,the,the,the,DET,True,True
potential,potential,potential,potential,ADJ,True,False
victim,victim,victim,victim,NOUN,True,False
system,system,system,system,NOUN,True,False
on,on,on,on,ADP,True,True
adjacent,adjacent,adjacent,adjacent,ADJ,True,False
frequency,frequency,frequency,frequency,NOUN,True,False
.,.,.,.,PUNCT,False,False
where,where,where,where,ADV,True,True
there,there,there,there,PRON,True,True
be,be,be,be,AUX,True,True
multiple,multiple,multiple,multiple,ADJ,True,False
small,small,small,small,ADJ,True,False
cell,cell,cell,cell,NOUN,True,False
gaa,gaa,gaa,gaa,NOUN,True,False
system,system,system,system,NOUN,True,False
occupy,occupy,occupy,occupy,VERB,True,False
the,the,the,the,DET,True,True
same,same,same,same,ADJ,True,True
pixel,pixel,pixel,pixel,NOUN,True,False
",",",",",",",",PUNCT,False,False
they,they,-PRON-,-pron-,PRON,True,True
will,will,will,will,VERB,True,True
each,each,each,each,ADV,True,True
receive,receive,receive,receive,VERB,True,False
the,the,the,the,DET,True,True
same,same,same,same,ADJ,True,True
mask,mask,mask,mask,NOUN,True,False
.,.,.,.,PUNCT,False,False
in,in,in,in,ADP,True,True
order,order,order,order,NOUN,True,False
to,to,to,to,PART,True,True
account,account,account,account,VERB,True,False
for,for,for,for,ADP,True,True
multiple,multiple,multiple,multiple,ADJ,True,False
possible,possible,possible,possible,ADJ,True,False
scenario,scenario,scenario,scenario,NOUN,True,False
of,of,of,of,ADP,True,True
interferer,interferer,interferer,interferer,ADJ,True,False
-,-,-,-,PUNCT,False,False
victim,victim,victim,victim,NOUN,True,False
interaction,interaction,interaction,interaction,NOUN,True,False
",",",",",",",",PUNCT,False,False
the,the,the,the,DET,True,True
sas,sas,sas,sas,PROPN,True,False
least,least,least,least,ADJ,True,True
restrictive,restrictive,restrictive,restrictive,ADJ,True,False
mask,mask,mask,mask,NOUN,True,False
mechanism,mechanism,mechanism,mechanism,NOUN,True,False
would,would,would,would,VERB,True,True
employ,employ,employ,employ,VERB,True,False
a,a,a,a,DET,True,True
database,database,database,database,NOUN,True,False
of,of,of,of,ADP,True,True
pre,pre,pre,pre,ADJ,True,False
-,-,-,-,ADJ,False,False
calculated,calculated,calculated,calculated,ADJ,True,False
mask,mask,mask,mask,NOUN,True,False
for,for,for,for,ADP,True,True
every,every,every,every,DET,True,True
possible,possible,possible,possible,ADJ,True,False
combination,combination,combination,combination,NOUN,True,False
of,of,of,of,ADP,True,True
factor,factor,factor,factor,NOUN,True,False
.,.,.,.,PUNCT,False,False
as,as,as,as,SCONJ,True,True
these,these,these,these,DET,True,True
parameter,parameter,parameter,parameter,NOUN,True,False
fluctuate,fluctuate,fluctuate,fluctuate,NOUN,True,False
",",",",",",",",PUNCT,False,False
i.e.,i.e.,i.e.,i.e.,X,False,False
the,the,the,the,DET,True,True
number,number,number,number,NOUN,True,False
of,of,of,of,ADP,True,True
ts,ts,ts,ts,NOUN,True,False
device,device,device,device,NOUN,True,False
can,can,can,can,VERB,True,True
rise,rise,rise,rise,VERB,True,False
and,and,and,and,CCONJ,True,True
fall,fall,fall,fall,VERB,True,False
",",",",",",",",PUNCT,False,False
so,so,so,so,ADV,True,True
do,do,do,do,AUX,True,True
the,the,the,the,DET,True,True
appropriate,appropriate,appropriate,appropriate,ADJ,True,False
least,least,least,least,ADJ,True,True
restrictive,restrictive,restrictive,restrictive,ADJ,True,False
scem.table,scem.table,scem.table,scem.table,ADJ,False,False
1,1,1,1,NUM,False,False
illustrate,illustrate,illustrate,illustrate,VERB,True,False
some,some,some,some,DET,True,True
of,of,of,of,ADP,True,True
the,the,the,the,DET,True,True
combination,combination,combination,combination,NOUN,True,False
of,of,of,of,ADP,True,True
interference,interference,interference,interference,NOUN,True,False
systemvictim,systemvictim,systemvictim,systemvictim,NOUN,True,False
system,system,system,system,NOUN,True,False
geometry,geometry,geometry,geometry,NOUN,True,False
for,for,for,for,ADP,True,True
which,which,which,which,DET,True,True
mask,mask,mask,mask,NOUN,True,False
be,be,be,be,VERB,True,True
pre,pre,pre,pre,VERB,True,False
-,-,-,-,ADJ,False,False
calculated,calculated,calculated,calculated,ADJ,True,False
and,and,and,and,CCONJ,True,True
store,store,store,store,NOUN,True,False
in,in,in,in,ADP,True,True
the,the,the,the,DET,True,True
database,database,database,database,NOUN,True,False
.,.,.,.,PUNCT,False,False
the,the,the,the,DET,True,True
victim,victim,victim,victim,NOUN,True,False
system,system,system,system,NOUN,True,False
in,in,in,in,ADP,True,True
table,table,table,table,NOUN,True,False
1,1,1,1,NUM,False,False
be,be,be,be,AUX,True,True
presume,presume,presume,presume,ADJ,True,False
to,to,to,to,PART,True,True
be,be,be,be,AUX,True,True
a,a,a,a,DET,True,True
priority,priority,priority,priority,NOUN,True,False
access,access,access,access,NOUN,True,False
system,system,system,system,NOUN,True,False
.,.,.,.,PUNCT,False,False
each,each,each,each,DET,True,True
line,line,line,line,NOUN,True,False
in,in,in,in,ADP,True,True
table,table,table,table,NOUN,True,False
1,1,1,1,NUM,False,False
correspond,correspond,correspond,correspond,NOUN,True,False
to,to,to,to,ADP,True,True
an,an,an,an,DET,True,True
interference,interference,interference,interference,NOUN,True,False
scenario,scenario,scenario,scenario,NOUN,True,False
.,.,.,.,PUNCT,False,False
each,each,each,each,DET,True,True
scenario,scenario,scenario,scenario,NOUN,True,False
can,can,can,can,VERB,True,True
vary,vary,vary,vary,VERB,True,False
by,by,by,by,ADP,True,True
whether,whether,whether,whether,SCONJ,True,True
the,the,the,the,DET,True,True
interferer,interferer,interferer,interferer,NOUN,True,False
and,and,and,and,CCONJ,True,True
victim,victim,victim,victim,NOUN,True,False
be,be,be,be,AUX,True,True
frequency,frequency,frequency,frequency,NOUN,True,False
adjacent,adjacent,adjacent,adjacent,ADJ,True,False
or,or,or,or,CCONJ,True,True
frequency,frequency,frequency,frequency,ADJ,True,False
co,co,co,co,NOUN,True,False
-,-,-,-,NOUN,False,False
locate,locate,locate,locate,VERB,True,False
whether,whether,whether,whether,SCONJ,True,True
the,the,the,the,DET,True,True
interferer,interferer,interferer,interferer,NOUN,True,False
and,and,and,and,CCONJ,True,True
victim,victim,victim,victim,NOUN,True,False
be,be,be,be,AUX,True,True
geographically,geographically,geographically,geographically,ADV,True,False
adjacent,adjacent,adjacent,adjacent,ADJ,True,False
besidediagonal,besidediagonal,besidediagonal,besidediagonal,ADJ,True,False
or,or,or,or,CCONJ,True,True
geographically,geographically,geographically,geographically,ADV,True,False
co,co,co,co,ADJ,True,False
-,-,-,-,ADJ,False,False
located,located,located,located,ADJ,True,False
see,see,see,see,VERB,True,True
figure,figure,figure,figure,NOUN,True,False
4,4,4,4,NUM,False,False
whether,whether,whether,whether,SCONJ,True,True
there,there,there,there,PRON,True,True
be,be,be,be,AUX,True,True
one,one,one,one,NUM,True,True
interfere,interfere,interfere,interfere,ADJ,True,False
system,system,system,system,NOUN,True,False
or,or,or,or,CCONJ,True,True
two,two,two,two,NUM,True,True
possibly,possibly,possibly,possibly,ADV,True,False
more,more,more,more,ADJ,True,True
whether,whether,whether,whether,SCONJ,True,True
the,the,the,the,DET,True,True
interference,interference,interference,interference,NOUN,True,False
be,be,be,be,VERB,True,True
between,between,between,between,ADP,True,True
two,two,two,two,NUM,True,True
terminal,terminal,terminal,terminal,ADJ,True,False
station,station,station,station,NOUN,True,False
or,or,or,or,CCONJ,True,True
a,a,a,a,DET,True,True
base,base,base,base,NOUN,True,False
station,station,station,station,NOUN,True,False
and,and,and,and,CCONJ,True,True
a,a,a,a,DET,True,True
terminal,terminal,terminal,terminal,ADJ,True,False
station,station,station,station,NOUN,True,False
.,.,.,.,PUNCT,False,False
figure,figure,figure,figure,NOUN,True,False
4,4,4,4,NUM,False,False
illustrate,illustrate,illustrate,illustrate,VERB,True,False
some,some,some,some,DET,True,True
of,of,of,of,ADP,True,True
the,the,the,the,DET,True,True
different,different,different,different,ADJ,True,False
possible,possible,possible,possible,ADJ,True,False
permutation,permutation,permutation,permutation,NOUN,True,False
of,of,of,of,ADP,True,True
interference,interference,interference,interference,NOUN,True,False
interaction,interaction,interaction,interaction,NOUN,True,False
between,between,between,between,ADP,True,True
frequency,frequency,frequency,frequency,ADJ,True,False
adjacent,adjacent,adjacent,adjacent,ADJ,True,False
system,system,system,system,NOUN,True,False
.,.,.,.,PUNCT,False,False
bs1,bs1,bs1,bs1,PROPN,False,False
and,and,and,and,CCONJ,True,True
bs2,bs2,bs2,bs2,PROPN,False,False
be,be,be,be,AUX,True,True
diagonal,diagonal,diagonal,diagonal,ADJ,True,False
to,to,to,to,ADP,True,True
each,each,each,each,DET,True,True
other,other,other,other,ADJ,True,True
this,this,this,this,DET,True,True
configuration,configuration,configuration,configuration,NOUN,True,False
will,will,will,will,VERB,True,True
statistically,statistically,statistically,statistically,ADV,True,False
cause,cause,cause,cause,VERB,True,False
the,the,the,the,DET,True,True
least,least,least,least,ADJ,True,True
interference,interference,interference,interference,NOUN,True,False
.,.,.,.,PUNCT,False,False
bs3,bs3,bs3,bs3,PROPN,False,False
and,and,and,and,CCONJ,True,True
bs4,bs4,bs4,bs4,PROPN,False,False
be,be,be,be,VERB,True,True
in,in,in,in,ADP,True,True
the,the,the,the,DET,True,True
same,same,same,same,ADJ,True,True
pixel,pixel,pixel,pixel,NOUN,True,False
which,which,which,which,DET,True,True
be,be,be,be,VERB,True,True
the,the,the,the,DET,True,True
configuration,configuration,configuration,configuration,NOUN,True,False
likely,likely,likely,likely,ADJ,True,False
to,to,to,to,PART,True,True
cause,cause,cause,cause,VERB,True,False
the,the,the,the,DET,True,True
most,most,most,most,ADJ,True,True
interference,interference,interference,interference,NOUN,True,False
.,.,.,.,PUNCT,False,False
if,if,if,if,SCONJ,True,True
we,we,-PRON-,-pron-,PRON,True,True
assume,assume,assume,assume,VERB,True,False
that,that,that,that,SCONJ,True,True
bs2,bs2,bs2,bs2,PROPN,False,False
be,be,be,be,AUX,True,True
a,a,a,a,DET,True,True
pa,pa,pa,pa,PROPN,True,False
system,system,system,system,NOUN,True,False
",",",",",",",",PUNCT,False,False
then,then,then,then,ADV,True,True
we,we,-PRON-,-pron-,PRON,True,True
would,would,would,would,VERB,True,True
need,need,need,need,VERB,True,False
to,to,to,to,PART,True,True
assign,assign,assign,assign,VERB,True,False
a,a,a,a,DET,True,True
mask,mask,mask,mask,NOUN,True,False
from,from,from,from,ADP,True,True
the,the,the,the,DET,True,True
database,database,database,database,NOUN,True,False
which,which,which,which,DET,True,True
account,account,account,account,VERB,True,False
for,for,for,for,ADP,True,True
3,3,3,3,NUM,False,False
frequency,frequency,frequency,frequency,NOUN,True,False
-,-,-,-,PUNCT,False,False
adjacent,adjacent,adjacent,adjacent,ADJ,True,False
gaa,gaa,gaa,gaa,NOUN,True,False
system,system,system,system,NOUN,True,False
",",",",",",",",PUNCT,False,False
where,where,where,where,ADV,True,True
2,2,2,2,NUM,False,False
gaa,gaa,gaa,gaa,NOUN,True,False
system,system,system,system,NOUN,True,False
bs3,bs3,bs3,bs3,NOUN,False,False
and,and,and,and,CCONJ,True,True
bs4,bs4,bs4,bs4,PROPN,False,False
be,be,be,be,AUX,True,True
geographically,geographically,geographically,geographically,ADV,True,False
-,-,-,-,PUNCT,False,False
adjacent,adjacent,adjacent,adjacent,ADJ,True,False
beside,beside,beside,beside,ADP,True,True
it,it,-PRON-,-pron-,PRON,True,True
and,and,and,and,CCONJ,True,True
the,the,the,the,DET,True,True
third,third,third,third,ADJ,True,True
gaa,gaa,gaa,gaa,NOUN,True,False
system,system,system,system,NOUN,True,False
bs1,bs1,bs1,bs1,PROPN,False,False
be,be,be,be,AUX,True,True
geographically,geographically,geographically,geographically,ADV,True,False
-,-,-,-,PUNCT,False,False
adjacent,adjacent,adjacent,adjacent,ADJ,True,False
diagonal,diagonal,diagonal,diagonal,ADJ,True,False
.,.,.,.,PUNCT,False,False
as,as,as,as,SCONJ,True,True
suggest,suggest,suggest,suggest,VERB,True,False
by,by,by,by,ADP,True,True
the,the,the,the,DET,True,True
nprm,nprm,nprm,nprm,NOUN,True,False
",",",",",",",",PUNCT,False,False
we,we,-PRON-,-pron-,PRON,True,True
agree,agree,agree,agree,VERB,True,False
that,that,that,that,SCONJ,True,True
the,the,the,the,DET,True,True
gaa,gaa,gaa,gaa,NOUN,True,False
user,user,user,user,NOUN,True,False
should,should,should,should,VERB,True,True
be,be,be,be,AUX,True,True
purely,purely,purely,purely,ADV,True,False
opportunistic,opportunistic,opportunistic,opportunistic,ADJ,True,False
user,user,user,user,NOUN,True,False
of,of,of,of,ADP,True,True
the,the,the,the,DET,True,True
3.5,3.5,3.5,3.5,NUM,False,False
ghz,ghz,ghz,ghz,PROPN,True,False
band,band,band,band,NOUN,True,False
.,.,.,.,PUNCT,False,False
we,we,-PRON-,-pron-,PRON,True,True
suggest,suggest,suggest,suggest,VERB,True,False
that,that,that,that,SCONJ,True,True
multiple,multiple,multiple,multiple,ADJ,True,False
gaa,gaa,gaa,gaa,NOUN,True,False
user,user,user,user,NOUN,True,False
should,should,should,should,VERB,True,True
be,be,be,be,AUX,True,True
allow,allow,allow,allow,VERB,True,False
to,to,to,to,PART,True,True
operate,operate,operate,operate,VERB,True,False
simultaneously,simultaneously,simultaneously,simultaneously,ADV,True,False
at,at,at,at,ADP,True,True
the,the,the,the,DET,True,True
same,same,same,same,ADJ,True,True
frequency,frequency,frequency,frequency,NOUN,True,False
the,the,the,the,DET,True,True
3.5,3.5,3.5,3.5,NUM,False,False
ghz,ghz,ghz,ghz,PROPN,True,False
band,band,band,band,NOUN,True,False
may,may,may,may,VERB,True,True
be,be,be,be,AUX,True,True
segment,segment,segment,segment,NOUN,True,False
or,or,or,or,CCONJ,True,True
channelize,channelize,channelize,channelize,VERB,True,False
",",",",",",",",PUNCT,False,False
an,an,an,an,DET,True,True
approach,approach,approach,approach,NOUN,True,False
which,which,which,which,DET,True,True
would,would,would,would,VERB,True,True
also,also,also,also,ADV,True,True
work,work,work,work,VERB,True,False
with,with,with,with,ADP,True,True
our,our,-PRON-,-pron-,DET,True,True
suggest,suggest,sugg,sugg,ADJ,True,False
mechanism,mechanism,mechanism,mechanism,NOUN,True,False
.,.,.,.,PUNCT,False,False
a,a,a,a,DET,True,True
gaa,gaa,gaa,gaa,NOUN,True,False
user,user,user,user,NOUN,True,False
",",",",",",",",PUNCT,False,False
if,if,if,if,SCONJ,True,True
register,register,register,register,VERB,True,False
as,as,as,as,SCONJ,True,True
be,be,be,be,AUX,True,True
alone,alone,alone,alone,ADJ,True,True
at,at,at,at,ADP,True,True
a,a,a,a,DET,True,True
pixel,pixel,pixel,pixel,NOUN,True,False
would,would,would,would,VERB,True,True
be,be,be,be,AUX,True,True
assign,assign,assign,assign,VERB,True,False
a,a,a,a,DET,True,True
scem,scem,scem,scem,NOUN,True,False
which,which,which,which,DET,True,True
would,would,would,would,VERB,True,True
allow,allow,allow,allow,VERB,True,False
it,it,-PRON-,-pron-,PRON,True,True
",",",",",",",",PUNCT,False,False
alone,alone,alone,alone,ADV,True,True
",",",",",",",",PUNCT,False,False
to,to,to,to,PART,True,True
maximise,maximise,maximise,maximise,VERB,True,False
the,the,the,the,DET,True,True
spectral,spectral,spectral,spectral,ADJ,True,False
efficiency,efficiency,efficiency,efficiency,NOUN,True,False
of,of,of,of,ADP,True,True
that,that,that,that,DET,True,True
opportunity,opportunity,opportunity,opportunity,NOUN,True,False
.,.,.,.,PUNCT,False,False
however,however,however,however,ADV,True,True
",",",",",",",",PUNCT,False,False
if,if,if,if,SCONJ,True,True
a,a,a,a,DET,True,True
second,second,second,second,ADJ,True,False
gaa,gaa,gaa,gaa,NOUN,True,False
user,user,user,user,NOUN,True,False
register,register,register,register,VERB,True,False
to,to,to,to,PART,True,True
use,use,use,use,VERB,True,False
the,the,the,the,DET,True,True
same,same,same,same,ADJ,True,True
pixel,pixel,pixel,pixel,NOUN,True,False
or,or,or,or,CCONJ,True,True
an,an,an,an,DET,True,True
adjacent,adjacent,adjacent,adjacent,ADJ,True,False
pixel,pixel,pixel,pixel,NOUN,True,False
the,the,the,the,DET,True,True
power,power,power,power,NOUN,True,False
of,of,of,of,ADP,True,True
both,both,both,both,DET,True,True
would,would,would,would,VERB,True,True
have,have,have,have,AUX,True,True
to,to,to,to,PART,True,True
drop,drop,drop,drop,VERB,True,False
such,such,such,such,ADJ,True,True
that,that,that,that,SCONJ,True,True
their,their,-PRON-,-pron-,DET,True,True
aggregate,aggregate,aggregate,aggregate,NOUN,True,False
ib,ib,ib,ib,ADP,True,False
oob,oob,oob,oob,PROPN,True,False
interference,interference,interference,interference,NOUN,True,False
do,do,do,do,AUX,True,True
not,not,not,not,PART,True,True
cause,cause,cause,cause,VERB,True,False
other,other,other,other,ADJ,True,True
system,system,system,system,NOUN,True,False
interference,interference,interference,interference,NOUN,True,False
",",",",",",",",PUNCT,False,False
and,and,and,and,CCONJ,True,True
they,they,-PRON-,-pron-,PRON,True,True
will,will,will,will,VERB,True,True
not,not,not,not,PART,True,True
cause,cause,cause,cause,VERB,True,False
each,each,each,each,DET,True,True
other,other,other,other,ADJ,True,True
too,too,too,too,ADV,True,True
much,much,much,much,ADJ,True,True
co,co,co,co,ADJ,True,False
-,-,-,-,ADJ,False,False
channel,channel,channel,channel,ADJ,True,False
interference,interference,interference,interference,NOUN,True,False
.,.,.,.,PUNCT,False,False
the,the,the,the,DET,True,True
degree,degree,degree,degree,NOUN,True,False
to,to,to,to,PART,True,True
which,which,which,which,DET,True,True
co,co,co,co,NOUN,True,False
-,-,-,-,NOUN,False,False
channel,channel,channel,channel,ADJ,True,False
interference,interference,interference,interference,NOUN,True,False
can,can,can,can,VERB,True,True
be,be,be,be,AUX,True,True
tolerate,tolerate,tolerate,tolerate,NOUN,True,False
among,among,among,among,ADP,True,True
gaa,gaa,gaa,gaa,NOUN,True,False
user,user,user,user,NOUN,True,False
will,will,will,will,VERB,True,True
be,be,be,be,AUX,True,True
dependent,dependent,dependent,dependent,ADJ,True,False
on,on,on,on,ADP,True,True
what,what,what,what,PRON,True,True
ts,ts,ts,ts,DET,True,False
receiver,receiver,receiver,receiver,NOUN,True,False
and,and,and,and,CCONJ,True,True
cell,cell,cell,cell,NOUN,True,False
radius,radius,radius,radius,PROPN,True,False
characteristic,characteristic,characteristic,characteristic,NOUN,True,False
the,the,the,the,DET,True,True
commission,commission,commission,commission,NOUN,True,False
deem,deem,deem,deem,NOUN,True,False
appropriate,appropriate,appropriate,appropriate,ADJ,True,False
for,for,for,for,ADP,True,True
small,small,small,small,ADJ,True,False
cell,cell,cell,cell,NOUN,True,False
systems.c,systems.c,systems.c,systems.c,PROPN,False,False
.,.,.,.,PUNCT,False,False
derive,derive,derive,derive,VERB,True,False
appropriate,appropriate,appropriate,appropriate,ADJ,True,False
small,small,small,small,ADJ,True,False
cell,cell,cell,cell,NOUN,True,False
edge,edge,edge,edge,NOUN,True,False
masksthe,masksthe,masksthe,masksthe,ADJ,True,False
calculation,calculation,calculation,calculation,NOUN,True,False
to,to,to,to,PART,True,True
derive,derive,derive,derive,VERB,True,False
the,the,the,the,DET,True,True
scem,scem,scem,scem,NOUN,True,False
be,be,be,be,AUX,True,True
adapt,adapt,adapt,adapt,ADJ,True,False
from,from,from,from,ADP,True,True
the,the,the,the,DET,True,True
ecc,ecc,ecc,ecc,ADJ,True,False
report,report,report,report,NOUN,True,False
on,on,on,on,ADP,True,True
block,block,block,block,NOUN,True,False
edge,edge,edge,edge,NOUN,True,False
mask,mask,mask,mask,PROPN,True,False
derivation,derivation,derivation,derivation,NOUN,True,False
.,.,.,.,PUNCT,False,False
in,in,in,in,ADP,True,True
order,order,order,order,NOUN,True,False
to,to,to,to,PART,True,True
construct,construct,construct,construct,VERB,True,False
a,a,a,a,DET,True,True
scem,scem,scem,scem,NOUN,True,False
",",",",",",",",PUNCT,False,False
three,three,three,three,NUM,True,True
limit,limit,limit,limit,NOUN,True,False
be,be,be,be,AUX,True,True
need,need,need,need,VERB,True,False
the,the,the,the,DET,True,True
ib,ib,ib,ib,PROPN,True,False
eirp,eirp,eirp,eirp,NOUN,True,False
and,and,and,and,CCONJ,True,True
the,the,the,the,DET,True,True
oob,oob,oob,oob,PROPN,True,False
eirp,eirp,eirp,eirp,PROPN,True,False
for,for,for,for,ADP,True,True
each,each,each,each,DET,True,True
side,side,side,side,NOUN,True,True
of,of,of,of,ADP,True,True
the,the,the,the,DET,True,True
mask,mask,mask,mask,NOUN,True,False
.,.,.,.,PUNCT,False,False
the,the,the,the,DET,True,True
ib,ib,ib,ib,ADP,True,False
power,power,power,power,NOUN,True,False
limit,limit,limit,limit,NOUN,True,False
in,in,in,in,ADP,True,True
this,this,this,this,DET,True,True
case,case,case,case,NOUN,True,False
can,can,can,can,VERB,True,True
be,be,be,be,AUX,True,True
determine,determine,determine,determine,VERB,True,False
by,by,by,by,ADP,True,True
the,the,the,the,DET,True,True
desire,desire,desire,desire,NOUN,True,False
cell,cell,cell,cell,NOUN,True,False
size,size,size,size,NOUN,True,False
and,and,and,and,CCONJ,True,True
minimum,minimum,minimum,minimum,NOUN,True,False
snr,snr,snr,snr,NOUN,True,False
of,of,of,of,ADP,True,True
the,the,the,the,DET,True,True
small,small,small,small,ADJ,True,False
cell,cell,cell,cell,NOUN,True,False
system,system,system,system,NOUN,True,False
in,in,in,in,ADP,True,True
question,question,question,question,NOUN,True,False
.,.,.,.,PUNCT,False,False
if,if,if,if,SCONJ,True,True
there,there,there,there,PRON,True,True
be,be,be,be,AUX,True,True
a,a,a,a,DET,True,True
minimum,minimum,minimum,minimum,ADJ,True,False
snr,snr,snr,snr,NOUN,True,False
and,and,and,and,CCONJ,True,True
a,a,a,a,DET,True,True
desire,desire,desire,desire,NOUN,True,False
cell,cell,cell,cell,NOUN,True,False
radius,radius,radius,radius,NOUN,True,False
size,size,size,size,NOUN,True,False
then,then,then,then,ADV,True,True
the,the,the,the,DET,True,True
ib,ib,ib,ib,ADP,True,False
power,power,power,power,NOUN,True,False
limit,limit,limit,limit,NOUN,True,False
can,can,can,can,VERB,True,True
be,be,be,be,AUX,True,True
determine,determine,determine,determine,VERB,True,False
simply,simply,simply,simply,ADV,True,False
by,by,by,by,ADP,True,True
examine,examine,examine,examine,VERB,True,False
an,an,an,an,DET,True,True
appropriate,appropriate,appropriate,appropriate,ADJ,True,False
path,path,path,path,NOUN,True,False
loss,loss,loss,loss,NOUN,True,False
model,model,model,model,NOUN,True,False
.,.,.,.,PUNCT,False,False
we,we,-PRON-,-pron-,PRON,True,True
note,note,note,note,VERB,True,False
that,that,that,that,SCONJ,True,True
the,the,the,the,DET,True,True
commission,commission,commission,commission,NOUN,True,False
have,have,have,have,AUX,True,True
request,request,request,request,NOUN,True,False
comment,comment,comment,comment,NOUN,True,False
on,on,on,on,ADP,True,True
the,the,the,the,DET,True,True
appropriate,appropriate,appropriate,appropriate,ADJ,True,False
propagation,propagation,propagation,propagation,NOUN,True,False
model,model,model,model,NOUN,True,False
to,to,to,to,PART,True,True
be,be,be,be,AUX,True,True
use,use,use,use,NOUN,True,False
for,for,for,for,ADP,True,True
small,small,small,small,ADJ,True,False
cells,cells,cell,cell,NOUN,True,False
at,at,at,at,ADP,True,True
3.5,3.5,3.5,3.5,NUM,False,False
ghz,ghz,ghz,ghz,NOUN,True,False
.,.,.,.,PUNCT,False,False
if,if,if,if,SCONJ,True,True
the,the,the,the,DET,True,True
minimum,minimum,minimum,minimum,NOUN,True,False
snr,snr,snr,snr,NOUN,True,False
be,be,be,be,AUX,True,True
know,know,know,know,ADJ,True,False
and,and,and,and,CCONJ,True,True
if,if,if,if,SCONJ,True,True
there,there,there,there,PRON,True,True
be,be,be,be,AUX,True,True
an,an,an,an,DET,True,True
estimation,estimation,estimation,estimation,NOUN,True,False
of,of,of,of,ADP,True,True
the,the,the,the,DET,True,True
noise,noise,noise,noise,NOUN,True,False
floor,floor,floor,floor,NOUN,True,False
then,then,then,then,ADV,True,True
the,the,the,the,DET,True,True
ib,ib,ib,ib,ADP,True,False
power,power,power,power,NOUN,True,False
correspond,correspond,correspond,correspond,PROPN,True,False
to,to,to,to,ADP,True,True
the,the,the,the,DET,True,True
desire,desire,desire,desire,NOUN,True,False
cell,cell,cell,cell,NOUN,True,False
radius,radius,radius,radius,NOUN,True,False
size,size,size,size,NOUN,True,False
can,can,can,can,VERB,True,True
be,be,be,be,AUX,True,True
determine,determine,determine,determine,VERB,True,False
.,.,.,.,PUNCT,False,False
this,this,this,this,DET,True,True
level,level,level,level,NOUN,True,False
can,can,can,can,VERB,True,True
be,be,be,be,AUX,True,True
adjust,adjust,adjust,adjust,ADJ,True,False
as,as,as,as,SCONJ,True,True
aggregate,aggregate,aggregate,aggregate,ADJ,True,False
interference,interference,interference,interference,NOUN,True,False
be,be,be,be,AUX,True,True
take,take,take,take,VERB,True,True
into,into,into,into,ADP,True,True
account,account,account,account,NOUN,True,False
.,.,.,.,PUNCT,False,False
the,the,the,the,DET,True,True
oob,oob,oob,oob,PROPN,True,False
eirp,eirp,eirp,eirp,PROPN,True,False
be,be,be,be,AUX,True,True
the,the,the,the,DET,True,True
acceptable,acceptable,acceptable,acceptable,ADJ,True,False
interference,interference,interference,interference,NOUN,True,False
in,in,in,in,ADP,True,True
a,a,a,a,DET,True,True
band,band,band,band,NOUN,True,False
as,as,as,as,SCONJ,True,True
a,a,a,a,DET,True,True
result,result,result,result,NOUN,True,False
of,of,of,of,ADP,True,True
interference,interference,interference,interference,NOUN,True,False
from,from,from,from,ADP,True,True
the,the,the,the,DET,True,True
adjacent,adjacent,adjacent,adjacent,ADJ,True,False
band,band,band,band,NOUN,True,False
.,.,.,.,PUNCT,False,False
this,this,this,this,DET,True,True
be,be,be,be,AUX,True,True
calculate,calculate,calculate,calculate,NOUN,True,False
by,by,by,by,PART,True,True
perform,perform,perform,perform,VERB,True,False
a,a,a,a,DET,True,True
statistical,statistical,statistical,statistical,ADJ,True,False
monte,monte,monte,monte,ADJ,True,False
-,-,-,-,PUNCT,False,False
carlo,carlo,carlo,carlo,ADJ,True,False
analysis,analysis,analysis,analysis,NOUN,True,False
on,on,on,on,ADP,True,True
two,two,two,two,NUM,True,True
neighbouring,neighbouring,neighbouring,neighbouring,NOUN,True,False
system,system,system,system,NOUN,True,False
that,that,that,that,DET,True,True
be,be,be,be,VERB,True,True
geographically,geographically,geographically,geographically,ADV,True,False
co,co,co,co,ADJ,True,False
-,-,-,-,ADJ,False,False
located,located,located,located,ADJ,True,False
and,and,and,and,CCONJ,True,True
frequency,frequency,frequency,frequency,ADJ,True,False
adjacent,adjacent,adjacent,adjacent,ADJ,True,False
.,.,.,.,PUNCT,False,False
from,from,from,from,ADP,True,True
this,this,this,this,DET,True,True
analysis,analysis,analysis,analysis,NOUN,True,False
a,a,a,a,DET,True,True
cumulative,cumulative,cumulative,cumulative,ADJ,True,False
distribution,distribution,distribution,distribution,NOUN,True,False
function,function,function,function,NOUN,True,False
cdf,cdf,cdf,cdf,PROPN,True,False
be,be,be,be,AUX,True,True
produce,produce,produce,produce,NOUN,True,False
figure,figure,figure,figure,NOUN,True,False
3,3,3,3,NUM,False,False
.,.,.,.,PUNCT,False,False
depend,depend,depend,depend,VERB,True,False
on,on,on,on,ADP,True,True
how,how,how,how,ADV,True,True
reliable,reliable,reliable,reliable,ADJ,True,False
the,the,the,the,DET,True,True
mask,mask,mask,mask,NOUN,True,False
need,need,need,need,NOUN,True,False
to,to,to,to,PART,True,True
be,be,be,be,AUX,True,True
",",",",",",",",PUNCT,False,False
an,an,an,an,DET,True,True
oob,oob,oob,oob,X,True,False
anywhere,anywhere,anywhere,anywhere,ADV,True,True
from,from,from,from,ADP,True,True
95,95,95,95,NUM,False,False
-,-,-,-,SYM,False,False
98,98,98,98,NUM,False,False
of,of,of,of,ADP,True,True
the,the,the,the,DET,True,True
realization,realization,realization,realization,NOUN,True,False
can,can,can,can,VERB,True,True
be,be,be,be,AUX,True,True
accept,accept,accept,accept,VERB,True,False
.,.,.,.,PUNCT,False,False
this,this,this,this,DET,True,True
value,value,value,value,NOUN,True,False
be,be,be,be,AUX,True,True
the,the,the,the,DET,True,True
oob,oob,oob,oob,PROPN,True,False
level,level,level,level,NOUN,True,False
for,for,for,for,ADP,True,True
the,the,the,the,DET,True,True
mask,mask,mask,mask,NOUN,True,False
at,at,at,at,ADP,True,True
the,the,the,the,DET,True,True
edge,edge,edge,edge,NOUN,True,False
between,between,between,between,ADP,True,True
these,these,these,these,DET,True,True
two,two,two,two,NUM,True,True
system,system,system,system,NOUN,True,False
.,.,.,.,PUNCT,False,False
this,this,this,this,DET,True,True
process,process,process,process,NOUN,True,False
would,would,would,would,VERB,True,True
be,be,be,be,AUX,True,True
repeat,repeat,repeat,repeat,NOUN,True,False
for,for,for,for,ADP,True,True
the,the,the,the,DET,True,True
other,other,other,other,ADJ,True,True
edge,edge,edge,edge,NOUN,True,False
give,give,give,give,VERB,True,True
both,both,both,both,DET,True,True
side,side,side,side,NOUN,True,True
.,.,.,.,PUNCT,False,False
it,it,-PRON-,-pron-,PRON,True,True
be,be,be,be,AUX,True,True
important,important,important,important,ADJ,True,False
to,to,to,to,PART,True,True
note,note,note,note,VERB,True,False
that,that,that,that,SCONJ,True,True
this,this,this,this,DET,True,True
process,process,process,process,NOUN,True,False
would,would,would,would,VERB,True,True
be,be,be,be,AUX,True,True
repeat,repeat,repeat,repeat,NOUN,True,False
for,for,for,for,ADP,True,True
all,all,all,all,DET,True,True
reasonable,reasonable,reasonable,reasonable,ADJ,True,False
or,or,or,or,CCONJ,True,True
expect,expect,expect,expect,VERB,True,False
value,value,value,value,NOUN,True,False
for,for,for,for,ADP,True,True
density,density,density,density,NOUN,True,False
d,d,d,d,VERB,True,False
so,so,so,so,SCONJ,True,True
that,that,that,that,SCONJ,True,True
the,the,the,the,DET,True,True
database,database,database,database,NOUN,True,False
can,can,can,can,VERB,True,True
assign,assign,assign,assign,VERB,True,False
new,new,new,new,ADJ,True,False
mask,mask,mask,mask,NOUN,True,False
value,value,value,value,NOUN,True,False
as,as,as,as,SCONJ,True,True
the,the,the,the,DET,True,True
ts,ts,ts,ts,DET,True,False
density,density,density,density,NOUN,True,False
of,of,of,of,ADP,True,True
the,the,the,the,DET,True,True
cell,cell,cell,cell,NOUN,True,False
vary,vary,vary,vary,VERB,True,False
.,.,.,.,PUNCT,False,False
the,the,the,the,DET,True,True
graph,graph,graph,graph,NOUN,True,False
in,in,in,in,ADP,True,True
figure,figure,figure,figure,NOUN,True,False
4,4,4,4,NUM,False,False
represent,represent,represent,represent,VERB,True,False
the,the,the,the,DET,True,True
oob,oob,oob,oob,PROPN,True,False
level,level,level,level,NOUN,True,False
plot,plot,plot,plot,NOUN,True,False
against,against,against,against,ADP,True,True
the,the,the,the,DET,True,True
ts,ts,ts,ts,PROPN,True,False
density,density,density,density,NOUN,True,False
of,of,of,of,ADP,True,True
the,the,the,the,DET,True,True
two,two,two,two,NUM,True,True
frequency,frequency,frequency,frequency,NOUN,True,False
adjacent,adjacent,adjacent,adjacent,ADJ,True,False
",",",",",",",",PUNCT,False,False
geographically,geographically,geographically,geographically,ADV,True,False
co,co,co,co,ADJ,True,False
-,-,-,-,ADJ,False,False
located,located,located,located,ADJ,True,False
small,small,small,small,ADJ,True,False
cell,cell,cell,cell,NOUN,True,False
system,system,system,system,NOUN,True,False
.,.,.,.,PUNCT,False,False
this,this,this,this,DET,True,True
sample,sample,sample,sample,NOUN,True,False
graph,graph,graph,graph,NOUN,True,False
show,show,show,show,VERB,True,True
the,the,the,the,DET,True,True
oob,oob,oob,oob,PROPN,True,False
limit,limit,limit,limit,NOUN,True,False
for,for,for,for,ADP,True,True
a,a,a,a,DET,True,True
gaa,gaa,gaa,gaa,NOUN,True,False
user,user,user,user,NOUN,True,False
adjacent,adjacent,adjacent,adjacent,ADJ,True,False
to,to,to,to,ADP,True,True
a,a,a,a,DET,True,True
pa,pa,pa,pa,PROPN,True,False
user,user,user,user,NOUN,True,False
where,where,where,where,ADV,True,True
the,the,the,the,DET,True,True
pa,pa,pa,pa,PROPN,True,False
user,user,user,user,NOUN,True,False
have,have,have,have,AUX,True,True
a,a,a,a,DET,True,True
ts,ts,ts,ts,PROPN,True,False
density,density,density,density,NOUN,True,False
of,of,of,of,ADP,True,True
20,20,20,20,NUM,False,False
in,in,in,in,ADP,True,True
its,its,-PRON-,-pron-,DET,True,True
system,system,system,system,NOUN,True,False
and,and,and,and,CCONJ,True,True
the,the,the,the,DET,True,True
gaa,gaa,gaa,gaa,NOUN,True,False
user,user,user,user,NOUN,True,False
ts,ts,ts,ts,DET,True,False
density,density,density,density,NOUN,True,False
be,be,be,be,AUX,True,True
varied,varied,vary,vary,VERB,True,False
from,from,from,from,ADP,True,True
2,2,2,2,NUM,False,False
to,to,to,to,ADP,True,True
52,52,52,52,NUM,False,False
.,.,.,.,PUNCT,False,False
this,this,this,this,DET,True,True
graph,graph,graph,graph,NOUN,True,False
correspond,correspond,correspond,correspond,NOUN,True,False
to,to,to,to,ADP,True,True
scenario,scenario,scenario,scenario,NOUN,True,False
1,1,1,1,NUM,False,False
in,in,in,in,ADP,True,True
table,table,table,table,NOUN,True,False
1,1,1,1,NUM,False,False
.,.,.,.,PUNCT,False,False
if,if,if,if,SCONJ,True,True
the,the,the,the,DET,True,True
gaa,gaa,gaa,gaa,NOUN,True,False
user,user,user,user,NOUN,True,False
report,report,report,report,NOUN,True,False
when,when,when,when,ADV,True,True
its,its,-PRON-,-pron-,DET,True,True
ts,ts,ts,ts,DET,True,False
density,density,density,density,NOUN,True,False
pass,pass,pass,pass,VERB,True,False
certain,certain,certain,certain,ADJ,True,False
threshold,threshold,threshold,threshold,NOUN,True,False
the,the,the,the,DET,True,True
database,database,database,database,NOUN,True,False
would,would,would,would,VERB,True,True
use,use,use,use,VERB,True,False
this,this,this,this,DET,True,True
datum,datum,datum,datum,NOUN,True,False
to,to,to,to,PART,True,True
assign,assign,assign,assign,VERB,True,False
a,a,a,a,DET,True,True
new,new,new,new,ADJ,True,False
oob,oob,oob,oob,PROPN,True,False
limit,limit,limit,limit,NOUN,True,False
.,.,.,.,PUNCT,False,False
if,if,if,if,SCONJ,True,True
another,another,another,another,DET,True,True
gaa,gaa,gaa,gaa,NOUN,True,False
user,user,user,user,NOUN,True,False
be,be,be,be,AUX,True,True
to,to,to,to,PART,True,True
come,come,come,come,VERB,True,False
online,online,online,online,ADV,True,False
at,at,at,at,ADP,True,True
the,the,the,the,DET,True,True
same,same,same,same,ADJ,True,True
frequency,frequency,frequency,frequency,NOUN,True,False
and,and,and,and,CCONJ,True,True
geographic,geographic,geographic,geographic,ADJ,True,False
location,location,location,location,NOUN,True,False
then,then,then,then,ADV,True,True
the,the,the,the,DET,True,True
interference,interference,interference,interference,NOUN,True,False
scenario,scenario,scenario,scenario,NOUN,True,False
would,would,would,would,VERB,True,True
change,change,change,change,VERB,True,False
to,to,to,to,ADP,True,True
scenario,scenario,scenario,scenario,NOUN,True,False
16,16,16,16,NUM,False,False
and,and,and,and,CCONJ,True,True
both,both,both,both,DET,True,True
gaa,gaa,gaa,gaa,NOUN,True,False
user,user,user,user,NOUN,True,False
would,would,would,would,VERB,True,True
then,then,then,then,ADV,True,True
be,be,be,be,AUX,True,True
assign,assign,assign,assign,ADJ,True,False
oob,oob,oob,oob,PROPN,True,False
limit,limit,limit,limit,NOUN,True,False
base,base,base,base,NOUN,True,False
on,on,on,on,ADP,True,True
the,the,the,the,DET,True,True
datum,datum,datum,datum,NOUN,True,False
for,for,for,for,ADP,True,True
that,that,that,that,DET,True,True
scenario,scenario,scenario,scenario,NOUN,True,False
.,.,.,.,PUNCT,False,False
in,in,in,in,ADP,True,True
figure,figure,figure,figure,NOUN,True,False
5,5,5,5,NUM,False,False
we,we,-PRON-,-pron-,PRON,True,True
can,can,can,can,VERB,True,True
see,see,see,see,VERB,True,True
the,the,the,the,DET,True,True
dataset,dataset,dataset,dataset,NOUN,True,False
for,for,for,for,ADP,True,True
two,two,two,two,NUM,True,True
gaa,gaa,gaa,gaa,NOUN,True,False
user,user,user,user,NOUN,True,False
that,that,that,that,DET,True,True
be,be,be,be,VERB,True,True
frequency,frequency,frequency,frequency,ADJ,True,False
and,and,and,and,CCONJ,True,True
geographically,geographically,geographically,geographically,ADV,True,False
co,co,co,co,VERB,True,False
-,-,-,-,ADJ,False,False
located,located,located,located,ADJ,True,False
.,.,.,.,PUNCT,False,False
the,the,the,the,DET,True,True
key,key,key,key,ADJ,True,False
difference,difference,difference,difference,NOUN,True,False
in,in,in,in,ADP,True,True
these,these,these,these,DET,True,True
two,two,two,two,NUM,True,True
interference,interference,interference,interference,NOUN,True,False
scenario,scenario,scenario,scenario,NOUN,True,False
be,be,be,be,AUX,True,True
that,that,that,that,SCONJ,True,True
it,it,-PRON-,-pron-,PRON,True,True
be,be,be,be,AUX,True,True
possible,possible,possible,possible,ADJ,True,False
for,for,for,for,ADP,True,True
twice,twice,twice,twice,DET,True,False
as,as,as,as,ADV,True,True
many,many,many,many,ADJ,True,True
terminal,terminal,terminal,terminal,ADJ,True,False
station,station,station,station,NOUN,True,False
to,to,to,to,PART,True,True
be,be,be,be,AUX,True,True
transmit,transmit,transmit,transmit,NOUN,True,False
at,at,at,at,ADP,True,True
the,the,the,the,DET,True,True
same,same,same,same,ADJ,True,True
time,time,time,time,NOUN,True,False
when,when,when,when,ADV,True,True
the,the,the,the,DET,True,True
aggregate,aggregate,aggregate,aggregate,ADJ,True,False
interference,interference,interference,interference,NOUN,True,False
be,be,be,be,AUX,True,True
take,take,take,take,VERB,True,True
into,into,into,into,ADP,True,True
account,account,account,account,NOUN,True,False
the,the,the,the,DET,True,True
division,division,division,division,NOUN,True,False
of,of,of,of,ADP,True,True
the,the,the,the,DET,True,True
interference,interference,interference,interference,NOUN,True,False
allowance,allowance,allowance,allowance,NOUN,True,False
between,between,between,between,ADP,True,True
different,different,different,different,ADJ,True,False
terminal,terminal,terminal,terminal,NOUN,True,False
station,station,station,station,NOUN,True,False
result,result,result,result,VERB,True,False
in,in,in,in,ADP,True,True
a,a,a,a,DET,True,True
strict,strict,strict,strict,ADJ,True,False
mask,mask,mask,mask,NOUN,True,False
.,.,.,.,PUNCT,False,False
these,these,these,these,DET,True,True
two,two,two,two,NUM,True,True
interference,interference,interference,interference,NOUN,True,False
scenario,scenario,scenario,scenario,NOUN,True,False
serve,serve,serve,serve,VERB,True,False
only,only,only,only,ADV,True,True
as,as,as,as,SCONJ,True,True
an,an,an,an,DET,True,True
example,example,example,example,NOUN,True,False
and,and,and,and,CCONJ,True,True
if,if,if,if,SCONJ,True,True
this,this,this,this,DET,True,True
kind,kind,kind,kind,NOUN,True,False
of,of,of,of,ADP,True,True
system,system,system,system,NOUN,True,False
be,be,be,be,AUX,True,True
to,to,to,to,PART,True,True
be,be,be,be,AUX,True,True
implement,implement,implement,implement,ADJ,True,False
",",",",",",",",PUNCT,False,False
similar,similar,similar,similar,ADJ,True,False
calculation,calculation,calculation,calculation,NOUN,True,False
would,would,would,would,VERB,True,True
have,have,have,have,AUX,True,True
to,to,to,to,PART,True,True
be,be,be,be,AUX,True,True
perform,perform,perform,perform,VERB,True,False
for,for,for,for,ADP,True,True
every,every,every,every,DET,True,True
interference,interference,interference,interference,NOUN,True,False
scenario,scenario,scenario,scenario,NOUN,True,False
and,and,and,and,CCONJ,True,True
every,every,every,every,DET,True,True
possible,possible,possible,possible,ADJ,True,False
combination,combination,combination,combination,NOUN,True,False
of,of,of,of,ADP,True,True
ts,ts,ts,ts,DET,True,False
density,density,density,density,NOUN,True,False
.,.,.,.,PUNCT,False,False
the,the,the,the,DET,True,True
combination,combination,combination,combination,NOUN,True,False
can,can,can,can,VERB,True,True
also,also,also,also,ADV,True,True
be,be,be,be,AUX,True,True
extend,extend,extend,extend,VERB,True,False
to,to,to,to,PART,True,True
include,include,include,include,VERB,True,False
mix,mix,mix,mix,NOUN,True,False
of,of,of,of,ADP,True,True
tdd,tdd,tdd,tdd,NOUN,True,False
and,and,and,and,CCONJ,True,True
fdd,fdd,fdd,fdd,NOUN,True,False
base,base,base,base,PROPN,True,False
systems.2,systems.2,systems.2,systems.2,PROPN,False,False
.,.,.,.,PUNCT,False,False
summaryctvr,summaryctvr,summaryctvr,summaryctvr,NOUN,True,False
welcome,welcome,welcome,welcome,VERB,True,False
the,the,the,the,DET,True,True
commissions,commissions,commission,commission,NOUN,True,False
proposal,proposal,proposal,proposal,NOUN,True,False
to,to,to,to,PART,True,True
advance,advance,advance,advance,VERB,True,False
spectrum,spectrum,spectrum,spectrum,NOUN,True,False
sharing,sharing,sharing,sharing,NOUN,True,False
and,and,and,and,CCONJ,True,True
small,small,small,small,ADJ,True,False
cell,cell,cell,cell,NOUN,True,False
technology,technology,technology,technology,NOUN,True,False
by,by,by,by,ADP,True,True
adopt,adopt,adopt,adopt,VERB,True,False
a,a,a,a,DET,True,True
dynamic,dynamic,dynamic,dynamic,ADJ,True,False
spectrum,spectrum,spectrum,spectrum,NOUN,True,False
access,access,access,access,NOUN,True,False
system,system,system,system,NOUN,True,False
in,in,in,in,ADP,True,True
the,the,the,the,DET,True,True
3.5ghz,3.5ghz,3.5ghz,3.5ghz,PROPN,False,False
band,band,band,band,NOUN,True,False
.,.,.,.,PUNCT,False,False
we,we,-PRON-,-pron-,PRON,True,True
strongly,strongly,strongly,strongly,ADV,True,False
suggest,suggest,suggest,suggest,VERB,True,False
that,that,that,that,SCONJ,True,True
this,this,this,this,DET,True,True
band,band,band,band,NOUN,True,False
be,be,be,be,AUX,True,True
well,well,well,well,ADV,True,True
-,-,-,-,PUNCT,False,False
suit,suit,suit,suit,NOUN,True,False
to,to,to,to,ADP,True,True
a,a,a,a,DET,True,True
more,more,more,more,ADV,True,True
nuanced,nuanced,nuanced,nuanced,ADJ,True,False
and,and,and,and,CCONJ,True,True
sophisticated,sophisticated,sophisticated,sophisticated,ADJ,True,False
database,database,database,database,NOUN,True,False
-,-,-,-,PUNCT,False,False
drive,drive,drive,drive,NOUN,True,False
management,management,management,management,NOUN,True,False
approach,approach,approach,approach,NOUN,True,False
than,than,than,than,SCONJ,True,True
have,have,have,have,AUX,True,True
be,be,be,be,VERB,True,True
employ,employ,employ,employ,NOUN,True,False
heretofore,heretofore,heretofore,heretofore,ADV,True,False
in,in,in,in,ADP,True,True
the,the,the,the,DET,True,True
tvws,tvws,tvws,tvws,NOUN,True,False
.,.,.,.,PUNCT,False,False
as,as,as,as,SCONJ,True,True
such,such,such,such,ADJ,True,True
we,we,-PRON-,-pron-,PRON,True,True
suggest,suggest,suggest,suggest,VERB,True,False
the,the,the,the,DET,True,True
that,that,that,that,SCONJ,True,True
commission,commission,commission,commission,NOUN,True,False
should,should,should,should,VERB,True,True
investigate,investigate,investigate,investigate,VERB,True,False
further,further,further,further,ADV,True,True
the,the,the,the,DET,True,True
use,use,use,use,NOUN,True,False
of,of,of,of,ADP,True,True
interference,interference,interference,interference,NOUN,True,False
mask,mask,mask,mask,NOUN,True,False
for,for,for,for,ADP,True,True
small,small,small,small,ADJ,True,False
cell,cell,cell,cell,NOUN,True,False
system,system,system,system,NOUN,True,False
on,on,on,on,ADP,True,True
the,the,the,the,DET,True,True
basis,basis,basis,basis,NOUN,True,False
of,of,of,of,ADP,True,True
a,a,a,a,DET,True,True
least,least,least,least,ADJ,True,True
restrictive,restrictive,restrictive,restrictive,ADJ,True,False
mask,mask,mask,mask,NOUN,True,False
assignment,assignment,assignment,assignment,NOUN,True,False
mechanism,mechanism,mechanism,mechanism,NOUN,True,False
in,in,in,in,ADP,True,True
the,the,the,the,DET,True,True
sas,sas,sas,sas,PROPN,True,False
.,.,.,.,PUNCT,False,False
we,we,-PRON-,-pron-,PRON,True,True
believe,believe,believe,believe,VERB,True,False
that,that,that,that,SCONJ,True,True
a,a,a,a,DET,True,True
highly,highly,highly,highly,ADV,True,False
tractable,tractable,tractable,tractable,ADJ,True,False
database,database,database,database,NOUN,True,False
-,-,-,-,PUNCT,False,False
drive,drive,drive,drive,NOUN,True,False
solution,solution,solution,solution,NOUN,True,False
be,be,be,be,AUX,True,True
possible,possible,possible,possible,ADJ,True,False
for,for,for,for,ADP,True,True
small,small,small,small,ADJ,True,False
cells,cells,cell,cell,NOUN,True,False
operate,operate,operate,operate,VERB,True,False
at,at,at,at,ADP,True,True
3.5,3.5,3.5,3.5,NUM,False,False
ghz,ghz,ghz,ghz,PROPN,True,False
if,if,if,if,SCONJ,True,True
the,the,the,the,DET,True,True
geographic,geographic,geographic,geographic,ADJ,True,False
zone,zone,zone,zone,NOUN,True,False
be,be,be,be,AUX,True,True
subject,subject,subject,subject,ADJ,True,False
toappropriate,toappropriate,toappropriate,toappropriate,NOUN,True,False
pixilation,pixilation,pixilation,pixilation,NOUN,True,False
.,.,.,.,PUNCT,False,False
the,the,the,the,DET,True,True
dynamic,dynamic,dynamic,dynamic,ADJ,True,False
assignment,assignment,assignment,assignment,NOUN,True,False
of,of,of,of,ADP,True,True
scenario,scenario,scenario,scenario,NOUN,True,False
-,-,-,-,PUNCT,False,False
base,base,base,base,NOUN,True,False
small,small,small,small,ADJ,True,False
cell,cell,cell,cell,NOUN,True,False
edge,edge,edge,edge,NOUN,True,False
masks,masks,mask,mask,NOUN,True,False
will,will,will,will,VERB,True,True
havethe,havethe,havethe,havethe,VERB,True,False
effect,effect,effect,effect,NOUN,True,False
of,of,of,of,ADP,True,True
both,both,both,both,CCONJ,True,True
mitigate,mitigate,mitigate,mitigate,VERB,True,False
interference,interference,interference,interference,NOUN,True,False
risk,risk,risk,risk,NOUN,True,False
between,between,between,between,ADP,True,True
and,and,and,and,CCONJ,True,True
among,among,among,among,ADP,True,True
the,the,the,the,DET,True,True
priority,priority,priority,priority,NOUN,True,False
access,access,access,access,NOUN,True,False
and,and,and,and,CCONJ,True,True
gaasystems,gaasystems,gaasystem,gaasystem,NOUN,True,False
as,as,as,as,ADV,True,True
well,well,well,well,ADV,True,True
as,as,as,as,SCONJ,True,True
maximise,maximise,maximise,maximise,NOUN,True,False
the,the,the,the,DET,True,True
spectral,spectral,spectral,spectral,ADJ,True,False
efficiency,efficiency,efficiency,efficiency,NOUN,True,False
of,of,of,of,ADP,True,True
these,these,these,these,DET,True,True
system,system,system,system,NOUN,True,False
on,on,on,on,ADP,True,True
a,a,a,a,DET,True,True
scenario,scenario,scenario,scenario,NOUN,True,False
-,-,-,-,PUNCT,False,False
by,by,by,by,ADP,True,True
-,-,-,-,PUNCT,False,False
scenariobasis,scenariobasis,scenariobasis,scenariobasis,NOUN,True,False
.,.,.,.,PUNCT,False,False
