text,text_lower,lemma,lemma_lower,part_of_speech,is_alphabet,is_stopword
relayservices,relayservices,relayservice,relayservice,NOUN,True,False
respectfully,respectfully,respectfully,respectfully,ADV,True,False
submit,submit,submit,submit,VERB,True,False
these,these,these,these,DET,True,True
comment,comment,comment,comment,NOUN,True,False
to,to,to,to,ADP,True,True
the,the,the,the,DET,True,True
12,12,12,12,NUM,False,False
-,-,-,-,SYM,False,False
354,354,354,354,NUM,False,False
proceeding,proceeding,proceeding,proceeding,NOUN,True,False
to,to,to,to,PART,True,True
oppose,oppose,oppose,oppose,VERB,True,False
the,the,the,the,DET,True,True
petitioner,petitioner,petitioner,petitioner,NOUN,True,False
in,in,in,in,ADP,True,True
this,this,this,this,DET,True,True
matter,matter,matter,matter,NOUN,True,False
before,before,before,before,ADP,True,True
the,the,the,the,DET,True,True
commission.\n\n\nrelayservice,commission.\n\n\nrelayservice,commission.\n\n\nrelayservice,commission.\n\n\nrelayservice,PROPN,False,False
urge,urge,urge,urge,VERB,True,False
the,the,the,the,DET,True,True
commission,commission,commission,commission,NOUN,True,False
to,to,to,to,PART,True,True
take,take,take,take,VERB,True,True
this,this,this,this,DET,True,True
proceeding,proceeding,proceeding,proceeding,NOUN,True,False
as,as,as,as,SCONJ,True,True
a,a,a,a,DET,True,True
place,place,place,place,NOUN,True,False
to,to,to,to,PART,True,True
make,make,make,make,VERB,True,True
a,a,a,a,DET,True,True
visible,visible,visible,visible,ADJ,True,False
definitive,definitive,definitive,definitive,ADJ,True,False
stand,stand,stand,stand,NOUN,True,False
against,against,against,against,ADP,True,True
be,be,be,be,AUX,True,True
an,an,an,an,DET,True,True
instrument,instrument,instrument,instrument,NOUN,True,False
of,of,of,of,ADP,True,True
prior,prior,prior,prior,ADJ,True,False
investment,investment,investment,investment,NOUN,True,False
and,and,and,and,CCONJ,True,True
large,large,large,large,ADJ,True,False
corporate,corporate,corporate,corporate,ADJ,True,False
interest,interest,interest,interest,NOUN,True,False
at,at,at,at,ADP,True,True
the,the,the,the,DET,True,True
expense,expense,expense,expense,NOUN,True,False
of,of,of,of,ADP,True,True
innovation,innovation,innovation,innovation,NOUN,True,False
.,.,.,.,PUNCT,False,False
the,the,the,the,DET,True,True
fcc,fcc,fcc,fcc,PROPN,True,False
must,must,must,must,VERB,True,True
guard,guard,guard,guard,VERB,True,False
against,against,against,against,ADP,True,True
those,those,those,those,DET,True,True
who,who,who,who,PRON,True,True
have,have,have,have,AUX,True,True
who,who,who,who,PRON,True,True
be,be,be,be,AUX,True,True
only,only,only,only,ADV,True,True
aim,aim,aim,aim,NOUN,True,False
be,be,be,be,AUX,True,True
to,to,to,to,PART,True,True
keep,keep,keep,keep,VERB,True,True
the,the,the,the,DET,True,True
status,status,status,status,NOUN,True,False
quo,quo,quo,quo,X,True,False
in,in,in,in,ADP,True,True
place,place,place,place,NOUN,True,False
and,and,and,and,CCONJ,True,True
protect,protect,protect,protect,VERB,True,False
prior,prior,prior,prior,ADJ,True,False
investment,investment,investment,investment,NOUN,True,False
--even,--even,--even,--even,VERB,False,False
at,at,at,at,ADP,True,True
the,the,the,the,DET,True,True
cost,cost,cost,cost,NOUN,True,False
long,long,long,long,ADJ,True,False
term,term,term,term,NOUN,True,False
foundational,foundational,foundational,foundational,ADJ,True,False
innovation,innovation,innovation,innovation,NOUN,True,False
like,like,like,like,SCONJ,True,False
the,the,the,the,DET,True,True
cbrs,cbrs,cbr,cbr,NOUN,True,False
.,.,.,.,PUNCT,False,False
\n\n\nthe,\n\n\nthe,\n\n\nthe,\n\n\nthe,DET,False,False
commission,commission,commission,commission,PROPN,True,False
must,must,must,must,VERB,True,True
strive,strive,strive,strive,VERB,True,False
to,to,to,to,PART,True,True
become,become,become,become,VERB,True,True
a,a,a,a,DET,True,True
bastion,bastion,bastion,bastion,NOUN,True,False
of,of,of,of,ADP,True,True
support,support,support,support,NOUN,True,False
reason,reason,reason,reason,NOUN,True,False
around,around,around,around,ADP,True,True
spectrum,spectrum,spectrum,spectrum,NOUN,True,False
policy,policy,policy,policy,NOUN,True,False
innovation,innovation,innovation,innovation,NOUN,True,False
like,like,like,like,SCONJ,True,False
the,the,the,the,DET,True,True
cbrs,cbrs,cbr,cbr,NOUN,True,False
and,and,and,and,CCONJ,True,True
what,what,what,what,PRON,True,True
the,the,the,the,DET,True,True
innovation,innovation,innovation,innovation,NOUN,True,False
they,they,-PRON-,-pron-,PRON,True,True
could,could,could,could,VERB,True,True
give,give,give,give,VERB,True,True
rise,rise,rise,rise,NOUN,True,False
to,to,to,to,ADP,True,True
.,.,.,.,PUNCT,False,False
it,it,-PRON-,-pron-,PRON,True,True
should,should,should,should,VERB,True,True
also,also,also,also,ADV,True,True
do,do,do,do,AUX,True,True
so,so,so,so,ADV,True,True
on,on,on,on,ADP,True,True
behalf,behalf,behalf,behalf,NOUN,True,False
of,of,of,of,ADP,True,True
the,the,the,the,DET,True,True
american,american,american,american,ADJ,True,False
consumer,consumer,consumer,consumer,NOUN,True,False
--,--,--,--,PUNCT,False,False
who,who,who,who,PRON,True,True
directly,directly,directly,directly,ADV,True,False
or,or,or,or,CCONJ,True,True
indirectly,indirectly,indirectly,indirectly,ADV,True,False
can,can,can,can,VERB,True,True
be,be,be,be,AUX,True,True
see,see,see,see,VERB,True,True
to,to,to,to,PART,True,True
be,be,be,be,AUX,True,True
foot,foot,foot,foot,NOUN,True,False
the,the,the,the,DET,True,True
bill,bill,bill,bill,NOUN,True,False
.,.,.,.,PUNCT,False,False
\n\n\nironically,\n\n\nironically,\n\n\nironically,\n\n\nironically,ADV,False,False
",",",",",",",",PUNCT,False,False
in,in,in,in,ADP,True,True
the,the,the,the,DET,True,True
not,not,not,not,PART,True,True
too,too,too,too,ADV,True,True
distant,distant,distant,distant,ADJ,True,False
future,future,future,future,NOUN,True,False
",",",",",",",",PUNCT,False,False
such,such,such,such,ADJ,True,True
innovation,innovation,innovation,innovation,NOUN,True,False
in,in,in,in,ADP,True,True
spectrum,spectrum,spectrum,spectrum,NOUN,True,False
policy,policy,policy,policy,NOUN,True,False
such,such,such,such,ADJ,True,True
as,as,as,as,SCONJ,True,True
dynamic,dynamic,dynamic,dynamic,ADJ,True,False
spectrum,spectrum,spectrum,spectrum,NOUN,True,False
management,management,management,management,NOUN,True,False
use,use,use,use,NOUN,True,False
",",",",",",",",PUNCT,False,False
assignment,assignment,assignment,assignment,NOUN,True,False
",",",",",",",",PUNCT,False,False
automatic,automatic,automatic,automatic,ADJ,True,False
interference,interference,interference,interference,NOUN,True,False
mitigation,mitigation,mitigation,mitigation,NOUN,True,False
action,action,action,action,NOUN,True,False
could,could,could,could,VERB,True,True
one,one,one,one,NUM,True,True
day,day,day,day,NOUN,True,False
become,become,become,become,VERB,True,True
the,the,the,the,DET,True,True
the,the,the,the,DET,True,True
very,very,very,very,ADJ,True,True
salvation,salvation,salvation,salvation,NOUN,True,False
of,of,of,of,ADP,True,True
those,those,those,those,DET,True,True
in,in,in,in,ADP,True,True
the,the,the,the,DET,True,True
petitioner,petitioner,petitioner,petitioner,NOUN,True,False
who,who,who,who,PRON,True,True
be,be,be,be,VERB,True,True
try,try,try,try,VERB,True,False
to,to,to,to,PART,True,True
oppose,oppose,oppose,oppose,VERB,True,False
them,them,-PRON-,-pron-,PRON,True,True
.,.,.,.,PUNCT,False,False
what,what,what,what,PRON,True,True
salvation,salvation,salvation,salvation,NOUN,True,False
that,that,that,that,DET,True,True
answer,answer,answer,answer,NOUN,True,False
will,will,will,will,VERB,True,True
be,be,be,be,AUX,True,True
leave,leave,leave,leave,VERB,True,False
to,to,to,to,ADP,True,True
the,the,the,the,DET,True,True
many,many,many,many,ADJ,True,True
innovative,innovative,innovative,innovative,ADJ,True,False
and,and,and,and,CCONJ,True,True
future,future,future,future,ADJ,True,False
looking,looking,look,look,VERB,True,False
company,company,company,company,NOUN,True,False
who,who,who,who,PRON,True,True
have,have,have,have,AUX,True,True
take,take,take,take,VERB,True,True
the,the,the,the,DET,True,True
risk,risk,risk,risk,NOUN,True,False
of,of,of,of,ADP,True,True
invest,invest,invest,invest,VERB,True,False
in,in,in,in,ADP,True,True
a,a,a,a,DET,True,True
bright,bright,bright,bright,ADJ,True,False
spectrum,spectrum,spectrum,spectrum,NOUN,True,False
policy,policy,policy,policy,NOUN,True,False
future,future,future,future,NOUN,True,False
for,for,for,for,ADP,True,True
this,this,this,this,DET,True,True
nation,nation,nation,nation,NOUN,True,False
and,and,and,and,CCONJ,True,True
the,the,the,the,DET,True,True
world,world,world,world,NOUN,True,False
--,--,--,--,PUNCT,False,False
vs,vs,vs,vs,ADP,True,False
put,put,put,put,VERB,True,True
there,there,there,there,ADV,True,True
head,head,head,head,NOUN,True,False
in,in,in,in,ADP,True,True
the,the,the,the,DET,True,True
sand,sand,sand,sand,NOUN,True,False
as,as,as,as,SCONJ,True,True
the,the,the,the,DET,True,True
petition,petition,petition,petition,NOUN,True,False
have,have,have,have,AUX,True,True
done.\n\n\nand,done.\n\n\nand,done.\n\n\nand,done.\n\n\nand,NOUN,False,False
speak,speak,speak,speak,VERB,True,False
of,of,of,of,ADP,True,True
risk,risk,risk,risk,NOUN,True,False
investment,investment,investment,investment,NOUN,True,False
..,..,..,..,PUNCT,False,False
support,support,support,support,NOUN,True,False
rule,rule,rule,rule,NOUN,True,False
making,making,make,make,VERB,True,False
that,that,that,that,DET,True,True
send,send,send,send,VERB,True,False
a,a,a,a,DET,True,True
balanced,balanced,balanced,balanced,ADJ,True,False
message,message,message,message,NOUN,True,False
that,that,that,that,DET,True,True
limit,limit,limit,limit,VERB,True,False
uncertainty,uncertainty,uncertainty,uncertainty,NOUN,True,False
or,or,or,or,CCONJ,True,True
fear,fear,fear,fear,NOUN,True,False
for,for,for,for,ADP,True,True
those,those,those,those,DET,True,True
who,who,who,who,PRON,True,True
may,may,may,may,VERB,True,True
investment,investment,investment,investment,VERB,True,False
despite,despite,despite,despite,SCONJ,True,False
regulatory,regulatory,regulatory,regulatory,ADJ,True,False
capture,capture,capture,capture,NOUN,True,False
other,other,other,other,ADJ,True,True
issue,issue,issue,issue,NOUN,True,False
be,be,be,be,AUX,True,True
an,an,an,an,DET,True,True
important,important,important,important,ADJ,True,False
but,but,but,but,CCONJ,True,True
difficult,difficult,difficult,difficult,ADJ,True,False
requirement,requirement,requirement,requirement,NOUN,True,False
for,for,for,for,ADP,True,True
the,the,the,the,DET,True,True
commission,commission,commission,commission,NOUN,True,False
must,must,must,must,VERB,True,True
work,work,work,work,VERB,True,False
on,on,on,on,ADP,True,True
.,.,.,.,PUNCT,False,False
transparency,transparency,transparency,transparency,NOUN,True,False
certainty,certainty,certainty,certainty,NOUN,True,False
be,be,be,be,AUX,True,True
high,high,high,high,ADJ,True,False
value,value,value,value,NOUN,True,False
item,item,item,item,NOUN,True,False
in,in,in,in,ADP,True,True
the,the,the,the,DET,True,True
us,us,us,us,PROPN,True,True
tech,tech,tech,tech,PROPN,True,False
investment,investment,investment,investment,NOUN,True,False
community,community,community,community,NOUN,True,False
and,and,and,and,CCONJ,True,True
they,they,-PRON-,-pron-,PRON,True,True
should,should,should,should,VERB,True,True
be,be,be,be,AUX,True,True
support,support,support,support,NOUN,True,False
nurture,nurture,nurture,nurture,NOUN,True,False
when,when,when,when,ADV,True,True
ever,ever,ever,ever,ADV,True,True
possible,possible,possible,possible,ADJ,True,False
.,.,.,.,PUNCT,False,False
these,these,these,these,DET,True,True
idea,idea,idea,idea,NOUN,True,False
exist,exist,exist,exist,VERB,True,False
in,in,in,in,ADP,True,True
the,the,the,the,DET,True,True
context,context,context,context,NOUN,True,False
of,of,of,of,ADP,True,True
a,a,a,a,DET,True,True
large,large,large,large,ADJ,True,False
very,very,very,very,ADV,True,True
important,important,important,important,ADJ,True,False
mission,mission,mission,mission,NOUN,True,False
--,--,--,--,PUNCT,False,False
to,to,to,to,PART,True,True
protect,protect,protect,protect,VERB,True,False
us,us,-PRON-,-pron-,PRON,True,True
market,market,market,market,NOUN,True,False
innovation,innovation,innovation,innovation,NOUN,True,False
like,like,like,like,SCONJ,True,False
cbrs,cbrs,cbr,cbr,NOUN,True,False
especially,especially,especially,especially,ADV,True,False
when,when,when,when,ADV,True,True
the,the,the,the,DET,True,True
commission,commission,commission,commission,NOUN,True,False
have,have,have,have,AUX,True,True
a,a,a,a,DET,True,True
chance,chance,chance,chance,NOUN,True,False
to,to,to,to,PART,True,True
support,support,support,support,VERB,True,False
the,the,the,the,DET,True,True
emerge,emerge,emerge,emerge,NOUN,True,False
us,us,us,us,PROPN,True,True
innovation,innovation,innovation,innovation,NOUN,True,False
economy,economy,economy,economy,NOUN,True,False
that,that,that,that,DET,True,True
in,in,in,in,ADP,True,True
turn,turn,turn,turn,NOUN,True,False
will,will,will,will,VERB,True,True
support,support,support,support,VERB,True,False
long,long,long,long,ADJ,True,False
term,term,term,term,NOUN,True,False
us,us,us,us,PROPN,True,True
economic,economic,economic,economic,ADJ,True,False
interest,interest,interest,interest,NOUN,True,False
.,.,.,.,PUNCT,False,False
