text,text_lower,lemma,lemma_lower,part_of_speech,is_alphabet,is_stopword
on,on,on,on,ADP,True,True
behalf,behalf,behalf,behalf,NOUN,True,False
of,of,of,of,ADP,True,True
angie,angie,angie,angie,PROPN,True,False
communications,communications,communications,communications,PROPN,True,False
usa,usa,usa,usa,PROPN,True,False
",",",",",",",",PUNCT,False,False
inc,inc,inc,inc,PROPN,True,False
.,.,.,.,PROPN,False,False
",",",",",",",",PUNCT,False,False
we,we,-PRON-,-pron-,PRON,True,True
seek,seek,seek,seek,VERB,True,False
to,to,to,to,PART,True,True
comment,comment,comment,comment,VERB,True,False
on,on,on,on,ADP,True,True
the,the,the,the,DET,True,True
petition,petition,petition,petition,NOUN,True,False
for,for,for,for,ADP,True,True
rulemaking,rulemaking,rulemaking,rulemaking,NOUN,True,False
",",",",",",",",PUNCT,False,False
submit,submit,submit,submit,VERB,True,False
on,on,on,on,ADP,True,True
june,june,june,june,PROPN,True,False
19,19,19,19,NUM,False,False
",",",",",",",",PUNCT,False,False
2017,2017,2017,2017,NUM,False,False
",",",",",",",",PUNCT,False,False
by,by,by,by,ADP,True,True
t,t,t,t,NOUN,True,False
-,-,-,-,PUNCT,False,False
mobile,mobile,mobile,mobile,PROPN,True,False
usa,usa,usa,usa,PROPN,True,False
",",",",",",",",PUNCT,False,False
inc,inc,inc,inc,PROPN,True,False
.,.,.,.,PROPN,False,False
t,t,t,t,PROPN,True,False
-,-,-,-,PUNCT,False,False
mobile,mobile,mobile,mobile,PROPN,True,False
",",",",",",",",PUNCT,False,False
wherein,wherein,wherein,wherein,ADV,True,True
t,t,t,t,NOUN,True,False
-,-,-,-,PUNCT,False,False
mobile,mobile,mobile,mobile,PROPN,True,False
petition,petition,petition,petition,NOUN,True,False
the,the,the,the,DET,True,True
commission,commission,commission,commission,NOUN,True,False
to,to,to,to,PART,True,True
initiate,initiate,initiate,initiate,VERB,True,False
a,a,a,a,DET,True,True
rulemaking,rulemaking,rulemaking,rulemaking,NOUN,True,False
proceeding,proceeding,proceeding,proceeding,NOUN,True,False
to,to,to,to,PART,True,True
modify,modify,modify,modify,VERB,True,False
the,the,the,the,DET,True,True
rule,rule,rule,rule,NOUN,True,False
govern,govern,govern,govern,VERB,True,False
the,the,the,the,DET,True,True
3550,3550,3550,3550,NUM,False,False
-,-,-,-,SYM,False,False
3700,3700,3700,3700,NUM,False,False
mhz,mhz,mhz,mhz,PROPN,True,False
band,band,band,band,NOUN,True,False
3.5,3.5,3.5,3.5,NUM,False,False
ghz,ghz,ghz,ghz,PROPN,True,False
band,band,band,band,PROPN,True,False
citizens,citizens,citizen,citizen,NOUN,True,False
broadband,broadband,broadband,broadband,PROPN,True,False
radio,radio,radio,radio,NOUN,True,False
service,service,service,service,NOUN,True,False
cbrs,cbrs,cbr,cbr,NOUN,True,False
to,to,to,to,PART,True,True
well,well,well,well,ADV,True,True
facilitate,facilitate,facilitate,facilitate,VERB,True,False
deployment,deployment,deployment,deployment,NOUN,True,False
of,of,of,of,ADP,True,True
fifth,fifth,fifth,fifth,ADJ,True,False
generation,generation,generation,generation,NOUN,True,False
5,5,5,5,NUM,False,False
g,g,g,g,NOUN,True,False
technology,technology,technology,technology,NOUN,True,False
.,.,.,.,PUNCT,False,False
backgroundangie,backgroundangie,backgroundangie,backgroundangie,PROPN,True,False
communications,communications,communications,communications,PROPN,True,False
usa,usa,usa,usa,PROPN,True,False
",",",",",",",",PUNCT,False,False
inc,inc,inc,inc,PROPN,True,False
.,.,.,.,PROPN,False,False
be,be,be,be,AUX,True,True
support,support,support,support,NOUN,True,False
by,by,by,by,ADP,True,True
angie,angie,angie,angie,PROPN,True,False
communications,communications,communications,communications,PROPN,True,False
usa,usa,usa,usa,PROPN,True,False
b.v,b.v,b.v,b.v,PROPN,False,False
.,.,.,.,PROPN,False,False
",",",",",",",",PUNCT,False,False
a,a,a,a,DET,True,True
netherlands,netherlands,netherlands,netherlands,PROPN,True,False
base,base,base,base,NOUN,True,False
privately,privately,privately,privately,ADV,True,False
hold,hold,hold,hold,VERB,True,False
limited,limited,limited,limited,ADJ,True,False
liability,liability,liability,liability,NOUN,True,False
hold,hold,hold,hold,NOUN,True,False
firm,firm,firm,firm,NOUN,True,False
that,that,that,that,DET,True,True
intend,intend,intend,intend,VERB,True,False
to,to,to,to,PART,True,True
invest,invest,invest,invest,VERB,True,False
in,in,in,in,ADP,True,True
the,the,the,the,DET,True,True
building,building,building,building,NOUN,True,False
",",",",",",",",PUNCT,False,False
operation,operation,operation,operation,NOUN,True,False
and,and,and,and,CCONJ,True,True
exploitation,exploitation,exploitation,exploitation,NOUN,True,False
of,of,of,of,ADP,True,True
mobile,mobile,mobile,mobile,ADJ,True,False
and,and,and,and,CCONJ,True,True
wireless,wireless,wireless,wireless,ADJ,True,False
network,network,network,network,NOUN,True,False
and,and,and,and,CCONJ,True,True
fiber,fiber,fiber,fiber,NOUN,True,False
system,system,system,system,NOUN,True,False
initial,initial,initial,initial,ADJ,True,False
rollout,rollout,rollout,rollout,NOUN,True,False
by,by,by,by,ADP,True,True
angie,angie,angie,angie,PROPN,True,False
be,be,be,be,AUX,True,True
currently,currently,currently,currently,ADV,True,False
be,be,be,be,AUX,True,True
prepare,prepare,prepare,prepare,VERB,True,False
for,for,for,for,ADP,True,True
several,several,several,several,ADJ,True,True
city,city,city,city,NOUN,True,False
in,in,in,in,ADP,True,True
california,california,california,california,PROPN,True,False
",",",",",",",",PUNCT,False,False
dallas,dallas,dallas,dallas,PROPN,True,False
texas,texas,texas,texas,PROPN,True,False
",",",",",",",",PUNCT,False,False
columbus,columbus,columbus,columbus,PROPN,True,False
",",",",",",",",PUNCT,False,False
ohio,ohio,ohio,ohio,PROPN,True,False
",",",",",",",",PUNCT,False,False
and,and,and,and,CCONJ,True,True
new,new,new,new,PROPN,True,False
york,york,york,york,PROPN,True,False
city,city,city,city,PROPN,True,False
",",",",",",",",PUNCT,False,False
where,where,where,where,ADV,True,True
we,we,-PRON-,-pron-,PRON,True,True
have,have,have,have,AUX,True,True
establish,establish,establish,establish,VERB,True,False
strategic,strategic,strategic,strategic,ADJ,True,False
partnership,partnership,partnership,partnership,NOUN,True,False
with,with,with,with,ADP,True,True
some,some,some,some,DET,True,True
of,of,of,of,ADP,True,True
the,the,the,the,DET,True,True
nation,nation,nation,nation,NOUN,True,False
large,large,large,large,ADJ,True,False
telecom,telecom,telecom,telecom,NOUN,True,False
infrastructure,infrastructure,infrastructure,infrastructure,NOUN,True,False
operator,operator,operator,operator,NOUN,True,False
.,.,.,.,PUNCT,False,False
we,we,-PRON-,-pron-,PRON,True,True
have,have,have,have,AUX,True,True
retain,retain,retain,retain,VERB,True,False
a,a,a,a,DET,True,True
law,law,law,law,NOUN,True,False
firm,firm,firm,firm,NOUN,True,False
to,to,to,to,PART,True,True
assist,assist,assist,assist,VERB,True,False
us,us,-PRON-,-pron-,PRON,True,True
attain,attain,attain,attain,VERB,True,False
clec,clec,clec,clec,PROPN,True,False
license,license,license,license,NOUN,True,False
.,.,.,.,PUNCT,False,False
approachangie,approachangie,approachangie,approachangie,PROPN,True,False
intend,intend,intend,intend,VERB,True,False
to,to,to,to,PART,True,True
invest,invest,invest,invest,VERB,True,False
billion,billion,billion,billion,NUM,True,False
of,of,of,of,ADP,True,True
dollar,dollar,dollar,dollar,NOUN,True,False
in,in,in,in,ADP,True,True
capital,capital,capital,capital,NOUN,True,False
expenditure,expenditure,expenditure,expenditure,NOUN,True,False
by,by,by,by,ADP,True,True
2021,2021,2021,2021,NUM,False,False
in,in,in,in,ADP,True,True
order,order,order,order,NOUN,True,False
to,to,to,to,PART,True,True
build,build,build,build,VERB,True,False
three,three,three,three,NUM,True,True
distinct,distinct,distinct,distinct,ADJ,True,False
yet,yet,yet,yet,ADV,True,True
converged,converged,converge,converge,VERB,True,False
infrastructure,infrastructure,infrastructure,infrastructure,NOUN,True,False
this,this,this,this,DET,True,True
make,make,make,make,VERB,True,True
angie,angie,angie,angie,VERB,True,False
the,the,the,the,DET,True,True
large,large,large,large,ADJ,True,False
newcomer,newcomer,newcomer,newcomer,NOUN,True,False
in,in,in,in,ADP,True,True
the,the,the,the,DET,True,True
usa,usa,usa,usa,PROPN,True,False
.,.,.,.,PUNCT,False,False
it,it,-PRON-,-pron-,PRON,True,True
be,be,be,be,VERB,True,True
in,in,in,in,ADP,True,True
this,this,this,this,DET,True,True
spirit,spirit,spirit,spirit,NOUN,True,False
that,that,that,that,DET,True,True
we,we,-PRON-,-pron-,PRON,True,True
comment,comment,comment,comment,VERB,True,False
on,on,on,on,ADP,True,True
the,the,the,the,DET,True,True
petition,petition,petition,petition,NOUN,True,False
for,for,for,for,ADP,True,True
rulemaking,rulemaking,rulemaking,rulemaking,NOUN,True,False
by,by,by,by,ADP,True,True
t,t,t,t,NOUN,True,False
-,-,-,-,PUNCT,False,False
mobile,mobile,mobile,mobile,PROPN,True,False
",",",",",",",",PUNCT,False,False
which,which,which,which,DET,True,True
we,we,-PRON-,-pron-,PRON,True,True
deem,deem,deem,deem,VERB,True,False
utterly,utterly,utterly,utterly,ADV,True,False
disturbing,disturbing,disturbing,disturbing,ADJ,True,False
and,and,and,and,CCONJ,True,True
anti,anti,anti,anti,ADJ,True,False
-,-,-,-,ADJ,False,False
competitive,competitive,competitive,competitive,ADJ,True,False
",",",",",",",",PUNCT,False,False
and,and,and,and,CCONJ,True,True
which,which,which,which,DET,True,True
should,should,should,should,VERB,True,True
be,be,be,be,AUX,True,True
deny,deny,deny,deny,VERB,True,False
by,by,by,by,ADP,True,True
the,the,the,the,DET,True,True
commission,commission,commission,commission,NOUN,True,False
.,.,.,.,PUNCT,False,False
our,our,-PRON-,-pron-,DET,True,True
commentdue,commentdue,commentdue,commentdue,PROPN,True,False
to,to,to,to,ADP,True,True
competitive,competitive,competitive,competitive,ADJ,True,False
reason,reason,reason,reason,NOUN,True,False
angie,angie,angie,angie,NOUN,True,False
have,have,have,have,AUX,True,True
not,not,not,not,PART,True,True
comment,comment,comment,comment,VERB,True,False
on,on,on,on,ADP,True,True
or,or,or,or,CCONJ,True,True
confirm,confirm,confirm,confirm,VERB,True,False
any,any,any,any,DET,True,True
specific,specific,specific,specific,ADJ,True,False
regard,regard,regard,regard,NOUN,True,False
the,the,the,the,DET,True,True
use,use,use,use,NOUN,True,False
of,of,of,of,ADP,True,True
frequency,frequency,frequency,frequency,NOUN,True,False
and,and,and,and,CCONJ,True,True
technology,technology,technology,technology,NOUN,True,False
prior,prior,prior,prior,ADV,True,False
to,to,to,to,ADP,True,True
the,the,the,the,DET,True,True
publication,publication,publication,publication,NOUN,True,False
of,of,of,of,ADP,True,True
the,the,the,the,DET,True,True
consortiums,consortiums,consortium,consortium,NOUN,True,False
5,5,5,5,NUM,False,False
g,g,g,g,NOUN,True,False
blueprint,blueprint,blueprint,blueprint,NOUN,True,False
see,see,see,see,VERB,True,True
next,next,next,next,ADJ,True,True
paragraph,paragraph,paragraph,paragraph,NOUN,True,False
a,a,a,a,DET,True,True
few,few,few,few,ADJ,True,True
month,month,month,month,NOUN,True,False
ago,ago,ago,ago,ADV,True,False
.,.,.,.,PUNCT,False,False
while,while,while,while,SCONJ,True,True
we,we,-PRON-,-pron-,PRON,True,True
do,do,do,do,AUX,True,True
not,not,not,not,PART,True,True
intend,intend,intend,intend,VERB,True,False
to,to,to,to,PART,True,True
provide,provide,provide,provide,VERB,True,False
too,too,too,too,ADV,True,True
many,many,many,many,ADJ,True,True
specific,specific,specific,specific,ADJ,True,False
detail,detail,detail,detail,NOUN,True,False
in,in,in,in,ADP,True,True
this,this,this,this,DET,True,True
comment,comment,comment,comment,NOUN,True,False
",",",",",",",",PUNCT,False,False
we,we,-PRON-,-pron-,PRON,True,True
deem,deem,deem,deem,VERB,True,False
it,it,-PRON-,-pron-,PRON,True,True
necessary,necessary,necessary,necessary,ADJ,True,False
to,to,to,to,PART,True,True
explain,explain,explain,explain,VERB,True,False
our,our,-PRON-,-pron-,DET,True,True
approach,approach,approach,approach,NOUN,True,False
to,to,to,to,ADP,True,True
the,the,the,the,DET,True,True
3.5,3.5,3.5,3.5,NUM,False,False
ghz,ghz,ghz,ghz,PROPN,True,False
band,band,band,band,NOUN,True,False
.,.,.,.,PUNCT,False,False
to,to,to,to,ADP,True,True
underline,underline,underline,underline,VERB,True,False
angies,angies,angie,angie,NOUN,True,False
strategy,strategy,strategy,strategy,NOUN,True,False
",",",",",",",",PUNCT,False,False
we,we,-PRON-,-pron-,PRON,True,True
refer,refer,refer,refer,VERB,True,False
to,to,to,to,ADP,True,True
a,a,a,a,DET,True,True
detailed,detailed,detailed,detailed,ADJ,True,False
introduction,introduction,introduction,introduction,NOUN,True,False
on,on,on,on,ADP,True,True
angies,angies,angie,angie,NOUN,True,False
approach,approach,approach,approach,NOUN,True,False
of,of,of,of,ADP,True,True
city,city,city,city,NOUN,True,False
-,-,-,-,PUNCT,False,False
wide,wide,wide,wide,ADJ,True,False
deployment,deployment,deployment,deployment,NOUN,True,False
",",",",",",",",PUNCT,False,False
blueprint,blueprint,blueprint,blueprint,NOUN,True,False
for,for,for,for,ADP,True,True
build,build,build,build,NOUN,True,False
5,5,5,5,NUM,False,False
g,g,g,g,PROPN,True,False
primed,primed,prime,prime,VERB,True,False
fiber,fiber,fiber,fiber,NOUN,True,False
backhauled,backhauled,backhaule,backhaule,VERB,True,False
telecom,telecom,telecom,telecom,PROPN,True,False
infrastructures,infrastructures,infrastructure,infrastructure,NOUN,True,False
",",",",",",",",PUNCT,False,False
publish,publish,publish,publish,PROPN,True,False
may,may,may,may,PROPN,True,True
8,8,8,8,NUM,False,False
",",",",",",",",PUNCT,False,False
2017,2017,2017,2017,NUM,False,False
.as,.as,.as,.as,PUNCT,False,False
state,state,state,state,NOUN,True,False
before,before,before,before,ADV,True,True
",",",",",",",",PUNCT,False,False
angies,angies,angie,angie,NOUN,True,False
approach,approach,approach,approach,NOUN,True,False
focus,focus,focus,focus,VERB,True,False
on,on,on,on,ADP,True,True
a,a,a,a,DET,True,True
convergence,convergence,convergence,convergence,NOUN,True,False
of,of,of,of,ADP,True,True
mobile,mobile,mobile,mobile,ADJ,True,False
",",",",",",",",PUNCT,False,False
wireless,wireless,wireless,wireless,NOUN,True,False
and,and,and,and,CCONJ,True,True
fiber,fiber,fiber,fiber,NOUN,True,False
network,network,network,network,NOUN,True,False
.,.,.,.,PUNCT,False,False
we,we,-PRON-,-pron-,PRON,True,True
understand,understand,understand,understand,VERB,True,False
the,the,the,the,DET,True,True
ever,ever,ever,ever,ADV,True,True
-,-,-,-,PUNCT,False,False
increase,increase,increase,increase,NOUN,True,False
necessity,necessity,necessity,necessity,NOUN,True,False
of,of,of,of,ADP,True,True
bring,bring,bring,bring,NOUN,True,False
fiber,fiber,fiber,fiber,NOUN,True,False
as,as,as,as,ADV,True,True
close,close,close,close,ADV,True,False
as,as,as,as,SCONJ,True,True
possible,possible,possible,possible,ADJ,True,False
to,to,to,to,ADP,True,True
the,the,the,the,DET,True,True
wireless,wireless,wireless,wireless,ADJ,True,False
and,and,and,and,CCONJ,True,True
mobile,mobile,mobile,mobile,ADJ,True,False
user,user,user,user,NOUN,True,False
.,.,.,.,PUNCT,False,False
we,we,-PRON-,-pron-,PRON,True,True
intend,intend,intend,intend,VERB,True,False
to,to,to,to,PART,True,True
build,build,build,build,VERB,True,False
a,a,a,a,DET,True,True
converged,converged,converged,converged,ADJ,True,False
network,network,network,network,NOUN,True,False
",",",",",",",",PUNCT,False,False
serve,serve,serve,serve,VERB,True,False
all,all,all,all,DET,True,True
aspect,aspect,aspect,aspect,NOUN,True,False
of,of,of,of,ADP,True,True
a,a,a,a,DET,True,True
user,user,user,user,NOUN,True,False
daily,daily,daily,daily,ADJ,True,False
communication,communication,communication,communication,NOUN,True,False
need,need,need,need,VERB,True,False
today,today,today,today,NOUN,True,False
and,and,and,and,CCONJ,True,True
tomorrownationwide,tomorrownationwide,tomorrownationwide,tomorrownationwide,ADJ,True,False
mobility,mobility,mobility,mobility,NOUN,True,False
in,in,in,in,ADP,True,True
the,the,the,the,DET,True,True
3.5,3.5,3.5,3.5,NUM,False,False
ghz,ghz,ghz,ghz,PROPN,True,False
band,band,band,band,NOUN,True,False
",",",",",",",",PUNCT,False,False
city,city,city,city,NOUN,True,False
-,-,-,-,PUNCT,False,False
wide,wide,wide,wide,ADJ,True,False
coverage,coverage,coverage,coverage,NOUN,True,False
",",",",",",",",PUNCT,False,False
roll,roll,roll,roll,VERB,True,False
out,out,out,out,ADP,True,True
city,city,city,city,NOUN,True,False
after,after,after,after,ADP,True,True
citywireless,citywireless,citywireless,citywireless,PROPN,True,False
outdoor,outdoor,outdoor,outdoor,PROPN,True,False
gigabit,gigabit,gigabit,gigabit,NOUN,True,False
service,service,service,service,NOUN,True,False
at,at,at,at,ADP,True,True
tri,tri,tri,tri,PROPN,True,False
-,-,-,-,PROPN,False,False
band,band,band,band,PROPN,True,False
60,60,60,60,NUM,False,False
ghz,ghz,ghz,ghz,NOUN,True,False
for,for,for,for,ADP,True,True
200-meter,200-meter,200-meter,200-meter,NUM,False,False
range,range,range,range,NOUN,True,False
backhaul,backhaul,backhaul,backhaul,PROPN,True,False
",",",",",",",",PUNCT,False,False
and,and,and,and,CCONJ,True,True
wi,wi,wi,wi,PROPN,True,False
-,-,-,-,PUNCT,False,False
fi,fi,fi,fi,PROPN,True,False
accessroame,accessroame,accessroame,accessroame,NOUN,True,False
at,at,at,at,ADP,True,True
2.4,2.4,2.4,2.4,NUM,False,False
ghz,ghz,ghz,ghz,PROPN,True,False
and,and,and,and,CCONJ,True,True
5,5,5,5,NUM,False,False
ghzwireless,ghzwireless,ghzwireless,ghzwireless,ADJ,True,False
indoor,indoor,indoor,indoor,ADJ,True,False
gigabit,gigabit,gigabit,gigabit,NOUN,True,False
service,service,service,service,NOUN,True,False
at,at,at,at,ADP,True,True
tri,tri,tri,tri,PROPN,True,False
-,-,-,-,NOUN,False,False
band,band,band,band,PROPN,True,False
2.4,2.4,2.4,2.4,NUM,False,False
ghz,ghz,ghz,ghz,PROPN,True,False
",",",",",",",",PUNCT,False,False
5,5,5,5,NUM,False,False
ghz,ghz,ghz,ghz,NOUN,True,False
",",",",",",",",PUNCT,False,False
60,60,60,60,NUM,False,False
ghzvicinity,ghzvicinity,ghzvicinity,ghzvicinity,NOUN,True,False
personal,personal,personal,personal,ADJ,True,False
hotspot,hotspot,hotspot,hotspot,NOUN,True,False
",",",",",",",",PUNCT,False,False
tri,tri,tri,tri,ADJ,True,False
-,-,-,-,PUNCT,False,False
bandbody,bandbody,bandbody,bandbody,ADJ,True,False
wearable,wearable,wearable,wearable,ADJ,True,False
etc,etc,etc,etc,X,True,False
.,.,.,.,PUNCT,False,False
",",",",",",",",PUNCT,False,False
tri,tri,tri,tri,PROPN,True,False
-,-,-,-,NOUN,False,False
band,band,band,band,NOUN,True,False
.,.,.,.,PUNCT,False,False
this,this,this,this,DET,True,True
mean,mean,mean,mean,VERB,True,False
that,that,that,that,SCONJ,True,True
angie,angie,angie,angie,PROPN,True,False
would,would,would,would,VERB,True,True
if,if,if,if,SCONJ,True,True
enabledempowere,enabledempowere,enabledempowere,enabledempowere,ADV,True,False
create,create,create,create,VERB,True,False
a,a,a,a,DET,True,True
unique,unique,unique,unique,ADJ,True,False
",",",",",",",",PUNCT,False,False
converged,converged,converged,converged,ADJ,True,False
always,always,always,always,ADV,True,True
-,-,-,-,PUNCT,False,False
on,on,on,on,ADV,True,True
",",",",",",",",PUNCT,False,False
always,always,always,always,ADV,True,True
-,-,-,-,PUNCT,False,False
follow,follow,follow,follow,VERB,True,False
service,service,service,service,NOUN,True,False
-,-,-,-,PUNCT,False,False
network,network,network,network,NOUN,True,False
where,where,where,where,ADV,True,True
the,the,the,the,DET,True,True
user,user,user,user,NOUN,True,False
will,will,will,will,VERB,True,True
experience,experience,experience,experience,VERB,True,False
more,more,more,more,ADJ,True,True
freedom,freedom,freedom,freedom,NOUN,True,False
and,and,and,and,CCONJ,True,True
have,have,have,have,AUX,True,True
more,more,more,more,ADJ,True,True
self,self,self,self,NOUN,True,False
-,-,-,-,PUNCT,False,False
aware,aware,aware,aware,ADJ,True,False
and,and,and,and,CCONJ,True,True
automatic,automatic,automatic,automatic,ADJ,True,False
communication,communication,communication,communication,NOUN,True,False
without,without,without,without,ADP,True,True
too,too,too,too,ADV,True,True
much,much,much,much,ADJ,True,True
or,or,or,or,CCONJ,True,True
in,in,in,in,ADP,True,True
many,many,many,many,ADJ,True,True
case,case,case,case,NOUN,True,False
without,without,without,without,ADP,True,True
any,any,any,any,DET,True,True
effort,effort,effort,effort,NOUN,True,False
.,.,.,.,PUNCT,False,False
as,as,as,as,SCONJ,True,True
can,can,can,can,VERB,True,True
be,be,be,be,AUX,True,True
see,see,see,see,VERB,True,True
on,on,on,on,ADP,True,True
page,page,page,page,NOUN,True,False
9,9,9,9,NUM,False,False
to,to,to,to,ADP,True,True
11,11,11,11,NUM,False,False
of,of,of,of,ADP,True,True
our,our,-PRON-,-pron-,DET,True,True
angie,angie,angie,angie,NOUN,True,False
intend,intend,intend,intend,NOUN,True,False
to,to,to,to,PART,True,True
create,create,create,create,VERB,True,False
a,a,a,a,DET,True,True
dense,dense,dense,dense,ADJ,True,False
grid,grid,grid,grid,NOUN,True,False
-,-,-,-,PUNCT,False,False
like,like,like,like,ADJ,True,False
network,network,network,network,NOUN,True,False
of,of,of,of,ADP,True,True
fiber,fiber,fiber,fiber,NOUN,True,False
-,-,-,-,PUNCT,False,False
backhaule,backhaule,backhaule,backhaule,NOUN,True,False
location,location,location,location,NOUN,True,False
at,at,at,at,ADP,True,True
10,10,10,10,NUM,False,False
gbps,gbps,gbp,gbp,NOUN,True,False
",",",",",",",",PUNCT,False,False
each,each,each,each,DET,True,True
.,.,.,.,PUNCT,False,False
the,the,the,the,DET,True,True
ability,ability,ability,ability,NOUN,True,False
to,to,to,to,PART,True,True
include,include,include,include,VERB,True,False
3.5,3.5,3.5,3.5,NUM,False,False
ghz,ghz,ghz,ghz,PROPN,True,False
service,service,service,service,NOUN,True,False
to,to,to,to,PART,True,True
take,take,take,take,VERB,True,True
care,care,care,care,NOUN,True,False
of,of,of,of,ADP,True,True
the,the,the,the,DET,True,True
mobile,mobile,mobile,mobile,ADJ,True,False
broadband,broadband,broadband,broadband,PROPN,True,False
service,service,service,service,NOUN,True,False
part,part,part,part,NOUN,True,True
",",",",",",",",PUNCT,False,False
be,be,be,be,AUX,True,True
an,an,an,an,DET,True,True
integral,integral,integral,integral,ADJ,True,False
part,part,part,part,NOUN,True,True
of,of,of,of,ADP,True,True
our,our,-PRON-,-pron-,DET,True,True
rollout,rollout,rollout,rollout,NOUN,True,False
plan,plan,plan,plan,NOUN,True,False
.,.,.,.,PUNCT,False,False
angie,angie,angie,angie,PROPN,True,False
be,be,be,be,AUX,True,True
work,work,work,work,NOUN,True,False
closely,closely,closely,closely,ADV,True,False
with,with,with,with,ADP,True,True
some,some,some,some,DET,True,True
of,of,of,of,ADP,True,True
the,the,the,the,DET,True,True
world,world,world,world,NOUN,True,False
large,large,large,large,ADJ,True,False
and,and,and,and,CCONJ,True,True
most,most,most,most,ADV,True,True
innovative,innovative,innovative,innovative,ADJ,True,False
technology,technology,technology,technology,NOUN,True,False
firm,firm,firm,firm,NOUN,True,False
and,and,and,and,CCONJ,True,True
consultant,consultant,consultant,consultant,NOUN,True,False
to,to,to,to,PART,True,True
create,create,create,create,VERB,True,False
a,a,a,a,DET,True,True
plan,plan,plan,plan,NOUN,True,False
for,for,for,for,ADP,True,True
deployment,deployment,deployment,deployment,NOUN,True,False
of,of,of,of,ADP,True,True
a,a,a,a,DET,True,True
3.5,3.5,3.5,3.5,NUM,False,False
ghz,ghz,ghz,ghz,PROPN,True,False
mobilewireless,mobilewireless,mobilewireless,mobilewireless,ADJ,True,False
network,network,network,network,NOUN,True,False
.,.,.,.,PUNCT,False,False
since,since,since,since,SCONJ,True,True
we,we,-PRON-,-pron-,PRON,True,True
truly,truly,truly,truly,ADV,True,False
believe,believe,believe,believe,VERB,True,False
that,that,that,that,SCONJ,True,True
the,the,the,the,DET,True,True
way,way,way,way,NOUN,True,False
forward,forward,forward,forward,ADV,True,False
lay,lay,lie,lie,VERB,True,False
in,in,in,in,ADV,True,True
much,much,much,much,ADV,True,True
the,the,the,the,DET,True,True
same,same,same,same,ADJ,True,True
way,way,way,way,NOUN,True,False
policy,policy,policy,policy,NOUN,True,False
have,have,have,have,AUX,True,True
be,be,be,be,AUX,True,True
craft,craft,craft,craft,NOUN,True,False
today,today,today,today,NOUN,True,False
",",",",",",",",PUNCT,False,False
we,we,-PRON-,-pron-,PRON,True,True
believe,believe,believe,believe,VERB,True,False
that,that,that,that,SCONJ,True,True
the,the,the,the,DET,True,True
fcc,fcc,fcc,fcc,PROPN,True,False
should,should,should,should,VERB,True,True
deny,deny,deny,deny,VERB,True,False
t,t,t,t,PROPN,True,False
-,-,-,-,PUNCT,False,False
mobiles,mobiles,mobile,mobile,NOUN,True,False
petition,petition,petition,petition,NOUN,True,False
and,and,and,and,CCONJ,True,True
not,not,not,not,PART,True,True
alter,alter,alter,alter,VERB,True,False
its,its,-PRON-,-pron-,DET,True,True
policiesrule,policiesrule,policiesrule,policiesrule,NOUN,True,False
.,.,.,.,PUNCT,False,False
it,it,-PRON-,-pron-,PRON,True,True
be,be,be,be,AUX,True,True
essential,essential,essential,essential,ADJ,True,False
for,for,for,for,ADP,True,True
the,the,the,the,DET,True,True
fcc,fcc,fcc,fcc,PROPN,True,False
to,to,to,to,PART,True,True
also,also,also,also,ADV,True,True
understand,understand,understand,understand,VERB,True,False
the,the,the,the,DET,True,True
importance,importance,importance,importance,NOUN,True,False
of,of,of,of,ADP,True,True
investment,investment,investment,investment,NOUN,True,False
in,in,in,in,ADP,True,True
next,next,next,next,ADJ,True,True
-,-,-,-,PUNCT,False,False
generation,generation,generation,generation,NOUN,True,False
communication,communication,communication,communication,NOUN,True,False
networkssystem,networkssystem,networkssystem,networkssystem,NOUN,True,False
by,by,by,by,ADP,True,True
newcomer,newcomer,newcomer,newcomer,PROPN,True,False
in,in,in,in,ADP,True,True
contrast,contrast,contrast,contrast,NOUN,True,False
to,to,to,to,ADP,True,True
legacyincumbent,legacyincumbent,legacyincumbent,legacyincumbent,NOUN,True,False
operator,operator,operator,operator,NOUN,True,False
.,.,.,.,PUNCT,False,False
at,at,at,at,ADP,True,True
angie,angie,angie,angie,PROPN,True,False
",",",",",",",",PUNCT,False,False
we,we,-PRON-,-pron-,PRON,True,True
believe,believe,believe,believe,VERB,True,False
that,that,that,that,SCONJ,True,True
because,because,because,because,SCONJ,True,True
of,of,of,of,ADP,True,True
the,the,the,the,DET,True,True
from,from,from,from,ADP,True,True
-,-,-,-,PUNCT,False,False
scratch,scratch,scratch,scratch,NOUN,True,False
approach,approach,approach,approach,NOUN,True,False
",",",",",",",",PUNCT,False,False
and,and,and,and,CCONJ,True,True
because,because,because,because,SCONJ,True,True
of,of,of,of,ADP,True,True
the,the,the,the,DET,True,True
characteristic,characteristic,characteristic,characteristic,NOUN,True,False
of,of,of,of,ADP,True,True
its,its,-PRON-,-pron-,DET,True,True
ultra,ultra,ultra,ultra,ADJ,True,False
-,-,-,-,ADJ,False,False
dense,dense,dense,dense,ADJ,True,False
infrastructure,infrastructure,infrastructure,infrastructure,NOUN,True,False
",",",",",",",",PUNCT,False,False
along,along,along,along,ADP,True,True
with,with,with,with,ADP,True,True
virtually,virtually,virtually,virtually,ADV,True,False
infinite,infinite,infinite,infinite,ADJ,True,False
fiber,fiber,fiber,fiber,NOUN,True,False
capacity,capacity,capacity,capacity,NOUN,True,False
",",",",",",",",PUNCT,False,False
its,its,-PRON-,-pron-,DET,True,True
propose,propose,propose,propose,NOUN,True,False
mobile,mobile,mobile,mobile,PROPN,True,False
broadbandwireless,broadbandwireless,broadbandwireless,broadbandwireless,PROPN,True,False
access,access,access,access,NOUN,True,False
network,network,network,network,NOUN,True,False
would,would,would,would,VERB,True,True
truly,truly,truly,truly,ADV,True,False
contain,contain,contain,contain,VERB,True,False
most,most,most,most,ADJ,True,True
of,of,of,of,ADP,True,True
the,the,the,the,DET,True,True
main,main,main,main,ADJ,True,False
characteristics,characteristics,characteristics,characteristics,NOUN,True,False
researcher,researcher,researcher,researcher,NOUN,True,False
and,and,and,and,CCONJ,True,True
developer,developer,developer,developer,NOUN,True,False
be,be,be,be,AUX,True,True
look,look,look,look,NOUN,True,False
for,for,for,for,ADP,True,True
in,in,in,in,ADP,True,True
5,5,5,5,NUM,False,False
g,g,g,g,PROPN,True,False
mobile,mobile,mobile,mobile,ADJ,True,False
service,service,service,service,NOUN,True,False
",",",",",",",",PUNCT,False,False
on,on,on,on,ADP,True,True
a,a,a,a,DET,True,True
nationwide,nationwide,nationwide,nationwide,ADJ,True,False
basis,basis,basis,basis,NOUN,True,False
.,.,.,.,PUNCT,False,False
thus,thus,thus,thus,ADV,True,True
",",",",",",",",PUNCT,False,False
if,if,if,if,SCONJ,True,True
policy,policy,policy,policy,NOUN,True,False
by,by,by,by,ADP,True,True
the,the,the,the,DET,True,True
fcc,fcc,fcc,fcc,PROPN,True,False
be,be,be,be,AUX,True,True
to,to,to,to,PART,True,True
include,include,include,include,VERB,True,False
empowerment,empowerment,empowerment,empowerment,NOUN,True,False
of,of,of,of,ADP,True,True
newcomer,newcomer,newcomer,newcomer,NOUN,True,False
where,where,where,where,ADV,True,True
innovation,innovation,innovation,innovation,NOUN,True,False
on,on,on,on,ADP,True,True
theinfrastructure,theinfrastructure,theinfrastructure,theinfrastructure,ADJ,True,False
-,-,-,-,PUNCT,False,False
level,level,level,level,NOUN,True,False
and,and,and,and,CCONJ,True,True
improved,improved,improved,improved,ADJ,True,False
service,service,service,service,NOUN,True,False
be,be,be,be,AUX,True,True
prefer,prefer,prefer,prefer,VERB,True,False
and,and,and,and,CCONJ,True,True
encourage,encourage,encourage,encourage,VERB,True,False
above,above,above,above,ADP,True,True
monetary,monetary,monetary,monetary,ADJ,True,False
gain,gain,gain,gain,NOUN,True,False
bylicensing,bylicensing,bylicensing,bylicensing,NOUN,True,False
at,at,at,at,ADP,True,True
high,high,high,high,ADJ,True,False
auction,auction,auction,auction,NOUN,True,False
fee,fee,fee,fee,NOUN,True,False
",",",",",",",",PUNCT,False,False
the,the,the,the,DET,True,True
usa,usa,usa,usa,PROPN,True,False
would,would,would,would,VERB,True,True
stand,stand,stand,stand,VERB,True,False
to,to,to,to,PART,True,True
benefit,benefit,benefit,benefit,VERB,True,False
on,on,on,on,ADP,True,True
all,all,all,all,DET,True,True
level,level,level,level,NOUN,True,False
",",",",",",",",PUNCT,False,False
create,create,create,create,VERB,True,False
huge,huge,huge,huge,ADJ,True,False
advantage,advantage,advantage,advantage,NOUN,True,False
andopportunitie,andopportunitie,andopportunitie,andopportunitie,NOUN,True,False
for,for,for,for,ADP,True,True
its,its,-PRON-,-pron-,DET,True,True
citizen,citizen,citizen,citizen,NOUN,True,False
.,.,.,.,PUNCT,False,False
as,as,as,as,SCONJ,True,True
the,the,the,the,DET,True,True
current,current,current,current,ADJ,True,False
and,and,and,and,CCONJ,True,True
previous,previous,previous,previous,ADJ,True,False
fcc,fcc,fcc,fcc,PROPN,True,False
commissioner,commissioner,commissioner,commissioner,NOUN,True,False
have,have,have,have,AUX,True,True
prove,prove,prove,prove,NOUN,True,False
foresight,foresight,foresight,foresight,NOUN,True,False
and,and,and,and,CCONJ,True,True
vision,vision,vision,vision,NOUN,True,False
",",",",",",",",PUNCT,False,False
we,we,-PRON-,-pron-,PRON,True,True
trust,trust,trust,trust,VERB,True,False
on,on,on,on,ADP,True,True
thecontinued,thecontinued,thecontinued,thecontinued,ADJ,True,False
wisdom,wisdom,wisdom,wisdom,NOUN,True,False
of,of,of,of,ADP,True,True
the,the,the,the,DET,True,True
commissioner,commissioner,commissioner,commissioner,NOUN,True,False
and,and,and,and,CCONJ,True,True
advisor,advisor,advisor,advisor,NOUN,True,False
to,to,to,to,PART,True,True
make,make,make,make,VERB,True,True
decision,decision,decision,decision,NOUN,True,False
and,and,and,and,CCONJ,True,True
set,set,set,set,VERB,True,False
out,out,out,out,ADP,True,True
policy,policy,policy,policy,NOUN,True,False
in,in,in,in,ADP,True,True
the,the,the,the,DET,True,True
bestinterest,bestinterest,bestinterest,bestinterest,NOUN,True,False
of,of,of,of,ADP,True,True
usa,usa,usa,usa,PROPN,True,False
citizen,citizen,citizen,citizen,NOUN,True,False
.,.,.,.,PUNCT,False,False
