text,text_lower,lemma,lemma_lower,part_of_speech,is_alphabet,is_stopword
re,re,re,re,ADP,True,True
gn,gn,gn,gn,PROPN,True,False
docket,docket,docket,docket,PROPN,True,False
no,no,no,no,INTJ,True,True
.,.,.,.,NOUN,False,False
12,12,12,12,NUM,False,False
-,-,-,-,SYM,False,False
354,354,354,354,NUM,False,False
",",",",",",",",PUNCT,False,False
rm-1,rm-1,rm-1,rm-1,PROPN,False,False
1778,1778,1778,1778,NUM,False,False
and,and,and,and,CCONJ,True,True
rm-1,rm-1,rm-1,rm-1,PROPN,False,False
1789dear,1789dear,1789dear,1789dear,NUM,False,False
ms,ms,ms,ms,PROPN,True,False
.,.,.,.,PROPN,False,False
dortch,dortch,dortch,dortch,PROPN,True,False
",",",",",",",",PUNCT,False,False
i,i,i,i,PRON,True,True
be,be,be,be,VERB,True,True
write,write,write,write,VERB,True,False
you,you,-PRON-,-pron-,PRON,True,True
on,on,on,on,ADP,True,True
behalf,behalf,behalf,behalf,NOUN,True,False
of,of,of,of,ADP,True,True
our,our,-PRON-,-pron-,DET,True,True
company,company,company,company,NOUN,True,False
professional,professional,professional,professional,ADJ,True,False
value,value,value,value,NOUN,True,False
internet,internet,internet,internet,NOUN,True,False
services,services,service,service,NOUN,True,False
",",",",",",",",PUNCT,False,False
inc,inc,inc,inc,PROPN,True,False
",",",",",",",",PUNCT,False,False
dba,dba,dba,dba,PROPN,True,False
provalue,provalue,provalue,provalue,PROPN,True,False
.,.,.,.,PUNCT,False,False
net,net,net,net,ADJ,True,False
",",",",",",",",PUNCT,False,False
regard,regard,regard,regard,VERB,True,False
the,the,the,the,DET,True,True
petition,petition,petition,petition,NOUN,True,False
for,for,for,for,ADP,True,True
rulemake,rulemake,rulemake,rulemake,ADJ,True,False
file,file,file,file,NOUN,True,False
by,by,by,by,ADP,True,True
ctia,ctia,ctia,ctia,PROPN,True,False
and,and,and,and,CCONJ,True,True
t,t,t,t,PROPN,True,False
-,-,-,-,PUNCT,False,False
mobile,mobile,mobile,mobile,PROPN,True,False
usa,usa,usa,usa,PROPN,True,False
",",",",",",",",PUNCT,False,False
inc,inc,inc,inc,PROPN,True,False
.,.,.,.,PROPN,False,False
request,request,request,request,PROPN,True,False
propose,propose,propose,propose,NOUN,True,False
change,change,change,change,NOUN,True,False
in,in,in,in,ADP,True,True
the,the,the,the,DET,True,True
cbrs,cbrs,cbr,cbr,NOUN,True,False
band,band,band,band,NOUN,True,False
.,.,.,.,PUNCT,False,False
we,we,-PRON-,-pron-,PRON,True,True
be,be,be,be,VERB,True,True
a,a,a,a,DET,True,True
family,family,family,family,NOUN,True,False
own,own,own,own,ADJ,True,True
and,and,and,and,CCONJ,True,True
operate,operate,operate,operate,VERB,True,False
internet,internet,internet,internet,NOUN,True,False
service,service,service,service,NOUN,True,False
provider,provider,provider,provider,NOUN,True,False
that,that,that,that,DET,True,True
have,have,have,have,AUX,True,True
be,be,be,be,AUX,True,True
serve,serve,serve,serve,VERB,True,False
the,the,the,the,DET,True,True
central,central,central,central,ADJ,True,False
and,and,and,and,CCONJ,True,True
north,north,north,north,ADJ,True,False
central,central,central,central,ADJ,True,False
part,part,part,part,NOUN,True,True
of,of,of,of,ADP,True,True
oklahoma,oklahoma,oklahoma,oklahoma,PROPN,True,False
since,since,since,since,SCONJ,True,True
1996,1996,1996,1996,NUM,False,False
.,.,.,.,PUNCT,False,False
we,we,-PRON-,-pron-,PRON,True,True
have,have,have,have,AUX,True,True
move,move,move,move,NOUN,True,True
from,from,from,from,ADP,True,True
dial,dial,dial,dial,NOUN,True,False
-,-,-,-,PUNCT,False,False
up,up,up,up,NOUN,True,True
to,to,to,to,ADP,True,True
wireless,wireless,wireless,wireless,ADJ,True,False
internet,internet,internet,internet,NOUN,True,False
service,service,service,service,NOUN,True,False
in,in,in,in,ADP,True,True
2001,2001,2001,2001,NUM,False,False
and,and,and,and,CCONJ,True,True
now,now,now,now,ADV,True,True
serve,serve,serve,serve,VERB,True,False
3000,3000,3000,3000,NUM,False,False
subscriber,subscriber,subscriber,subscriber,NOUN,True,False
cover,cover,cover,cover,NOUN,True,False
4600,4600,4600,4600,NUM,False,False
square,square,square,square,ADJ,True,False
mile,mile,mile,mile,NOUN,True,False
in,in,in,in,ADP,True,True
very,very,very,very,ADV,True,True
unserved,unserved,unserved,unserved,ADJ,True,False
and,and,and,and,CCONJ,True,True
underserve,underserve,underserve,underserve,VERB,True,False
rural,rural,rural,rural,ADJ,True,False
oklahoma,oklahoma,oklahoma,oklahoma,PROPN,True,False
.,.,.,.,PUNCT,False,False
with,with,with,with,ADP,True,True
speed,speed,speed,speed,NOUN,True,False
range,range,range,range,NOUN,True,False
up,up,up,up,ADP,True,True
to,to,to,to,PART,True,True
50mbs,50mbs,50mbs,50mbs,VERB,False,False
for,for,for,for,ADP,True,True
business,business,business,business,NOUN,True,False
and,and,and,and,CCONJ,True,True
25,25,25,25,NUM,False,False
mb,mb,mb,mb,NOUN,True,False
for,for,for,for,ADP,True,True
rural,rural,rural,rural,ADJ,True,False
residential,residential,residential,residential,ADJ,True,False
customer,customer,customer,customer,NOUN,True,False
.,.,.,.,PUNCT,False,False
along,along,along,along,ADP,True,True
with,with,with,with,ADP,True,True
no,no,no,no,DET,True,True
contract,contract,contract,contract,NOUN,True,False
",",",",",",",",PUNCT,False,False
unlimited,unlimited,unlimited,unlimited,ADJ,True,False
datum,datum,datum,datum,NOUN,True,False
",",",",",",",",PUNCT,False,False
and,and,and,and,CCONJ,True,True
local,local,local,local,ADJ,True,False
support,support,support,support,NOUN,True,False
.,.,.,.,PUNCT,False,False
we,we,-PRON-,-pron-,PRON,True,True
have,have,have,have,AUX,True,True
have,have,have,have,AUX,True,True
a,a,a,a,DET,True,True
3650,3650,3650,3650,NUM,False,False
-,-,-,-,SYM,False,False
3700,3700,3700,3700,NUM,False,False
license,license,license,license,NOUN,True,False
since,since,since,since,SCONJ,True,True
41409,41409,41409,41409,NUM,False,False
and,and,and,and,CCONJ,True,True
have,have,have,have,AUX,True,True
be,be,be,be,AUX,True,True
wait,wait,wait,wait,VERB,True,False
anxiously,anxiously,anxiously,anxiously,ADV,True,False
for,for,for,for,ADP,True,True
cbrs,cbrs,cbr,cbr,NOUN,True,False
band,band,band,band,NOUN,True,False
to,to,to,to,PART,True,True
become,become,become,become,VERB,True,True
available,available,available,available,ADJ,True,False
as,as,as,as,SCONJ,True,True
it,it,-PRON-,-pron-,PRON,True,True
be,be,be,be,VERB,True,True
adopt,adopt,adopt,adopt,ADJ,True,False
2,2,2,2,NUM,False,False
year,year,year,year,NOUN,True,False
ago,ago,ago,ago,ADV,True,False
.,.,.,.,PUNCT,False,False
provalue,provalue,provalue,provalue,PROPN,True,False
.,.,.,.,PUNCT,False,False
net,net,net,net,ADJ,True,False
have,have,have,have,AUX,True,True
make,make,make,make,VERB,True,True
private,private,private,private,ADJ,True,False
investment,investment,investment,investment,NOUN,True,False
of,of,of,of,ADP,True,True
"100,000","100,000","100,000","100,000",NUM,False,False
plus,plus,plus,plus,CCONJ,True,False
in,in,in,in,ADP,True,True
reliance,reliance,reliance,reliance,NOUN,True,False
of,of,of,of,ADP,True,True
the,the,the,the,DET,True,True
framework,framework,framework,framework,NOUN,True,False
the,the,the,the,DET,True,True
fcc,fcc,fcc,fcc,PROPN,True,False
have,have,have,have,AUX,True,True
previously,previously,previously,previously,ADV,True,False
establish,establish,establish,establish,VERB,True,False
.,.,.,.,PUNCT,False,False
we,we,-PRON-,-pron-,PRON,True,True
believe,believe,believe,believe,VERB,True,False
the,the,the,the,DET,True,True
extended,extended,extended,extended,ADJ,True,False
100mhz,100mhz,100mhz,100mhz,NUM,False,False
of,of,of,of,ADP,True,True
channel,channel,channel,channel,PROPN,True,False
bandwidth,bandwidth,bandwidth,bandwidth,PROPN,True,False
be,be,be,be,AUX,True,True
key,key,key,key,ADJ,True,False
to,to,to,to,PART,True,True
reach,reach,reach,reach,VERB,True,False
far,far,far,far,ADV,True,False
into,into,into,into,ADP,True,True
the,the,the,the,DET,True,True
unserved,unserved,unserved,unserved,ADJ,True,False
and,and,and,and,CCONJ,True,True
underserved,underserved,underserved,underserved,ADJ,True,False
market,market,market,market,NOUN,True,False
of,of,of,of,ADP,True,True
rural,rural,rural,rural,ADJ,True,False
oklahoma,oklahoma,oklahoma,oklahoma,PROPN,True,False
.,.,.,.,PUNCT,False,False
we,we,-PRON-,-pron-,PRON,True,True
oppose,oppose,oppose,oppose,VERB,True,False
any,any,any,any,DET,True,True
change,change,change,change,NOUN,True,False
you,you,-PRON-,-pron-,PRON,True,True
would,would,would,would,VERB,True,True
consider,consider,consider,consider,VERB,True,False
regard,regard,regard,regard,VERB,True,False
the,the,the,the,DET,True,True
cbrs,cbrs,cbr,cbr,NOUN,True,False
band,band,band,band,NOUN,True,False
.,.,.,.,PUNCT,False,False
please,please,please,please,INTJ,True,True
say,say,say,say,VERB,True,True
no,no,no,no,INTJ,True,True
to,to,to,to,ADP,True,True
the,the,the,the,DET,True,True
petition,petition,petition,petition,NOUN,True,False
that,that,that,that,SCONJ,True,True
ctia,ctia,ctia,ctia,NOUN,True,False
and,and,and,and,CCONJ,True,True
t,t,t,t,NOUN,True,False
-,-,-,-,PUNCT,False,False
mobile,mobile,mobile,mobile,NOUN,True,False
be,be,be,be,AUX,True,True
request,request,request,request,NOUN,True,False
and,and,and,and,CCONJ,True,True
move,move,move,move,VERB,True,True
forward,forward,forward,forward,ADV,True,False
with,with,with,with,ADP,True,True
the,the,the,the,DET,True,True
previous,previous,previous,previous,ADJ,True,False
adopt,adopt,adopt,adopt,NOUN,True,False
framework,framework,framework,framework,NOUN,True,False
.,.,.,.,PUNCT,False,False
we,we,-PRON-,-pron-,PRON,True,True
want,want,want,want,VERB,True,False
to,to,to,to,PART,True,True
have,have,have,have,AUX,True,True
stability,stability,stability,stability,NOUN,True,False
and,and,and,and,CCONJ,True,True
reassurance,reassurance,reassurance,reassurance,NOUN,True,False
with,with,with,with,ADP,True,True
our,our,-PRON-,-pron-,DET,True,True
investment,investment,investment,investment,NOUN,True,False
and,and,and,and,CCONJ,True,True
remove,remove,remove,remove,VERB,True,False
the,the,the,the,DET,True,True
halo,halo,halo,halo,NOUN,True,False
of,of,of,of,ADP,True,True
uncertainty,uncertainty,uncertainty,uncertainty,NOUN,True,False
.,.,.,.,PUNCT,False,False
