text,text_lower,lemma,lemma_lower,part_of_speech,is_alphabet,is_stopword
re,re,re,re,ADP,True,True
gn,gn,gn,gn,PROPN,True,False
docket,docket,docket,docket,PROPN,True,False
no,no,no,no,INTJ,True,True
.,.,.,.,NOUN,False,False
12,12,12,12,NUM,False,False
-,-,-,-,SYM,False,False
354,354,354,354,NUM,False,False
",",",",",",",",PUNCT,False,False
rm-11778,rm-11778,rm-11778,rm-11778,PROPN,False,False
and,and,and,and,CCONJ,True,True
rm-11789we,rm-11789we,rm-11789we,rm-11789we,PROPN,False,False
be,be,be,be,AUX,True,True
a,a,a,a,DET,True,True
small,small,small,small,ADJ,True,False
locally,locally,locally,locally,ADV,True,False
own,own,own,own,ADJ,True,True
wisp,wisp,wisp,wisp,NOUN,True,False
in,in,in,in,ADP,True,True
the,the,the,the,DET,True,True
southern,southern,southern,southern,ADJ,True,False
kentucky,kentucky,kentucky,kentucky,PROPN,True,False
northern,northern,northern,northern,PROPN,True,False
tennessee,tennessee,tennessee,tennessee,PROPN,True,False
region,region,region,region,NOUN,True,False
.,.,.,.,PUNCT,False,False
we,we,-PRON-,-pron-,PRON,True,True
utilize,utilize,utilize,utilize,VERB,True,False
equipment,equipment,equipment,equipment,NOUN,True,False
in,in,in,in,ADP,True,True
the,the,the,the,DET,True,True
900mhz,900mhz,900mhz,900mhz,PROPN,False,False
2.4ghz,2.4ghz,2.4ghz,2.4ghz,NUM,False,False
3.65ghz,3.65ghz,3.65ghz,3.65ghz,NUM,False,False
5ghz,5ghz,5ghz,5ghz,NUM,False,False
11ghz,11ghz,11ghz,11ghz,NOUN,False,False
and,and,and,and,CCONJ,True,True
24ghz,24ghz,24ghz,24ghz,ADJ,False,False
spectrum,spectrum,spectrum,spectrum,NOUN,True,False
.,.,.,.,PUNCT,False,False
we,we,-PRON-,-pron-,PRON,True,True
have,have,have,have,AUX,True,True
see,see,see,see,VERB,True,True
a,a,a,a,DET,True,True
massive,massive,massive,massive,ADJ,True,False
increase,increase,increase,increase,NOUN,True,False
in,in,in,in,ADP,True,True
recent,recent,recent,recent,ADJ,True,False
year,year,year,year,NOUN,True,False
for,for,for,for,ADP,True,True
the,the,the,the,DET,True,True
nose,nose,nose,nose,NOUN,True,False
floor,floor,floor,floor,NOUN,True,False
on,on,on,on,ADP,True,True
both,both,both,both,DET,True,True
2.4,2.4,2.4,2.4,NUM,False,False
5.8,5.8,5.8,5.8,NUM,False,False
ghz,ghz,ghz,ghz,NOUN,True,False
spectrum,spectrum,spectrum,spectrum,NOUN,True,False
do,do,do,do,AUX,True,True
to,to,to,to,PART,True,True
not,not,not,not,PART,True,True
only,only,only,only,ADV,True,True
more,more,more,more,ADJ,True,True
adoption,adoption,adoption,adoption,NOUN,True,False
of,of,of,of,ADP,True,True
wireless,wireless,wireless,wireless,NOUN,True,False
for,for,for,for,ADP,True,True
private,private,private,private,ADJ,True,False
point,point,point,point,NOUN,True,False
to,to,to,to,PART,True,True
point,point,point,point,NOUN,True,False
link,link,link,link,NOUN,True,False
but,but,but,but,CCONJ,True,True
also,also,also,also,ADV,True,True
from,from,from,from,ADP,True,True
cable,cable,cable,cable,NOUN,True,False
dsl,dsl,dsl,dsl,PROPN,True,False
provider,provider,provider,provider,PROPN,True,False
use,use,use,use,VERB,True,False
wide,wide,wide,wide,ADJ,True,False
band,band,band,band,NOUN,True,False
dual,dual,dual,dual,ADJ,True,False
band,band,band,band,NOUN,True,False
router,router,router,router,NOUN,True,False
for,for,for,for,ADP,True,True
all,all,all,all,DET,True,True
customer,customer,customer,customer,NOUN,True,False
as,as,as,as,ADV,True,True
well,well,well,well,ADV,True,True
as,as,as,as,SCONJ,True,True
hotspot,hotspot,hotspot,hotspot,NOUN,True,False
to,to,to,to,PART,True,True
extend,extend,extend,extend,VERB,True,False
their,their,-PRON-,-pron-,DET,True,True
offering,offering,offering,offering,NOUN,True,False
.,.,.,.,PUNCT,False,False
the,the,the,the,DET,True,True
cnrs,cnrs,cnrs,cnrs,PROPN,True,False
band,band,band,band,NOUN,True,False
be,be,be,be,AUX,True,True
critical,critical,critical,critical,ADJ,True,False
for,for,for,for,ADP,True,True
us,us,-PRON-,-pron-,PRON,True,True
to,to,to,to,PART,True,True
continue,continue,continue,continue,VERB,True,False
to,to,to,to,PART,True,True
offer,offer,offer,offer,VERB,True,False
true,true,true,true,ADJ,True,False
high,high,high,high,ADJ,True,False
speed,speed,speed,speed,NOUN,True,False
no,no,no,no,DET,True,True
data,data,data,data,NOUN,True,False
cap,cap,cap,cap,NOUN,True,False
offering,offering,offer,offer,VERB,True,False
to,to,to,to,ADP,True,True
underserved,underserved,underserved,underserved,ADJ,True,False
market,market,market,market,NOUN,True,False
.,.,.,.,PUNCT,False,False
we,we,-PRON-,-pron-,PRON,True,True
current,current,current,current,ADJ,True,False
serve,serve,serve,serve,VERB,True,False
over,over,over,over,ADP,True,True
two,two,two,two,NUM,True,True
thousand,thousand,thousand,thousand,NUM,True,False
resident,resident,resident,resident,NOUN,True,False
with,with,with,with,ADP,True,True
affordable,affordable,affordable,affordable,ADJ,True,False
high,high,high,high,ADJ,True,False
speed,speed,speed,speed,NOUN,True,False
service,service,service,service,NOUN,True,False
with,with,with,with,ADP,True,True
no,no,no,no,DET,True,True
contract,contract,contract,contract,NOUN,True,False
or,or,or,or,CCONJ,True,True
datum,datum,datum,datum,NOUN,True,False
cap,cap,cap,cap,NOUN,True,False
.,.,.,.,PUNCT,False,False
we,we,-PRON-,-pron-,PRON,True,True
specialize,specialize,specialize,specialize,VERB,True,False
on,on,on,on,ADP,True,True
the,the,the,the,DET,True,True
rural,rural,rural,rural,ADJ,True,False
farmland,farmland,farmland,farmland,NOUN,True,False
where,where,where,where,ADV,True,True
population,population,population,population,NOUN,True,False
density,density,density,density,NOUN,True,False
be,be,be,be,AUX,True,True
low,low,low,low,ADJ,True,False
and,and,and,and,CCONJ,True,True
therefore,therefore,therefore,therefore,ADV,True,True
be,be,be,be,AUX,True,True
ignore,ignore,ignore,ignore,NOUN,True,False
but,but,but,but,CCONJ,True,True
national,national,national,national,ADJ,True,False
carrier,carrier,carrier,carrier,NOUN,True,False
.,.,.,.,PUNCT,False,False
we,we,-PRON-,-pron-,PRON,True,True
offer,offer,offer,offer,VERB,True,False
plan,plan,plan,plan,NOUN,True,False
start,start,start,start,VERB,True,False
at,at,at,at,ADP,True,True
4,4,4,4,NUM,False,False
mbps,mbps,mbp,mbp,NOUN,True,False
and,and,and,and,CCONJ,True,True
up,up,up,up,ADV,True,True
to,to,to,to,PART,True,True
40mbps,40mbps,40mbps,40mbps,PROPN,False,False
to,to,to,to,ADP,True,True
our,our,-PRON-,-pron-,DET,True,True
customer,customer,customer,customer,NOUN,True,False
.,.,.,.,PUNCT,False,False
your,your,-PRON-,-pron-,DET,True,True
companys,companys,companys,companys,ADJ,True,False
investment,investment,investment,investment,NOUN,True,False
in,in,in,in,ADP,True,True
3650,3650,3650,3650,NUM,False,False
-,-,-,-,SYM,False,False
3700,3700,3700,3700,NUM,False,False
mhzwe,mhzwe,mhzwe,mhzwe,NOUN,True,False
currently,currently,currently,currently,ADV,True,False
have,have,have,have,AUX,True,True
invest,invest,invest,invest,VERB,True,False
nearly,nearly,nearly,nearly,ADV,True,False
75,75,75,75,NUM,False,False
k,k,k,k,NOUN,True,False
in,in,in,in,ADP,True,True
biacell,biacell,biacell,biacell,PROPN,True,False
lte,lte,lte,lte,PROPN,True,False
equipment,equipment,equipment,equipment,NOUN,True,False
utilize,utilize,utilize,utilize,VERB,True,False
our,our,-PRON-,-pron-,DET,True,True
exist,exist,exist,exist,VERB,True,False
3.65,3.65,3.65,3.65,NUM,False,False
license,license,license,license,NOUN,True,False
.,.,.,.,PUNCT,False,False
once,once,once,once,SCONJ,True,True
cbrs,cbrs,cbr,cbr,NOUN,True,False
be,be,be,be,AUX,True,True
complete,complete,complete,complete,ADJ,True,False
we,we,-PRON-,-pron-,PRON,True,True
plan,plan,plan,plan,VERB,True,False
on,on,on,on,ADP,True,True
make,make,make,make,VERB,True,True
a,a,a,a,DET,True,True
huge,huge,huge,huge,ADJ,True,False
overlay,overlay,overlay,overlay,NOUN,True,False
of,of,of,of,ADP,True,True
our,our,-PRON-,-pron-,DET,True,True
exist,exist,exist,exist,ADJ,True,False
network,network,network,network,NOUN,True,False
to,to,to,to,PART,True,True
give,give,give,give,VERB,True,True
even,even,even,even,ADV,True,True
more,more,more,more,ADJ,True,True
speed,speed,speed,speed,NOUN,True,False
to,to,to,to,PART,True,True
exist,exist,exist,exist,VERB,True,False
customer,customer,customer,customer,NOUN,True,False
and,and,and,and,CCONJ,True,True
enhance,enhance,enhance,enhance,VERB,True,False
coverage,coverage,coverage,coverage,NOUN,True,False
to,to,to,to,PART,True,True
leave,leave,leave,leave,VERB,True,False
nobody,nobody,nobody,nobody,PRON,True,True
unserve,unserve,unserve,unserve,VERB,True,False
.,.,.,.,PUNCT,False,False
if,if,if,if,SCONJ,True,True
we,we,-PRON-,-pron-,PRON,True,True
be,be,be,be,VERB,True,True
give,give,give,give,VERB,True,True
access,access,access,access,NOUN,True,False
to,to,to,to,ADP,True,True
100,100,100,100,NUM,False,False
megahertz,megahertz,megahertz,megahertz,NOUN,True,False
of,of,of,of,ADP,True,True
mid,mid,mid,mid,ADJ,True,False
-,-,-,-,NOUN,False,False
band,band,band,band,NOUN,True,False
spectrum,spectrum,spectrum,spectrum,NOUN,True,False
this,this,this,this,DET,True,True
will,will,will,will,VERB,True,True
allow,allow,allow,allow,VERB,True,False
capacity,capacity,capacity,capacity,NOUN,True,False
at,at,at,at,ADP,True,True
our,our,-PRON-,-pron-,DET,True,True
tower,tower,tower,tower,NOUN,True,False
to,to,to,to,PART,True,True
deliver,deliver,deliver,deliver,VERB,True,False
service,service,service,service,NOUN,True,False
speed,speed,speed,speed,NOUN,True,False
where,where,where,where,ADV,True,True
cable,cable,cable,cable,NOUN,True,False
fiber,fiber,fiber,fiber,NOUN,True,False
be,be,be,be,VERB,True,True
not,not,not,not,PART,True,True
expect,expect,expect,expect,VERB,True,False
for,for,for,for,ADP,True,True
5,5,5,5,NUM,False,False
year,year,year,year,NOUN,True,False
.,.,.,.,PUNCT,False,False
with,with,with,with,ADP,True,True
our,our,-PRON-,-pron-,DET,True,True
significant,significant,significant,significant,ADJ,True,False
investment,investment,investment,investment,NOUN,True,False
in,in,in,in,ADP,True,True
equipment,equipment,equipment,equipment,NOUN,True,False
in,in,in,in,ADP,True,True
this,this,this,this,DET,True,True
band,band,band,band,NOUN,True,False
we,we,-PRON-,-pron-,PRON,True,True
can,can,can,can,VERB,True,True
optimize,optimize,optimize,optimize,VERB,True,False
our,our,-PRON-,-pron-,DET,True,True
network,network,network,network,NOUN,True,False
for,for,for,for,ADP,True,True
qos,qos,qos,qos,PROPN,True,False
interference,interference,interference,interference,NOUN,True,False
mitigation,mitigation,mitigation,mitigation,NOUN,True,False
include,include,include,include,VERB,True,False
resident,resident,resident,resident,ADJ,True,False
voip,voip,voip,voip,NOUN,True,False
customer,customer,customer,customer,NOUN,True,False
due,due,due,due,ADJ,True,True
to,to,to,to,ADP,True,True
local,local,local,local,ADJ,True,False
cooper,cooper,cooper,cooper,NOUN,True,False
land,land,land,land,NOUN,True,False
line,line,line,line,NOUN,True,False
issue,issue,issue,issue,NOUN,True,False
do,do,do,do,AUX,True,True
to,to,to,to,ADP,True,True
age,age,age,age,NOUN,True,False
line,line,line,line,NOUN,True,False
.,.,.,.,PUNCT,False,False
our,our,-PRON-,-pron-,DET,True,True
focus,focus,focus,focus,NOUN,True,False
in,in,in,in,ADP,True,True
on,on,on,on,ADP,True,True
personal,personal,personal,personal,ADJ,True,False
customer,customer,customer,customer,NOUN,True,False
service,service,service,service,NOUN,True,False
by,by,by,by,ADP,True,True
a,a,a,a,DET,True,True
locally,locally,locally,locally,ADV,True,False
own,own,own,own,ADJ,True,True
and,and,and,and,CCONJ,True,True
operate,operate,operate,operate,VERB,True,False
company,company,company,company,NOUN,True,False
.,.,.,.,PUNCT,False,False
with,with,with,with,ADP,True,True
all,all,all,all,DET,True,True
the,the,the,the,DET,True,True
merger,merger,merger,merger,NOUN,True,False
that,that,that,that,DET,True,True
have,have,have,have,AUX,True,True
be,be,be,be,AUX,True,True
allow,allow,allow,allow,VERB,True,False
the,the,the,the,DET,True,True
end,end,end,end,NOUN,True,False
-,-,-,-,PUNCT,False,False
user,user,user,user,NOUN,True,False
choice,choice,choice,choice,NOUN,True,False
for,for,for,for,ADP,True,True
provider,provider,provider,provider,NOUN,True,False
have,have,have,have,AUX,True,True
be,be,be,be,AUX,True,True
reduce,reduce,reduce,reduce,NOUN,True,False
which,which,which,which,DET,True,True
eliminate,eliminate,eliminate,eliminate,VERB,True,False
accountability,accountability,accountability,accountability,NOUN,True,False
in,in,in,in,ADP,True,True
some,some,some,some,DET,True,True
market,market,market,market,NOUN,True,False
.,.,.,.,PUNCT,False,False
we,we,-PRON-,-pron-,PRON,True,True
be,be,be,be,VERB,True,True
opposed,opposed,opposed,opposed,ADJ,True,False
to,to,to,to,ADP,True,True
the,the,the,the,DET,True,True
ctia,ctia,ctia,ctia,NOUN,True,False
and,and,and,and,CCONJ,True,True
t,t,t,t,NOUN,True,False
-,-,-,-,PUNCT,False,False
mobile,mobile,mobile,mobile,NOUN,True,False
petitions,petitions,petition,petition,NOUN,True,False
as,as,as,as,SCONJ,True,True
this,this,this,this,DET,True,True
drastically,drastically,drastically,drastically,ADV,True,False
effect,effect,effect,effect,VERB,True,False
the,the,the,the,DET,True,True
ability,ability,ability,ability,NOUN,True,False
for,for,for,for,ADP,True,True
use,use,use,use,NOUN,True,False
to,to,to,to,PART,True,True
serve,serve,serve,serve,VERB,True,False
the,the,the,the,DET,True,True
underserved,underserved,underserved,underserved,ADJ,True,False
customer,customer,customer,customer,NOUN,True,False
already,already,already,already,ADV,True,True
in,in,in,in,ADP,True,True
their,their,-PRON-,-pron-,DET,True,True
coverage,coverage,coverage,coverage,NOUN,True,False
area,area,area,area,NOUN,True,False
.,.,.,.,PUNCT,False,False
by,by,by,by,ADP,True,True
allow,allow,allow,allow,VERB,True,False
this,this,this,this,DET,True,True
tohappen,tohappen,tohappen,tohappen,VERB,True,False
it,it,-PRON-,-pron-,PRON,True,True
remove,remove,remove,remove,VERB,True,False
the,the,the,the,DET,True,True
customer,customer,customer,customer,NOUN,True,False
choice,choice,choice,choice,NOUN,True,False
to,to,to,to,PART,True,True
have,have,have,have,AUX,True,True
a,a,a,a,DET,True,True
true,true,true,true,ADJ,True,False
high,high,high,high,ADJ,True,False
speed,speed,speed,speed,NOUN,True,False
service,service,service,service,NOUN,True,False
without,without,without,without,ADP,True,True
contract,contract,contract,contract,NOUN,True,False
or,or,or,or,CCONJ,True,True
datum,datum,datum,datum,NOUN,True,False
cap,cap,cap,cap,NOUN,True,False
specifically,specifically,specifically,specifically,ADV,True,False
the,the,the,the,DET,True,True
prove,prove,prove,prove,NOUN,True,False
throttling,throttling,throttle,throttle,VERB,True,False
of,of,of,of,ADP,True,True
the,the,the,the,DET,True,True
national,national,national,national,ADJ,True,False
carrier,carrier,carrier,carrier,NOUN,True,False
that,that,that,that,DET,True,True
be,be,be,be,VERB,True,True
push,push,push,push,VERB,True,False
this,this,this,this,DET,True,True
.,.,.,.,PUNCT,False,False
