text,text_lower,lemma,lemma_lower,part_of_speech,is_alphabet,is_stopword
re,re,re,re,ADP,True,True
gn,gn,gn,gn,PROPN,True,False
docket,docket,docket,docket,PROPN,True,False
no,no,no,no,INTJ,True,True
.,.,.,.,NOUN,False,False
12,12,12,12,NUM,False,False
-,-,-,-,SYM,False,False
354to,354to,354to,354to,NOUN,False,False
whom,whom,whom,whom,PRON,True,True
it,it,-PRON-,-pron-,PRON,True,True
may,may,may,may,VERB,True,True
concernim,concernim,concernim,concernim,VERB,True,False
write,write,write,write,VERB,True,False
on,on,on,on,ADP,True,True
behalf,behalf,behalf,behalf,NOUN,True,False
of,of,of,of,ADP,True,True
wabash,wabash,wabash,wabash,PROPN,True,False
communications,communications,communications,communications,PROPN,True,False
inc,inc,inc,inc,PROPN,True,False
.,.,.,.,PROPN,False,False
",",",",",",",",PUNCT,False,False
a,a,a,a,DET,True,True
rural,rural,rural,rural,ADJ,True,False
fix,fix,fix,fix,NOUN,True,False
wireless,wireless,wireless,wireless,NOUN,True,False
operator,operator,operator,operator,NOUN,True,False
",",",",",",",",PUNCT,False,False
to,to,to,to,PART,True,True
express,express,express,express,VERB,True,False
our,our,-PRON-,-pron-,DET,True,True
opposition,opposition,opposition,opposition,NOUN,True,False
to,to,to,to,ADP,True,True
the,the,the,the,DET,True,True
petition,petition,petition,petition,NOUN,True,False
file,file,file,file,NOUN,True,False
by,by,by,by,ADP,True,True
ctia,ctia,ctia,ctia,PROPN,True,False
and,and,and,and,CCONJ,True,True
t,t,t,t,PROPN,True,False
-,-,-,-,PUNCT,False,False
mobile,mobile,mobile,mobile,NOUN,True,False
regard,regard,regard,regard,NOUN,True,False
propose,propose,propose,propose,NOUN,True,False
change,change,change,change,NOUN,True,False
to,to,to,to,ADP,True,True
the,the,the,the,DET,True,True
citizens,citizens,citizen,citizen,NOUN,True,False
broadband,broadband,broadband,broadband,PROPN,True,False
radio,radio,radio,radio,PROPN,True,False
service,service,service,service,NOUN,True,False
cbrs,cbrs,cbr,cbr,NOUN,True,False
band,band,band,band,NOUN,True,False
.,.,.,.,PUNCT,False,False
the,the,the,the,DET,True,True
fcc,fcc,fcc,fcc,PROPN,True,False
adopt,adopt,adopt,adopt,PROPN,True,False
rule,rule,rule,rule,NOUN,True,False
in,in,in,in,ADP,True,True
2015,2015,2015,2015,NUM,False,False
to,to,to,to,PART,True,True
establish,establish,establish,establish,VERB,True,False
the,the,the,the,DET,True,True
cbrs,cbrs,cbr,cbr,NOUN,True,False
band,band,band,band,NOUN,True,False
.,.,.,.,PUNCT,False,False
the,the,the,the,DET,True,True
band,band,band,band,NOUN,True,False
employ,employ,employ,employ,VERB,True,False
a,a,a,a,DET,True,True
three,three,three,three,NUM,True,True
-,-,-,-,PUNCT,False,False
tier,tier,tier,tier,NOUN,True,False
spectrum,spectrum,spectrum,spectrum,PROPN,True,False
access,access,access,access,PROPN,True,False
model,model,model,model,NOUN,True,False
",",",",",",",",PUNCT,False,False
include,include,include,include,VERB,True,False
incumbent,incumbent,incumbent,incumbent,ADJ,True,False
access,access,access,access,NOUN,True,False
",",",",",",",",PUNCT,False,False
priority,priority,priority,priority,NOUN,True,False
access,access,access,access,NOUN,True,False
and,and,and,and,CCONJ,True,True
general,general,general,general,ADJ,True,False
authorized,authorized,authorized,authorized,ADJ,True,False
access,access,access,access,NOUN,True,False
.,.,.,.,PUNCT,False,False
the,the,the,the,DET,True,True
fcc,fcc,fcc,fcc,PROPN,True,False
allocate,allocate,allocate,allocate,VERB,True,False
up,up,up,up,ADP,True,True
to,to,to,to,ADP,True,True
70,70,70,70,NUM,False,False
megahertz,megahertz,megahertz,megahertz,NOUN,True,False
for,for,for,for,ADP,True,True
priority,priority,priority,priority,NOUN,True,False
access,access,access,access,NOUN,True,False
licenses,licenses,license,license,NOUN,True,False
pals,pals,pal,pal,NOUN,True,False
and,and,and,and,CCONJ,True,True
the,the,the,the,DET,True,True
remain,remain,remain,remain,VERB,True,False
80,80,80,80,NUM,False,False
megahertz,megahertz,megahertz,megahertz,NOUN,True,False
for,for,for,for,ADP,True,True
general,general,general,general,ADJ,True,False
authorized,authorized,authorize,authorize,VERB,True,False
gaa,gaa,gaa,gaa,NOUN,True,False
use,use,use,use,NOUN,True,False
.,.,.,.,PUNCT,False,False
the,the,the,the,DET,True,True
model,model,model,model,NOUN,True,False
will,will,will,will,VERB,True,True
be,be,be,be,AUX,True,True
govern,govern,govern,govern,ADJ,True,False
by,by,by,by,ADP,True,True
a,a,a,a,DET,True,True
spectrum,spectrum,spectrum,spectrum,NOUN,True,False
access,access,access,access,NOUN,True,False
system,system,system,system,NOUN,True,False
sas,sas,sas,sas,PROPN,True,False
that,that,that,that,DET,True,True
will,will,will,will,VERB,True,True
enforce,enforce,enforce,enforce,VERB,True,False
the,the,the,the,DET,True,True
three,three,three,three,NUM,True,True
-,-,-,-,PUNCT,False,False
tier,tier,tier,tier,NOUN,True,False
approach,approach,approach,approach,NOUN,True,False
.,.,.,.,PUNCT,False,False
the,the,the,the,DET,True,True
mobile,mobile,mobile,mobile,ADJ,True,False
industry,industry,industry,industry,NOUN,True,False
want,want,want,want,VERB,True,False
to,to,to,to,PART,True,True
change,change,change,change,VERB,True,False
the,the,the,the,DET,True,True
rule,rule,rule,rule,NOUN,True,False
so,so,so,so,SCONJ,True,True
they,they,-PRON-,-pron-,PRON,True,True
be,be,be,be,VERB,True,True
friendly,friendly,friendly,friendly,ADJ,True,False
to,to,to,to,ADP,True,True
5,5,5,5,NUM,False,False
g,g,g,g,NOUN,True,False
service,service,service,service,NOUN,True,False
that,that,that,that,DET,True,True
they,they,-PRON-,-pron-,PRON,True,True
be,be,be,be,VERB,True,True
develop,develop,develop,develop,VERB,True,False
.,.,.,.,PUNCT,False,False
in,in,in,in,ADP,True,True
our,our,-PRON-,-pron-,DET,True,True
view,view,view,view,NOUN,True,False
",",",",",",",",PUNCT,False,False
the,the,the,the,DET,True,True
effect,effect,effect,effect,NOUN,True,False
of,of,of,of,ADP,True,True
these,these,these,these,DET,True,True
fundamental,fundamental,fundamental,fundamental,ADJ,True,False
change,change,change,change,NOUN,True,False
will,will,will,will,VERB,True,True
effectively,effectively,effectively,effectively,ADV,True,False
foreclose,foreclose,foreclose,foreclose,VERB,True,False
other,other,other,other,ADJ,True,True
use,use,use,use,NOUN,True,False
and,and,and,and,CCONJ,True,True
create,create,create,create,VERB,True,False
a,a,a,a,DET,True,True
5,5,5,5,NUM,False,False
g,g,g,g,NOUN,True,False
-,-,-,-,PUNCT,False,False
only,only,only,only,ADJ,True,True
band,band,band,band,NOUN,True,False
.,.,.,.,PUNCT,False,False
these,these,these,these,DET,True,True
change,change,change,change,NOUN,True,False
will,will,will,will,VERB,True,True
convert,convert,convert,convert,VERB,True,False
the,the,the,the,DET,True,True
innovation,innovation,innovation,innovation,NOUN,True,False
band,band,band,band,VERB,True,False
the,the,the,the,DET,True,True
fcc,fcc,fcc,fcc,PROPN,True,False
envision,envision,envision,envision,NOUN,True,False
into,into,into,into,ADP,True,True
a,a,a,a,DET,True,True
5,5,5,5,NUM,False,False
g,g,g,g,NOUN,True,False
-,-,-,-,PUNCT,False,False
only,only,only,only,ADJ,True,True
band,band,band,band,NOUN,True,False
that,that,that,that,DET,True,True
will,will,will,will,VERB,True,True
be,be,be,be,AUX,True,True
unavailable,unavailable,unavailable,unavailable,ADJ,True,False
to,to,to,to,ADP,True,True
wisps,wisps,wisp,wisp,NOUN,True,False
and,and,and,and,CCONJ,True,True
other,other,other,other,ADJ,True,True
small,small,small,small,ADJ,True,False
company,company,company,company,NOUN,True,False
that,that,that,that,DET,True,True
would,would,would,would,VERB,True,True
not,not,not,not,PART,True,True
have,have,have,have,AUX,True,True
the,the,the,the,DET,True,True
mean,mean,mean,mean,NOUN,True,False
to,to,to,to,PART,True,True
overbid,overbid,overbid,overbid,VERB,True,False
large,large,large,large,ADJ,True,False
mobile,mobile,mobile,mobile,ADJ,True,False
carrier,carrier,carrier,carrier,NOUN,True,False
for,for,for,for,ADP,True,True
license,license,license,license,NOUN,True,False
that,that,that,that,DET,True,True
would,would,would,would,VERB,True,True
cost,cost,cost,cost,VERB,True,False
much,much,much,much,ADV,True,True
more,more,more,more,ADJ,True,True
.,.,.,.,PUNCT,False,False
price,price,price,price,VERB,True,False
out,out,out,out,ADP,True,True
many,many,many,many,ADJ,True,True
small,small,small,small,ADJ,True,False
would,would,would,would,VERB,True,True
-,-,-,-,PUNCT,False,False
be,be,be,be,AUX,True,True
bidder,bidder,bidder,bidder,NOUN,True,False
would,would,would,would,VERB,True,True
essentially,essentially,essentially,essentially,ADV,True,False
ensure,ensure,ensure,ensure,VERB,True,False
that,that,that,that,SCONJ,True,True
the,the,the,the,DET,True,True
large,large,large,large,ADJ,True,False
mobile,mobile,mobile,mobile,ADJ,True,False
wireless,wireless,wireless,wireless,NOUN,True,False
carrier,carrier,carrier,carrier,NOUN,True,False
have,have,have,have,AUX,True,True
exclusive,exclusive,exclusive,exclusive,ADJ,True,False
access,access,access,access,NOUN,True,False
to,to,to,to,ADP,True,True
the,the,the,the,DET,True,True
spectrum,spectrum,spectrum,spectrum,NOUN,True,False
.,.,.,.,PUNCT,False,False
small,small,small,small,ADJ,True,False
provider,provider,provider,provider,NOUN,True,False
",",",",",",",",PUNCT,False,False
even,even,even,even,ADV,True,True
if,if,if,if,SCONJ,True,True
they,they,-PRON-,-pron-,PRON,True,True
have,have,have,have,AUX,True,True
the,the,the,the,DET,True,True
mean,mean,mean,mean,NOUN,True,False
to,to,to,to,PART,True,True
outbid,outbid,outbid,outbid,VERB,True,False
the,the,the,the,DET,True,True
large,large,large,large,ADJ,True,False
carrier,carrier,carrier,carrier,NOUN,True,False
",",",",",",",",PUNCT,False,False
would,would,would,would,VERB,True,True
be,be,be,be,AUX,True,True
force,force,force,force,NOUN,True,False
to,to,to,to,PART,True,True
acquire,acquire,acquire,acquire,VERB,True,False
large,large,large,large,ADJ,True,False
-,-,-,-,PUNCT,False,False
area,area,area,area,NOUN,True,False
license,license,license,license,NOUN,True,False
in,in,in,in,ADP,True,True
multiple,multiple,multiple,multiple,ADJ,True,False
county,county,county,county,NOUN,True,False
that,that,that,that,DET,True,True
be,be,be,be,VERB,True,True
likely,likely,likely,likely,ADV,True,False
much,much,much,much,ADV,True,True
large,large,large,large,ADJ,True,False
than,than,than,than,SCONJ,True,True
the,the,the,the,DET,True,True
target,target,target,target,NOUN,True,False
area,area,area,area,NOUN,True,False
wisp,wisp,wisp,wisp,ADV,True,False
would,would,would,would,VERB,True,True
want,want,want,want,VERB,True,False
to,to,to,to,PART,True,True
serve,serve,serve,serve,VERB,True,False
.,.,.,.,PUNCT,False,False
as,as,as,as,SCONJ,True,True
you,you,-PRON-,-pron-,PRON,True,True
know,know,know,know,VERB,True,False
",",",",",",",",PUNCT,False,False
the,the,the,the,DET,True,True
wireless,wireless,wireless,wireless,ADJ,True,False
internet,internet,internet,internet,NOUN,True,False
service,service,service,service,NOUN,True,False
providers,providers,provider,provider,NOUN,True,False
association,association,association,association,PROPN,True,False
wispa,wispa,wispa,wispa,PROPN,True,False
fight,fight,fight,fight,VERB,True,False
very,very,very,very,ADV,True,True
hard,hard,hard,hard,ADV,True,False
and,and,and,and,CCONJ,True,True
successfully,successfully,successfully,successfully,ADV,True,False
to,to,to,to,PART,True,True
urge,urge,urge,urge,VERB,True,False
the,the,the,the,DET,True,True
fcc,fcc,fcc,fcc,PROPN,True,False
to,to,to,to,PART,True,True
adopt,adopt,adopt,adopt,VERB,True,False
favorable,favorable,favorable,favorable,ADJ,True,False
rule,rule,rule,rule,NOUN,True,False
",",",",",",",",PUNCT,False,False
and,and,and,and,CCONJ,True,True
if,if,if,if,SCONJ,True,True
these,these,these,these,DET,True,True
change,change,change,change,NOUN,True,False
propose,propose,propose,propose,NOUN,True,False
by,by,by,by,ADP,True,True
ctia,ctia,ctia,ctia,PROPN,True,False
and,and,and,and,CCONJ,True,True
t,t,t,t,PROPN,True,False
-,-,-,-,PUNCT,False,False
mobile,mobile,mobile,mobile,NOUN,True,False
be,be,be,be,AUX,True,True
adopt,adopt,adopt,adopt,ADJ,True,False
",",",",",",",",PUNCT,False,False
they,they,-PRON-,-pron-,PRON,True,True
would,would,would,would,VERB,True,True
severely,severely,severely,severely,ADV,True,False
limit,limit,limit,limit,VERB,True,False
the,the,the,the,DET,True,True
benefit,benefit,benefit,benefit,NOUN,True,False
that,that,that,that,DET,True,True
be,be,be,be,VERB,True,True
create,create,create,create,VERB,True,False
for,for,for,for,ADP,True,True
rural,rural,rural,rural,ADJ,True,False
broadband,broadband,broadband,broadband,NOUN,True,False
deployment,deployment,deployment,deployment,NOUN,True,False
.,.,.,.,PUNCT,False,False
as,as,as,as,SCONJ,True,True
a,a,a,a,DET,True,True
small,small,small,small,ADJ,True,False
fix,fix,fix,fix,NOUN,True,False
wireless,wireless,wireless,wireless,NOUN,True,False
provider,provider,provider,provider,NOUN,True,False
in,in,in,in,ADP,True,True
rural,rural,rural,rural,ADJ,True,False
ohio,ohio,ohio,ohio,PROPN,True,False
we,we,-PRON-,-pron-,PRON,True,True
have,have,have,have,AUX,True,True
invest,invest,invest,invest,VERB,True,False
heavily,heavily,heavily,heavily,ADV,True,False
in,in,in,in,ADP,True,True
equipment,equipment,equipment,equipment,NOUN,True,False
operating,operating,operating,operating,NOUN,True,False
in,in,in,in,ADP,True,True
the,the,the,the,DET,True,True
3650,3650,3650,3650,NUM,False,False
-,-,-,-,SYM,False,False
3700,3700,3700,3700,NUM,False,False
ghz,ghz,ghz,ghz,NOUN,True,False
and,and,and,and,CCONJ,True,True
be,be,be,be,AUX,True,True
currently,currently,currently,currently,ADV,True,False
add,add,add,add,VERB,True,False
equipment,equipment,equipment,equipment,NOUN,True,False
upgrade,upgrade,upgrade,upgrade,NOUN,True,False
to,to,to,to,PART,True,True
provide,provide,provide,provide,VERB,True,False
fast,fast,fast,fast,ADJ,True,False
rural,rural,rural,rural,ADJ,True,False
internet,internet,internet,internet,NOUN,True,False
service,service,service,service,NOUN,True,False
.,.,.,.,PUNCT,False,False
i,i,i,i,PRON,True,True
be,be,be,be,VERB,True,True
adamantly,adamantly,adamantly,adamantly,ADV,True,False
oppose,oppose,oppose,oppose,VERB,True,False
to,to,to,to,ADP,True,True
the,the,the,the,DET,True,True
petition,petition,petition,petition,NOUN,True,False
file,file,file,file,NOUN,True,False
by,by,by,by,ADP,True,True
ctia,ctia,ctia,ctia,PROPN,True,False
and,and,and,and,CCONJ,True,True
t,t,t,t,PROPN,True,False
-,-,-,-,PUNCT,False,False
mobile,mobile,mobile,mobile,PROPN,True,False
.,.,.,.,PUNCT,False,False
if,if,if,if,SCONJ,True,True
adopt,adopt,adopt,adopt,PROPN,True,False
",",",",",",",",PUNCT,False,False
the,the,the,the,DET,True,True
mobile,mobile,mobile,mobile,ADJ,True,False
industrys,industrys,industrys,industrys,PROPN,True,False
proposal,proposal,proposal,proposal,NOUN,True,False
would,would,would,would,VERB,True,True
undermine,undermine,undermine,undermine,VERB,True,False
our,our,-PRON-,-pron-,DET,True,True
exist,exist,exist,exist,ADJ,True,False
investment,investment,investment,investment,NOUN,True,False
in,in,in,in,ADP,True,True
3650,3650,3650,3650,NUM,False,False
-,-,-,-,SYM,False,False
3700,3700,3700,3700,NUM,False,False
ghz,ghz,ghz,ghz,PROPN,True,False
spectrum,spectrum,spectrum,spectrum,NOUN,True,False
and,and,and,and,CCONJ,True,True
inhibit,inhibit,inhibit,inhibit,VERB,True,False
further,further,further,further,ADJ,True,True
investment,investment,investment,investment,NOUN,True,False
and,and,and,and,CCONJ,True,True
deployment,deployment,deployment,deployment,NOUN,True,False
in,in,in,in,ADP,True,True
the,the,the,the,DET,True,True
entire,entire,entire,entire,ADJ,True,False
150,150,150,150,NUM,False,False
megahertz,megahertz,megahertz,megahertz,NOUN,True,False
of,of,of,of,ADP,True,True
spectrum,spectrum,spectrum,spectrum,PROPN,True,False
.,.,.,.,PUNCT,False,False
i,i,i,i,PRON,True,True
urge,urge,urge,urge,VERB,True,False
you,you,-PRON-,-pron-,PRON,True,True
to,to,to,to,PART,True,True
strike,strike,strike,strike,VERB,True,False
these,these,these,these,DET,True,True
petition,petition,petition,petition,NOUN,True,False
and,and,and,and,CCONJ,True,True
allow,allow,allow,allow,VERB,True,False
us,us,-PRON-,-pron-,PRON,True,True
the,the,the,the,DET,True,True
opportunity,opportunity,opportunity,opportunity,NOUN,True,False
to,to,to,to,PART,True,True
provide,provide,provide,provide,VERB,True,False
these,these,these,these,DET,True,True
service,service,service,service,NOUN,True,False
and,and,and,and,CCONJ,True,True
move,move,move,move,VERB,True,True
forward,forward,forward,forward,ADV,True,False
expeditiously,expeditiously,expeditiously,expeditiously,ADV,True,False
with,with,with,with,ADP,True,True
the,the,the,the,DET,True,True
already,already,already,already,ADV,True,True
agree,agree,agree,agree,VERB,True,False
up,up,up,up,ADP,True,True
innovation,innovation,innovation,innovation,NOUN,True,False
band,band,band,band,NOUN,True,False
.,.,.,.,PUNCT,False,False
customer,customer,customer,customer,NOUN,True,False
need,need,need,need,VERB,True,False
to,to,to,to,PART,True,True
have,have,have,have,AUX,True,True
the,the,the,the,DET,True,True
choice,choice,choice,choice,NOUN,True,False
of,of,of,of,ADP,True,True
provider,provider,provider,provider,NOUN,True,False
and,and,and,and,CCONJ,True,True
the,the,the,the,DET,True,True
provider,provider,provider,provider,NOUN,True,False
need,need,need,need,VERB,True,False
to,to,to,to,PART,True,True
have,have,have,have,AUX,True,True
the,the,the,the,DET,True,True
ability,ability,ability,ability,NOUN,True,False
to,to,to,to,PART,True,True
affordably,affordably,affordably,affordably,ADV,True,False
offer,offer,offer,offer,VERB,True,False
competitive,competitive,competitive,competitive,ADJ,True,False
service,service,service,service,NOUN,True,False
to,to,to,to,PART,True,True
enhance,enhance,enhance,enhance,VERB,True,False
the,the,the,the,DET,True,True
broadband,broadband,broadband,broadband,NOUN,True,False
internet,internet,internet,internet,NOUN,True,False
experience,experience,experience,experience,NOUN,True,False
in,in,in,in,ADP,True,True
rural,rural,rural,rural,ADJ,True,False
america,america,america,america,PROPN,True,False
.,.,.,.,PUNCT,False,False
