text,text_lower,lemma,lemma_lower,part_of_speech,is_alphabet,is_stopword
t,t,t,t,PROPN,True,False
-,-,-,-,PUNCT,False,False
mobile,mobile,mobile,mobile,PROPN,True,False
usa,usa,usa,usa,PROPN,True,False
",",",",",",",",PUNCT,False,False
inc,inc,inc,inc,PROPN,True,False
.,.,.,.,PROPN,False,False
t,t,t,t,PROPN,True,False
-,-,-,-,PUNCT,False,False
mobile,mobile,mobile,mobile,NOUN,True,False
submit,submit,submit,submit,VERB,True,False
these,these,these,these,DET,True,True
comment,comment,comment,comment,NOUN,True,False
in,in,in,in,ADP,True,True
response,response,response,response,NOUN,True,False
to,to,to,to,ADP,True,True
the,the,the,the,DET,True,True
publicnotice,publicnotice,publicnotice,publicnotice,NOUN,True,False
seek,seek,seek,seek,VERB,True,False
comment,comment,comment,comment,NOUN,True,False
on,on,on,on,ADP,True,True
the,the,the,the,DET,True,True
petitions,petitions,petition,petition,NOUN,True,False
for,for,for,for,ADP,True,True
rulemake,rulemake,rulemake,rulemake,VERB,True,False
it,it,-PRON-,-pron-,PRON,True,True
and,and,and,and,CCONJ,True,True
ctia,ctia,ctia,ctia,PROPN,True,False
submit,submit,submit,submit,PROPN,True,False
",",",",",",",",PUNCT,False,False
whichpropose,whichpropose,whichpropose,whichpropose,VERB,True,False
modest,modest,modest,modest,ADJ,True,False
change,change,change,change,NOUN,True,False
to,to,to,to,ADP,True,True
the,the,the,the,DET,True,True
rule,rule,rule,rule,NOUN,True,False
govern,govern,govern,govern,VERB,True,False
the,the,the,the,DET,True,True
3550,3550,3550,3550,NUM,False,False
-,-,-,-,SYM,False,False
3700,3700,3700,3700,NUM,False,False
mhz,mhz,mhz,mhz,PROPN,True,False
band,band,band,band,NOUN,True,False
3.5,3.5,3.5,3.5,NUM,False,False
ghz,ghz,ghz,ghz,PROPN,True,False
bandcitizen,bandcitizen,bandcitizen,bandcitizen,PROPN,True,False
broadband,broadband,broadband,broadband,PROPN,True,False
radio,radio,radio,radio,NOUN,True,False
service,service,service,service,NOUN,True,False
cbrs,cbrs,cbr,cbr,NOUN,True,False
to,to,to,to,PART,True,True
optimize,optimize,optimize,optimize,VERB,True,False
deployment,deployment,deployment,deployment,NOUN,True,False
of,of,of,of,ADP,True,True
fifth,fifth,fifth,fifth,ADJ,True,False
generation,generation,generation,generation,NOUN,True,False
5gtechnologies,5gtechnologies,5gtechnologies,5gtechnologies,PROPN,False,False
.,.,.,.,PUNCT,False,False
the,the,the,the,DET,True,True
public,public,public,public,ADJ,True,False
notice,notice,notice,notice,NOUN,True,False
also,also,also,also,ADV,True,True
invite,invite,invite,invite,VERB,True,False
comment,comment,comment,comment,NOUN,True,False
on,on,on,on,ADP,True,True
two,two,two,two,NUM,True,True
recent,recent,recent,recent,ADJ,True,False
ex,ex,ex,ex,PROPN,True,False
parte,parte,parte,parte,PROPN,True,False
letter,letter,letter,letter,NOUN,True,False
file,file,file,file,NOUN,True,False
byqualcomm,byqualcomm,byqualcomm,byqualcomm,PROPN,True,False
incorporated,incorporated,incorporated,incorporated,PROPN,True,False
qualcomm,qualcomm,qualcomm,qualcomm,PROPN,True,False
and,and,and,and,CCONJ,True,True
by,by,by,by,ADP,True,True
a,a,a,a,DET,True,True
group,group,group,group,NOUN,True,False
of,of,of,of,ADP,True,True
company,company,company,company,NOUN,True,False
interest,interest,interest,interest,NOUN,True,False
in,in,in,in,ADP,True,True
commercial,commercial,commercial,commercial,ADJ,True,False
deployment,deployment,deployment,deployment,NOUN,True,False
in,in,in,in,ADP,True,True
the,the,the,the,DET,True,True
band,band,band,band,NOUN,True,False
the,the,the,the,DET,True,True
3.5,3.5,3.5,3.5,NUM,False,False
ghz,ghz,ghz,ghz,PROPN,True,False
multi,multi,multi,multi,ADJ,True,False
-,-,-,-,ADJ,False,False
party,party,party,party,ADJ,True,False
group,group,group,group,NOUN,True,False
.,.,.,.,PUNCT,False,False
as,as,as,as,SCONJ,True,True
discuss,discuss,discuss,discuss,VERB,True,False
further,further,further,further,ADV,True,True
below,below,below,below,ADV,True,True
",",",",",",",",PUNCT,False,False
qualcomms,qualcomms,qualcomms,qualcomms,PROPN,True,False
proposal,proposal,proposal,proposal,NOUN,True,False
would,would,would,would,VERB,True,True
also,also,also,also,ADV,True,True
facilitate,facilitate,facilitate,facilitate,VERB,True,False
5,5,5,5,NUM,False,False
g,g,g,g,NOUN,True,False
use,use,use,use,NOUN,True,False
of,of,of,of,ADP,True,True
the,the,the,the,DET,True,True
3.5,3.5,3.5,3.5,NUM,False,False
ghz,ghz,ghz,ghz,PROPN,True,False
band,band,band,band,NOUN,True,False
and,and,and,and,CCONJ,True,True
should,should,should,should,VERB,True,True
be,be,be,be,AUX,True,True
incorporate,incorporate,incorporate,incorporate,ADJ,True,False
in,in,in,in,ADP,True,True
amend,amend,amend,amend,NOUN,True,False
rule,rule,rule,rule,NOUN,True,False
.,.,.,.,PUNCT,False,False
t,t,t,t,PROPN,True,False
-,-,-,-,PUNCT,False,False
mobile,mobile,mobile,mobile,PROPN,True,False
appreciate,appreciate,appreciate,appreciate,VERB,True,False
the,the,the,the,DET,True,True
concern,concern,concern,concern,NOUN,True,False
of,of,of,of,ADP,True,True
the,the,the,the,DET,True,True
3.5,3.5,3.5,3.5,NUM,False,False
ghz,ghz,ghz,ghz,PROPN,True,False
multi,multi,multi,multi,ADJ,True,False
-,-,-,-,ADJ,False,False
party,party,party,party,ADJ,True,False
group,group,group,group,NOUN,True,False
but,but,but,but,CCONJ,True,True
demonstrate,demonstrate,demonstrate,demonstrate,VERB,True,False
that,that,that,that,SCONJ,True,True
the,the,the,the,DET,True,True
rule,rule,rule,rule,NOUN,True,False
change,change,change,change,NOUN,True,False
t,t,t,t,NOUN,True,False
-,-,-,-,PUNCT,False,False
mobile,mobile,mobile,mobile,PROPN,True,False
have,have,have,have,AUX,True,True
propose,propose,propose,propose,NOUN,True,False
would,would,would,would,VERB,True,True
strengthen,strengthen,strengthen,strengthen,VERB,True,False
the,the,the,the,DET,True,True
viability,viability,viability,viability,NOUN,True,False
of,of,of,of,ADP,True,True
the,the,the,the,DET,True,True
3.5,3.5,3.5,3.5,NUM,False,False
ghz,ghz,ghz,ghz,PROPN,True,False
band,band,band,band,NOUN,True,False
and,and,and,and,CCONJ,True,True
not,not,not,not,PART,True,True
delay,delay,delay,delay,VERB,True,False
introduction,introduction,introduction,introduction,NOUN,True,False
of,of,of,of,ADP,True,True
service,service,service,service,NOUN,True,False
in,in,in,in,ADP,True,True
the,the,the,the,DET,True,True
spectrum,spectrum,spectrum,spectrum,NOUN,True,False
.,.,.,.,PUNCT,False,False
qualcomms,qualcomms,qualcomms,qualcomms,PROPN,True,False
proposal,proposal,proposal,proposal,NOUN,True,False
would,would,would,would,VERB,True,True
optimize,optimize,optimize,optimize,VERB,True,False
the,the,the,the,DET,True,True
3.5,3.5,3.5,3.5,NUM,False,False
ghz,ghz,ghz,ghz,PROPN,True,False
band,band,band,band,NOUN,True,False
for,for,for,for,ADP,True,True
5,5,5,5,NUM,False,False
g,g,g,g,PROPN,True,False
operationsqualcomm,operationsqualcomm,operationsqualcomm,operationsqualcomm,PROPN,True,False
ask,ask,ask,ask,VERB,True,False
the,the,the,the,DET,True,True
commission,commission,commission,commission,NOUN,True,False
to,to,to,to,PART,True,True
relax,relax,relax,relax,VERB,True,False
the,the,the,the,DET,True,True
emission,emission,emission,emission,NOUN,True,False
limit,limit,limit,limit,NOUN,True,False
that,that,that,that,DET,True,True
currently,currently,currently,currently,ADV,True,False
apply,apply,apply,apply,VERB,True,False
tocitizens,tocitizens,tocitizen,tocitizen,NOUN,True,False
broadband,broadband,broadband,broadband,NOUN,True,False
radio,radio,radio,radio,NOUN,True,False
service,service,service,service,NOUN,True,False
devices,devices,device,device,NOUN,True,False
and,and,and,and,CCONJ,True,True
end,end,end,end,VERB,True,False
user,user,user,user,NOUN,True,False
device,device,device,device,NOUN,True,False
because,because,because,because,SCONJ,True,True
the,the,the,the,DET,True,True
current,current,current,current,ADJ,True,False
rule,rule,rule,rule,NOUN,True,False
would,would,would,would,VERB,True,True
require,require,require,require,VERB,True,False
device,device,device,device,NOUN,True,False
use,use,use,use,NOUN,True,False
channel,channel,channel,channel,PROPN,True,False
bandwidth,bandwidth,bandwidth,bandwidth,NOUN,True,False
great,great,great,great,ADJ,True,False
than,than,than,than,SCONJ,True,True
10,10,10,10,NUM,False,False
megahertz,megahertz,megahertz,megahertz,NOUN,True,False
to,to,to,to,PART,True,True
engage,engage,engage,engage,VERB,True,False
in,in,in,in,ADP,True,True
power,power,power,power,NOUN,True,False
backoff,backoff,backoff,backoff,NOUN,True,False
.,.,.,.,PUNCT,False,False
this,this,this,this,DET,True,True
",",",",",",",",PUNCT,False,False
in,in,in,in,ADP,True,True
turn,turn,turn,turn,NOUN,True,False
",",",",",",",",PUNCT,False,False
significantly,significantly,significantly,significantly,ADV,True,False
diminish[es,diminish[es,diminish[es,diminish[es,PROPN,False,False
],],],],PUNCT,False,False
signal,signal,signal,signal,NOUN,True,False
coverage,coverage,coverage,coverage,NOUN,True,False
",",",",",",",",PUNCT,False,False
the,the,the,the,DET,True,True
quality,quality,quality,quality,NOUN,True,False
of,of,of,of,ADP,True,True
service,service,service,service,NOUN,True,False
",",",",",",",",PUNCT,False,False
and,and,and,and,CCONJ,True,True
the,the,the,the,DET,True,True
usefulness,usefulness,usefulness,usefulness,NOUN,True,False
of,of,of,of,ADP,True,True
the,the,the,the,DET,True,True
band,band,band,band,NOUN,True,False
for,for,for,for,ADP,True,True
mobile,mobile,mobile,mobile,ADJ,True,False
operation,operation,operation,operation,NOUN,True,False
.,.,.,.,PUNCT,False,False
qualcomms,qualcomms,qualcomms,qualcomms,PROPN,True,False
request,request,request,request,NOUN,True,False
be,be,be,be,AUX,True,True
generally,generally,generally,generally,ADV,True,False
consistent,consistent,consistent,consistent,ADJ,True,False
with,with,with,with,ADP,True,True
t,t,t,t,NOUN,True,False
-,-,-,-,PUNCT,False,False
mobiles,mobiles,mobiles,mobiles,NOUN,True,False
request,request,request,request,NOUN,True,False
that,that,that,that,SCONJ,True,True
the,the,the,the,DET,True,True
commission,commission,commission,commission,NOUN,True,False
amend,amend,amend,amend,NOUN,True,False
section,section,section,section,NOUN,True,False
96.41ei,96.41ei,96.41ei,96.41ei,NUM,False,False
of,of,of,of,ADP,True,True
the,the,the,the,DET,True,True
rule,rule,rule,rule,NOUN,True,False
.,.,.,.,PUNCT,False,False
t,t,t,t,PROPN,True,False
-,-,-,-,PUNCT,False,False
mobile,mobile,mobile,mobile,PROPN,True,False
ask,ask,ask,ask,NOUN,True,False
that,that,that,that,SCONJ,True,True
the,the,the,the,DET,True,True
commission,commission,commission,commission,NOUN,True,False
eliminate,eliminate,eliminate,eliminate,VERB,True,False
the,the,the,the,DET,True,True
-25,-25,-25,-25,PROPN,False,False
dbmmhz,dbmmhz,dbmmhz,dbmmhz,NOUN,True,False
emission,emission,emission,emission,NOUN,True,False
limit,limit,limit,limit,NOUN,True,False
or,or,or,or,CCONJ,True,True
apply,apply,apply,apply,VERB,True,False
it,it,-PRON-,-pron-,PRON,True,True
only,only,only,only,ADV,True,True
for,for,for,for,ADP,True,True
frequency,frequency,frequency,frequency,NOUN,True,False
more,more,more,more,ADJ,True,True
than,than,than,than,SCONJ,True,True
20,20,20,20,NUM,False,False
megahertz,megahertz,megahertz,megahertz,NOUN,True,False
outside,outside,outside,outside,ADP,True,False
each,each,each,each,DET,True,True
channel,channel,channel,channel,PROPN,True,False
band,band,band,band,NOUN,True,False
edge,edge,edge,edge,NOUN,True,False
",",",",",",",",PUNCT,False,False
and,and,and,and,CCONJ,True,True
apply,apply,apply,apply,VERB,True,False
the,the,the,the,DET,True,True
-13,-13,-13,-13,PROPN,False,False
dbmmhz,dbmmhz,dbmmhz,dbmmhz,NOUN,True,False
limit,limit,limit,limit,VERB,True,False
at,at,at,at,ADP,True,True
frequency,frequency,frequency,frequency,NOUN,True,False
from,from,from,from,ADP,True,True
0,0,0,0,NUM,False,False
-,-,-,-,SYM,False,False
20,20,20,20,NUM,False,False
megahertz,megahertz,megahertz,megahertz,NOUN,True,False
outside,outside,outside,outside,ADP,True,False
the,the,the,the,DET,True,True
assign,assign,assign,assign,PROPN,True,False
channel,channel,channel,channel,NOUN,True,False
-,-,-,-,PUNCT,False,False
edge,edge,edge,edge,NOUN,True,False
.,.,.,.,PUNCT,False,False
these,these,these,these,DET,True,True
change,change,change,change,NOUN,True,False
be,be,be,be,AUX,True,True
need,need,nee,nee,VERB,True,False
because,because,because,because,SCONJ,True,True
",",",",",",",",PUNCT,False,False
as,as,as,as,SCONJ,True,True
t,t,t,t,NOUN,True,False
-,-,-,-,PUNCT,False,False
mobile,mobile,mobile,mobile,NOUN,True,False
point,point,point,point,NOUN,True,False
out,out,out,out,ADP,True,True
",",",",",",",",PUNCT,False,False
10,10,10,10,NUM,False,False
megahertz,megahertz,megahertz,megahertz,NOUN,True,False
-,-,-,-,PUNCT,False,False
wide,wide,wide,wide,ADJ,True,False
channel,channel,channel,channel,NOUN,True,False
will,will,will,will,VERB,True,True
not,not,not,not,PART,True,True
likely,likely,likely,likely,ADV,True,False
be,be,be,be,AUX,True,True
the,the,the,the,DET,True,True
predominant,predominant,predominant,predominant,ADJ,True,False
architecture,architecture,architecture,architecture,NOUN,True,False
for,for,for,for,ADP,True,True
5,5,5,5,NUM,False,False
g,g,g,g,NOUN,True,False
system,system,system,system,NOUN,True,False
",",",",",",",",PUNCT,False,False
and,and,and,and,CCONJ,True,True
the,the,the,the,DET,True,True
commissions,commissions,commission,commission,NOUN,True,False
action,action,action,action,NOUN,True,False
be,be,be,be,VERB,True,True
inconsistent,inconsistent,inconsistent,inconsistent,ADJ,True,False
with,with,with,with,ADP,True,True
the,the,the,the,DET,True,True
specification,specification,specification,specification,NOUN,True,False
adopt,adopt,adopt,adopt,VERB,True,False
by,by,by,by,ADP,True,True
3rd,3rd,3rd,3rd,ADJ,False,False
generation,generation,generation,generation,PROPN,True,False
partnership,partnership,partnership,partnership,NOUN,True,False
project,project,project,project,NOUN,True,False
.,.,.,.,PUNCT,False,False
therefore,therefore,therefore,therefore,ADV,True,True
",",",",",",",",PUNCT,False,False
base,base,base,base,NOUN,True,False
emission,emission,emission,emission,NOUN,True,False
limit,limit,limit,limit,NOUN,True,False
on,on,on,on,ADP,True,True
10,10,10,10,NUM,False,False
megahertz,megahertz,megahertz,megahertz,NOUN,True,False
-,-,-,-,PUNCT,False,False
wide,wide,wide,wide,ADJ,True,False
channel,channel,channel,channel,NOUN,True,False
be,be,be,be,VERB,True,True
both,both,both,both,ADV,True,True
unrealistic,unrealistic,unrealistic,unrealistic,ADJ,True,False
and,and,and,and,CCONJ,True,True
will,will,will,will,VERB,True,True
inhibit,inhibit,inhibit,inhibit,VERB,True,False
development,development,development,development,NOUN,True,False
and,and,and,and,CCONJ,True,True
deployment,deployment,deployment,deployment,NOUN,True,False
of,of,of,of,ADP,True,True
5,5,5,5,NUM,False,False
g,g,g,g,NOUN,True,False
technology,technology,technology,technology,NOUN,True,False
",",",",",",",",PUNCT,False,False
constrain,constrain,constrain,constrain,PROPN,True,False
u.s,u.s,u.s,u.s,PROPN,False,False
.,.,.,.,PROPN,False,False
company,company,company,company,NOUN,True,False
ability,ability,ability,ability,NOUN,True,False
to,to,to,to,PART,True,True
leverage,leverage,leverage,leverage,VERB,True,False
the,the,the,the,DET,True,True
global,global,global,global,ADJ,True,False
product,product,product,product,NOUN,True,False
ecosystem,ecosystem,ecosystem,ecosystem,NOUN,True,False
.,.,.,.,PUNCT,False,False
modification,modification,modification,modification,NOUN,True,False
of,of,of,of,ADP,True,True
the,the,the,the,DET,True,True
emission,emission,emission,emission,NOUN,True,False
limit,limit,limit,limit,NOUN,True,False
as,as,as,as,SCONJ,True,True
suggest,suggest,suggest,suggest,VERB,True,False
by,by,by,by,ADP,True,True
t,t,t,t,NOUN,True,False
-,-,-,-,PUNCT,False,False
mobile,mobile,mobile,mobile,PROPN,True,False
",",",",",",",",PUNCT,False,False
however,however,however,however,ADV,True,True
",",",",",",",",PUNCT,False,False
will,will,will,will,VERB,True,True
optimize,optimize,optimize,optimize,VERB,True,False
use,use,use,use,NOUN,True,False
of,of,of,of,ADP,True,True
the,the,the,the,DET,True,True
band,band,band,band,NOUN,True,False
for,for,for,for,ADP,True,True
5,5,5,5,NUM,False,False
g,g,g,g,NOUN,True,False
and,and,and,and,CCONJ,True,True
make,make,make,make,VERB,True,True
the,the,the,the,DET,True,True
u.s,u.s,u.s,u.s,PROPN,False,False
.,.,.,.,PROPN,False,False
technical,technical,technical,technical,PROPN,True,False
standard,standard,standard,standard,PROPN,True,False
consistent,consistent,consistent,consistent,PROPN,True,False
with,with,with,with,ADP,True,True
international,international,international,international,ADJ,True,False
norm,norm,norm,norm,NOUN,True,False
.,.,.,.,PUNCT,False,False
the,the,the,the,DET,True,True
rule,rule,rule,rule,NOUN,True,False
change,change,change,change,NOUN,True,False
that,that,that,that,DET,True,True
qualcomm,qualcomm,qualcomm,qualcomm,PROPN,True,False
propose,propose,propose,propose,PROPN,True,False
be,be,be,be,AUX,True,True
also,also,also,also,ADV,True,True
intend,intend,intend,intend,VERB,True,False
to,to,to,to,PART,True,True
facilitate,facilitate,facilitate,facilitate,VERB,True,False
the,the,the,the,DET,True,True
use,use,use,use,NOUN,True,False
of,of,of,of,ADP,True,True
wide,wide,wide,wide,ADJ,True,False
-,-,-,-,PUNCT,False,False
bandwidth,bandwidth,bandwidth,bandwidth,NOUN,True,False
channel,channel,channel,channel,NOUN,True,False
.,.,.,.,PUNCT,False,False
in,in,in,in,ADP,True,True
particular,particular,particular,particular,ADJ,True,False
",",",",",",",",PUNCT,False,False
qualcomm,qualcomm,qualcomm,qualcomm,PROPN,True,False
ask,ask,ask,ask,VERB,True,False
that,that,that,that,SCONJ,True,True
the,the,the,the,DET,True,True
commission,commission,commission,commission,NOUN,True,False
retain,retain,retain,retain,VERB,True,False
the,the,the,the,DET,True,True
exist,exist,exist,exist,ADJ,True,False
emission,emission,emission,emission,NOUN,True,False
limit,limit,limit,limit,NOUN,True,False
for,for,for,for,ADP,True,True
10,10,10,10,NUM,False,False
megahertz,megahertz,megahertz,megahertz,PROPN,True,False
wide,wide,wide,wide,ADJ,True,False
operating,operating,operating,operating,NOUN,True,False
channel,channel,channel,channel,NOUN,True,False
",",",",",",",",PUNCT,False,False
but,but,but,but,CCONJ,True,True
add,add,add,add,VERB,True,False
new,new,new,new,ADJ,True,False
emission,emission,emission,emission,NOUN,True,False
limit,limit,limit,limit,NOUN,True,False
to,to,to,to,PART,True,True
enable,enable,enable,enable,VERB,True,False
20,20,20,20,NUM,False,False
megahertz,megahertz,megahertz,megahertz,NOUN,True,False
-,-,-,-,PUNCT,False,False
wide,wide,wide,wide,ADJ,True,False
and,and,and,and,CCONJ,True,True
40,40,40,40,NUM,False,False
megahertz,megahertz,megahertz,megahertz,NOUN,True,False
-,-,-,-,PUNCT,False,False
wide,wide,wide,wide,ADJ,True,False
mobile,mobile,mobile,mobile,ADJ,True,False
broadband,broadband,broadband,broadband,NOUN,True,False
operation,operation,operation,operation,NOUN,True,False
.,.,.,.,PUNCT,False,False
specifically,specifically,specifically,specifically,ADV,True,False
",",",",",",",",PUNCT,False,False
qualcomm,qualcomm,qualcomm,qualcomm,PROPN,True,False
ask,ask,ask,ask,VERB,True,False
that,that,that,that,SCONJ,True,True
the,the,the,the,DET,True,True
commission,commission,commission,commission,NOUN,True,False
1,1,1,1,NUM,False,False
apply,apply,apply,apply,VERB,True,False
the,the,the,the,DET,True,True
-25,-25,-25,-25,PROPN,False,False
dbmmhz,dbmmhz,dbmmhz,dbmmhz,NOUN,True,False
emission,emission,emission,emission,NOUN,True,False
limit,limit,limit,limit,NOUN,True,False
for,for,for,for,ADP,True,True
frequency,frequency,frequency,frequency,NOUN,True,False
more,more,more,more,ADJ,True,True
than,than,than,than,SCONJ,True,True
20,20,20,20,NUM,False,False
megahertz,megahertz,megahertz,megahertz,NOUN,True,False
outside,outside,outside,outside,ADP,True,False
each,each,each,each,DET,True,True
channel,channel,channel,channel,PROPN,True,False
band,band,band,band,NOUN,True,False
edge,edge,edge,edge,NOUN,True,False
for,for,for,for,ADP,True,True
20,20,20,20,NUM,False,False
megahertz,megahertz,megahertz,megahertz,NOUN,True,False
-,-,-,-,PUNCT,False,False
wide,wide,wide,wide,ADJ,True,False
operating,operating,operating,operating,NOUN,True,False
channel,channel,channel,channel,NOUN,True,False
",",",",",",",",PUNCT,False,False
and,and,and,and,CCONJ,True,True
for,for,for,for,ADP,True,True
frequency,frequency,frequency,frequency,NOUN,True,False
more,more,more,more,ADJ,True,True
than,than,than,than,SCONJ,True,True
40,40,40,40,NUM,False,False
megahertz,megahertz,megahertz,megahertz,NOUN,True,False
outside,outside,outside,outside,ADP,True,False
each,each,each,each,DET,True,True
channel,channel,channel,channel,PROPN,True,False
band,band,band,band,NOUN,True,False
edge,edge,edge,edge,NOUN,True,False
for,for,for,for,ADP,True,True
40,40,40,40,NUM,False,False
megahertz,megahertz,megahertz,megahertz,NOUN,True,False
-,-,-,-,PUNCT,False,False
wide,wide,wide,wide,ADJ,True,False
operating,operating,operating,operating,NOUN,True,False
channel,channel,channel,channel,NOUN,True,False
and,and,and,and,CCONJ,True,True
2,2,2,2,NUM,False,False
apply,apply,apply,apply,VERB,True,False
the,the,the,the,DET,True,True
-13,-13,-13,-13,PROPN,False,False
dbmmhz,dbmmhz,dbmmhz,dbmmhz,NOUN,True,False
limit,limit,limit,limit,NOUN,True,False
from,from,from,from,ADP,True,True
the,the,the,the,DET,True,True
channel,channel,channel,channel,NOUN,True,False
edge,edge,edge,edge,NOUN,True,False
up,up,up,up,ADP,True,True
until,until,until,until,ADP,True,True
the,the,the,the,DET,True,True
point,point,point,point,NOUN,True,False
where,where,where,where,ADV,True,True
the,the,the,the,DET,True,True
-25,-25,-25,-25,PROPN,False,False
dbmmhz,dbmmhz,dbmmhz,dbmmhz,NOUN,True,False
limit,limit,limit,limit,NOUN,True,False
begin,begin,begin,begin,NOUN,True,False
which,which,which,which,DET,True,True
will,will,will,will,VERB,True,True
depend,depend,depend,depend,VERB,True,False
on,on,on,on,ADP,True,True
the,the,the,the,DET,True,True
width,width,width,width,NOUN,True,False
of,of,of,of,ADP,True,True
the,the,the,the,DET,True,True
operating,operating,operating,operating,NOUN,True,False
channel,channel,channel,channel,NOUN,True,False
.,.,.,.,PUNCT,False,False
t,t,t,t,PROPN,True,False
-,-,-,-,PUNCT,False,False
mobiles,mobiles,mobile,mobile,NOUN,True,False
petition,petition,petition,petition,NOUN,True,False
be,be,be,be,AUX,True,True
consistent,consistent,consistent,consistent,ADJ,True,False
with,with,with,with,ADP,True,True
the,the,the,the,DET,True,True
3.5,3.5,3.5,3.5,NUM,False,False
ghz,ghz,ghz,ghz,PROPN,True,False
multi,multi,multi,multi,ADJ,True,False
-,-,-,-,ADJ,False,False
party,party,party,party,ADJ,True,False
groups,groups,group,group,NOUN,True,False
requeststhe,requeststhe,requeststhe,requeststhe,VERB,True,False
3.5,3.5,3.5,3.5,NUM,False,False
ghz,ghz,ghz,ghz,PROPN,True,False
multi,multi,multi,multi,ADJ,True,False
-,-,-,-,ADJ,False,False
party,party,party,party,ADJ,True,False
group,group,group,group,NOUN,True,False
argue,argue,argue,argue,VERB,True,False
that,that,that,that,SCONJ,True,True
the,the,the,the,DET,True,True
commission,commission,commission,commission,NOUN,True,False
should,should,should,should,VERB,True,True
leave,leave,leave,leave,VERB,True,False
the,the,the,the,DET,True,True
3.5,3.5,3.5,3.5,NUM,False,False
ghzrules,ghzrules,ghzrule,ghzrule,NOUN,True,False
largely,largely,largely,largely,ADV,True,False
intact,intact,intact,intact,ADJ,True,False
.,.,.,.,PUNCT,False,False
they,they,-PRON-,-pron-,PRON,True,True
do,do,do,do,AUX,True,True
no,no,no,no,DET,True,True
object,object,object,object,NOUN,True,False
to,to,to,to,ADP,True,True
modest,modest,modest,modest,ADJ,True,False
adjustment,adjustment,adjustment,adjustment,NOUN,True,False
to,to,to,to,ADP,True,True
the,the,the,the,DET,True,True
current,current,current,current,ADJ,True,False
rule,rule,rule,rule,NOUN,True,False
",",",",",",",",PUNCT,False,False
but,but,but,but,CCONJ,True,True
opposemajor,opposemajor,opposemajor,opposemajor,NOUN,True,False
change,change,change,change,NOUN,True,False
that,that,that,that,DET,True,True
would,would,would,would,VERB,True,True
upset,upset,upset,upset,VERB,True,False
the,the,the,the,DET,True,True
three,three,three,three,NUM,True,True
-,-,-,-,PUNCT,False,False
tier,tier,tier,tier,NOUN,True,False
structure,structure,structure,structure,NOUN,True,False
or,or,or,or,CCONJ,True,True
risk,risk,risk,risk,NOUN,True,False
delay,delay,delay,delay,NOUN,True,False
in,in,in,in,ADP,True,True
commercial,commercial,commercial,commercial,ADJ,True,False
roll,roll,roll,roll,NOUN,True,False
-,-,-,-,PUNCT,False,False
out,out,out,out,NOUN,True,True
.,.,.,.,PUNCT,False,False
t,t,t,t,PROPN,True,False
-,-,-,-,PUNCT,False,False
mobiles,mobiles,mobile,mobile,NOUN,True,False
propose,propose,propose,propose,NOUN,True,False
change,change,change,change,NOUN,True,False
meet,meet,meet,meet,VERB,True,False
the,the,the,the,DET,True,True
3.5,3.5,3.5,3.5,NUM,False,False
ghz,ghz,ghz,ghz,PROPN,True,False
multi,multi,multi,multi,ADJ,True,False
-,-,-,-,ADJ,False,False
party,party,party,party,ADJ,True,False
groups,groups,group,group,NOUN,True,False
criterion,criterion,criterion,criterion,NOUN,True,False
and,and,and,and,CCONJ,True,True
will,will,will,will,VERB,True,True
result,result,result,result,VERB,True,False
in,in,in,in,ADP,True,True
the,the,the,the,DET,True,True
most,most,most,most,ADV,True,True
intense,intense,intense,intense,ADJ,True,False
use,use,use,use,NOUN,True,False
of,of,of,of,ADP,True,True
the,the,the,the,DET,True,True
3.5,3.5,3.5,3.5,NUM,False,False
ghz,ghz,ghz,ghz,PROPN,True,False
spectrum,spectrum,spectrum,spectrum,NOUN,True,False
.,.,.,.,PUNCT,False,False
first,first,first,first,ADV,True,True
",",",",",",",",PUNCT,False,False
t,t,t,t,NOUN,True,False
-,-,-,-,PUNCT,False,False
mobile,mobile,mobile,mobile,NOUN,True,False
do,do,do,do,AUX,True,True
not,not,not,not,PART,True,True
propose,propose,propose,propose,VERB,True,False
that,that,that,that,SCONJ,True,True
the,the,the,the,DET,True,True
commission,commission,commission,commission,NOUN,True,False
eliminate,eliminate,eliminate,eliminate,VERB,True,False
the,the,the,the,DET,True,True
three,three,three,three,NUM,True,True
-,-,-,-,PUNCT,False,False
tier,tier,tier,tier,NOUN,True,False
structure,structure,structure,structure,NOUN,True,False
.,.,.,.,PUNCT,False,False
rather,rather,rather,rather,ADV,True,True
",",",",",",",",PUNCT,False,False
the,the,the,the,DET,True,True
three,three,three,three,NUM,True,True
-,-,-,-,PUNCT,False,False
tier,tier,tier,tier,NOUN,True,False
structure,structure,structure,structure,NOUN,True,False
would,would,would,would,VERB,True,True
be,be,be,be,AUX,True,True
retain,retain,retain,retain,NOUN,True,False
under,under,under,under,ADP,True,True
t,t,t,t,PROPN,True,False
-,-,-,-,PUNCT,False,False
mobiles,mobiles,mobile,mobile,NOUN,True,False
proposal,proposal,proposal,proposal,NOUN,True,False
",",",",",",",",PUNCT,False,False
with,with,with,with,ADP,True,True
general,general,general,general,ADJ,True,False
authorized,authorized,authorized,authorized,ADJ,True,False
access,access,access,access,NOUN,True,False
gaa,gaa,gaa,gaa,NOUN,True,False
use,use,use,use,NOUN,True,False
on,on,on,on,ADP,True,True
an,an,an,an,DET,True,True
opportunistic,opportunistic,opportunistic,opportunistic,ADJ,True,False
basis,basis,basis,basis,NOUN,True,False
throughout,throughout,throughout,throughout,ADP,True,True
the,the,the,the,DET,True,True
band,band,band,band,NOUN,True,False
when,when,when,when,ADV,True,True
the,the,the,the,DET,True,True
spectrum,spectrum,spectrum,spectrum,NOUN,True,False
be,be,be,be,VERB,True,True
not,not,not,not,PART,True,True
in,in,in,in,ADP,True,True
use,use,use,use,NOUN,True,False
by,by,by,by,ADP,True,True
the,the,the,the,DET,True,True
priority,priority,priority,priority,NOUN,True,False
access,access,access,access,NOUN,True,False
license,license,license,license,NOUN,True,False
pal,pal,pal,pal,NOUN,True,False
licensee,licensee,licensee,licensee,PROPN,True,False
.,.,.,.,PUNCT,False,False
as,as,as,as,SCONJ,True,True
t,t,t,t,NOUN,True,False
-,-,-,-,PUNCT,False,False
mobile,mobile,mobile,mobile,PROPN,True,False
have,have,have,have,AUX,True,True
demonstrate,demonstrate,demonstrate,demonstrate,NOUN,True,False
",",",",",",",",PUNCT,False,False
make,make,make,make,VERB,True,True
the,the,the,the,DET,True,True
entire,entire,entire,entire,ADJ,True,False
3.5,3.5,3.5,3.5,NUM,False,False
ghz,ghz,ghz,ghz,PROPN,True,False
band,band,band,band,NOUN,True,False
available,available,available,available,ADJ,True,False
for,for,for,for,ADP,True,True
pal,pal,pal,pal,ADJ,True,False
use,use,use,use,NOUN,True,False
will,will,will,will,VERB,True,True
create,create,create,create,VERB,True,False
a,a,a,a,DET,True,True
more,more,more,more,ADV,True,True
robust,robust,robust,robust,ADJ,True,False
equipment,equipment,equipment,equipment,NOUN,True,False
and,and,and,and,CCONJ,True,True
use,use,use,use,VERB,True,False
ecosystem,ecosystem,ecosystem,ecosystem,NOUN,True,False
by,by,by,by,ADP,True,True
encourage,encourage,encourage,encourage,NOUN,True,False
investment,investment,investment,investment,NOUN,True,False
",",",",",",",",PUNCT,False,False
broaden,broaden,broaden,broaden,VERB,True,False
the,the,the,the,DET,True,True
cbrs,cbrs,cbr,cbr,NOUN,True,False
experiment,experiment,experiment,experiment,NOUN,True,False
",",",",",",",",PUNCT,False,False
and,and,and,and,CCONJ,True,True
generate,generate,generate,generate,VERB,True,False
additional,additional,additional,additional,ADJ,True,False
auction,auction,auction,auction,NOUN,True,False
revenue,revenue,revenue,revenue,NOUN,True,False
",",",",",",",",PUNCT,False,False
which,which,which,which,DET,True,True
will,will,will,will,VERB,True,True
benefit,benefit,benefit,benefit,VERB,True,False
the,the,the,the,DET,True,True
public,public,public,public,ADJ,True,False
",",",",",",",",PUNCT,False,False
license,license,license,license,NOUN,True,False
user,user,user,user,NOUN,True,False
",",",",",",",",PUNCT,False,False
and,and,and,and,CCONJ,True,True
gaa,gaa,gaa,gaa,NOUN,True,False
user,user,user,user,NOUN,True,False
alike,alike,alike,alike,ADV,True,False
.,.,.,.,PUNCT,False,False
nor,nor,nor,nor,CCONJ,True,True
would,would,would,would,VERB,True,True
this,this,this,this,DET,True,True
change,change,change,change,VERB,True,False
delay,delay,delay,delay,NOUN,True,False
commercial,commercial,commercial,commercial,ADJ,True,False
roll,roll,roll,roll,NOUN,True,False
-,-,-,-,PUNCT,False,False
out,out,out,out,NOUN,True,True
.,.,.,.,PUNCT,False,False
the,the,the,the,DET,True,True
commission,commission,commission,commission,NOUN,True,False
could,could,could,could,VERB,True,True
continue,continue,continue,continue,VERB,True,False
to,to,to,to,PART,True,True
test,test,test,test,VERB,True,False
and,and,and,and,CCONJ,True,True
certify,certify,certify,certify,VERB,True,False
spectrum,spectrum,spectrum,spectrum,NOUN,True,False
access,access,access,access,NOUN,True,False
system,system,system,system,NOUN,True,False
sas,sas,sas,sas,PROPN,True,False
and,and,and,and,CCONJ,True,True
environmental,environmental,environmental,environmental,ADJ,True,False
sensing,sensing,sensing,sensing,NOUN,True,False
capability,capability,capability,capability,PROPN,True,False
esc,esc,esc,esc,PROPN,True,False
administrator,administrator,administrator,administrator,NOUN,True,False
in,in,in,in,ADP,True,True
which,which,which,which,DET,True,True
the,the,the,the,DET,True,True
3.5,3.5,3.5,3.5,NUM,False,False
ghz,ghz,ghz,ghz,PROPN,True,False
multi,multi,multi,multi,ADJ,True,False
-,-,-,-,ADJ,False,False
party,party,party,party,PROPN,True,False
group,group,group,group,NOUN,True,False
have,have,have,have,AUX,True,True
make,make,make,make,VERB,True,True
investment,investment,investment,investment,NOUN,True,False
and,and,and,and,CCONJ,True,True
preliminary,preliminary,preliminary,preliminary,ADJ,True,False
use,use,use,use,NOUN,True,False
of,of,of,of,ADP,True,True
the,the,the,the,DET,True,True
band,band,band,band,NOUN,True,False
for,for,for,for,ADP,True,True
gaa,gaa,gaa,gaa,NOUN,True,False
operation,operation,operation,operation,NOUN,True,False
could,could,could,could,VERB,True,True
begin,begin,begin,begin,VERB,True,False
in,in,in,in,ADP,True,True
advance,advance,advance,advance,NOUN,True,False
of,of,of,of,ADP,True,True
a,a,a,a,DET,True,True
3.5,3.5,3.5,3.5,NUM,False,False
ghz,ghz,ghz,ghz,NOUN,True,False
auction,auction,auction,auction,NOUN,True,False
if,if,if,if,SCONJ,True,True
necessary,necessary,necessary,necessary,ADJ,True,False
.,.,.,.,PUNCT,False,False
the,the,the,the,DET,True,True
exist,exist,exist,exist,ADJ,True,False
investment,investment,investment,investment,NOUN,True,False
in,in,in,in,ADP,True,True
sas,sas,sas,sas,PROPN,True,False
and,and,and,and,CCONJ,True,True
esc,esc,esc,esc,PROPN,True,False
system,system,system,system,NOUN,True,False
would,would,would,would,VERB,True,True
neither,neither,neither,neither,CCONJ,True,True
be,be,be,be,AUX,True,True
strand,strand,strand,strand,PROPN,True,False
nor,nor,nor,nor,CCONJ,True,True
delay,delay,delay,delay,NOUN,True,False
.,.,.,.,PUNCT,False,False
second,second,second,second,ADV,True,False
",",",",",",",",PUNCT,False,False
the,the,the,the,DET,True,True
partial,partial,partial,partial,ADJ,True,False
economic,economic,economic,economic,ADJ,True,False
area,area,area,area,NOUN,True,False
pea,pea,pea,pea,PROPN,True,False
structure,structure,structure,structure,NOUN,True,False
that,that,that,that,SCONJ,True,True
t,t,t,t,NOUN,True,False
-,-,-,-,PUNCT,False,False
mobile,mobile,mobile,mobile,NOUN,True,False
propose,propose,propose,propose,NOUN,True,False
be,be,be,be,AUX,True,True
precisely,precisely,precisely,precisely,ADV,True,False
what,what,what,what,PRON,True,True
will,will,will,will,VERB,True,True
make,make,make,make,VERB,True,True
the,the,the,the,DET,True,True
band,band,band,band,NOUN,True,False
economically,economically,economically,economically,ADV,True,False
viable,viable,viable,viable,ADJ,True,False
for,for,for,for,ADP,True,True
local,local,local,local,ADJ,True,False
broadband,broadband,broadband,broadband,NOUN,True,False
user,user,user,user,NOUN,True,False
and,and,and,and,CCONJ,True,True
operator,operator,operator,operator,NOUN,True,False
[,[,[,[,PUNCT,False,False
.,.,.,.,PUNCT,False,False
],],],],PUNCT,False,False
pea,pea,pea,pea,PROPN,True,False
be,be,be,be,AUX,True,True
base,base,base,base,NOUN,True,False
on,on,on,on,ADP,True,True
familiar,familiar,familiar,familiar,ADJ,True,False
and,and,and,and,CCONJ,True,True
manageable,manageable,manageable,manageable,ADJ,True,False
cellular,cellular,cellular,cellular,ADJ,True,False
market,market,market,market,NOUN,True,False
area,area,area,area,NOUN,True,False
and,and,and,and,CCONJ,True,True
will,will,will,will,VERB,True,True
reduce,reduce,reduce,reduce,VERB,True,False
border,border,border,border,NOUN,True,False
area,area,area,area,NOUN,True,False
and,and,and,and,CCONJ,True,True
minimize,minimize,minimize,minimize,VERB,True,False
the,the,the,the,DET,True,True
risk,risk,risk,risk,NOUN,True,False
of,of,of,of,ADP,True,True
interference,interference,interference,interference,NOUN,True,False
",",",",",",",",PUNCT,False,False
while,while,while,while,SCONJ,True,True
also,also,also,also,ADV,True,True
provide,provide,provide,provide,VERB,True,False
flexibility,flexibility,flexibility,flexibility,NOUN,True,False
and,and,and,and,CCONJ,True,True
encouragingparticipation,encouragingparticipation,encouragingparticipation,encouragingparticipation,NOUN,True,False
by,by,by,by,ADP,True,True
a,a,a,a,DET,True,True
wide,wide,wide,wide,ADJ,True,False
array,array,array,array,NOUN,True,False
of,of,of,of,ADP,True,True
carrier,carrier,carrier,carrier,NOUN,True,False
.,.,.,.,PUNCT,False,False
in,in,in,in,ADP,True,True
contrast,contrast,contrast,contrast,NOUN,True,False
",",",",",",",",PUNCT,False,False
the,the,the,the,DET,True,True
small,small,small,small,ADJ,True,False
census,census,census,census,NOUN,True,False
tract,tract,tract,tract,PROPN,True,False
license,license,license,license,NOUN,True,False
area,area,area,area,NOUN,True,False
provide,provide,provide,provide,VERB,True,False
for,for,for,for,ADP,True,True
in,in,in,in,ADP,True,True
the,the,the,the,DET,True,True
current,current,current,current,ADJ,True,False
rule,rule,rule,rule,NOUN,True,False
will,will,will,will,VERB,True,True
be,be,be,be,AUX,True,True
economically,economically,economically,economically,ADV,True,False
and,and,and,and,CCONJ,True,True
administratively,administratively,administratively,administratively,ADV,True,False
burdensome,burdensome,burdensome,burdensome,ADJ,True,False
",",",",",",",",PUNCT,False,False
require,require,require,require,VERB,True,False
significant,significant,significant,significant,ADJ,True,False
time,time,time,time,NOUN,True,False
and,and,and,and,CCONJ,True,True
resource,resource,resource,resource,NOUN,True,False
",",",",",",",",PUNCT,False,False
and,and,and,and,CCONJ,True,True
discourage,discourage,discourage,discourage,VERB,True,False
investment,investment,investment,investment,NOUN,True,False
.,.,.,.,PUNCT,False,False
moreover,moreover,moreover,moreover,ADV,True,True
",",",",",",",",PUNCT,False,False
through,through,through,through,ADP,True,True
propose,propose,propose,propose,NOUN,True,False
partitioning,partitioning,partitioning,partitioning,NOUN,True,False
and,and,and,and,CCONJ,True,True
disaggregation,disaggregation,disaggregation,disaggregation,NOUN,True,False
",",",",",",",",PUNCT,False,False
the,the,the,the,DET,True,True
secondary,secondary,secondary,secondary,ADJ,True,False
market,market,market,market,NOUN,True,False
will,will,will,will,VERB,True,True
ensure,ensure,ensure,ensure,VERB,True,False
that,that,that,that,SCONJ,True,True
spectrum,spectrum,spectrum,spectrum,NOUN,True,False
be,be,be,be,AUX,True,True
put,put,put,put,VERB,True,True
to,to,to,to,ADP,True,True
its,its,-PRON-,-pron-,DET,True,True
most,most,most,most,ADV,True,True
effective,effective,effective,effective,ADJ,True,False
use,use,use,use,NOUN,True,False
when,when,when,when,ADV,True,True
not,not,not,not,PART,True,True
in,in,in,in,ADP,True,True
use,use,use,use,NOUN,True,False
by,by,by,by,ADP,True,True
licensee,licensee,licensee,licensee,PROPN,True,False
.,.,.,.,PUNCT,False,False
third,third,third,third,ADV,True,True
",",",",",",",",PUNCT,False,False
the,the,the,the,DET,True,True
remain,remain,remain,remain,NOUN,True,False
licensing,licensing,licensing,licensing,NOUN,True,False
change,change,change,change,NOUN,True,False
t,t,t,t,NOUN,True,False
-,-,-,-,PUNCT,False,False
mobile,mobile,mobile,mobile,NOUN,True,False
recommend,recommend,recommend,recommend,NOUN,True,False
authorize,authorize,authorize,authorize,VERB,True,False
pal,pal,pal,pal,NOUN,True,False
on,on,on,on,ADP,True,True
a,a,a,a,DET,True,True
standard,standard,standard,standard,ADJ,True,False
10-year,10-year,10-year,10-year,NUM,False,False
license,license,license,license,NOUN,True,False
term,term,term,term,NOUN,True,False
with,with,with,with,ADP,True,True
renewal,renewal,renewal,renewal,NOUN,True,False
expectancy,expectancy,expectancy,expectancy,NOUN,True,False
",",",",",",",",PUNCT,False,False
make,make,make,make,VERB,True,True
all,all,all,all,DET,True,True
pal,pal,pal,pal,NOUN,True,False
spectrum,spectrum,spectrum,spectrum,NOUN,True,False
available,available,available,available,ADJ,True,False
at,at,at,at,ADP,True,True
auction,auction,auction,auction,NOUN,True,False
",",",",",",",",PUNCT,False,False
and,and,and,and,CCONJ,True,True
permit,permit,permit,permit,VERB,True,False
bidding,bidding,bidding,bidding,NOUN,True,False
on,on,on,on,ADP,True,True
particular,particular,particular,particular,ADJ,True,False
spectrum,spectrum,spectrum,spectrum,PROPN,True,False
block,block,block,block,NOUN,True,False
will,will,will,will,VERB,True,True
help,help,help,help,VERB,True,False
ensure,ensure,ensure,ensure,VERB,True,False
the,the,the,the,DET,True,True
strong,strong,strong,strong,ADJ,True,False
commercial,commercial,commercial,commercial,ADJ,True,False
roll,roll,roll,roll,NOUN,True,False
-,-,-,-,PUNCT,False,False
out,out,out,out,NOUN,True,True
of,of,of,of,ADP,True,True
3.5,3.5,3.5,3.5,NUM,False,False
ghz,ghz,ghz,ghz,NOUN,True,False
technology,technology,technology,technology,NOUN,True,False
and,and,and,and,CCONJ,True,True
operation,operation,operation,operation,NOUN,True,False
that,that,that,that,DET,True,True
the,the,the,the,DET,True,True
3.5,3.5,3.5,3.5,NUM,False,False
ghz,ghz,ghz,ghz,PROPN,True,False
multi,multi,multi,multi,ADJ,True,False
-,-,-,-,ADJ,False,False
party,party,party,party,ADJ,True,False
group,group,group,group,NOUN,True,False
seek,seek,seek,seek,VERB,True,False
.,.,.,.,PUNCT,False,False
as,as,as,as,SCONJ,True,True
t,t,t,t,NOUN,True,False
-,-,-,-,PUNCT,False,False
mobile,mobile,mobile,mobile,NOUN,True,False
demonstrate,demonstrate,demonstrate,demonstrate,NOUN,True,False
in,in,in,in,ADP,True,True
its,its,-PRON-,-pron-,DET,True,True
petition,petition,petition,petition,NOUN,True,False
",",",",",",",",PUNCT,False,False
the,the,the,the,DET,True,True
exist,exist,exist,exist,ADJ,True,False
license,license,license,license,NOUN,True,False
term,term,term,term,NOUN,True,False
and,and,and,and,CCONJ,True,True
license,license,license,license,NOUN,True,False
spectrum,spectrum,spectrum,spectrum,NOUN,True,False
assignment,assignment,assignment,assignment,NOUN,True,False
method,method,method,method,NOUN,True,False
will,will,will,will,VERB,True,True
create,create,create,create,VERB,True,False
uncertainty,uncertainty,uncertainty,uncertainty,NOUN,True,False
",",",",",",",",PUNCT,False,False
curb,curb,curb,curb,VERB,True,False
interest,interest,interest,interest,NOUN,True,False
in,in,in,in,ADP,True,True
the,the,the,the,DET,True,True
3.5,3.5,3.5,3.5,NUM,False,False
ghz,ghz,ghz,ghz,PROPN,True,False
band,band,band,band,NOUN,True,False
and,and,and,and,CCONJ,True,True
depress,depress,depress,depress,ADJ,True,False
potential,potential,potential,potential,ADJ,True,False
investment,investment,investment,investment,NOUN,True,False
by,by,by,by,ADP,True,True
all,all,all,all,DET,True,True
spectrum,spectrum,spectrum,spectrum,NOUN,True,False
user,user,user,user,NOUN,True,False
pal,pal,pal,pal,PROPN,True,False
licensee,licensee,licensee,licensee,PROPN,True,False
and,and,and,and,CCONJ,True,True
gaa,gaa,gaa,gaa,NOUN,True,False
operator,operator,operator,operator,NOUN,True,False
.,.,.,.,PUNCT,False,False
this,this,this,this,DET,True,True
",",",",",",",",PUNCT,False,False
in,in,in,in,ADP,True,True
turn,turn,turn,turn,NOUN,True,False
",",",",",",",",PUNCT,False,False
will,will,will,will,VERB,True,True
lead,lead,lead,lead,VERB,True,False
to,to,to,to,ADP,True,True
limited,limited,limited,limited,ADJ,True,False
use,use,use,use,NOUN,True,False
of,of,of,of,ADP,True,True
the,the,the,the,DET,True,True
band,band,band,band,NOUN,True,False
and,and,and,and,CCONJ,True,True
will,will,will,will,VERB,True,True
fragment,fragment,fragment,fragment,VERB,True,False
the,the,the,the,DET,True,True
part,part,part,part,NOUN,True,True
of,of,of,of,ADP,True,True
the,the,the,the,DET,True,True
broad,broad,broad,broad,ADJ,True,False
3,3,3,3,NUM,False,False
ghz,ghz,ghz,ghz,PROPN,True,False
band,band,band,band,NOUN,True,False
globally,globally,globally,globally,ADV,True,False
that,that,that,that,DET,True,True
will,will,will,will,VERB,True,True
be,be,be,be,AUX,True,True
necessary,necessary,necessary,necessary,ADJ,True,False
to,to,to,to,PART,True,True
support,support,support,support,VERB,True,False
5,5,5,5,NUM,False,False
g,g,g,g,NOUN,True,False
service,service,service,service,NOUN,True,False
.,.,.,.,PUNCT,False,False
the,the,the,the,DET,True,True
change,change,change,change,PROPN,True,False
t,t,t,t,PROPN,True,False
-,-,-,-,PUNCT,False,False
mobile,mobile,mobile,mobile,NOUN,True,False
suggest,suggest,suggest,suggest,NOUN,True,False
",",",",",",",",PUNCT,False,False
however,however,however,however,ADV,True,True
",",",",",",",",PUNCT,False,False
will,will,will,will,VERB,True,True
grant,grant,grant,grant,VERB,True,False
carrier,carrier,carrier,carrier,NOUN,True,False
critical,critical,critical,critical,ADJ,True,False
certainty,certainty,certainty,certainty,PROPN,True,False
",",",",",",",",PUNCT,False,False
facilitate,facilitate,facilitate,facilitate,VERB,True,False
robust,robust,robust,robust,ADJ,True,False
investment,investment,investment,investment,NOUN,True,False
",",",",",",",",PUNCT,False,False
innovation,innovation,innovation,innovation,NOUN,True,False
",",",",",",",",PUNCT,False,False
and,and,and,and,CCONJ,True,True
development,development,development,development,NOUN,True,False
of,of,of,of,ADP,True,True
new,new,new,new,ADJ,True,False
technology,technology,technology,technology,NOUN,True,False
in,in,in,in,ADP,True,True
the,the,the,the,DET,True,True
band,band,band,band,NOUN,True,False
.,.,.,.,PUNCT,False,False
conclusioninterest,conclusioninterest,conclusioninterest,conclusioninterest,PROPN,True,False
in,in,in,in,ADP,True,True
make,make,make,make,NOUN,True,True
3,3,3,3,NUM,False,False
ghz,ghz,ghz,ghz,NOUN,True,False
spectrum,spectrum,spectrum,spectrum,NOUN,True,False
available,available,available,available,ADJ,True,False
for,for,for,for,ADP,True,True
5,5,5,5,NUM,False,False
g,g,g,g,NOUN,True,False
be,be,be,be,AUX,True,True
increase,increase,increase,increase,NOUN,True,False
globally,globally,globally,globally,ADV,True,False
.,.,.,.,PUNCT,False,False
thecommission,thecommission,thecommission,thecommission,NOUN,True,False
should,should,should,should,VERB,True,True
advance,advance,advance,advance,VERB,True,False
u.s,u.s,u.s,u.s,PROPN,False,False
.,.,.,.,PROPN,False,False
leadership,leadership,leadership,leadership,NOUN,True,False
in,in,in,in,ADP,True,True
5,5,5,5,NUM,False,False
g,g,g,g,NOUN,True,False
by,by,by,by,ADP,True,True
adopt,adopt,adopt,adopt,PROPN,True,False
t,t,t,t,PROPN,True,False
-,-,-,-,PUNCT,False,False
mobiles,mobiles,mobile,mobile,NOUN,True,False
proposal,proposal,proposal,proposal,NOUN,True,False
",",",",",",",",PUNCT,False,False
which,which,which,which,DET,True,True
will,will,will,will,VERB,True,True
maximize,maximize,maximize,maximize,VERB,True,False
the,the,the,the,DET,True,True
utility,utility,utility,utility,NOUN,True,False
of,of,of,of,ADP,True,True
the,the,the,the,DET,True,True
3.5,3.5,3.5,3.5,NUM,False,False
ghz,ghz,ghz,ghz,PROPN,True,False
band,band,band,band,NOUN,True,False
for,for,for,for,ADP,True,True
5,5,5,5,NUM,False,False
g,g,g,g,NOUN,True,False
operation,operation,operation,operation,NOUN,True,False
.,.,.,.,PUNCT,False,False
qualcomms,qualcomms,qualcomms,qualcomms,PROPN,True,False
recent,recent,recent,recent,PROPN,True,False
ex,ex,ex,ex,PROPN,True,False
parte,parte,parte,parte,PROPN,True,False
letter,letter,letter,letter,NOUN,True,False
contain,contain,contain,contain,VERB,True,False
similar,similar,similar,similar,ADJ,True,False
proposal,proposal,proposal,proposal,NOUN,True,False
that,that,that,that,DET,True,True
should,should,should,should,VERB,True,True
also,also,also,also,ADV,True,True
be,be,be,be,AUX,True,True
include,include,include,include,VERB,True,False
in,in,in,in,ADP,True,True
amend,amend,amend,amend,NOUN,True,False
rule,rule,rule,rule,NOUN,True,False
.,.,.,.,PUNCT,False,False
finally,finally,finally,finally,ADV,True,False
",",",",",",",",PUNCT,False,False
t,t,t,t,PROPN,True,False
-,-,-,-,PUNCT,False,False
mobiles,mobiles,mobile,mobile,NOUN,True,False
proposal,proposal,proposal,proposal,NOUN,True,False
be,be,be,be,AUX,True,True
consistent,consistent,consistent,consistent,ADJ,True,False
with,with,with,with,ADP,True,True
those,those,those,those,DET,True,True
party,party,party,party,NOUN,True,False
who,who,who,who,PRON,True,True
wish,wish,wish,wish,VERB,True,False
to,to,to,to,PART,True,True
see,see,see,see,VERB,True,True
operation,operation,operation,operation,NOUN,True,False
in,in,in,in,ADP,True,True
the,the,the,the,DET,True,True
3.5,3.5,3.5,3.5,NUM,False,False
ghzband,ghzband,ghzband,ghzband,NOUN,True,False
initiate,initiate,initiate,initiate,NOUN,True,False
and,and,and,and,CCONJ,True,True
investment,investment,investment,investment,NOUN,True,False
in,in,in,in,ADP,True,True
sas,sas,sas,sas,PROPN,True,False
and,and,and,and,CCONJ,True,True
esc,esc,esc,esc,PROPN,True,False
system,system,system,system,NOUN,True,False
preserve,preserve,preserve,preserve,VERB,True,False
.,.,.,.,PUNCT,False,False
