text,text_lower,lemma,lemma_lower,part_of_speech,is_alphabet,is_stopword
re,re,re,re,ADP,True,True
citizens,citizens,citizen,citizen,NOUN,True,False
broadband,broadband,broadband,broadband,PROPN,True,False
radio,radio,radio,radio,PROPN,True,False
servicegn,servicegn,servicegn,servicegn,PROPN,True,False
docket,docket,docket,docket,NOUN,True,False
no,no,no,no,NOUN,True,True
.,.,.,.,NOUN,False,False
12,12,12,12,NUM,False,False
-,-,-,-,SYM,False,False
354,354,354,354,NUM,False,False
",",",",",",",",PUNCT,False,False
rm-11778,rm-11778,rm-11778,rm-11778,PUNCT,False,False
and,and,and,and,CCONJ,True,True
rm-11789dear,rm-11789dear,rm-11789dear,rm-11789dear,VERB,False,False
ms,ms,ms,ms,PROPN,True,False
.,.,.,.,PROPN,False,False
dortchit,dortchit,dortchit,dortchit,PROPN,True,False
be,be,be,be,VERB,True,True
with,with,with,with,ADP,True,True
a,a,a,a,DET,True,True
heavy,heavy,heavy,heavy,ADJ,True,False
pen,pen,pen,pen,NOUN,True,False
that,that,that,that,DET,True,True
we,we,-PRON-,-pron-,PRON,True,True
",",",",",",",",PUNCT,False,False
the,the,the,the,DET,True,True
wisp,wisp,wisp,wisp,ADP,True,False
industry,industry,industry,industry,NOUN,True,False
",",",",",",",",PUNCT,False,False
and,and,and,and,CCONJ,True,True
virginia,virginia,virginia,virginia,PROPN,True,False
broadband,broadband,broadband,broadband,PROPN,True,False
",",",",",",",",PUNCT,False,False
llc,llc,llc,llc,PROPN,True,False
vabb,vabb,vabb,vabb,PROPN,True,False
",",",",",",",",PUNCT,False,False
a,a,a,a,DET,True,True
regional,regional,regional,regional,ADJ,True,False
wireless,wireless,wireless,wireless,ADJ,True,False
internet,internet,internet,internet,NOUN,True,False
service,service,service,service,NOUN,True,False
provider,provider,provider,provider,NOUN,True,False
wisp,wisp,wisp,wisp,ADP,True,False
just,just,just,just,ADV,True,True
60,60,60,60,NUM,False,False
mile,mile,mile,mile,NOUN,True,False
from,from,from,from,ADP,True,True
the,the,the,the,DET,True,True
nation,nation,nation,nation,NOUN,True,False
capital,capital,capital,capital,NOUN,True,False
",",",",",",",",PUNCT,False,False
collectively,collectively,collectively,collectively,ADV,True,False
find,find,find,find,VERB,True,False
ourselves,ourselves,-PRON-,-pron-,PRON,True,True
compel,compel,compel,compel,NOUN,True,False
to,to,to,to,PART,True,True
write,write,write,write,VERB,True,False
to,to,to,to,ADP,True,True
the,the,the,the,DET,True,True
fcc,fcc,fcc,fcc,PROPN,True,False
commissioners,commissioners,commissioner,commissioner,NOUN,True,False
regard,regard,regard,regard,VERB,True,False
rulemaking,rulemaking,rulemaking,rulemaking,NOUN,True,False
change,change,change,change,NOUN,True,False
that,that,that,that,DET,True,True
effectively,effectively,effectively,effectively,ADV,True,False
hand,hand,hand,hand,VERB,True,False
-,-,-,-,PUNCT,False,False
over,over,over,over,ADP,True,True
spectrum,spectrum,spectrum,spectrum,NOUN,True,False
power,power,power,power,NOUN,True,False
to,to,to,to,ADP,True,True
a,a,a,a,DET,True,True
few,few,few,few,ADJ,True,True
telecom,telecom,telecom,telecom,NOUN,True,False
while,while,while,while,SCONJ,True,True
forsake,forsake,forsake,forsake,VERB,True,False
the,the,the,the,DET,True,True
very,very,very,very,ADJ,True,True
industry,industry,industry,industry,NOUN,True,False
that,that,that,that,DET,True,True
be,be,be,be,AUX,True,True
actively,actively,actively,actively,ADV,True,False
cure,cure,cure,cure,ADJ,True,False
the,the,the,the,DET,True,True
rural,rural,rural,rural,ADJ,True,False
digital,digital,digital,digital,ADJ,True,False
divide,divide,divide,divide,NOUN,True,False
.,.,.,.,PUNCT,False,False
in,in,in,in,ADP,True,True
the,the,the,the,DET,True,True
past,past,past,past,ADJ,True,False
few,few,few,few,ADJ,True,True
year,year,year,year,NOUN,True,False
",",",",",",",",PUNCT,False,False
the,the,the,the,DET,True,True
wisp,wisp,wisp,wisp,ADP,True,False
industry,industry,industry,industry,NOUN,True,False
have,have,have,have,AUX,True,True
be,be,be,be,AUX,True,True
invite,invite,invite,invite,ADJ,True,False
to,to,to,to,ADP,True,True
the,the,the,the,DET,True,True
fcc,fcc,fcc,fcc,PROPN,True,False
discussion,discussion,discussion,discussion,NOUN,True,False
table,table,table,table,NOUN,True,False
thank,thank,thank,thank,VERB,True,False
you,you,-PRON-,-pron-,PRON,True,True
",",",",",",",",PUNCT,False,False
have,have,have,have,AUX,True,True
speak,speak,speak,speak,VERB,True,False
at,at,at,at,ADP,True,True
hearing,hearing,hearing,hearing,NOUN,True,False
",",",",",",",",PUNCT,False,False
and,and,and,and,CCONJ,True,True
have,have,have,have,AUX,True,True
provide,provide,provide,provide,VERB,True,False
a,a,a,a,DET,True,True
clear,clear,clear,clear,ADJ,True,False
case,case,case,case,NOUN,True,False
of,of,of,of,ADP,True,True
what,what,what,what,PRON,True,True
we,we,-PRON-,-pron-,PRON,True,True
be,be,be,be,VERB,True,True
collectively,collectively,collectively,collectively,ADV,True,False
do,do,do,do,AUX,True,True
to,to,to,to,PART,True,True
bridge,bridge,bridge,bridge,VERB,True,False
the,the,the,the,DET,True,True
rural,rural,rural,rural,ADJ,True,False
digital,digital,digital,digital,ADJ,True,False
divide,divide,divide,divide,NOUN,True,False
.,.,.,.,PUNCT,False,False
we,we,-PRON-,-pron-,PRON,True,True
be,be,be,be,VERB,True,True
spark,spark,spark,spark,NOUN,True,False
economic,economic,economic,economic,ADJ,True,False
growth,growth,growth,growth,NOUN,True,False
",",",",",",",",PUNCT,False,False
hire,hire,hire,hire,VERB,True,False
staff,staff,staff,staff,NOUN,True,False
",",",",",",",",PUNCT,False,False
add,add,add,add,VERB,True,False
to,to,to,to,ADP,True,True
the,the,the,the,DET,True,True
tax,tax,tax,tax,NOUN,True,False
base,base,base,base,NOUN,True,False
of,of,of,of,ADP,True,True
local,local,local,local,ADJ,True,False
government,government,government,government,NOUN,True,False
",",",",",",",",PUNCT,False,False
and,and,and,and,CCONJ,True,True
through,through,through,through,ADP,True,True
our,our,-PRON-,-pron-,DET,True,True
high,high,high,high,ADJ,True,False
-,-,-,-,PUNCT,False,False
speed,speed,speed,speed,NOUN,True,False
wireless,wireless,wireless,wireless,ADJ,True,False
internet,internet,internet,internet,NOUN,True,False
service,service,service,service,NOUN,True,False
",",",",",",",",PUNCT,False,False
we,we,-PRON-,-pron-,PRON,True,True
be,be,be,be,VERB,True,True
enrich,enrich,enrich,enrich,ADV,True,False
the,the,the,the,DET,True,True
life,life,life,life,NOUN,True,False
of,of,of,of,ADP,True,True
several,several,several,several,ADJ,True,True
million,million,million,million,NUM,True,False
people,people,people,people,NOUN,True,False
who,who,who,who,PRON,True,True
choose,choose,choose,choose,VERB,True,False
to,to,to,to,PART,True,True
live,live,live,live,VERB,True,False
in,in,in,in,ADP,True,True
rural,rural,rural,rural,ADJ,True,False
america,america,america,america,PROPN,True,False
.,.,.,.,PUNCT,False,False
the,the,the,the,DET,True,True
fcc,fcc,fcc,fcc,PROPN,True,False
have,have,have,have,AUX,True,True
ask,ask,ask,ask,VERB,True,False
for,for,for,for,ADP,True,True
our,our,-PRON-,-pron-,DET,True,True
industrys,industrys,industrys,industrys,ADJ,True,False
input,input,input,input,NOUN,True,False
and,and,and,and,CCONJ,True,True
we,we,-PRON-,-pron-,PRON,True,True
be,be,be,be,AUX,True,True
again,again,again,again,ADV,True,True
provide,provide,provide,provide,VERB,True,False
it,it,-PRON-,-pron-,PRON,True,True
by,by,by,by,ADP,True,True
respectfully,respectfully,respectfully,respectfully,ADV,True,False
request,request,request,request,VERB,True,False
that,that,that,that,SCONJ,True,True
this,this,this,this,DET,True,True
commission,commission,commission,commission,NOUN,True,False
commit,commit,commit,commit,VERB,True,False
to,to,to,to,ADP,True,True
the,the,the,the,DET,True,True
cbrs,cbrs,cbr,cbr,NOUN,True,False
road,road,road,road,NOUN,True,False
map,map,map,map,NOUN,True,False
envision,envision,envision,envision,NOUN,True,False
over,over,over,over,ADP,True,True
two,two,two,two,NUM,True,True
year,year,year,year,NOUN,True,False
ago,ago,ago,ago,ADV,True,False
and,and,and,and,CCONJ,True,True
oppose,oppose,oppose,oppose,VERB,True,False
the,the,the,the,DET,True,True
petitions,petitions,petition,petition,NOUN,True,False
for,for,for,for,ADP,True,True
rulemaking,rulemaking,rulemake,rulemake,VERB,True,False
file,file,file,file,NOUN,True,False
by,by,by,by,ADP,True,True
ctia,ctia,ctia,ctia,PROPN,True,False
and,and,and,and,CCONJ,True,True
t,t,t,t,PROPN,True,False
-,-,-,-,PUNCT,False,False
mobile,mobile,mobile,mobile,NOUN,True,False
request,request,request,request,NOUN,True,False
change,change,change,change,NOUN,True,False
to,to,to,to,ADP,True,True
the,the,the,the,DET,True,True
rule,rule,rule,rule,NOUN,True,False
govern,govern,govern,govern,VERB,True,False
the,the,the,the,DET,True,True
citizens,citizens,citizen,citizen,NOUN,True,False
broadband,broadband,broadband,broadband,PROPN,True,False
radio,radio,radio,radio,PROPN,True,False
service,service,service,service,PROPN,True,False
gn,gn,gn,gn,PROPN,True,False
docket,docket,docket,docket,PROPN,True,False
n0,n0,n0,n0,PROPN,False,False
.,.,.,.,PUNCT,False,False
12,12,12,12,NUM,False,False
-,-,-,-,SYM,False,False
354.by,354.by,354.by,354.by,PROPN,False,False
now,now,now,now,ADV,True,True
ms,ms,ms,ms,PROPN,True,False
.,.,.,.,PROPN,False,False
dortch,dortch,dortch,dortch,PROPN,True,False
",",",",",",",",PUNCT,False,False
you,you,-PRON-,-pron-,PRON,True,True
and,and,and,and,CCONJ,True,True
your,your,-PRON-,-pron-,DET,True,True
fcc,fcc,fcc,fcc,PROPN,True,False
colleague,colleague,colleague,colleague,NOUN,True,False
have,have,have,have,AUX,True,True
receive,receive,receive,receive,VERB,True,False
hundred,hundred,hundred,hundred,NUM,True,True
of,of,of,of,ADP,True,True
comment,comment,comment,comment,NOUN,True,False
from,from,from,from,ADP,True,True
many,many,many,many,ADJ,True,True
wisp,wisp,wisp,wisp,ADP,True,False
regard,regard,regard,regard,VERB,True,False
gn,gn,gn,gn,PROPN,True,False
docket,docket,docket,docket,NOUN,True,False
no,no,no,no,INTJ,True,True
.,.,.,.,NOUN,False,False
12,12,12,12,NUM,False,False
-,-,-,-,SYM,False,False
354,354,354,354,NUM,False,False
.,.,.,.,PUNCT,False,False
many,many,many,many,ADJ,True,True
of,of,of,of,ADP,True,True
their,their,-PRON-,-pron-,DET,True,True
comment,comment,comment,comment,NOUN,True,False
succinctly,succinctly,succinctly,succinctly,ADV,True,False
point,point,point,point,VERB,True,False
-,-,-,-,PUNCT,False,False
out,out,out,out,ADP,True,True
the,the,the,the,DET,True,True
impact,impact,impact,impact,NOUN,True,False
this,this,this,this,DET,True,True
petition,petition,petition,petition,NOUN,True,False
",",",",",",",",PUNCT,False,False
if,if,if,if,SCONJ,True,True
approve,approve,approve,approve,VERB,True,False
",",",",",",",",PUNCT,False,False
will,will,will,will,VERB,True,True
have,have,have,have,AUX,True,True
on,on,on,on,ADP,True,True
their,their,-PRON-,-pron-,DET,True,True
current,current,current,current,ADJ,True,False
investment,investment,investment,investment,NOUN,True,False
in,in,in,in,ADP,True,True
the,the,the,the,DET,True,True
fcc,fcc,fcc,fcc,PROPN,True,False
cbrs,cbrs,cbrs,cbrs,PROPN,True,False
visionary,visionary,visionary,visionary,PROPN,True,False
roadmap,roadmap,roadmap,roadmap,PROPN,True,False
adopt,adopt,adopt,adopt,PROPN,True,False
in,in,in,in,ADP,True,True
2015,2015,2015,2015,NUM,False,False
.,.,.,.,PUNCT,False,False
virginia,virginia,virginia,virginia,PROPN,True,False
broadband,broadband,broadband,broadband,PROPN,True,False
have,have,have,have,AUX,True,True
also,also,also,also,ADV,True,True
invest,invest,invest,invest,VERB,True,False
heavily,heavily,heavily,heavily,ADV,True,False
in,in,in,in,ADP,True,True
the,the,the,the,DET,True,True
future,future,future,future,NOUN,True,False
of,of,of,of,ADP,True,True
cbrs,cbrs,cbr,cbr,NOUN,True,False
technology,technology,technology,technology,NOUN,True,False
-,-,-,-,PUNCT,False,False
change,change,change,change,VERB,True,False
the,the,the,the,DET,True,True
rule,rule,rule,rule,NOUN,True,False
mid,mid,mid,mid,NOUN,True,False
-,-,-,-,NOUN,False,False
course,course,course,course,NOUN,True,False
will,will,will,will,VERB,True,True
have,have,have,have,AUX,True,True
a,a,a,a,DET,True,True
detrimental,detrimental,detrimental,detrimental,ADJ,True,False
impact,impact,impact,impact,NOUN,True,False
on,on,on,on,ADP,True,True
our,our,-PRON-,-pron-,DET,True,True
business,business,business,business,NOUN,True,False
and,and,and,and,CCONJ,True,True
our,our,-PRON-,-pron-,DET,True,True
customer,customer,customer,customer,NOUN,True,False
.,.,.,.,PUNCT,False,False
many,many,many,many,ADJ,True,True
of,of,of,of,ADP,True,True
these,these,these,these,DET,True,True
wisps,wisps,wisp,wisp,NOUN,True,False
also,also,also,also,ADV,True,True
respond,respond,respond,respond,VERB,True,False
by,by,by,by,ADP,True,True
address,address,address,address,NOUN,True,False
the,the,the,the,DET,True,True
technical,technical,technical,technical,ADJ,True,False
factor,factor,factor,factor,NOUN,True,False
as,as,as,as,SCONJ,True,True
to,to,to,to,ADP,True,True
why,why,why,why,ADV,True,True
this,this,this,this,DET,True,True
petition,petition,petition,petition,NOUN,True,False
should,should,should,should,VERB,True,True
be,be,be,be,AUX,True,True
oppose,oppose,oppose,oppose,NOUN,True,False
.,.,.,.,PUNCT,False,False
we,we,-PRON-,-pron-,PRON,True,True
at,at,at,at,ADP,True,True
vabb,vabb,vabb,vabb,PROPN,True,False
see,see,see,see,VERB,True,True
no,no,no,no,DET,True,True
need,need,need,need,NOUN,True,False
in,in,in,in,ADP,True,True
rehash,rehash,rehash,rehash,NOUN,True,False
our,our,-PRON-,-pron-,DET,True,True
colleague,colleague,colleague,colleague,NOUN,True,False
well,well,well,well,INTJ,True,True
write,write,write,write,VERB,True,False
argument,argument,argument,argument,NOUN,True,False
oppose,oppose,oppose,oppose,VERB,True,False
this,this,this,this,DET,True,True
change,change,change,change,NOUN,True,False
.,.,.,.,PUNCT,False,False
instead,instead,instead,instead,ADV,True,False
",",",",",",",",PUNCT,False,False
vabb,vabb,vabb,vabb,PROPN,True,False
wish,wish,wish,wish,VERB,True,False
to,to,to,to,PART,True,True
focus,focus,focus,focus,VERB,True,False
your,your,-PRON-,-pron-,DET,True,True
attention,attention,attention,attention,NOUN,True,False
to,to,to,to,ADP,True,True
the,the,the,the,DET,True,True
third,third,third,third,ADJ,True,True
factor,factor,factor,factor,NOUN,True,False
",",",",",",",",PUNCT,False,False
the,the,the,the,DET,True,True
underlie,underlie,underlie,underlie,NOUN,True,False
current,current,current,current,NOUN,True,False
of,of,of,of,ADP,True,True
...,...,...,...,PUNCT,False,False
how,how,how,how,ADV,True,True
do,do,do,do,AUX,True,True
this,this,this,this,DET,True,True
cbrs,cbrs,cbr,cbr,NOUN,True,False
change,change,change,change,VERB,True,False
impact,impact,impact,impact,NOUN,True,False
rural,rural,rural,rural,ADJ,True,False
americans,americans,americans,americans,PROPN,True,False
now,now,now,now,ADV,True,True
and,and,and,and,CCONJ,True,True
several,several,several,several,ADJ,True,True
year,year,year,year,NOUN,True,False
from,from,from,from,ADP,True,True
now,now,now,now,ADV,True,True
.,.,.,.,PUNCT,False,False
what,what,what,what,PRON,True,True
be,be,be,be,AUX,True,True
really,really,really,really,ADV,True,True
at,at,at,at,ADP,True,True
stake,stake,stake,stake,NOUN,True,False
here,here,here,here,ADV,True,True
be,be,be,be,AUX,True,True
the,the,the,the,DET,True,True
rural,rural,rural,rural,ADJ,True,False
citizen,citizen,citizen,citizen,NOUN,True,False
throughout,throughout,throughout,throughout,ADP,True,True
our,our,-PRON-,-pron-,DET,True,True
country,country,country,country,NOUN,True,False
.,.,.,.,PUNCT,False,False
the,the,the,the,DET,True,True
fact,fact,fact,fact,NOUN,True,False
aremillion,aremillion,aremillion,aremillion,NOUN,True,False
of,of,of,of,ADP,True,True
rural,rural,rural,rural,ADJ,True,False
citizen,citizen,citizen,citizen,NOUN,True,False
have,have,have,have,AUX,True,True
little,little,little,little,ADJ,True,False
to,to,to,to,ADP,True,True
no,no,no,no,DET,True,True
access,access,access,access,NOUN,True,False
to,to,to,to,ADP,True,True
robust,robust,robust,robust,ADJ,True,False
",",",",",",",",PUNCT,False,False
high,high,high,high,ADJ,True,False
-,-,-,-,PUNCT,False,False
speed,speed,speed,speed,NOUN,True,False
internet,internet,internet,internet,NOUN,True,False
",",",",",",",",PUNCT,False,False
the,the,the,the,DET,True,True
fcc,fcc,fcc,fcc,PROPN,True,False
get,get,get,get,VERB,True,True
it,it,-PRON-,-pron-,PRON,True,True
right,right,right,right,ADJ,True,False
on,on,on,on,ADP,True,True
april,april,april,april,PROPN,True,False
17,17,17,17,NUM,False,False
",",",",",",",",PUNCT,False,False
2015,2015,2015,2015,NUM,False,False
by,by,by,by,ADP,True,True
lay,lay,lie,lie,VERB,True,False
out,out,out,out,ADP,True,True
a,a,a,a,DET,True,True
roadmap,roadmap,roadmap,roadmap,PROPN,True,False
to,to,to,to,PART,True,True
address,address,address,address,VERB,True,False
this,this,this,this,DET,True,True
digital,digital,digital,digital,ADJ,True,False
divide,divide,divide,divide,NOUN,True,False
when,when,when,when,ADV,True,True
craft,craft,craft,craft,VERB,True,False
the,the,the,the,DET,True,True
cbrs,cbrs,cbr,cbr,NOUN,True,False
rule,rule,rule,rule,NOUN,True,False
",",",",",",",",PUNCT,False,False
find,find,find,find,VERB,True,False
in,in,in,in,ADP,True,True
part,part,part,part,NOUN,True,True
96,96,96,96,NUM,False,False
of,of,of,of,ADP,True,True
the,the,the,the,DET,True,True
commissions,commissions,commission,commission,NOUN,True,False
rule,rule,rule,rule,NOUN,True,False
",",",",",",",",PUNCT,False,False
hundred,hundred,hundred,hundred,NUM,True,True
of,of,of,of,ADP,True,True
thousand,thousand,thousand,thousand,NUM,True,False
of,of,of,of,ADP,True,True
rural,rural,rural,rural,ADJ,True,False
citizen,citizen,citizen,citizen,NOUN,True,False
be,be,be,be,VERB,True,True
receive,receive,receive,receive,ADJ,True,False
their,their,-PRON-,-pron-,DET,True,True
high,high,high,high,ADJ,True,False
-,-,-,-,PUNCT,False,False
speed,speed,speed,speed,NOUN,True,False
internet,internet,internet,internet,NOUN,True,False
through,through,through,through,ADP,True,True
3650mhz,3650mhz,3650mhz,3650mhz,NOUN,False,False
technology,technology,technology,technology,NOUN,True,False
now,now,now,now,ADV,True,True
",",",",",",",",PUNCT,False,False
and,and,and,and,CCONJ,True,True
the,the,the,the,DET,True,True
conversion,conversion,conversion,conversion,NOUN,True,False
from,from,from,from,ADP,True,True
3650mhz,3650mhz,3650mhz,3650mhz,NOUN,False,False
to,to,to,to,ADP,True,True
the,the,the,the,DET,True,True
cbrs,cbrs,cbr,cbr,NOUN,True,False
3550,3550,3550,3550,NUM,False,False
-,-,-,-,SYM,False,False
3700mhz,3700mhz,3700mhz,3700mhz,PROPN,False,False
",",",",",",",",PUNCT,False,False
sas,sas,sas,sas,PROPN,True,False
spectrumaccess,spectrumaccess,spectrumaccess,spectrumaccess,PROPN,True,False
system,system,system,system,PROPN,True,False
drive,drive,drive,drive,NOUN,True,False
model,model,model,model,NOUN,True,False
will,will,will,will,VERB,True,True
allow,allow,allow,allow,VERB,True,False
million,million,million,million,NUM,True,False
more,more,more,more,ADJ,True,True
to,to,to,to,PART,True,True
reap,reap,reap,reap,VERB,True,False
the,the,the,the,DET,True,True
benefit,benefit,benefit,benefit,NOUN,True,False
of,of,of,of,ADP,True,True
the,the,the,the,DET,True,True
fcc,fcc,fcc,fcc,PROPN,True,False
foresighte,foresighte,foresighte,foresighte,ADP,True,False
cbrs,cbrs,cbr,cbr,NOUN,True,False
rule,rule,rule,rule,VERB,True,False
as,as,as,as,SCONJ,True,True
adopt,adopt,adopt,adopt,PROPN,True,False
in,in,in,in,ADP,True,True
2015.the,2015.the,2015.the,2015.the,NUM,False,False
reallocation,reallocation,reallocation,reallocation,NOUN,True,False
of,of,of,of,ADP,True,True
all,all,all,all,DET,True,True
the,the,the,the,DET,True,True
current,current,current,current,ADJ,True,False
3650,3650,3650,3650,NUM,False,False
-,-,-,-,SYM,False,False
3700,3700,3700,3700,NUM,False,False
mhz,mhz,mhz,mhz,NOUN,True,False
spectrum,spectrum,spectrum,spectrum,NOUN,True,False
to,to,to,to,ADP,True,True
pal,pal,pal,pal,PROPN,True,False
would,would,would,would,VERB,True,True
seriously,seriously,seriously,seriously,ADV,True,False
devalue,devalue,devalue,devalue,VERB,True,False
the,the,the,the,DET,True,True
hard,hard,hard,hard,ADJ,True,False
work,work,work,work,NOUN,True,False
and,and,and,and,CCONJ,True,True
investment,investment,investment,investment,NOUN,True,False
of,of,of,of,ADP,True,True
rural,rural,rural,rural,ADJ,True,False
wisp,wisp,wisp,wisp,NOUN,True,False
that,that,that,that,DET,True,True
use,use,use,use,VERB,True,False
the,the,the,the,DET,True,True
spectrum,spectrum,spectrum,spectrum,NOUN,True,False
currently,currently,currently,currently,ADV,True,False
.,.,.,.,PUNCT,False,False
any,any,any,any,DET,True,True
extension,extension,extension,extension,NOUN,True,False
of,of,of,of,ADP,True,True
the,the,the,the,DET,True,True
pal,pal,pal,pal,NOUN,True,False
to,to,to,to,ADP,True,True
10,10,10,10,NUM,False,False
year,year,year,year,NOUN,True,False
would,would,would,would,VERB,True,True
destroy,destroy,destroy,destroy,VERB,True,False
any,any,any,any,DET,True,True
chance,chance,chance,chance,NOUN,True,False
of,of,of,of,ADP,True,True
wisp,wisp,wisp,wisp,ADP,True,False
aquire,aquire,aquire,aquire,NOUN,True,False
affordable,affordable,affordable,affordable,ADJ,True,False
access,access,access,access,NOUN,True,False
to,to,to,to,ADP,True,True
spectrum,spectrum,spectrum,spectrum,PROPN,True,False
and,and,and,and,CCONJ,True,True
seriously,seriously,seriously,seriously,ADV,True,False
discourage,discourage,discourage,discourage,VERB,True,False
their,their,-PRON-,-pron-,DET,True,True
investment,investment,investment,investment,NOUN,True,False
in,in,in,in,ADP,True,True
underserved,underserved,underserved,underserved,ADJ,True,False
community,community,community,community,NOUN,True,False
.,.,.,.,PUNCT,False,False
while,while,while,while,SCONJ,True,True
encourage,encourage,encourage,encourage,VERB,True,False
the,the,the,the,DET,True,True
spectrum,spectrum,spectrum,spectrum,PROPN,True,False
-,-,-,-,PUNCT,False,False
horde,horde,horde,horde,NOUN,True,False
behavior,behavior,behavior,behavior,NOUN,True,False
the,the,the,the,DET,True,True
sas,sas,sas,sas,PROPN,True,False
model,model,model,model,NOUN,True,False
be,be,be,be,AUX,True,True
design,design,design,design,NOUN,True,False
to,to,to,to,PART,True,True
mitigate,mitigate,mitigate,mitigate,VERB,True,False
.,.,.,.,PUNCT,False,False
if,if,if,if,SCONJ,True,True
this,this,this,this,DET,True,True
petition,petition,petition,petition,NOUN,True,False
be,be,be,be,AUX,True,True
approve,approve,approve,approve,VERB,True,False
",",",",",",",",PUNCT,False,False
the,the,the,the,DET,True,True
fcc,fcc,fcc,fcc,PROPN,True,False
be,be,be,be,AUX,True,True
essentially,essentially,essentially,essentially,ADV,True,False
hamstring,hamstring,hamstre,hamstre,VERB,True,False
a,a,a,a,DET,True,True
large,large,large,large,ADJ,True,False
wisp,wisp,wisp,wisp,ADP,True,False
industry,industry,industry,industry,NOUN,True,False
this,this,this,this,DET,True,True
be,be,be,be,AUX,True,True
no,no,no,no,ADV,True,True
long,long,long,long,ADV,True,False
a,a,a,a,DET,True,True
small,small,small,small,ADJ,True,False
cottage,cottage,cottage,cottage,NOUN,True,False
industry,industry,industry,industry,NOUN,True,False
.,.,.,.,PUNCT,False,False
collectively,collectively,collectively,collectively,ADV,True,False
",",",",",",",",PUNCT,False,False
wisps,wisps,wisp,wisp,NOUN,True,False
have,have,have,have,AUX,True,True
yearly,yearly,yearly,yearly,ADJ,True,False
earning,earning,earning,earning,NOUN,True,False
in,in,in,in,ADP,True,True
the,the,the,the,DET,True,True
hundred,hundred,hundred,hundred,NUM,True,True
-,-,-,-,PUNCT,False,False
of,of,of,of,ADP,True,True
-,-,-,-,PUNCT,False,False
million,million,million,million,NUM,True,False
of,of,of,of,ADP,True,True
dollar,dollar,dollar,dollar,NOUN,True,False
and,and,and,and,CCONJ,True,True
be,be,be,be,AUX,True,True
the,the,the,the,DET,True,True
drive,drive,drive,drive,NOUN,True,False
force,force,force,force,NOUN,True,False
behind,behind,behind,behind,ADP,True,True
countless,countless,countless,countless,ADJ,True,False
million,million,million,million,NUM,True,False
of,of,of,of,ADP,True,True
dollar,dollar,dollar,dollar,NOUN,True,False
in,in,in,in,ADP,True,True
intangible,intangible,intangible,intangible,ADJ,True,False
economic,economic,economic,economic,ADJ,True,False
prosperity,prosperity,prosperity,prosperity,NOUN,True,False
in,in,in,in,ADP,True,True
rural,rural,rural,rural,PROPN,True,False
america,america,america,america,PROPN,True,False
.,.,.,.,PUNCT,False,False
the,the,the,the,DET,True,True
impact,impact,impact,impact,NOUN,True,False
of,of,of,of,ADP,True,True
this,this,this,this,DET,True,True
change,change,change,change,NOUN,True,False
will,will,will,will,VERB,True,True
be,be,be,be,AUX,True,True
feel,feel,feel,feel,VERB,True,False
in,in,in,in,ADP,True,True
rural,rural,rural,rural,ADJ,True,False
community,community,community,community,NOUN,True,False
when,when,when,when,ADV,True,True
the,the,the,the,DET,True,True
wisps,wisps,wisp,wisp,NOUN,True,False
and,and,and,and,CCONJ,True,True
the,the,the,the,DET,True,True
manufacturer,manufacturer,manufacturer,manufacturer,NOUN,True,False
of,of,of,of,ADP,True,True
cbrs,cbrs,cbr,cbr,NOUN,True,False
-,-,-,-,PUNCT,False,False
ready,ready,ready,ready,ADJ,True,False
equipment,equipment,equipment,equipment,NOUN,True,False
cease,cease,cease,cease,NOUN,True,False
to,to,to,to,PART,True,True
pursue,pursue,pursue,pursue,VERB,True,False
the,the,the,the,DET,True,True
power,power,power,power,NOUN,True,False
that,that,that,that,DET,True,True
could,could,could,could,VERB,True,True
have,have,have,have,AUX,True,True
be,be,be,be,AUX,True,True
unleash,unleash,unleash,unleash,ADJ,True,False
to,to,to,to,ADP,True,True
through,through,through,through,ADP,True,True
the,the,the,the,DET,True,True
cbrs,cbrs,cbr,cbr,NOUN,True,False
model,model,model,model,NOUN,True,False
.,.,.,.,PUNCT,False,False
approval,approval,approval,approval,NOUN,True,False
of,of,of,of,ADP,True,True
this,this,this,this,DET,True,True
rule,rule,rule,rule,NOUN,True,False
change,change,change,change,NOUN,True,False
will,will,will,will,VERB,True,True
basically,basically,basically,basically,ADV,True,False
remove,remove,remove,remove,VERB,True,False
the,the,the,the,DET,True,True
citizen,citizen,citizen,citizen,NOUN,True,False
from,from,from,from,ADP,True,True
cbrs.as,cbrs.as,cbrs.as,cbrs.as,X,False,False
federal,federal,federal,federal,ADJ,True,False
",",",",",",",",PUNCT,False,False
state,state,state,state,NOUN,True,False
",",",",",",",",PUNCT,False,False
and,and,and,and,CCONJ,True,True
local,local,local,local,ADJ,True,False
elect,elect,elect,elect,ADJ,True,False
legislator,legislator,legislator,legislator,NOUN,True,False
and,and,and,and,CCONJ,True,True
fcc,fcc,fcc,fcc,PROPN,True,False
commissioners,commissioners,commissioner,commissioner,NOUN,True,False
come,come,come,come,VERB,True,False
and,and,and,and,CCONJ,True,True
go,go,go,go,VERB,True,True
over,over,over,over,ADP,True,True
the,the,the,the,DET,True,True
past,past,past,past,ADJ,True,False
two,two,two,two,NUM,True,True
decade,decade,decade,decade,NOUN,True,False
",",",",",",",",PUNCT,False,False
one,one,one,one,NUM,True,True
theme,theme,theme,theme,NOUN,True,False
remain,remain,remain,remain,VERB,True,False
consistent,consistent,consistent,consistent,ADJ,True,False
in,in,in,in,ADP,True,True
their,their,-PRON-,-pron-,DET,True,True
pledge,pledge,pledge,pledge,NOUN,True,False
to,to,to,to,ADP,True,True
their,their,-PRON-,-pron-,DET,True,True
constituent,constituent,constituent,constituent,NOUN,True,False
bridge,bridge,bridge,bridge,NOUN,True,False
the,the,the,the,DET,True,True
internet,internet,internet,internet,NOUN,True,False
gap,gap,gap,gap,NOUN,True,False
in,in,in,in,ADP,True,True
their,their,-PRON-,-pron-,DET,True,True
rural,rural,rural,rural,ADJ,True,False
district,district,district,district,NOUN,True,False
.,.,.,.,PUNCT,False,False
in,in,in,in,ADP,True,True
a,a,a,a,DET,True,True
recent,recent,recent,recent,ADJ,True,False
conversation,conversation,conversation,conversation,NOUN,True,False
with,with,with,with,ADP,True,True
our,our,-PRON-,-pron-,DET,True,True
virginia,virginia,virginia,virginia,PROPN,True,False
state,state,state,state,PROPN,True,False
delegate,delegate,delegate,delegate,NOUN,True,False
regard,regard,regard,regard,NOUN,True,False
ongoing,ongoing,ongoing,ongoing,ADJ,True,False
state,state,state,state,NOUN,True,False
-,-,-,-,PUNCT,False,False
level,level,level,level,NOUN,True,False
discussion,discussion,discussion,discussion,NOUN,True,False
on,on,on,on,ADP,True,True
how,how,how,how,ADV,True,True
to,to,to,to,PART,True,True
provide,provide,provide,provide,VERB,True,False
internet,internet,internet,internet,NOUN,True,False
service,service,service,service,NOUN,True,False
in,in,in,in,ADP,True,True
all,all,all,all,DET,True,True
corner,corner,corner,corner,NOUN,True,False
of,of,of,of,ADP,True,True
this,this,this,this,DET,True,True
fine,fine,fine,fine,ADJ,True,False
commonwealth,commonwealth,commonwealth,commonwealth,PROPN,True,False
of,of,of,of,ADP,True,True
virginia,virginia,virginia,virginia,PROPN,True,False
",",",",",",",",PUNCT,False,False
his,his,-PRON-,-pron-,DET,True,True
comment,comment,comment,comment,NOUN,True,False
ring,ring,re,re,VERB,True,False
hauntingly,hauntingly,hauntingly,hauntingly,ADV,True,False
true,true,true,true,ADJ,True,False
",",",",",",",",PUNCT,False,False
...,...,...,...,PUNCT,False,False
we,we,-PRON-,-pron-,PRON,True,True
have,have,have,have,AUX,True,True
have,have,have,have,AUX,True,True
this,this,this,this,DET,True,True
conversation,conversation,conversation,conversation,NOUN,True,False
10,10,10,10,NUM,False,False
year,year,year,year,NOUN,True,False
ago,ago,ago,ago,ADV,True,False
",",",",",",",",PUNCT,False,False
5,5,5,5,NUM,False,False
year,year,year,year,NOUN,True,False
ago,ago,ago,ago,ADV,True,False
",",",",",",",",PUNCT,False,False
2,2,2,2,NUM,False,False
year,year,year,year,NOUN,True,False
ago,ago,ago,ago,ADV,True,False
",",",",",",",",PUNCT,False,False
and,and,and,and,CCONJ,True,True
here,here,here,here,ADV,True,True
we,we,-PRON-,-pron-,PRON,True,True
be,be,be,be,VERB,True,True
again,again,again,again,ADV,True,True
today,today,today,today,NOUN,True,False
discuss,discuss,discuss,discuss,VERB,True,False
way,way,way,way,NOUN,True,False
to,to,to,to,PART,True,True
find,find,find,find,VERB,True,False
a,a,a,a,DET,True,True
solution,solution,solution,solution,NOUN,True,False
but,but,but,but,CCONJ,True,True
no,no,no,no,DET,True,True
one,one,one,one,NOUN,True,True
be,be,be,be,AUX,True,True
step,step,step,step,NOUN,True,False
up,up,up,up,ADV,True,True
to,to,to,to,PART,True,True
solve,solve,solve,solve,VERB,True,False
it,it,-PRON-,-pron-,PRON,True,True
.,.,.,.,PUNCT,False,False
the,the,the,the,DET,True,True
wisp,wisp,wisp,wisp,ADP,True,False
community,community,community,community,NOUN,True,False
be,be,be,be,AUX,True,True
step,step,step,step,VERB,True,False
up,up,up,up,ADP,True,True
to,to,to,to,ADP,True,True
the,the,the,the,DET,True,True
challenge,challenge,challenge,challenge,NOUN,True,False
",",",",",",",",PUNCT,False,False
and,and,and,and,CCONJ,True,True
the,the,the,the,DET,True,True
fcc,fcc,fcc,fcc,PROPN,True,False
should,should,should,should,VERB,True,True
also,also,also,also,ADV,True,True
stand,stand,stand,stand,VERB,True,False
up,up,up,up,ADP,True,True
and,and,and,and,CCONJ,True,True
support,support,support,support,VERB,True,False
a,a,a,a,DET,True,True
unified,unified,unified,unified,ADJ,True,False
frequency,frequency,frequency,frequency,NOUN,True,False
band,band,band,band,NOUN,True,False
policy,policy,policy,policy,NOUN,True,False
that,that,that,that,DET,True,True
will,will,will,will,VERB,True,True
facilitate,facilitate,facilitate,facilitate,VERB,True,False
the,the,the,the,DET,True,True
pledge,pledge,pledge,pledge,NOUN,True,False
our,our,-PRON-,-pron-,DET,True,True
elect,elect,elect,elect,NOUN,True,False
official,official,official,official,NOUN,True,False
and,and,and,and,CCONJ,True,True
your,your,-PRON-,-pron-,DET,True,True
agency,agency,agency,agency,NOUN,True,False
have,have,have,have,AUX,True,True
communicate,communicate,communicate,communicate,VERB,True,False
to,to,to,to,ADP,True,True
the,the,the,the,DET,True,True
american,american,american,american,ADJ,True,False
people,people,people,people,NOUN,True,False
.,.,.,.,PUNCT,False,False
we,we,-PRON-,-pron-,PRON,True,True
would,would,would,would,VERB,True,True
like,like,like,like,VERB,True,False
to,to,to,to,PART,True,True
leave,leave,leave,leave,VERB,True,False
you,you,-PRON-,-pron-,PRON,True,True
with,with,with,with,ADP,True,True
one,one,one,one,NUM,True,True
final,final,final,final,ADJ,True,False
quote,quote,quote,quote,INTJ,True,False
we,we,-PRON-,-pron-,PRON,True,True
constantly,constantly,constantly,constantly,ADV,True,False
hear,hear,hear,hear,VERB,True,False
from,from,from,from,ADP,True,True
citizen,citizen,citizen,citizen,NOUN,True,False
",",",",",",",",PUNCT,False,False
business,business,business,business,NOUN,True,False
",",",",",",",",PUNCT,False,False
and,and,and,and,CCONJ,True,True
even,even,even,even,ADV,True,True
federal,federal,federal,federal,ADJ,True,False
employee,employee,employee,employee,NOUN,True,False
require,require,require,require,VERB,True,False
to,to,to,to,PART,True,True
telecommute,telecommute,telecommute,telecommute,VERB,True,False
as,as,as,as,SCONJ,True,True
part,part,part,part,NOUN,True,True
of,of,of,of,ADP,True,True
their,their,-PRON-,-pron-,DET,True,True
federal,federal,federal,federal,ADJ,True,False
job,job,job,job,NOUN,True,False
.,.,.,.,PUNCT,False,False
when,when,when,when,ADV,True,True
they,they,-PRON-,-pron-,PRON,True,True
call,call,call,call,VERB,True,True
virginia,virginia,virginia,virginia,PROPN,True,False
broadband,broadband,broadband,broadband,PROPN,True,False
ask,ask,ask,ask,VERB,True,False
for,for,for,for,ADP,True,True
internet,internet,internet,internet,NOUN,True,False
service,service,service,service,NOUN,True,False
at,at,at,at,ADP,True,True
their,their,-PRON-,-pron-,DET,True,True
home,home,home,home,NOUN,True,False
or,or,or,or,CCONJ,True,True
business,business,business,business,NOUN,True,False
",",",",",",",",PUNCT,False,False
only,only,only,only,ADV,True,True
to,to,to,to,PART,True,True
find,find,find,find,VERB,True,False
out,out,out,out,ADP,True,True
we,we,-PRON-,-pron-,PRON,True,True
can,can,can,can,VERB,True,True
not,not,not,not,PART,True,True
provide,provide,provide,provide,VERB,True,False
the,the,the,the,DET,True,True
service,service,service,service,NOUN,True,False
due,due,due,due,ADP,True,True
to,to,to,to,ADP,True,True
technicalterrestrial,technicalterrestrial,technicalterrestrial,technicalterrestrial,ADJ,True,False
limitation,limitation,limitation,limitation,NOUN,True,False
",",",",",",",",PUNCT,False,False
they,they,-PRON-,-pron-,PRON,True,True
reply,reply,reply,reply,VERB,True,False
",",",",",",",",PUNCT,False,False
...,...,...,...,PUNCT,False,False
i,i,i,i,PRON,True,True
can,can,can,can,VERB,True,True
not,not,not,not,PART,True,True
believe,believe,believe,believe,VERB,True,False
i,i,i,i,PRON,True,True
live,live,live,live,VERB,True,False
60,60,60,60,NUM,False,False
minute,minute,minute,minute,NOUN,True,False
from,from,from,from,ADP,True,True
the,the,the,the,DET,True,True
nations,nations,nation,nation,NOUN,True,False
capital,capital,capital,capital,NOUN,True,False
and,and,and,and,CCONJ,True,True
i,i,i,i,PRON,True,True
can,can,can,can,VERB,True,True
not,not,not,not,PART,True,True
get,get,get,get,AUX,True,True
high,high,high,high,ADJ,True,False
-,-,-,-,PUNCT,False,False
speed,speed,speed,speed,NOUN,True,False
internetin,internetin,internetin,internetin,PROPN,True,False
conclusion,conclusion,conclusion,conclusion,NOUN,True,False
",",",",",",",",PUNCT,False,False
give,give,give,give,VERB,True,True
wisps,wisps,wisps,wisps,PROPN,True,False
the,the,the,the,DET,True,True
spectrum,spectrum,spectrum,spectrum,PROPN,True,False
tool,tool,tool,tool,NOUN,True,False
need,need,need,need,VERB,True,False
and,and,and,and,CCONJ,True,True
a,a,a,a,DET,True,True
clear,clear,clear,clear,ADJ,True,False
directive,directive,directive,directive,NOUN,True,False
to,to,to,to,ADP,True,True
the,the,the,the,DET,True,True
manufacturer,manufacturer,manufacturer,manufacturer,NOUN,True,False
so,so,so,so,SCONJ,True,True
they,they,-PRON-,-pron-,PRON,True,True
can,can,can,can,VERB,True,True
plan,plan,plan,plan,VERB,True,False
and,and,and,and,CCONJ,True,True
supply,supply,supply,supply,VERB,True,False
the,the,the,the,DET,True,True
low,low,low,low,ADJ,True,False
cost,cost,cost,cost,NOUN,True,False
equipment,equipment,equipment,equipment,NOUN,True,False
through,through,through,through,ADP,True,True
mass,mass,mass,mass,NOUN,True,False
production,production,production,production,NOUN,True,False
and,and,and,and,CCONJ,True,True
industry,industry,industry,industry,NOUN,True,False
adoption,adoption,adoption,adoption,NOUN,True,False
.,.,.,.,PUNCT,False,False
as,as,as,as,SCONJ,True,True
an,an,an,an,DET,True,True
industry,industry,industry,industry,NOUN,True,False
",",",",",",",",PUNCT,False,False
we,we,-PRON-,-pron-,PRON,True,True
will,will,will,will,VERB,True,True
thrive,thrive,thrive,thrive,VERB,True,False
and,and,and,and,CCONJ,True,True
serve,serve,serve,serve,VERB,True,False
our,our,-PRON-,-pron-,DET,True,True
rural,rural,rural,rural,ADJ,True,False
community,community,community,community,NOUN,True,False
",",",",",",",",PUNCT,False,False
fulfill,fulfill,fulfill,fulfill,VERB,True,False
the,the,the,the,DET,True,True
promise,promise,promise,promise,NOUN,True,False
of,of,of,of,ADP,True,True
our,our,-PRON-,-pron-,DET,True,True
elect,elect,elect,elect,NOUN,True,False
official,official,official,official,NOUN,True,False
",",",",",",",",PUNCT,False,False
enhance,enhance,enhance,enhance,VERB,True,False
million,million,million,million,NUM,True,False
of,of,of,of,ADP,True,True
life,life,life,life,NOUN,True,False
",",",",",",",",PUNCT,False,False
add,add,add,add,VERB,True,False
revenue,revenue,revenue,revenue,NOUN,True,False
to,to,to,to,ADP,True,True
our,our,-PRON-,-pron-,DET,True,True
economy,economy,economy,economy,NOUN,True,False
",",",",",",",",PUNCT,False,False
and,and,and,and,CCONJ,True,True
catch,catch,catch,catch,NOUN,True,False
-,-,-,-,PUNCT,False,False
up,up,up,up,NOUN,True,True
with,with,with,with,ADP,True,True
the,the,the,the,DET,True,True
rest,rest,rest,rest,NOUN,True,False
of,of,of,of,ADP,True,True
the,the,the,the,DET,True,True
wireless,wireless,wireless,wireless,ADJ,True,False
world,world,world,world,NOUN,True,False
.,.,.,.,PUNCT,False,False
