text,text_lower,lemma,lemma_lower,part_of_speech,is_alphabet,is_stopword
re,re,re,re,ADP,True,True
gn,gn,gn,gn,PROPN,True,False
docket,docket,docket,docket,PROPN,True,False
no,no,no,no,INTJ,True,True
.,.,.,.,NOUN,False,False
12,12,12,12,NUM,False,False
-,-,-,-,SYM,False,False
354,354,354,354,NUM,False,False
",",",",",",",",PUNCT,False,False
rm-11778,rm-11778,rm-11778,rm-11778,PROPN,False,False
and,and,and,and,CCONJ,True,True
rm-1789,rm-1789,rm-1789,rm-1789,PROPN,False,False
to,to,to,to,PART,True,True
whom,whom,whom,whom,PRON,True,True
it,it,-PRON-,-pron-,PRON,True,True
may,may,may,may,VERB,True,True
concern,concern,concern,concern,VERB,True,False
",",",",",",",",PUNCT,False,False
i,i,i,i,PRON,True,True
be,be,be,be,VERB,True,True
write,write,write,write,ADJ,True,False
in,in,in,in,ADP,True,True
reference,reference,reference,reference,NOUN,True,False
to,to,to,to,ADP,True,True
the,the,the,the,DET,True,True
petition,petition,petition,petition,NOUN,True,False
file,file,file,file,NOUN,True,False
by,by,by,by,ADP,True,True
ctia,ctia,ctia,ctia,PROPN,True,False
and,and,and,and,CCONJ,True,True
t,t,t,t,PROPN,True,False
-,-,-,-,PUNCT,False,False
mobile,mobile,mobile,mobile,NOUN,True,False
regard,regard,regard,regard,NOUN,True,False
propose,propose,propose,propose,NOUN,True,False
change,change,change,change,NOUN,True,False
to,to,to,to,ADP,True,True
the,the,the,the,DET,True,True
cbrs,cbrs,cbr,cbr,NOUN,True,False
band,band,band,band,NOUN,True,False
.,.,.,.,PUNCT,False,False
my,my,-PRON-,-pron-,DET,True,True
company,company,company,company,NOUN,True,False
",",",",",",",",PUNCT,False,False
collectively,collectively,collectively,collectively,ADV,True,False
know,know,know,know,VERB,True,False
as,as,as,as,SCONJ,True,True
quantum,quantum,quantum,quantum,PROPN,True,False
internet,internet,internet,internet,NOUN,True,False
and,and,and,and,CCONJ,True,True
telephone,telephone,telephone,telephone,NOUN,True,False
",",",",",",",",PUNCT,False,False
operate,operate,operate,operate,VERB,True,False
as,as,as,as,SCONJ,True,True
a,a,a,a,DET,True,True
competitive,competitive,competitive,competitive,ADJ,True,False
local,local,local,local,ADJ,True,False
exchange,exchange,exchange,exchange,NOUN,True,False
carrier,carrier,carrier,carrier,NOUN,True,False
clec,clec,clec,clec,NOUN,True,False
and,and,and,and,CCONJ,True,True
wireless,wireless,wireless,wireless,PROPN,True,False
internet,internet,internet,internet,NOUN,True,False
service,service,service,service,NOUN,True,False
provider,provider,provider,provider,NOUN,True,False
wisp,wisp,wisp,wisp,ADV,True,False
in,in,in,in,ADP,True,True
central,central,central,central,ADJ,True,False
and,and,and,and,CCONJ,True,True
northern,northern,northern,northern,ADJ,True,False
maryland,maryland,maryland,maryland,PROPN,True,False
.,.,.,.,PUNCT,False,False
our,our,-PRON-,-pron-,DET,True,True
service,service,service,service,NOUN,True,False
territory,territory,territory,territory,NOUN,True,False
encompass,encompass,encompass,encompass,PROPN,True,False
urban,urban,urban,urban,ADJ,True,False
area,area,area,area,NOUN,True,False
",",",",",",",",PUNCT,False,False
such,such,such,such,ADJ,True,True
as,as,as,as,SCONJ,True,True
baltimore,baltimore,baltimore,baltimore,PROPN,True,False
city,city,city,city,PROPN,True,False
",",",",",",",",PUNCT,False,False
as,as,as,as,ADV,True,True
well,well,well,well,ADV,True,True
as,as,as,as,SCONJ,True,True
rural,rural,rural,rural,ADJ,True,False
area,area,area,area,NOUN,True,False
like,like,like,like,SCONJ,True,False
northern,northern,northern,northern,ADJ,True,False
carroll,carroll,carroll,carroll,PROPN,True,False
",",",",",",",",PUNCT,False,False
baltimore,baltimore,baltimore,baltimore,PROPN,True,False
",",",",",",",",PUNCT,False,False
and,and,and,and,CCONJ,True,True
harford,harford,harford,harford,PROPN,True,False
counties,counties,county,county,NOUN,True,False
.,.,.,.,PUNCT,False,False
we,we,-PRON-,-pron-,PRON,True,True
have,have,have,have,AUX,True,True
recently,recently,recently,recently,ADV,True,False
be,be,be,be,AUX,True,True
invest,invest,invest,invest,ADJ,True,False
in,in,in,in,ADP,True,True
next,next,next,next,ADJ,True,True
-,-,-,-,PUNCT,False,False
generation,generation,generation,generation,NOUN,True,False
wireless,wireless,wireless,wireless,ADJ,True,False
infrastructure,infrastructure,infrastructure,infrastructure,NOUN,True,False
",",",",",",",",PUNCT,False,False
as,as,as,as,SCONJ,True,True
our,our,-PRON-,-pron-,DET,True,True
reliance,reliance,reliance,reliance,NOUN,True,False
on,on,on,on,ADP,True,True
copper,copper,copper,copper,NOUN,True,False
unbundled,unbundled,unbundle,unbundle,VERB,True,False
network,network,network,network,NOUN,True,False
elements,elements,element,element,NOUN,True,False
unes,unes,une,une,NOUN,True,False
have,have,have,have,AUX,True,True
not,not,not,not,PART,True,True
allow,allow,allow,allow,VERB,True,False
us,us,-PRON-,-pron-,PRON,True,True
to,to,to,to,PART,True,True
keep,keep,keep,keep,VERB,True,True
pace,pace,pace,pace,NOUN,True,False
with,with,with,with,ADP,True,True
consumer,consumer,consumer,consumer,NOUN,True,False
demand,demand,demand,demand,NOUN,True,False
for,for,for,for,ADP,True,True
bandwidth,bandwidth,bandwidth,bandwidth,NOUN,True,False
",",",",",",",",PUNCT,False,False
and,and,and,and,CCONJ,True,True
have,have,have,have,AUX,True,True
limit,limit,limit,limit,VERB,True,False
the,the,the,the,DET,True,True
area,area,area,area,NOUN,True,False
in,in,in,in,ADP,True,True
which,which,which,which,DET,True,True
we,we,-PRON-,-pron-,PRON,True,True
can,can,can,can,VERB,True,True
offer,offer,offer,offer,VERB,True,False
service,service,service,service,NOUN,True,False
.,.,.,.,PUNCT,False,False
additionally,additionally,additionally,additionally,ADV,True,False
",",",",",",",",PUNCT,False,False
verizon,verizon,verizon,verizon,PROPN,True,False
have,have,have,have,AUX,True,True
begin,begin,begin,begin,VERB,True,False
copper,copper,copper,copper,NOUN,True,False
retirement,retirement,retirement,retirement,NOUN,True,False
in,in,in,in,ADP,True,True
some,some,some,some,DET,True,True
of,of,of,of,ADP,True,True
the,the,the,the,DET,True,True
area,area,area,area,NOUN,True,False
we,we,-PRON-,-pron-,PRON,True,True
operate,operate,operate,operate,VERB,True,False
in,in,in,in,ADP,True,True
",",",",",",",",PUNCT,False,False
further,further,further,further,ADV,True,True
necessitate,necessitate,necessitate,necessitate,VERB,True,False
the,the,the,the,DET,True,True
need,need,need,need,NOUN,True,False
to,to,to,to,PART,True,True
migrate,migrate,migrate,migrate,VERB,True,False
our,our,-PRON-,-pron-,DET,True,True
customer,customer,customer,customer,NOUN,True,False
internet,internet,internet,internet,NOUN,True,False
access,access,access,access,NOUN,True,False
and,and,and,and,CCONJ,True,True
voice,voice,voice,voice,NOUN,True,False
service,service,service,service,NOUN,True,False
to,to,to,to,PART,True,True
fix,fix,fix,fix,VERB,True,False
wireless,wireless,wireless,wireless,NOUN,True,False
.,.,.,.,PUNCT,False,False
cbrs,cbrs,cbr,cbr,NOUN,True,False
be,be,be,be,VERB,True,True
very,very,very,very,ADV,True,True
important,important,important,important,ADJ,True,False
to,to,to,to,ADP,True,True
us,us,-PRON-,-pron-,PRON,True,True
",",",",",",",",PUNCT,False,False
as,as,as,as,SCONJ,True,True
it,it,-PRON-,-pron-,PRON,True,True
provide,provide,provide,provide,VERB,True,False
100,100,100,100,NUM,False,False
mhz,mhz,mhz,mhz,NOUN,True,False
of,of,of,of,ADP,True,True
new,new,new,new,ADJ,True,False
spectrum,spectrum,spectrum,spectrum,PROPN,True,False
free,free,free,free,ADJ,True,False
from,from,from,from,ADP,True,True
the,the,the,the,DET,True,True
interference,interference,interference,interference,NOUN,True,False
in,in,in,in,ADP,True,True
the,the,the,the,DET,True,True
5,5,5,5,NUM,False,False
ghz,ghz,ghz,ghz,PROPN,True,False
and,and,and,and,CCONJ,True,True
2.4,2.4,2.4,2.4,NUM,False,False
ghz,ghz,ghz,ghz,PROPN,True,False
band,band,band,band,NOUN,True,False
.,.,.,.,PUNCT,False,False
furthermore,furthermore,furthermore,furthermore,ADV,True,False
",",",",",",",",PUNCT,False,False
it,it,-PRON-,-pron-,PRON,True,True
provide,provide,provide,provide,VERB,True,False
for,for,for,for,ADP,True,True
the,the,the,the,DET,True,True
opportunity,opportunity,opportunity,opportunity,NOUN,True,False
to,to,to,to,PART,True,True
obtain,obtain,obtain,obtain,VERB,True,False
interference-,interference-,interference-,interference-,DET,False,False
free,free,free,free,ADJ,True,False
license,license,license,license,NOUN,True,False
spectrum,spectrum,spectrum,spectrum,NOUN,True,False
.,.,.,.,PUNCT,False,False
by,by,by,by,ADP,True,True
license,license,license,license,NOUN,True,False
at,at,at,at,ADP,True,True
the,the,the,the,DET,True,True
census,census,census,census,NOUN,True,False
tract,tract,tract,tract,NOUN,True,False
level,level,level,level,NOUN,True,False
",",",",",",",",PUNCT,False,False
regional,regional,regional,regional,ADJ,True,False
operator,operator,operator,operator,NOUN,True,False
like,like,like,like,SCONJ,True,False
us,us,-PRON-,-pron-,PRON,True,True
may,may,may,may,VERB,True,True
be,be,be,be,AUX,True,True
able,able,able,able,ADJ,True,False
to,to,to,to,PART,True,True
afford,afford,afford,afford,VERB,True,False
to,to,to,to,PART,True,True
acquire,acquire,acquire,acquire,VERB,True,False
a,a,a,a,DET,True,True
license,license,license,license,NOUN,True,False
where,where,where,where,ADV,True,True
we,we,-PRON-,-pron-,PRON,True,True
have,have,have,have,AUX,True,True
concentration,concentration,concentration,concentration,NOUN,True,False
of,of,of,of,ADP,True,True
customer,customer,customer,customer,NOUN,True,False
.,.,.,.,PUNCT,False,False
the,the,the,the,DET,True,True
way,way,way,way,NOUN,True,False
previous,previous,previous,previous,ADJ,True,False
spectrum,spectrum,spectrum,spectrum,NOUN,True,False
auction,auction,auction,auction,NOUN,True,False
have,have,have,have,AUX,True,True
be,be,be,be,AUX,True,True
structure,structure,structure,structure,NOUN,True,False
",",",",",",",",PUNCT,False,False
only,only,only,only,ADV,True,True
the,the,the,the,DET,True,True
large,large,large,large,ADJ,True,False
carrier,carrier,carrier,carrier,NOUN,True,False
could,could,could,could,VERB,True,True
afford,afford,afford,afford,VERB,True,False
to,to,to,to,PART,True,True
participate,participate,participate,participate,VERB,True,False
.,.,.,.,PUNCT,False,False
cbrs,cbrs,cbr,cbr,NOUN,True,False
will,will,will,will,VERB,True,True
also,also,also,also,ADV,True,True
help,help,help,help,VERB,True,False
us,us,-PRON-,-pron-,PRON,True,True
bridge,bridge,bridge,bridge,VERB,True,False
the,the,the,the,DET,True,True
digital,digital,digital,digital,ADJ,True,False
divide,divide,divide,divide,NOUN,True,False
in,in,in,in,ADP,True,True
baltimore,baltimore,baltimore,baltimore,PROPN,True,False
city,city,city,city,PROPN,True,False
.,.,.,.,PUNCT,False,False
there,there,there,there,PRON,True,True
be,be,be,be,AUX,True,True
a,a,a,a,DET,True,True
lack,lack,lack,lack,NOUN,True,False
of,of,of,of,ADP,True,True
low,low,low,low,ADJ,True,False
-,-,-,-,PUNCT,False,False
cost,cost,cost,cost,NOUN,True,False
option,option,option,option,NOUN,True,False
for,for,for,for,ADP,True,True
residential,residential,residential,residential,ADJ,True,False
internet,internet,internet,internet,NOUN,True,False
access,access,access,access,NOUN,True,False
in,in,in,in,ADP,True,True
baltimore,baltimore,baltimore,baltimore,PROPN,True,False
however,however,however,however,ADV,True,True
",",",",",",",",PUNCT,False,False
cbrs,cbrs,cbr,cbr,NOUN,True,False
have,have,have,have,AUX,True,True
the,the,the,the,DET,True,True
potential,potential,potential,potential,NOUN,True,False
to,to,to,to,PART,True,True
change,change,change,change,VERB,True,False
this,this,this,this,DET,True,True
.,.,.,.,PUNCT,False,False
currently,currently,currently,currently,ADV,True,False
",",",",",",",",PUNCT,False,False
the,the,the,the,DET,True,True
unlicensed,unlicensed,unlicensed,unlicensed,ADJ,True,False
band,band,band,band,NOUN,True,False
use,use,use,use,NOUN,True,False
by,by,by,by,ADP,True,True
local,local,local,local,ADJ,True,False
wisp,wisp,wisp,wisp,NOUN,True,False
be,be,be,be,AUX,True,True
subject,subject,subject,subject,ADJ,True,False
to,to,to,to,ADP,True,True
so,so,so,so,ADV,True,True
much,much,much,much,ADJ,True,True
interference,interference,interference,interference,NOUN,True,False
that,that,that,that,SCONJ,True,True
they,they,-PRON-,-pron-,PRON,True,True
have,have,have,have,AUX,True,True
essentially,essentially,essentially,essentially,ADV,True,False
be,be,be,be,AUX,True,True
render,render,render,render,NOUN,True,False
unusable,unusable,unusable,unusable,ADJ,True,False
.,.,.,.,PUNCT,False,False
if,if,if,if,SCONJ,True,True
the,the,the,the,DET,True,True
fcc,fcc,fcc,fcc,PROPN,True,False
choose,choose,choose,choose,VERB,True,False
to,to,to,to,PART,True,True
keep,keep,keep,keep,VERB,True,True
the,the,the,the,DET,True,True
rule,rule,rule,rule,NOUN,True,False
for,for,for,for,ADP,True,True
pal,pal,pal,pal,NOUN,True,False
as,as,as,as,SCONJ,True,True
they,they,-PRON-,-pron-,PRON,True,True
currently,currently,currently,currently,ADV,True,False
stand,stand,stand,stand,VERB,True,False
",",",",",",",",PUNCT,False,False
small,small,small,small,ADJ,True,False
",",",",",",",",PUNCT,False,False
innovative,innovative,innovative,innovative,ADJ,True,False
company,company,company,company,NOUN,True,False
such,such,such,such,ADJ,True,True
as,as,as,as,SCONJ,True,True
quantum,quantum,quantum,quantum,NOUN,True,False
will,will,will,will,VERB,True,True
be,be,be,be,AUX,True,True
able,able,able,able,ADJ,True,False
to,to,to,to,PART,True,True
afford,afford,afford,afford,VERB,True,False
to,to,to,to,PART,True,True
obtain,obtain,obtain,obtain,VERB,True,False
the,the,the,the,DET,True,True
spectrum,spectrum,spectrum,spectrum,NOUN,True,False
we,we,-PRON-,-pron-,PRON,True,True
need,need,need,need,VERB,True,False
to,to,to,to,PART,True,True
offer,offer,offer,offer,VERB,True,False
a,a,a,a,DET,True,True
high-,high-,high-,high-,ADJ,False,False
quality,quality,quality,quality,NOUN,True,False
",",",",",",",",PUNCT,False,False
yet,yet,yet,yet,CCONJ,True,True
low,low,low,low,ADJ,True,False
-cost,-cost,-cost,-cost,ADJ,False,False
",",",",",",",",PUNCT,False,False
internet,internet,internet,internet,NOUN,True,False
access,access,access,access,NOUN,True,False
service,service,service,service,NOUN,True,False
to,to,to,to,ADP,True,True
the,the,the,the,DET,True,True
citizen,citizen,citizen,citizen,NOUN,True,False
of,of,of,of,ADP,True,True
baltimore,baltimore,baltimore,baltimore,PROPN,True,False
city,city,city,city,PROPN,True,False
.,.,.,.,PUNCT,False,False
we,we,-PRON-,-pron-,PRON,True,True
be,be,be,be,VERB,True,True
very,very,very,very,ADV,True,True
much,much,much,much,ADV,True,True
opposed,opposed,opposed,opposed,ADJ,True,False
to,to,to,to,ADP,True,True
the,the,the,the,DET,True,True
change,change,change,change,NOUN,True,False
propose,propose,propose,propose,NOUN,True,False
by,by,by,by,ADP,True,True
ctia,ctia,ctia,ctia,PROPN,True,False
and,and,and,and,CCONJ,True,True
t,t,t,t,PROPN,True,False
-,-,-,-,PUNCT,False,False
mobile,mobile,mobile,mobile,NOUN,True,False
.,.,.,.,PUNCT,False,False
cbrs,cbrs,cbr,cbr,NOUN,True,False
be,be,be,be,VERB,True,True
suppose,suppose,suppose,suppose,VERB,True,False
to,to,to,to,PART,True,True
be,be,be,be,AUX,True,True
the,the,the,the,DET,True,True
innovation,innovation,innovation,innovation,NOUN,True,False
band,band,band,band,NOUN,True,False
.,.,.,.,PUNCT,False,False
by,by,by,by,ADP,True,True
propose,propose,propose,propose,ADJ,True,False
long,long,long,long,ADJ,True,False
-,-,-,-,PUNCT,False,False
term,term,term,term,NOUN,True,False
lease,lease,lease,lease,NOUN,True,False
for,for,for,for,ADP,True,True
large,large,large,large,ADJ,True,False
area,area,area,area,NOUN,True,False
",",",",",",",",PUNCT,False,False
ctia,ctia,ctia,ctia,PROPN,True,False
and,and,and,and,CCONJ,True,True
t,t,t,t,PROPN,True,False
-mobile,-mobile,-mobile,-mobile,PROPN,False,False
be,be,be,be,AUX,True,True
look,look,look,look,NOUN,True,False
to,to,to,to,PART,True,True
eliminate,eliminate,eliminate,eliminate,VERB,True,False
much,much,much,much,ADJ,True,True
of,of,of,of,ADP,True,True
the,the,the,the,DET,True,True
innovation,innovation,innovation,innovation,NOUN,True,False
that,that,that,that,DET,True,True
will,will,will,will,VERB,True,True
occur,occur,occur,occur,VERB,True,False
.,.,.,.,PUNCT,False,False
please,please,please,please,INTJ,True,True
protect,protect,protect,protect,VERB,True,False
this,this,this,this,DET,True,True
innovation,innovation,innovation,innovation,NOUN,True,False
by,by,by,by,ADP,True,True
reject,reject,reject,reject,VERB,True,False
their,their,-PRON-,-pron-,DET,True,True
petition,petition,petition,petition,NOUN,True,False
.,.,.,.,PUNCT,False,False
