text,text_lower,lemma,lemma_lower,part_of_speech,is_alphabet,is_stopword
comment,comment,comment,comment,NOUN,True,False
of,of,of,of,ADP,True,True
ericssonericsson,ericssonericsson,ericssonericsson,ericssonericsson,PROPN,True,False
submit,submit,submit,submit,VERB,True,False
these,these,these,these,DET,True,True
comment,comment,comment,comment,NOUN,True,False
in,in,in,in,ADP,True,True
response,response,response,response,NOUN,True,False
to,to,to,to,ADP,True,True
the,the,the,the,DET,True,True
public,public,public,public,ADJ,True,False
notice,notice,notice,notice,NOUN,True,False
seek,seek,seek,seek,VERB,True,False
comment,comment,comment,comment,NOUN,True,False
onpetitions,onpetitions,onpetition,onpetition,NOUN,True,False
for,for,for,for,ADP,True,True
rulemaking,rulemaking,rulemake,rulemake,VERB,True,False
file,file,file,file,NOUN,True,False
by,by,by,by,ADP,True,True
ctia,ctia,ctia,ctia,PROPN,True,False
and,and,and,and,CCONJ,True,True
t,t,t,t,PROPN,True,False
-,-,-,-,PUNCT,False,False
mobile,mobile,mobile,mobile,NOUN,True,False
request,request,request,request,NOUN,True,False
change,change,change,change,NOUN,True,False
to,to,to,to,ADP,True,True
the,the,the,the,DET,True,True
commissionscitizens,commissionscitizens,commissionscitizens,commissionscitizens,PROPN,True,False
broadband,broadband,broadband,broadband,PROPN,True,False
radio,radio,radio,radio,NOUN,True,False
service,service,service,service,NOUN,True,False
rule,rule,rule,rule,NOUN,True,False
for,for,for,for,ADP,True,True
the,the,the,the,DET,True,True
3550,3550,3550,3550,NUM,False,False
-,-,-,-,SYM,False,False
3700,3700,3700,3700,NUM,False,False
mhz,mhz,mhz,mhz,PROPN,True,False
3.5,3.5,3.5,3.5,NUM,False,False
ghz,ghz,ghz,ghz,PROPN,True,False
band,band,band,band,NOUN,True,False
.,.,.,.,PUNCT,False,False
ericssonhas,ericssonhas,ericssonhas,ericssonhas,PROPN,True,False
actively,actively,actively,actively,ADV,True,False
participate,participate,participate,participate,VERB,True,False
in,in,in,in,ADP,True,True
the,the,the,the,DET,True,True
commissions,commissions,commission,commission,NOUN,True,False
3.5,3.5,3.5,3.5,NUM,False,False
ghz,ghz,ghz,ghz,PROPN,True,False
proceeding,proceeding,proceeding,proceeding,NOUN,True,False
and,and,and,and,CCONJ,True,True
industrys,industrys,industrys,industrys,ADJ,True,False
cbrsdevelopment,cbrsdevelopment,cbrsdevelopment,cbrsdevelopment,NOUN,True,False
process,process,process,process,NOUN,True,False
to,to,to,to,PART,True,True
advance,advance,advance,advance,VERB,True,False
new,new,new,new,ADJ,True,False
opportunity,opportunity,opportunity,opportunity,NOUN,True,False
in,in,in,in,ADP,True,True
this,this,this,this,DET,True,True
band,band,band,band,NOUN,True,False
.,.,.,.,PUNCT,False,False
in,in,in,in,ADP,True,True
north,north,north,north,PROPN,True,False
america,america,america,america,PROPN,True,False
",",",",",",",",PUNCT,False,False
a,a,a,a,DET,True,True
fivefold,fivefold,fivefold,fivefold,ADJ,True,False
increase,increase,increase,increase,NOUN,True,False
in,in,in,in,ADP,True,True
datum,datum,datum,datum,ADJ,True,False
usage,usage,usage,usage,NOUN,True,False
be,be,be,be,AUX,True,True
expect,expect,expect,expect,ADJ,True,False
between,between,between,between,ADP,True,True
2016,2016,2016,2016,NUM,False,False
and,and,and,and,CCONJ,True,True
2022.to,2022.to,2022.to,2022.to,NUM,False,False
meet,meet,meet,meet,NOUN,True,False
this,this,this,this,DET,True,True
demand,demand,demand,demand,NOUN,True,False
",",",",",",",",PUNCT,False,False
cellular,cellular,cellular,cellular,ADJ,True,False
network,network,network,network,NOUN,True,False
be,be,be,be,AUX,True,True
evolve,evolve,evolve,evolve,ADJ,True,False
to,to,to,to,PART,True,True
deliver,deliver,deliver,deliver,VERB,True,False
enhance,enhance,enhance,enhance,VERB,True,False
mobile,mobile,mobile,mobile,ADJ,True,False
broadband,broadband,broadband,broadband,PROPN,True,False
andcommunication,andcommunication,andcommunication,andcommunication,NOUN,True,False
service,service,service,service,NOUN,True,False
with,with,with,with,ADP,True,True
high,high,high,high,ADJ,True,False
datum,datum,datum,datum,NOUN,True,False
throughput,throughput,throughput,throughput,NOUN,True,False
",",",",",",",",PUNCT,False,False
quality,quality,quality,quality,NOUN,True,False
of,of,of,of,ADP,True,True
service,service,service,service,NOUN,True,False
",",",",",",",",PUNCT,False,False
and,and,and,and,CCONJ,True,True
low,low,low,low,ADJ,True,False
latencyrequirement,latencyrequirement,latencyrequirement,latencyrequirement,NOUN,True,False
.,.,.,.,PUNCT,False,False
in,in,in,in,ADP,True,True
addition,addition,addition,addition,NOUN,True,False
",",",",",",",",PUNCT,False,False
network,network,network,network,NOUN,True,False
will,will,will,will,VERB,True,True
also,also,also,also,ADV,True,True
support,support,support,support,VERB,True,False
new,new,new,new,ADJ,True,False
internet,internet,internet,internet,NOUN,True,False
of,of,of,of,ADP,True,True
things,things,thing,thing,NOUN,True,False
iot,iot,iot,iot,PROPN,True,False
serviceswith,serviceswith,serviceswith,serviceswith,PROPN,True,False
robust,robust,robust,robust,ADJ,True,False
requirement,requirement,requirement,requirement,NOUN,True,False
on,on,on,on,ADP,True,True
characteristic,characteristic,characteristic,characteristic,ADJ,True,False
such,such,such,such,ADJ,True,True
as,as,as,as,SCONJ,True,True
scalability,scalability,scalability,scalability,NOUN,True,False
",",",",",",",",PUNCT,False,False
reliability,reliability,reliability,reliability,NOUN,True,False
",",",",",",",",PUNCT,False,False
availability,availability,availability,availability,NOUN,True,False
",",",",",",",",PUNCT,False,False
andlatency,andlatency,andlatency,andlatency,NOUN,True,False
.,.,.,.,PUNCT,False,False
these,these,these,these,DET,True,True
service,service,service,service,NOUN,True,False
be,be,be,be,AUX,True,True
design,design,design,design,NOUN,True,False
to,to,to,to,PART,True,True
support,support,support,support,VERB,True,False
new,new,new,new,ADJ,True,False
use,use,use,use,NOUN,True,False
case,case,case,case,NOUN,True,False
come,come,come,come,VERB,True,False
from,from,from,from,ADP,True,True
industry,industry,industry,industry,NOUN,True,False
such,such,such,such,ADJ,True,True
asautomotive,asautomotive,asautomotive,asautomotive,NOUN,True,False
",",",",",",",",PUNCT,False,False
manufacturing,manufacturing,manufacturing,manufacturing,NOUN,True,False
",",",",",",",",PUNCT,False,False
energy,energy,energy,energy,NOUN,True,False
and,and,and,and,CCONJ,True,True
utility,utility,utility,utility,NOUN,True,False
",",",",",",",",PUNCT,False,False
and,and,and,and,CCONJ,True,True
healthcare,healthcare,healthcare,healthcare,NOUN,True,False
.,.,.,.,PUNCT,False,False
with,with,with,with,ADP,True,True
cellular,cellular,cellular,cellular,ADJ,True,False
iot,iot,iot,iot,NOUN,True,False
connection,connection,connection,connection,NOUN,True,False
set,set,set,set,VERB,True,False
to,to,to,to,PART,True,True
increase,increase,increase,increase,VERB,True,False
by,by,by,by,ADP,True,True
more,more,more,more,ADJ,True,True
than,than,than,than,SCONJ,True,True
200,200,200,200,NUM,False,False
percentreache,percentreache,percentreache,percentreache,NOUN,True,False
213,213,213,213,NUM,False,False
million,million,million,million,NUM,True,False
by,by,by,by,ADP,True,True
2022,2022,2022,2022,NUM,False,False
",",",",",",",",PUNCT,False,False
and,and,and,and,CCONJ,True,True
account,account,account,account,VERB,True,False
for,for,for,for,ADP,True,True
over,over,over,over,ADP,True,True
30,30,30,30,NUM,False,False
percent,percent,percent,percent,NOUN,True,False
of,of,of,of,ADP,True,True
all,all,all,all,DET,True,True
cellular,cellular,cellular,cellular,ADJ,True,False
connectionsthe,connectionsthe,connectionsthe,connectionsthe,ADJ,True,False
need,need,need,need,NOUN,True,False
for,for,for,for,ADP,True,True
spectrum,spectrum,spectrum,spectrum,NOUN,True,False
",",",",",",",",PUNCT,False,False
particularly,particularly,particularly,particularly,ADV,True,False
mid,mid,mid,mid,ADJ,True,False
-,-,-,-,ADJ,False,False
band,band,band,band,NOUN,True,False
spectrum,spectrum,spectrum,spectrum,NOUN,True,False
",",",",",",",",PUNCT,False,False
be,be,be,be,AUX,True,True
crucial,crucial,crucial,crucial,ADJ,True,False
.,.,.,.,PUNCT,False,False
significant,significant,significant,significant,ADJ,True,False
rd,rd,rd,rd,PROPN,True,False
investment,investment,investment,investment,NOUN,True,False
be,be,be,be,AUX,True,True
be,be,be,be,AUX,True,True
make,make,make,make,VERB,True,True
to,to,to,to,PART,True,True
enable,enable,enable,enable,VERB,True,False
the,the,the,the,DET,True,True
industrial,industrial,industrial,industrial,ADJ,True,False
use,use,use,use,NOUN,True,False
case,case,case,case,NOUN,True,False
mention,mention,mention,mention,VERB,True,False
above,above,above,above,ADV,True,True
.,.,.,.,PUNCT,False,False
however,however,however,however,ADV,True,True
",",",",",",",",PUNCT,False,False
to,to,to,to,PART,True,True
realize,realize,realize,realize,VERB,True,False
the,the,the,the,DET,True,True
full,full,full,full,ADJ,True,True
potential,potential,potential,potential,NOUN,True,False
of,of,of,of,ADP,True,True
such,such,such,such,ADJ,True,True
technology,technology,technology,technology,NOUN,True,False
",",",",",",",",PUNCT,False,False
additional,additional,additional,additional,ADJ,True,False
spectrum,spectrum,spectrum,spectrum,NOUN,True,False
in,in,in,in,ADP,True,True
both,both,both,both,CCONJ,True,True
mid-,mid-,mid-,mid-,NOUN,False,False
and,and,and,and,CCONJ,True,True
high,high,high,high,ADJ,True,False
-,-,-,-,PUNCT,False,False
band,band,band,band,NOUN,True,False
be,be,be,be,AUX,True,True
need,need,nee,nee,VERB,True,False
.,.,.,.,PUNCT,False,False
a,a,a,a,DET,True,True
combination,combination,combination,combination,NOUN,True,False
of,of,of,of,ADP,True,True
spectrum,spectrum,spectrum,spectrum,NOUN,True,False
across,across,across,across,ADP,True,True
low,low,low,low,ADJ,True,False
",",",",",",",",PUNCT,False,False
mid,mid,mid,mid,ADJ,True,False
",",",",",",",",PUNCT,False,False
and,and,and,and,CCONJ,True,True
high,high,high,high,ADJ,True,False
band,band,band,band,NOUN,True,False
have,have,have,have,AUX,True,True
prove,prove,prove,prove,VERB,True,False
to,to,to,to,PART,True,True
be,be,be,be,AUX,True,True
a,a,a,a,DET,True,True
successful,successful,successful,successful,ADJ,True,False
formula,formula,formula,formula,NOUN,True,False
in,in,in,in,ADP,True,True
early,early,early,early,ADJ,True,False
generation,generation,generation,generation,NOUN,True,False
of,of,of,of,ADP,True,True
wireless,wireless,wireless,wireless,NOUN,True,False
technology,technology,technology,technology,NOUN,True,False
.,.,.,.,PUNCT,False,False
as,as,as,as,SCONJ,True,True
commissioner,commissioner,commissioner,commissioner,NOUN,True,False
orielly,orielly,orielly,orielly,ADV,True,False
state,state,state,state,NOUN,True,False
in,in,in,in,ADP,True,True
his,his,-PRON-,-pron-,DET,True,True
blog,blog,blog,blog,NOUN,True,False
",",",",",",",",PUNCT,False,False
next,next,next,next,ADJ,True,True
generation,generation,generation,generation,NOUN,True,False
wireless,wireless,wireless,wireless,NOUN,True,False
network,network,network,network,NOUN,True,False
will,will,will,will,VERB,True,True
require,require,require,require,VERB,True,False
high,high,high,high,ADJ,True,False
",",",",",",",",PUNCT,False,False
mid,mid,mid,mid,ADJ,True,False
and,and,and,and,CCONJ,True,True
low,low,low,low,ADJ,True,False
band,band,band,band,NOUN,True,False
spectrum,spectrum,spectrum,spectrum,NOUN,True,False
.,.,.,.,PUNCT,False,False
low,low,low,low,ADJ,True,False
-,-,-,-,PUNCT,False,False
band,band,band,band,NOUN,True,False
spectrum,spectrum,spectrum,spectrum,NOUN,True,False
be,be,be,be,AUX,True,True
well,well,well,well,ADV,True,True
suited,suited,suited,suited,ADJ,True,False
for,for,for,for,ADP,True,True
signal,signal,signal,signal,ADJ,True,False
range,range,range,range,NOUN,True,False
and,and,and,and,CCONJ,True,True
indoor,indoor,indoor,indoor,ADJ,True,False
penetration,penetration,penetration,penetration,NOUN,True,False
",",",",",",",",PUNCT,False,False
while,while,while,while,SCONJ,True,True
high,high,high,high,ADJ,True,False
frequency,frequency,frequency,frequency,NOUN,True,False
band,band,band,band,NOUN,True,False
",",",",",",",",PUNCT,False,False
like,like,like,like,SCONJ,True,False
those,those,those,those,DET,True,True
in,in,in,in,ADP,True,True
the,the,the,the,DET,True,True
millimeter,millimeter,millimeter,millimeter,NOUN,True,False
wave,wave,wave,wave,NOUN,True,False
",",",",",",",",PUNCT,False,False
be,be,be,be,AUX,True,True
well,well,well,well,ADV,True,True
suited,suited,suited,suited,ADJ,True,False
to,to,to,to,PART,True,True
support,support,support,support,VERB,True,False
high,high,high,high,ADJ,True,False
capacity,capacity,capacity,capacity,NOUN,True,False
",",",",",",",",PUNCT,False,False
but,but,but,but,CCONJ,True,True
with,with,with,with,ADP,True,True
a,a,a,a,DET,True,True
more,more,more,more,ADV,True,True
limited,limited,limited,limited,ADJ,True,False
range,range,range,range,NOUN,True,False
and,and,and,and,CCONJ,True,True
with,with,with,with,ADP,True,True
limited,limited,limited,limited,ADJ,True,False
indoor,indoor,indoor,indoor,ADJ,True,False
penetration,penetration,penetration,penetration,NOUN,True,False
.,.,.,.,PUNCT,False,False
mid,mid,mid,mid,ADJ,True,False
-,-,-,-,PROPN,False,False
band,band,band,band,NOUN,True,False
spectrum,spectrum,spectrum,spectrum,NOUN,True,False
provide,provide,provide,provide,VERB,True,False
a,a,a,a,DET,True,True
balance,balance,balance,balance,NOUN,True,False
of,of,of,of,ADP,True,True
these,these,these,these,DET,True,True
goal,goal,goal,goal,NOUN,True,False
signal,signal,signal,signal,PROPN,True,False
range,range,range,range,PROPN,True,False
",",",",",",",",PUNCT,False,False
indoor,indoor,indoor,indoor,ADJ,True,False
penetration,penetration,penetration,penetration,NOUN,True,False
",",",",",",",",PUNCT,False,False
and,and,and,and,CCONJ,True,True
capacity,capacity,capacity,capacity,NOUN,True,False
.,.,.,.,PUNCT,False,False
as,as,as,as,SCONJ,True,True
mid,mid,mid,mid,ADJ,True,False
-,-,-,-,NOUN,False,False
band,band,band,band,NOUN,True,False
spectrum,spectrum,spectrum,spectrum,NOUN,True,False
",",",",",",",",PUNCT,False,False
the,the,the,the,DET,True,True
3.5,3.5,3.5,3.5,NUM,False,False
ghz,ghz,ghz,ghz,PROPN,True,False
band,band,band,band,NOUN,True,False
offer,offer,offer,offer,VERB,True,False
great,great,great,great,ADJ,True,False
promise,promise,promise,promise,NOUN,True,False
for,for,for,for,ADP,True,True
small,small,small,small,ADJ,True,False
cell,cell,cell,cell,NOUN,True,False
deployment,deployment,deployment,deployment,NOUN,True,False
",",",",",",",",PUNCT,False,False
wide,wide,wide,wide,ADJ,True,False
area,area,area,area,NOUN,True,False
network,network,network,network,NOUN,True,False
",",",",",",",",PUNCT,False,False
and,and,and,and,CCONJ,True,True
next,next,next,next,ADJ,True,True
-,-,-,-,PUNCT,False,False
generation,generation,generation,generation,NOUN,True,False
service,service,service,service,NOUN,True,False
",",",",",",",",PUNCT,False,False
but,but,but,but,CCONJ,True,True
certain,certain,certain,certain,ADJ,True,False
cbrs,cbrs,cbr,cbr,NOUN,True,False
rule,rule,rule,rule,VERB,True,False
govern,govern,govern,govern,VERB,True,False
priority,priority,priority,priority,NOUN,True,False
access,access,access,access,NOUN,True,False
licenses,licenses,license,license,NOUN,True,False
pal,pal,pal,pal,NOUN,True,False
be,be,be,be,AUX,True,True
not,not,not,not,PART,True,True
tailor,tailor,tailor,tailor,NOUN,True,False
to,to,to,to,PART,True,True
advance,advance,advance,advance,VERB,True,False
innovation,innovation,innovation,innovation,NOUN,True,False
and,and,and,and,CCONJ,True,True
investment,investment,investment,investment,NOUN,True,False
.,.,.,.,PUNCT,False,False
in,in,in,in,ADP,True,True
particular,particular,particular,particular,ADJ,True,False
",",",",",",",",PUNCT,False,False
under,under,under,under,ADP,True,True
the,the,the,the,DET,True,True
current,current,current,current,ADJ,True,False
pal,pal,pal,pal,NOUN,True,False
framework,framework,framework,framework,NOUN,True,False
the,the,the,the,DET,True,True
commission,commission,commission,commission,NOUN,True,False
will,will,will,will,VERB,True,True
auction,auction,auction,auction,VERB,True,False
up,up,up,up,ADP,True,True
to,to,to,to,PART,True,True
"500,000","500,000","500,000","500,000",NUM,False,False
pal,pal,pal,pal,ADJ,True,False
license,license,license,license,NOUN,True,False
",",",",",",",",PUNCT,False,False
each,each,each,each,DET,True,True
of,of,of,of,ADP,True,True
which,which,which,which,DET,True,True
cover,cover,cover,cover,VERB,True,False
a,a,a,a,DET,True,True
census,census,census,census,NOUN,True,False
tract,tract,tract,tract,NOUN,True,False
area,area,area,area,NOUN,True,False
more,more,more,more,ADJ,True,True
than,than,than,than,SCONJ,True,True
"74,000","74,000","74,000","74,000",NUM,False,False
across,across,across,across,ADP,True,True
the,the,the,the,DET,True,True
country,country,country,country,NOUN,True,False
",",",",",",",",PUNCT,False,False
for,for,for,for,ADP,True,True
just,just,just,just,ADV,True,True
a,a,a,a,DET,True,True
three,three,three,three,NUM,True,True
-,-,-,-,PUNCT,False,False
year,year,year,year,NOUN,True,False
license,license,license,license,NOUN,True,False
term,term,term,term,NOUN,True,False
.,.,.,.,PUNCT,False,False
further,further,far,far,ADV,True,True
",",",",",",",",PUNCT,False,False
since,since,since,since,SCONJ,True,True
the,the,the,the,DET,True,True
commission,commission,commission,commission,NOUN,True,False
first,first,first,first,ADV,True,True
adopt,adopt,adopt,adopt,PROPN,True,False
rule,rule,rule,rule,NOUN,True,False
for,for,for,for,ADP,True,True
the,the,the,the,DET,True,True
3.5,3.5,3.5,3.5,NUM,False,False
ghz,ghz,ghz,ghz,PROPN,True,False
band,band,band,band,NOUN,True,False
in,in,in,in,ADP,True,True
2015,2015,2015,2015,NUM,False,False
",",",",",",",",PUNCT,False,False
the,the,the,the,DET,True,True
band,band,band,band,NOUN,True,False
have,have,have,have,AUX,True,True
become,become,become,become,VERB,True,True
increasingly,increasingly,increasingly,increasingly,ADV,True,False
important,important,important,important,ADJ,True,False
for,for,for,for,ADP,True,True
development,development,development,development,NOUN,True,False
and,and,and,and,CCONJ,True,True
deployment,deployment,deployment,deployment,NOUN,True,False
of,of,of,of,ADP,True,True
5,5,5,5,NUM,False,False
g,g,g,g,NOUN,True,False
service,service,service,service,NOUN,True,False
",",",",",",",",PUNCT,False,False
as,as,as,as,SCONJ,True,True
notedabove,notedabove,notedabove,notedabove,NOUN,True,False
",",",",",",",",PUNCT,False,False
across,across,across,across,ADP,True,True
the,the,the,the,DET,True,True
world,world,world,world,NOUN,True,False
.,.,.,.,PUNCT,False,False
the,the,the,the,DET,True,True
current,current,current,current,ADJ,True,False
cbrs,cbrs,cbr,cbr,NOUN,True,False
rule,rule,rule,rule,NOUN,True,False
be,be,be,be,AUX,True,True
overly,overly,overly,overly,ADV,True,False
restrictive,restrictive,restrictive,restrictive,ADJ,True,False
with,with,with,with,ADP,True,True
respect,respect,respect,respect,NOUN,True,False
to,to,to,to,PART,True,True
emissionlimit,emissionlimit,emissionlimit,emissionlimit,VERB,True,False
",",",",",",",",PUNCT,False,False
and,and,and,and,CCONJ,True,True
instead,instead,instead,instead,ADV,True,False
should,should,should,should,VERB,True,True
foster,foster,foster,foster,VERB,True,False
5,5,5,5,NUM,False,False
g,g,g,g,NOUN,True,False
opportunity,opportunity,opportunity,opportunity,NOUN,True,False
to,to,to,to,PART,True,True
advance,advance,advance,advance,VERB,True,False
u.s,u.s,u.s,u.s,PROPN,False,False
.,.,.,.,PROPN,False,False
leadership,leadership,leadership,leadership,NOUN,True,False
in,in,in,in,ADP,True,True
wireless,wireless,wireless,wireless,NOUN,True,False
.,.,.,.,PUNCT,False,False
for,for,for,for,ADP,True,True
these,these,these,these,DET,True,True
reason,reason,reason,reason,NOUN,True,False
",",",",",",",",PUNCT,False,False
the,the,the,the,DET,True,True
commission,commission,commission,commission,NOUN,True,False
should,should,should,should,VERB,True,True
make,make,make,make,VERB,True,True
target,target,target,target,NOUN,True,False
change,change,change,change,NOUN,True,False
to,to,to,to,ADP,True,True
the,the,the,the,DET,True,True
pal,pal,pal,pal,NOUN,True,False
frameworkin,frameworkin,frameworkin,frameworkin,VERB,True,False
the,the,the,the,DET,True,True
3.5,3.5,3.5,3.5,NUM,False,False
ghz,ghz,ghz,ghz,PROPN,True,False
band,band,band,band,NOUN,True,False
and,and,and,and,CCONJ,True,True
relax,relax,relax,relax,VERB,True,False
the,the,the,the,DET,True,True
emission,emission,emission,emission,NOUN,True,False
limit,limit,limit,limit,NOUN,True,False
for,for,for,for,ADP,True,True
citizens,citizens,citizen,citizen,NOUN,True,False
broadband,broadband,broadband,broadband,PROPN,True,False
service,service,service,service,NOUN,True,False
devicescbsds,devicescbsds,devicescbsds,devicescbsds,NOUN,True,False
to,to,to,to,PART,True,True
support,support,support,support,VERB,True,False
investment,investment,investment,investment,NOUN,True,False
",",",",",",",",PUNCT,False,False
innovation,innovation,innovation,innovation,NOUN,True,False
",",",",",",",",PUNCT,False,False
and,and,and,and,CCONJ,True,True
deployment,deployment,deployment,deployment,NOUN,True,False
of,of,of,of,ADP,True,True
5,5,5,5,NUM,False,False
g,g,g,g,PROPN,True,False
service,service,service,service,NOUN,True,False
in,in,in,in,ADP,True,True
the,the,the,the,DET,True,True
band,band,band,band,NOUN,True,False
.,.,.,.,PUNCT,False,False
specifically,specifically,specifically,specifically,ADV,True,False
",",",",",",",",PUNCT,False,False
the,the,the,the,DET,True,True
commission,commission,commission,commission,NOUN,True,False
shouldprovide,shouldprovide,shouldprovide,shouldprovide,NOUN,True,False
pal,pal,pal,pal,PROPN,True,False
a,a,a,a,DET,True,True
standard,standard,standard,standard,ADJ,True,False
",",",",",",",",PUNCT,False,False
ten,ten,ten,ten,NUM,True,True
-,-,-,-,PUNCT,False,False
year,year,year,year,NOUN,True,False
",",",",",",",",PUNCT,False,False
renewable,renewable,renewable,renewable,ADJ,True,False
license,license,license,license,NOUN,True,False
term,term,term,term,NOUN,True,False
to,to,to,to,PART,True,True
provide,provide,provide,provide,VERB,True,False
certainty,certainty,certainty,certainty,NOUN,True,False
require,require,require,require,VERB,True,False
to,to,to,to,PART,True,True
foster,foster,foster,foster,VERB,True,False
investmentmodify,investmentmodify,investmentmodify,investmentmodify,VERB,True,False
pal,pal,pal,pal,ADJ,True,False
license,license,license,license,NOUN,True,False
area,area,area,area,NOUN,True,False
to,to,to,to,PART,True,True
comprise,comprise,comprise,comprise,VERB,True,False
partial,partial,partial,partial,ADJ,True,False
economic,economic,economic,economic,ADJ,True,False
areas,areas,area,area,NOUN,True,False
pea,pea,pea,pea,ADJ,True,False
instead,instead,instead,instead,ADV,True,False
ofcensu,ofcensu,ofcensu,ofcensu,VERB,True,False
tract,tract,tract,tract,NOUN,True,False
to,to,to,to,PART,True,True
simplify,simplify,simplify,simplify,VERB,True,False
the,the,the,the,DET,True,True
licensing,licensing,licensing,licensing,NOUN,True,False
scheme,scheme,scheme,scheme,NOUN,True,False
and,and,and,and,CCONJ,True,True
reduce,reduce,reduce,reduce,VERB,True,False
interference,interference,interference,interference,NOUN,True,False
concern,concern,concern,concern,NOUN,True,False
eliminate,eliminate,eliminate,eliminate,VERB,True,False
the,the,the,the,DET,True,True
prohibition,prohibition,prohibition,prohibition,NOUN,True,False
on,on,on,on,ADP,True,True
partitioning,partitioning,partitioning,partitioning,NOUN,True,False
and,and,and,and,CCONJ,True,True
disaggregation,disaggregation,disaggregation,disaggregation,NOUN,True,False
of,of,of,of,ADP,True,True
palsat,palsat,palsat,palsat,VERB,True,False
the,the,the,the,DET,True,True
time,time,time,time,NOUN,True,False
of,of,of,of,ADP,True,True
relicensing,relicensing,relicensing,relicensing,NOUN,True,False
",",",",",",",",PUNCT,False,False
if,if,if,if,SCONJ,True,True
there,there,there,there,PRON,True,True
be,be,be,be,AUX,True,True
sufficient,sufficient,sufficient,sufficient,ADJ,True,False
interest,interest,interest,interest,NOUN,True,False
",",",",",",",",PUNCT,False,False
at,at,at,at,ADP,True,True
a,a,a,a,DET,True,True
minimum,minimum,minimum,minimum,ADJ,True,False
make,make,make,make,NOUN,True,True
available,available,available,available,ADJ,True,False
at,at,at,at,ADP,True,True
auction,auction,auction,auction,NOUN,True,False
the,the,the,the,DET,True,True
number,number,number,number,NOUN,True,False
of,of,of,of,ADP,True,True
currently,currently,currently,currently,ADV,True,False
license,license,license,license,NOUN,True,False
pal,pal,pal,pal,NOUN,True,False
for,for,for,for,ADP,True,True
each,each,each,each,DET,True,True
geographic,geographic,geographic,geographic,ADJ,True,False
area,area,area,area,NOUN,True,False
to,to,to,to,PART,True,True
ensure,ensure,ensure,ensure,VERB,True,False
that,that,that,that,SCONJ,True,True
pal,pal,pal,pal,ADJ,True,False
licensee,licensee,licensee,licensee,NOUN,True,False
can,can,can,can,VERB,True,True
continue,continue,continue,continue,VERB,True,False
to,to,to,to,PART,True,True
receive,receive,receive,receive,VERB,True,False
needed,needed,needed,needed,ADJ,True,False
interference,interference,interference,interference,NOUN,True,False
protectionpermit,protectionpermit,protectionpermit,protectionpermit,NOUN,True,False
bidding,bidding,bidding,bidding,NOUN,True,False
on,on,on,on,ADP,True,True
specific,specific,specific,specific,ADJ,True,False
pal,pal,pal,pal,ADJ,True,False
block,block,block,block,NOUN,True,False
to,to,to,to,PART,True,True
ensure,ensure,ensure,ensure,VERB,True,False
a,a,a,a,DET,True,True
stable,stable,stable,stable,ADJ,True,False
and,and,and,and,CCONJ,True,True
predictable,predictable,predictable,predictable,ADJ,True,False
spectrum,spectrum,spectrum,spectrum,NOUN,True,False
environmenteliminate,environmenteliminate,environmenteliminate,environmenteliminate,VERB,True,False
the,the,the,the,DET,True,True
requirement,requirement,requirement,requirement,NOUN,True,False
that,that,that,that,SCONJ,True,True
sas,sas,sas,sas,PROPN,True,False
administrators,administrators,administrator,administrator,NOUN,True,False
make,make,make,make,VERB,True,True
cbsd,cbsd,cbsd,cbsd,NOUN,True,False
registration,registration,registration,registration,NOUN,True,False
information,information,information,information,NOUN,True,False
public,public,public,public,ADJ,True,False
to,to,to,to,PART,True,True
reduce,reduce,reduce,reduce,VERB,True,False
security,security,security,security,NOUN,True,False
risk,risk,risk,risk,NOUN,True,False
and,and,and,and,CCONJ,True,True
to,to,to,to,PART,True,True
protect,protect,protect,protect,VERB,True,False
deployment,deployment,deployment,deployment,NOUN,True,False
information,information,information,information,NOUN,True,False
from,from,from,from,ADP,True,True
competitor,competitor,competitor,competitor,NOUN,True,False
andrelax,andrelax,andrelax,andrelax,ADP,True,False
the,the,the,the,DET,True,True
emission,emission,emission,emission,NOUN,True,False
limit,limit,limit,limit,NOUN,True,False
to,to,to,to,PART,True,True
permit,permit,permit,permit,VERB,True,False
wide,wide,wide,wide,ADJ,True,False
channelization,channelization,channelization,channelization,NOUN,True,False
to,to,to,to,PART,True,True
support,support,support,support,VERB,True,False
5,5,5,5,NUM,False,False
g,g,g,g,NOUN,True,False
service,service,service,service,NOUN,True,False
.,.,.,.,PUNCT,False,False
these,these,these,these,DET,True,True
target,target,target,target,VERB,True,False
",",",",",",",",PUNCT,False,False
limited,limited,limited,limited,ADJ,True,False
change,change,change,change,NOUN,True,False
can,can,can,can,VERB,True,True
be,be,be,be,AUX,True,True
make,make,make,make,VERB,True,True
quickly,quickly,quickly,quickly,ADV,True,False
to,to,to,to,PART,True,True
promote,promote,promote,promote,VERB,True,False
investment,investment,investment,investment,NOUN,True,False
andinnovation,andinnovation,andinnovation,andinnovation,NOUN,True,False
in,in,in,in,ADP,True,True
the,the,the,the,DET,True,True
3.5,3.5,3.5,3.5,NUM,False,False
ghz,ghz,ghz,ghz,PROPN,True,False
band,band,band,band,NOUN,True,False
without,without,without,without,ADP,True,True
delaying,delaying,delaying,delaying,NOUN,True,False
implementation,implementation,implementation,implementation,NOUN,True,False
of,of,of,of,ADP,True,True
the,the,the,the,DET,True,True
cbrs,cbrs,cbr,cbr,NOUN,True,False
regime,regime,regime,regime,NOUN,True,False
.,.,.,.,PUNCT,False,False
mid,mid,mid,mid,ADJ,True,False
-,-,-,-,NOUN,False,False
band,band,band,band,NOUN,True,False
spectrum,spectrum,spectrum,spectrum,NOUN,True,False
be,be,be,be,AUX,True,True
increasingly,increasingly,increasingly,increasingly,ADV,True,False
be,be,be,be,AUX,True,True
target,target,target,target,NOUN,True,False
for,for,for,for,ADP,True,True
5,5,5,5,NUM,False,False
g,g,g,g,NOUN,True,False
around,around,around,around,ADP,True,True
the,the,the,the,DET,True,True
worldmid,worldmid,worldmid,worldmid,ADJ,True,False
-,-,-,-,PUNCT,False,False
band,band,band,band,NOUN,True,False
spectrum,spectrum,spectrum,spectrum,NOUN,True,False
be,be,be,be,AUX,True,True
increasingly,increasingly,increasingly,increasingly,ADV,True,False
important,important,important,important,ADJ,True,False
in,in,in,in,ADP,True,True
the,the,the,the,DET,True,True
mix,mix,mix,mix,NOUN,True,False
of,of,of,of,ADP,True,True
spectrum,spectrum,spectrum,spectrum,NOUN,True,False
that,that,that,that,DET,True,True
should,should,should,should,VERB,True,True
beavailable,beavailable,beavailable,beavailable,VERB,True,False
for,for,for,for,ADP,True,True
5,5,5,5,NUM,False,False
g,g,g,g,NOUN,True,False
",",",",",",",",PUNCT,False,False
and,and,and,and,CCONJ,True,True
many,many,many,many,ADJ,True,True
nation,nation,nation,nation,NOUN,True,False
around,around,around,around,ADP,True,True
the,the,the,the,DET,True,True
globe,globe,globe,globe,NOUN,True,False
have,have,have,have,AUX,True,True
open,open,open,open,ADJ,True,False
proceeding,proceeding,proceeding,proceeding,NOUN,True,False
to,to,to,to,PART,True,True
make,make,make,make,VERB,True,True
3,3,3,3,NUM,False,False
ghz,ghz,ghz,ghz,PROPN,True,False
band,band,band,band,NOUN,True,False
spectrum,spectrum,spectrum,spectrum,NOUN,True,False
available,available,available,available,ADJ,True,False
for,for,for,for,ADP,True,True
5,5,5,5,NUM,False,False
g,g,g,g,NOUN,True,False
service,service,service,service,NOUN,True,False
.,.,.,.,PUNCT,False,False
for,for,for,for,ADP,True,True
example,example,example,example,NOUN,True,False
",",",",",",",",PUNCT,False,False
australia,australia,australia,australia,PROPN,True,False
",",",",",",",",PUNCT,False,False
china,china,china,china,PROPN,True,False
",",",",",",",",PUNCT,False,False
the,the,the,the,DET,True,True
european,european,european,european,PROPN,True,False
union,union,union,union,PROPN,True,False
",",",",",",",",PUNCT,False,False
ireland,ireland,ireland,ireland,PROPN,True,False
",",",",",",",",PUNCT,False,False
japan,japan,japan,japan,PROPN,True,False
",",",",",",",",PUNCT,False,False
russia,russia,russia,russia,PROPN,True,False
",",",",",",",",PUNCT,False,False
south,south,south,south,PROPN,True,False
korea,korea,korea,korea,PROPN,True,False
",",",",",",",",PUNCT,False,False
and,and,and,and,CCONJ,True,True
the,the,the,the,DET,True,True
united,united,united,united,PROPN,True,False
kingdom,kingdom,kingdom,kingdom,PROPN,True,False
have,have,have,have,AUX,True,True
all,all,all,all,DET,True,True
recently,recently,recently,recently,ADV,True,False
take,take,take,take,VERB,True,True
step,step,step,step,NOUN,True,False
tomake,tomake,tomake,tomake,NOUN,True,False
3,3,3,3,NUM,False,False
ghz,ghz,ghz,ghz,PROPN,True,False
spectrum,spectrum,spectrum,spectrum,NOUN,True,False
available,available,available,available,ADJ,True,False
for,for,for,for,ADP,True,True
5,5,5,5,NUM,False,False
g,g,g,g,NOUN,True,False
.,.,.,.,PUNCT,False,False
as,as,as,as,SCONJ,True,True
commissioner,commissioner,commissioner,commissioner,NOUN,True,False
orielly,orielly,orielly,orielly,ADV,True,False
recognize,recognize,recognize,recognize,VERB,True,False
",",",",",",",",PUNCT,False,False
in,in,in,in,ADP,True,True
the,the,the,the,DET,True,True
unitedstates,unitedstates,unitedstates,unitedstates,PROPN,True,False
the,the,the,the,DET,True,True
commission,commission,commission,commission,NOUN,True,False
have,have,have,have,AUX,True,True
make,make,make,make,VERB,True,True
progress,progress,progress,progress,NOUN,True,False
to,to,to,to,PART,True,True
make,make,make,make,VERB,True,True
high-,high-,high-,high-,NOUN,False,False
and,and,and,and,CCONJ,True,True
low,low,low,low,ADJ,True,False
-,-,-,-,PUNCT,False,False
band,band,band,band,NOUN,True,False
spectrum,spectrum,spectrum,spectrum,NOUN,True,False
available,available,available,available,ADJ,True,False
",",",",",",",",PUNCT,False,False
butmore,butmore,butmore,butmore,NOUN,True,False
attention,attention,attention,attention,NOUN,True,False
need,need,need,need,NOUN,True,False
to,to,to,to,PART,True,True
be,be,be,be,AUX,True,True
pay,pay,pay,pay,VERB,True,False
to,to,to,to,ADP,True,True
the,the,the,the,DET,True,True
mid,mid,mid,mid,NOUN,True,False
-,-,-,-,NOUN,False,False
band,band,band,band,NOUN,True,False
.,.,.,.,PUNCT,False,False
globally,globally,globally,globally,ADV,True,False
harmonized,harmonized,harmonize,harmonize,VERB,True,False
spectrum,spectrum,spectrum,spectrum,PROPN,True,False
remain,remain,remain,remain,VERB,True,False
integral,integral,integral,integral,ADJ,True,False
to,to,to,to,ADP,True,True
the,the,the,the,DET,True,True
continue,continue,continue,continue,VERB,True,False
growth,growth,growth,growth,NOUN,True,False
of,of,of,of,ADP,True,True
the,the,the,the,DET,True,True
mobileindustry,mobileindustry,mobileindustry,mobileindustry,NOUN,True,False
and,and,and,and,CCONJ,True,True
should,should,should,should,VERB,True,True
be,be,be,be,AUX,True,True
the,the,the,the,DET,True,True
touchstone,touchstone,touchstone,touchstone,NOUN,True,False
for,for,for,for,ADP,True,True
select,select,select,select,ADJ,True,False
spectrum,spectrum,spectrum,spectrum,NOUN,True,False
for,for,for,for,ADP,True,True
5,5,5,5,NUM,False,False
g,g,g,g,NOUN,True,False
",",",",",",",",PUNCT,False,False
because,because,because,because,SCONJ,True,True
globallyharmonized,globallyharmonized,globallyharmonized,globallyharmonized,ADJ,True,False
spectrum,spectrum,spectrum,spectrum,NOUN,True,False
allocation,allocation,allocation,allocation,NOUN,True,False
result,result,result,result,NOUN,True,False
in,in,in,in,ADP,True,True
a,a,a,a,DET,True,True
broad,broad,broad,broad,ADJ,True,False
ecosystem,ecosystem,ecosystem,ecosystem,NOUN,True,False
for,for,for,for,ADP,True,True
technology,technology,technology,technology,NOUN,True,False
",",",",",",",",PUNCT,False,False
equipment,equipment,equipment,equipment,NOUN,True,False
",",",",",",",",PUNCT,False,False
andengineere,andengineere,andengineere,andengineere,ADV,True,False
expertise,expertise,expertise,expertise,NOUN,True,False
",",",",",",",",PUNCT,False,False
lead,lead,lead,lead,VERB,True,False
to,to,to,to,ADP,True,True
economy,economy,economy,economy,NOUN,True,False
of,of,of,of,ADP,True,True
scale,scale,scale,scale,NOUN,True,False
",",",",",",",",PUNCT,False,False
low,low,low,low,ADJ,True,False
cost,cost,cost,cost,NOUN,True,False
for,for,for,for,ADP,True,True
deployment,deployment,deployment,deployment,NOUN,True,False
",",",",",",",",PUNCT,False,False
more,more,more,more,ADV,True,True
rapidroll,rapidroll,rapidroll,rapidroll,NOUN,True,False
-,-,-,-,PUNCT,False,False
out,out,out,out,NOUN,True,True
of,of,of,of,ADP,True,True
new,new,new,new,ADJ,True,False
service,service,service,service,NOUN,True,False
",",",",",",",",PUNCT,False,False
and,and,and,and,CCONJ,True,True
enhanced,enhanced,enhanced,enhanced,ADJ,True,False
competition,competition,competition,competition,NOUN,True,False
among,among,among,among,ADP,True,True
supplier,supplier,supplier,supplier,NOUN,True,False
to,to,to,to,ADP,True,True
the,the,the,the,DET,True,True
u.s,u.s,u.s,u.s,PROPN,False,False
.,.,.,.,PROPN,False,False
and,and,and,and,CCONJ,True,True
globalmarket,globalmarket,globalmarket,globalmarket,PROPN,True,False
.,.,.,.,PUNCT,False,False
the,the,the,the,DET,True,True
broad,broad,broad,broad,ADJ,True,False
ecosystem,ecosystem,ecosystem,ecosystem,PROPN,True,False
spur,spur,spur,spur,NOUN,True,False
innovation,innovation,innovation,innovation,NOUN,True,False
at,at,at,at,ADP,True,True
the,the,the,the,DET,True,True
application,application,application,application,NOUN,True,False
level,level,level,level,NOUN,True,False
and,and,and,and,CCONJ,True,True
create,create,create,create,VERB,True,False
a,a,a,a,DET,True,True
platformfor,platformfor,platformfor,platformfor,NOUN,True,False
transformation,transformation,transformation,transformation,NOUN,True,False
as,as,as,as,SCONJ,True,True
be,be,be,be,AUX,True,True
experience,experience,experience,experience,NOUN,True,False
currently,currently,currently,currently,ADV,True,False
thank,thank,thank,thank,VERB,True,False
to,to,to,to,ADP,True,True
the,the,the,the,DET,True,True
u.s,u.s,u.s,u.s,PROPN,False,False
leadership,leadership,leadership,leadership,NOUN,True,False
with,with,with,with,ADP,True,True
4,4,4,4,NUM,False,False
generation,generation,generation,generation,NOUN,True,False
wireless,wireless,wireless,wireless,NOUN,True,False
lte.the,lte.the,lte.the,lte.the,DET,False,False
3550,3550,3550,3550,NUM,False,False
-,-,-,-,SYM,False,False
3700,3700,3700,3700,NUM,False,False
mhz,mhz,mhz,mhz,PROPN,True,False
band,band,band,band,NOUN,True,False
have,have,have,have,AUX,True,True
a,a,a,a,DET,True,True
high,high,high,high,ADJ,True,False
degree,degree,degree,degree,NOUN,True,False
of,of,of,of,ADP,True,True
overlap,overlap,overlap,overlap,NOUN,True,False
with,with,with,with,ADP,True,True
5,5,5,5,NUM,False,False
g,g,g,g,NOUN,True,False
spectrum,spectrum,spectrum,spectrum,NOUN,True,False
development,development,development,development,NOUN,True,False
in,in,in,in,ADP,True,True
other,other,other,other,ADJ,True,True
country,country,country,country,NOUN,True,False
for,for,for,for,ADP,True,True
example,example,example,example,NOUN,True,False
",",",",",",",",PUNCT,False,False
the,the,the,the,DET,True,True
miit,miit,miit,miit,PROPN,True,False
in,in,in,in,ADP,True,True
china,china,china,china,PROPN,True,False
release,release,release,release,VERB,True,False
a,a,a,a,DET,True,True
public,public,public,public,ADJ,True,False
consultation,consultation,consultation,consultation,NOUN,True,False
in,in,in,in,ADP,True,True
june,june,june,june,PROPN,True,False
for,for,for,for,ADP,True,True
frequency,frequency,frequency,frequency,NOUN,True,False
planning,planning,planning,planning,NOUN,True,False
in,in,in,in,ADP,True,True
the,the,the,the,DET,True,True
3.3,3.3,3.3,3.3,NUM,False,False
-,-,-,-,SYM,False,False
3.6,3.6,3.6,3.6,NUM,False,False
ghz,ghz,ghz,ghz,NOUN,True,False
range,range,range,range,NOUN,True,False
",",",",",",",",PUNCT,False,False
and,and,and,and,CCONJ,True,True
effort,effort,effort,effort,NOUN,True,False
to,to,to,to,PART,True,True
harmonize,harmonize,harmonize,harmonize,VERB,True,False
the,the,the,the,DET,True,True
band,band,band,band,NOUN,True,False
globally,globally,globally,globally,ADV,True,False
with,with,with,with,ADP,True,True
licensing,licensing,licensing,licensing,NOUN,True,False
and,and,and,and,CCONJ,True,True
technical,technical,technical,technical,ADJ,True,False
rule,rule,rule,rule,NOUN,True,False
that,that,that,that,SCONJ,True,True
more,more,more,more,ADV,True,True
closely,closely,closely,closely,ADV,True,False
align,align,align,align,ADJ,True,False
with,with,with,with,ADP,True,True
those,those,those,those,DET,True,True
around,around,around,around,ADP,True,True
the,the,the,the,DET,True,True
world,world,world,world,NOUN,True,False
will,will,will,will,VERB,True,True
unlock,unlock,unlock,unlock,VERB,True,False
the,the,the,the,DET,True,True
full,full,full,full,ADJ,True,True
potential,potential,potential,potential,NOUN,True,False
for,for,for,for,ADP,True,True
the,the,the,the,DET,True,True
band,band,band,band,NOUN,True,False
.,.,.,.,PUNCT,False,False
ericsson,ericsson,ericsson,ericsson,PROPN,True,False
be,be,be,be,AUX,True,True
concern,concern,concern,concern,NOUN,True,False
that,that,that,that,SCONJ,True,True
the,the,the,the,DET,True,True
u.s,u.s,u.s,u.s,PROPN,False,False
.,.,.,.,PROPN,False,False
will,will,will,will,VERB,True,True
lag,lag,lag,lag,VERB,True,False
behind,behind,behind,behind,ADV,True,True
in,in,in,in,ADP,True,True
establish,establish,establish,establish,VERB,True,False
a,a,a,a,DET,True,True
strong,strong,strong,strong,ADJ,True,False
mid,mid,mid,mid,ADJ,True,False
-,-,-,-,ADJ,False,False
band,band,band,band,NOUN,True,False
spectrum,spectrum,spectrum,spectrum,NOUN,True,False
platform,platform,platform,platform,NOUN,True,False
for,for,for,for,ADP,True,True
5,5,5,5,NUM,False,False
g,g,g,g,NOUN,True,False
that,that,that,that,SCONJ,True,True
at,at,at,at,ADP,True,True
least,least,least,least,ADJ,True,True
include,include,include,include,VERB,True,False
cbrs,cbrs,cbr,cbr,NOUN,True,False
and,and,and,and,CCONJ,True,True
3.7,3.7,3.7,3.7,NUM,False,False
-,-,-,-,SYM,False,False
4.2,4.2,4.2,4.2,NUM,False,False
ghz,ghz,ghz,ghz,NOUN,True,False
",",",",",",",",PUNCT,False,False
and,and,and,and,CCONJ,True,True
for,for,for,for,ADP,True,True
that,that,that,that,DET,True,True
reason,reason,reason,reason,NOUN,True,False
",",",",",",",",PUNCT,False,False
as,as,as,as,SCONJ,True,True
describe,describe,describe,describe,ADV,True,False
below,below,below,below,ADV,True,True
",",",",",",",",PUNCT,False,False
we,we,-PRON-,-pron-,PRON,True,True
support,support,support,support,VERB,True,False
several,several,several,several,ADJ,True,True
of,of,of,of,ADP,True,True
the,the,the,the,DET,True,True
change,change,change,change,NOUN,True,False
propose,propose,propose,propose,NOUN,True,False
by,by,by,by,ADP,True,True
ctia,ctia,ctia,ctia,PROPN,True,False
and,and,and,and,CCONJ,True,True
t,t,t,t,PROPN,True,False
-,-,-,-,PUNCT,False,False
mobile,mobile,mobile,mobile,PROPN,True,False
to,to,to,to,ADP,True,True
the,the,the,the,DET,True,True
cbrs,cbrs,cbr,cbr,NOUN,True,False
band,band,band,band,NOUN,True,False
.,.,.,.,PUNCT,False,False
in,in,in,in,ADP,True,True
addition,addition,addition,addition,NOUN,True,False
",",",",",",",",PUNCT,False,False
the,the,the,the,DET,True,True
commission,commission,commission,commission,NOUN,True,False
should,should,should,should,VERB,True,True
carefully,carefully,carefully,carefully,ADV,True,False
consider,consider,consider,consider,VERB,True,False
the,the,the,the,DET,True,True
t,t,t,t,NOUN,True,False
-,-,-,-,PUNCT,False,False
mobile,mobile,mobile,mobile,NOUN,True,False
proposal,proposal,proposal,proposal,NOUN,True,False
to,to,to,to,PART,True,True
increase,increase,increase,increase,VERB,True,False
spectrum,spectrum,spectrum,spectrum,NOUN,True,False
available,available,available,available,ADJ,True,False
for,for,for,for,ADP,True,True
pal,pal,pal,pal,PROPN,True,False
usea,usea,usea,usea,PROPN,True,False
that,that,that,that,DET,True,True
could,could,could,could,VERB,True,True
serve,serve,serve,serve,VERB,True,False
to,to,to,to,PART,True,True
increase,increase,increase,increase,VERB,True,False
investment,investment,investment,investment,NOUN,True,False
attractiveness,attractiveness,attractiveness,attractiveness,NOUN,True,False
in,in,in,in,ADP,True,True
the,the,the,the,DET,True,True
bandwhile,bandwhile,bandwhile,bandwhile,NOUN,True,False
balance,balance,balance,balance,NOUN,True,False
the,the,the,the,DET,True,True
potential,potential,potential,potential,NOUN,True,False
for,for,for,for,ADP,True,True
delay,delay,delay,delay,NOUN,True,False
that,that,that,that,DET,True,True
change,change,change,change,VERB,True,False
to,to,to,to,ADP,True,True
the,the,the,the,DET,True,True
licensing,licensing,licensing,licensing,NOUN,True,False
framework,framework,framework,framework,NOUN,True,False
may,may,may,may,VERB,True,True
cause,cause,cause,cause,VERB,True,False
.,.,.,.,PUNCT,False,False
the,the,the,the,DET,True,True
establishment,establishment,establishment,establishment,NOUN,True,False
of,of,of,of,ADP,True,True
a,a,a,a,DET,True,True
strong,strong,strong,strong,ADJ,True,False
mid,mid,mid,mid,ADJ,True,False
-,-,-,-,ADJ,False,False
band,band,band,band,NOUN,True,False
spectrum,spectrum,spectrum,spectrum,NOUN,True,False
platform,platform,platform,platform,NOUN,True,False
for,for,for,for,ADP,True,True
5,5,5,5,NUM,False,False
g,g,g,g,NOUN,True,False
be,be,be,be,AUX,True,True
essential,essential,essential,essential,ADJ,True,False
to,to,to,to,PART,True,True
maintain,maintain,maintain,maintain,VERB,True,False
u.s,u.s,u.s,u.s,PROPN,False,False
.,.,.,.,PROPN,False,False
leadership,leadership,leadership,leadership,NOUN,True,False
in,in,in,in,ADP,True,True
wireless,wireless,wireless,wireless,NOUN,True,False
and,and,and,and,CCONJ,True,True
spur,spur,spur,spur,VERB,True,False
a,a,a,a,DET,True,True
new,new,new,new,ADJ,True,False
wave,wave,wave,wave,NOUN,True,False
of,of,of,of,ADP,True,True
innovation,innovation,innovation,innovation,NOUN,True,False
.,.,.,.,PUNCT,False,False
we,we,-PRON-,-pron-,PRON,True,True
be,be,be,be,VERB,True,True
committed,committed,commit,commit,VERB,True,False
to,to,to,to,PART,True,True
be,be,be,be,AUX,True,True
part,part,part,part,NOUN,True,True
of,of,of,of,ADP,True,True
the,the,the,the,DET,True,True
journey,journey,journey,journey,NOUN,True,False
and,and,and,and,CCONJ,True,True
look,look,look,look,VERB,True,False
forward,forward,forward,forward,ADV,True,False
to,to,to,to,ADP,True,True
the,the,the,the,DET,True,True
collaboration,collaboration,collaboration,collaboration,NOUN,True,False
.,.,.,.,PUNCT,False,False
ericsson,ericsson,ericsson,ericsson,PROPN,True,False
support,support,support,support,VERB,True,False
the,the,the,the,DET,True,True
commissions,commissions,commission,commission,NOUN,True,False
plan,plan,plan,plan,VERB,True,False
to,to,to,to,PART,True,True
initiate,initiate,initiate,initiate,VERB,True,False
an,an,an,an,DET,True,True
inquiry,inquiry,inquiry,inquiry,NOUN,True,False
into,into,into,into,ADP,True,True
mid,mid,mid,mid,ADJ,True,False
-,-,-,-,NOUN,False,False
band,band,band,band,NOUN,True,False
spectrum,spectrum,spectrum,spectrum,NOUN,True,False
for,for,for,for,ADP,True,True
flexible,flexible,flexible,flexible,ADJ,True,False
use,use,use,use,NOUN,True,False
",",",",",",",",PUNCT,False,False
and,and,and,and,CCONJ,True,True
in,in,in,in,ADP,True,True
the,the,the,the,DET,True,True
meantime,meantime,meantime,meantime,NOUN,True,False
the,the,the,the,DET,True,True
commission,commission,commission,commission,NOUN,True,False
should,should,should,should,VERB,True,True
also,also,also,also,ADV,True,True
make,make,make,make,VERB,True,True
target,target,target,target,NOUN,True,False
change,change,change,change,NOUN,True,False
to,to,to,to,ADP,True,True
the,the,the,the,DET,True,True
cbrs,cbrs,cbr,cbr,NOUN,True,False
framework,framework,framework,framework,NOUN,True,False
to,to,to,to,PART,True,True
ensure,ensure,ensure,ensure,VERB,True,False
that,that,that,that,SCONJ,True,True
the,the,the,the,DET,True,True
3.5,3.5,3.5,3.5,NUM,False,False
ghz,ghz,ghz,ghz,PROPN,True,False
band,band,band,band,NOUN,True,False
be,be,be,be,AUX,True,True
available,available,available,available,ADJ,True,False
in,in,in,in,ADP,True,True
the,the,the,the,DET,True,True
united,united,united,united,PROPN,True,False
states,states,states,states,PROPN,True,False
to,to,to,to,PART,True,True
support,support,support,support,VERB,True,False
5,5,5,5,NUM,False,False
g,g,g,g,NOUN,True,False
service,service,service,service,NOUN,True,False
.,.,.,.,PUNCT,False,False
target,target,target,target,VERB,True,False
change,change,change,change,NOUN,True,False
to,to,to,to,ADP,True,True
the,the,the,the,DET,True,True
pal,pal,pal,pal,ADJ,True,False
framework,framework,framework,framework,NOUN,True,False
will,will,will,will,VERB,True,True
increase,increase,increase,increase,VERB,True,False
investment,investment,investment,investment,NOUN,True,False
incentive,incentive,incentive,incentive,NOUN,True,False
and,and,and,and,CCONJ,True,True
facilitate,facilitate,facilitate,facilitate,VERB,True,False
5,5,5,5,NUM,False,False
g,g,g,g,NOUN,True,False
development,development,development,development,NOUN,True,False
in,in,in,in,ADP,True,True
the,the,the,the,DET,True,True
3.5,3.5,3.5,3.5,NUM,False,False
ghz,ghz,ghz,ghz,PROPN,True,False
bandincreasing,bandincreasing,bandincrease,bandincrease,VERB,True,False
pal,pal,pal,pal,ADJ,True,False
license,license,license,license,NOUN,True,False
term,term,term,term,NOUN,True,False
to,to,to,to,ADP,True,True
10-years,10-years,10-years,10-years,NUM,False,False
with,with,with,with,ADP,True,True
an,an,an,an,DET,True,True
expectation,expectation,expectation,expectation,NOUN,True,False
of,of,of,of,ADP,True,True
renewal,renewal,renewal,renewal,NOUN,True,False
will,will,will,will,VERB,True,True
provide,provide,provide,provide,VERB,True,False
certainty,certainty,certainty,certainty,NOUN,True,False
require,require,require,require,VERB,True,False
to,to,to,to,PART,True,True
invest,invest,invest,invest,VERB,True,False
in,in,in,in,ADP,True,True
the,the,the,the,DET,True,True
bandthe,bandthe,bandthe,bandthe,ADJ,True,False
current,current,current,current,ADJ,True,False
pal,pal,pal,pal,ADJ,True,False
licensing,licensing,licensing,licensing,NOUN,True,False
framework,framework,framework,framework,NOUN,True,False
",",",",",",",",PUNCT,False,False
which,which,which,which,DET,True,True
provide,provide,provide,provide,VERB,True,False
for,for,for,for,ADP,True,True
a,a,a,a,DET,True,True
three,three,three,three,NUM,True,True
-,-,-,-,PUNCT,False,False
year,year,year,year,NOUN,True,False
license,license,license,license,NOUN,True,False
term,term,term,term,NOUN,True,False
and,and,and,and,CCONJ,True,True
no,no,no,no,INTJ,True,True
right,right,right,right,NOUN,True,False
of,of,of,of,ADP,True,True
renewal,renewal,renewal,renewal,NOUN,True,False
",",",",",",",",PUNCT,False,False
create,create,create,create,VERB,True,False
the,the,the,the,DET,True,True
risk,risk,risk,risk,NOUN,True,False
that,that,that,that,SCONJ,True,True
pal,pal,pal,pal,ADJ,True,False
licensee,licensee,licensee,licensee,PROPN,True,False
will,will,will,will,VERB,True,True
face,face,face,face,VERB,True,False
strand,strand,strand,strand,ADJ,True,False
investment,investment,investment,investment,NOUN,True,False
",",",",",",",",PUNCT,False,False
will,will,will,will,VERB,True,True
likely,likely,likely,likely,ADV,True,False
diminish,diminish,diminish,diminish,VERB,True,False
interest,interest,interest,interest,NOUN,True,False
in,in,in,in,ADP,True,True
pals,pals,pal,pal,NOUN,True,False
",",",",",",",",PUNCT,False,False
and,and,and,and,CCONJ,True,True
may,may,may,may,VERB,True,True
undermine,undermine,undermine,undermine,VERB,True,False
the,the,the,the,DET,True,True
success,success,success,success,NOUN,True,False
of,of,of,of,ADP,True,True
the,the,the,the,DET,True,True
three,three,three,three,NUM,True,True
-,-,-,-,PUNCT,False,False
tiere,tiere,tiere,tiere,NOUN,True,False
sharing,sharing,sharing,sharing,NOUN,True,False
regime,regime,regime,regime,NOUN,True,False
.,.,.,.,PUNCT,False,False
while,while,while,while,SCONJ,True,True
a,a,a,a,DET,True,True
provider,provider,provider,provider,NOUN,True,False
can,can,can,can,VERB,True,True
obtain,obtain,obtain,obtain,VERB,True,False
an,an,an,an,DET,True,True
initial,initial,initial,initial,ADJ,True,False
six,six,six,six,NUM,True,True
-,-,-,-,PUNCT,False,False
year,year,year,year,NOUN,True,False
license,license,license,license,NOUN,True,False
term,term,term,term,NOUN,True,False
under,under,under,under,ADP,True,True
the,the,the,the,DET,True,True
exist,exist,exist,exist,ADJ,True,False
rule,rule,rule,rule,NOUN,True,False
",",",",",",",",PUNCT,False,False
six,six,six,six,NUM,True,True
year,year,year,year,NOUN,True,False
be,be,be,be,VERB,True,True
still,still,still,still,ADV,True,True
insufficient,insufficient,insufficient,insufficient,ADJ,True,False
to,to,to,to,PART,True,True
ensure,ensure,ensure,ensure,VERB,True,False
a,a,a,a,DET,True,True
return,return,return,return,NOUN,True,False
on,on,on,on,ADP,True,True
investment,investment,investment,investment,NOUN,True,False
.,.,.,.,PUNCT,False,False
the,the,the,the,DET,True,True
commissions,commissions,commission,commission,NOUN,True,False
explanation,explanation,explanation,explanation,NOUN,True,False
that,that,that,that,SCONJ,True,True
these,these,these,these,DET,True,True
concern,concern,concern,concern,NOUN,True,False
be,be,be,be,AUX,True,True
mitigate,mitigate,mitigate,mitigate,ADJ,True,False
because,because,because,because,SCONJ,True,True
pal,pal,pal,pal,ADJ,True,False
licensee,licensee,licensee,licensee,NOUN,True,False
can,can,can,can,VERB,True,True
switch,switch,switch,switch,VERB,True,False
to,to,to,to,ADP,True,True
the,the,the,the,DET,True,True
general,general,general,general,ADJ,True,False
authorized,authorized,authorize,authorize,VERB,True,False
access,access,access,access,NOUN,True,False
gaa,gaa,gaa,gaa,NOUN,True,False
tier,tier,tier,tier,NOUN,True,False
be,be,be,be,AUX,True,True
unpersuasive,unpersuasive,unpersuasive,unpersuasive,ADJ,True,False
.,.,.,.,PUNCT,False,False
presumably,presumably,presumably,presumably,ADV,True,False
",",",",",",",",PUNCT,False,False
a,a,a,a,DET,True,True
carrier,carrier,carrier,carrier,NOUN,True,False
that,that,that,that,DET,True,True
invest,invest,invest,invest,VERB,True,False
in,in,in,in,ADP,True,True
a,a,a,a,DET,True,True
pal,pal,pal,pal,NOUN,True,False
have,have,have,have,AUX,True,True
a,a,a,a,DET,True,True
business,business,business,business,NOUN,True,False
reason,reason,reason,reason,NOUN,True,False
to,to,to,to,PART,True,True
require,require,require,require,VERB,True,False
the,the,the,the,DET,True,True
interference,interference,interference,interference,NOUN,True,False
protection,protection,protection,protection,NOUN,True,False
and,and,and,and,CCONJ,True,True
certainty,certainty,certainty,certainty,NOUN,True,False
that,that,that,that,SCONJ,True,True
a,a,a,a,DET,True,True
pal,pal,pal,pal,NOUN,True,False
ensure,ensure,ensure,ensure,VERB,True,False
.,.,.,.,PUNCT,False,False
because,because,because,because,SCONJ,True,True
the,the,the,the,DET,True,True
gaa,gaa,gaa,gaa,NOUN,True,False
tier,tier,tier,tier,NOUN,True,False
can,can,can,can,VERB,True,True
offer,offer,offer,offer,VERB,True,False
no,no,no,no,DET,True,True
such,such,such,such,ADJ,True,True
assurance,assurance,assurance,assurance,NOUN,True,False
",",",",",",",",PUNCT,False,False
the,the,the,the,DET,True,True
pal,pal,pal,pal,ADJ,True,False
licensee,licensee,licensee,licensee,NOUN,True,False
thus,thus,thus,thus,ADV,True,True
may,may,may,may,VERB,True,True
not,not,not,not,PART,True,True
have,have,have,have,AUX,True,True
access,access,access,access,NOUN,True,False
to,to,to,to,ADP,True,True
the,the,the,the,DET,True,True
spectrum,spectrum,spectrum,spectrum,NOUN,True,False
they,they,-PRON-,-pron-,PRON,True,True
rely,rely,rely,rely,VERB,True,False
on,on,on,on,ADP,True,True
.,.,.,.,PUNCT,False,False
the,the,the,the,DET,True,True
commission,commission,commission,commission,NOUN,True,False
should,should,should,should,VERB,True,True
amend,amend,amend,amend,VERB,True,False
the,the,the,the,DET,True,True
licensing,licensing,licensing,licensing,NOUN,True,False
rule,rule,rule,rule,NOUN,True,False
to,to,to,to,PART,True,True
provide,provide,provide,provide,VERB,True,False
for,for,for,for,ADP,True,True
a,a,a,a,DET,True,True
ten,ten,ten,ten,NUM,True,True
-,-,-,-,PUNCT,False,False
year,year,year,year,NOUN,True,False
license,license,license,license,NOUN,True,False
term,term,term,term,NOUN,True,False
with,with,with,with,ADP,True,True
an,an,an,an,DET,True,True
expectation,expectation,expectation,expectation,NOUN,True,False
of,of,of,of,ADP,True,True
renewal,renewal,renewal,renewal,NOUN,True,False
to,to,to,to,ADP,True,True
foster,foster,foster,foster,ADJ,True,False
investment,investment,investment,investment,NOUN,True,False
in,in,in,in,ADP,True,True
the,the,the,the,DET,True,True
3.5,3.5,3.5,3.5,NUM,False,False
ghz,ghz,ghz,ghz,PROPN,True,False
band,band,band,band,NOUN,True,False
.,.,.,.,PUNCT,False,False
modify,modify,modify,modify,VERB,True,False
pal,pal,pal,pal,PROPN,True,False
geographic,geographic,geographic,geographic,ADJ,True,False
areas,areas,area,area,NOUN,True,False
to,to,to,to,PART,True,True
consist,consist,consist,consist,VERB,True,False
of,of,of,of,ADP,True,True
pea,pea,pea,pea,NOUN,True,False
instead,instead,instead,instead,ADV,True,False
of,of,of,of,ADP,True,True
census,census,census,census,NOUN,True,False
tracts,tracts,tract,tract,NOUN,True,False
and,and,and,and,CCONJ,True,True
permitting,permitting,permit,permit,VERB,True,False
partitioning,partitioning,partitioning,partitioning,NOUN,True,False
and,and,and,and,CCONJ,True,True
disaggregation,disaggregation,disaggregation,disaggregation,NOUN,True,False
will,will,will,will,VERB,True,True
simplify,simplify,simplify,simplify,VERB,True,False
the,the,the,the,DET,True,True
licensing,licensing,licensing,licensing,NOUN,True,False
scheme,scheme,scheme,scheme,NOUN,True,False
and,and,and,and,CCONJ,True,True
reduce,reduce,reduce,reduce,VERB,True,False
interference,interference,interference,interference,NOUN,True,False
risksthe,risksthe,risksthe,risksthe,DET,True,False
current,current,current,current,ADJ,True,False
framework,framework,framework,framework,NOUN,True,False
provide,provide,provide,provide,VERB,True,False
for,for,for,for,ADP,True,True
pal,pal,pal,pal,ADJ,True,False
licensing,licensing,licensing,licensing,NOUN,True,False
on,on,on,on,ADP,True,True
a,a,a,a,DET,True,True
census,census,census,census,NOUN,True,False
tract,tract,tract,tract,NOUN,True,False
geographic,geographic,geographic,geographic,ADJ,True,False
basis,basis,basis,basis,NOUN,True,False
",",",",",",",",PUNCT,False,False
which,which,which,which,DET,True,True
could,could,could,could,VERB,True,True
lead,lead,lead,lead,VERB,True,False
to,to,to,to,ADP,True,True
an,an,an,an,DET,True,True
unmanageable,unmanageable,unmanageable,unmanageable,ADJ,True,False
auction,auction,auction,auction,NOUN,True,False
and,and,and,and,CCONJ,True,True
management,management,management,management,NOUN,True,False
of,of,of,of,ADP,True,True
"500,000","500,000","500,000","500,000",NUM,False,False
separate,separate,separate,separate,ADJ,True,False
pal,pal,pal,pal,ADJ,True,False
license,license,license,license,NOUN,True,False
.,.,.,.,PUNCT,False,False
the,the,the,the,DET,True,True
framework,framework,framework,framework,NOUN,True,False
be,be,be,be,AUX,True,True
overly,overly,overly,overly,ADV,True,False
complicate,complicate,complicate,complicate,VERB,True,False
",",",",",",",",PUNCT,False,False
will,will,will,will,VERB,True,True
create,create,create,create,VERB,True,False
administrative,administrative,administrative,administrative,ADJ,True,False
burden,burden,burden,burden,NOUN,True,False
for,for,for,for,ADP,True,True
the,the,the,the,DET,True,True
commission,commission,commission,commission,NOUN,True,False
and,and,and,and,CCONJ,True,True
licensee,licensee,licensee,licensee,PROPN,True,False
",",",",",",",",PUNCT,False,False
and,and,and,and,CCONJ,True,True
will,will,will,will,VERB,True,True
lead,lead,lead,lead,VERB,True,False
to,to,to,to,PART,True,True
increase,increase,increase,increase,VERB,True,False
interference,interference,interference,interference,NOUN,True,False
risk,risk,risk,risk,NOUN,True,False
between,between,between,between,ADP,True,True
adjacent,adjacent,adjacent,adjacent,ADJ,True,False
pal,pal,pal,pal,PROPN,True,False
.,.,.,.,PUNCT,False,False
the,the,the,the,DET,True,True
commission,commission,commission,commission,NOUN,True,False
instead,instead,instead,instead,ADV,True,False
should,should,should,should,VERB,True,True
authorize,authorize,authorize,authorize,VERB,True,False
pal,pal,pal,pal,NOUN,True,False
on,on,on,on,ADP,True,True
a,a,a,a,DET,True,True
pea,pea,pea,pea,ADJ,True,False
basis,basis,basis,basis,NOUN,True,False
",",",",",",",",PUNCT,False,False
of,of,of,of,ADP,True,True
which,which,which,which,DET,True,True
there,there,there,there,PRON,True,True
be,be,be,be,VERB,True,True
a,a,a,a,DET,True,True
manageable,manageable,manageable,manageable,ADJ,True,False
416,416,416,416,NUM,False,False
in,in,in,in,ADP,True,True
the,the,the,the,DET,True,True
united,united,united,united,PROPN,True,False
states,states,states,states,PROPN,True,False
.,.,.,.,PUNCT,False,False
the,the,the,the,DET,True,True
commissions,commissions,commission,commission,NOUN,True,False
state,state,state,state,NOUN,True,False
goal,goal,goal,goal,NOUN,True,False
in,in,in,in,ADP,True,True
craft,craft,craft,craft,PROPN,True,False
geographic,geographic,geographic,geographic,ADJ,True,False
license,license,license,license,NOUN,True,False
area,area,area,area,NOUN,True,False
in,in,in,in,ADP,True,True
the,the,the,the,DET,True,True
3.5,3.5,3.5,3.5,NUM,False,False
ghz,ghz,ghz,ghz,PROPN,True,False
band,band,band,band,NOUN,True,False
be,be,be,be,AUX,True,True
to,to,to,to,PART,True,True
promote,promote,promote,promote,VERB,True,False
intensive,intensive,intensive,intensive,ADJ,True,False
and,and,and,and,CCONJ,True,True
efficient,efficient,efficient,efficient,ADJ,True,False
use,use,use,use,NOUN,True,False
of,of,of,of,ADP,True,True
the,the,the,the,DET,True,True
spectrum,spectrum,spectrum,spectrum,NOUN,True,False
",",",",",",",",PUNCT,False,False
while,while,while,while,SCONJ,True,True
also,also,also,also,ADV,True,True
allow,allow,allow,allow,VERB,True,False
easy,easy,easy,easy,ADJ,True,False
aggregation,aggregation,aggregation,aggregation,NOUN,True,False
to,to,to,to,PART,True,True
accommodate,accommodate,accommodate,accommodate,VERB,True,False
a,a,a,a,DET,True,True
large,large,large,large,ADJ,True,False
network,network,network,network,NOUN,True,False
footprint,footprint,footprint,footprint,NOUN,True,False
.,.,.,.,PUNCT,False,False
modify,modify,modify,modify,VERB,True,False
the,the,the,the,DET,True,True
pal,pal,pal,pal,PROPN,True,False
license,license,license,license,NOUN,True,False
area,area,area,area,NOUN,True,False
to,to,to,to,ADP,True,True
pea,pea,pea,pea,PROPN,True,False
will,will,will,will,VERB,True,True
accomplish,accomplish,accomplish,accomplish,VERB,True,False
both,both,both,both,DET,True,True
of,of,of,of,ADP,True,True
these,these,these,these,DET,True,True
goal,goal,goal,goal,NOUN,True,False
.,.,.,.,PUNCT,False,False
and,and,and,and,CCONJ,True,True
while,while,while,while,SCONJ,True,True
the,the,the,the,DET,True,True
exist,exist,exist,exist,VERB,True,False
secondary,secondary,secondary,secondary,ADJ,True,False
market,market,market,market,NOUN,True,False
rule,rule,rule,rule,NOUN,True,False
already,already,already,already,ADV,True,True
allow,allow,allow,allow,VERB,True,False
pal,pal,pal,pal,ADJ,True,False
licensee,licensee,licensee,licensee,NOUN,True,False
to,to,to,to,PART,True,True
lease,lease,lease,lease,VERB,True,False
portion,portion,portion,portion,NOUN,True,False
of,of,of,of,ADP,True,True
their,their,-PRON-,-pron-,DET,True,True
spectrum,spectrum,spectrum,spectrum,NOUN,True,False
outside,outside,outside,outside,ADP,True,False
their,their,-PRON-,-pron-,DET,True,True
pal,pal,pal,pal,ADJ,True,False
protection,protection,protection,protection,NOUN,True,False
area,area,area,area,NOUN,True,False
and,and,and,and,CCONJ,True,True
provide,provide,provide,provide,VERB,True,False
gaa,gaa,gaa,gaa,NOUN,True,False
user,user,user,user,NOUN,True,False
access,access,access,access,NOUN,True,False
to,to,to,to,ADP,True,True
any,any,any,any,DET,True,True
pal,pal,pal,pal,ADJ,True,False
spectrum,spectrum,spectrum,spectrum,NOUN,True,False
not,not,not,not,PART,True,True
in,in,in,in,ADP,True,True
use,use,use,use,NOUN,True,False
",",",",",",",",PUNCT,False,False
the,the,the,the,DET,True,True
commission,commission,commission,commission,NOUN,True,False
should,should,should,should,VERB,True,True
also,also,also,also,ADV,True,True
revise,revise,revise,revise,VERB,True,False
its,its,-PRON-,-pron-,DET,True,True
rule,rule,rule,rule,NOUN,True,False
to,to,to,to,PART,True,True
allow,allow,allow,allow,VERB,True,False
for,for,for,for,ADP,True,True
partitioning,partitioning,partitioning,partitioning,NOUN,True,False
and,and,and,and,CCONJ,True,True
disaggregation,disaggregation,disaggregation,disaggregation,NOUN,True,False
in,in,in,in,ADP,True,True
secondary,secondary,secondary,secondary,ADJ,True,False
market,market,market,market,NOUN,True,False
transaction,transaction,transaction,transaction,NOUN,True,False
.,.,.,.,PUNCT,False,False
partitioning,partitioning,partitioning,partitioning,NOUN,True,False
and,and,and,and,CCONJ,True,True
disaggregation,disaggregation,disaggregation,disaggregation,NOUN,True,False
will,will,will,will,VERB,True,True
ensure,ensure,ensure,ensure,VERB,True,False
that,that,that,that,SCONJ,True,True
any,any,any,any,DET,True,True
unused,unused,unused,unused,ADJ,True,False
pal,pal,pal,pal,NOUN,True,False
spectrum,spectrum,spectrum,spectrum,NOUN,True,False
can,can,can,can,VERB,True,True
be,be,be,be,AUX,True,True
assign,assign,assign,assign,ADJ,True,False
on,on,on,on,ADP,True,True
a,a,a,a,DET,True,True
market,market,market,market,NOUN,True,False
-,-,-,-,PUNCT,False,False
orient,orient,orient,orient,NOUN,True,False
basis,basis,basis,basis,NOUN,True,False
to,to,to,to,ADP,True,True
other,other,other,other,ADJ,True,True
user,user,user,user,NOUN,True,False
who,who,who,who,PRON,True,True
desire,desire,desire,desire,VERB,True,False
access,access,access,access,NOUN,True,False
to,to,to,to,ADP,True,True
pals,pals,pal,pal,NOUN,True,False
on,on,on,on,ADP,True,True
a,a,a,a,DET,True,True
small,small,small,small,ADJ,True,False
geographic,geographic,geographic,geographic,ADJ,True,False
basis,basis,basis,basis,NOUN,True,False
and,and,and,and,CCONJ,True,True
will,will,will,will,VERB,True,True
further,further,further,further,ADV,True,True
ensure,ensure,ensure,ensure,VERB,True,False
against,against,against,against,ADP,True,True
concern,concern,concern,concern,NOUN,True,False
that,that,that,that,SCONJ,True,True
spectrum,spectrum,spectrum,spectrum,NOUN,True,False
will,will,will,will,VERB,True,True
lay,lay,lay,lay,VERB,True,False
fallow,fallow,fallow,fallow,ADJ,True,False
in,in,in,in,ADP,True,True
the,the,the,the,DET,True,True
band,band,band,band,NOUN,True,False
.,.,.,.,PUNCT,False,False
at,at,at,at,ADP,True,True
the,the,the,the,DET,True,True
time,time,time,time,NOUN,True,False
of,of,of,of,ADP,True,True
relicensing,relicensing,relicensing,relicensing,NOUN,True,False
",",",",",",",",PUNCT,False,False
if,if,if,if,SCONJ,True,True
there,there,there,there,PRON,True,True
be,be,be,be,AUX,True,True
sufficient,sufficient,sufficient,sufficient,ADJ,True,False
interest,interest,interest,interest,NOUN,True,False
",",",",",",",",PUNCT,False,False
at,at,at,at,ADP,True,True
a,a,a,a,DET,True,True
minimum,minimum,minimum,minimum,ADJ,True,False
make,make,make,make,NOUN,True,True
available,available,available,available,ADJ,True,False
at,at,at,at,ADP,True,True
auction,auction,auction,auction,NOUN,True,False
the,the,the,the,DET,True,True
number,number,number,number,NOUN,True,False
of,of,of,of,ADP,True,True
currently,currently,currently,currently,ADV,True,False
license,license,license,license,NOUN,True,False
pal,pal,pal,pal,NOUN,True,False
for,for,for,for,ADP,True,True
each,each,each,each,DET,True,True
geographic,geographic,geographic,geographic,ADJ,True,False
area,area,area,area,NOUN,True,False
to,to,to,to,PART,True,True
ensure,ensure,ensure,ensure,VERB,True,False
that,that,that,that,SCONJ,True,True
pal,pal,pal,pal,ADJ,True,False
licensee,licensee,licensee,licensee,NOUN,True,False
can,can,can,can,VERB,True,True
continue,continue,continue,continue,VERB,True,False
to,to,to,to,PART,True,True
receive,receive,receive,receive,VERB,True,False
needed,needed,need,need,VERB,True,False
interference,interference,interference,interference,NOUN,True,False
protectionthe,protectionthe,protectionthe,protectionthe,PROPN,True,False
commission,commission,commission,commission,NOUN,True,False
should,should,should,should,VERB,True,True
modify,modify,modify,modify,VERB,True,False
the,the,the,the,DET,True,True
pal,pal,pal,pal,NOUN,True,False
licensing,licensing,licensing,licensing,NOUN,True,False
framework,framework,framework,framework,NOUN,True,False
to,to,to,to,PART,True,True
make,make,make,make,VERB,True,True
available,available,available,available,ADJ,True,False
the,the,the,the,DET,True,True
same,same,same,same,ADJ,True,True
number,number,number,number,NOUN,True,False
of,of,of,of,ADP,True,True
pals,pals,pal,pal,NOUN,True,False
as,as,as,as,SCONJ,True,True
apply,apply,apply,apply,VERB,True,False
for,for,for,for,ADP,True,True
in,in,in,in,ADP,True,True
a,a,a,a,DET,True,True
give,give,give,give,VERB,True,True
geographic,geographic,geographic,geographic,ADJ,True,False
area,area,area,area,NOUN,True,False
",",",",",",",",PUNCT,False,False
instead,instead,instead,instead,ADV,True,False
of,of,of,of,ADP,True,True
the,the,the,the,DET,True,True
current,current,current,current,ADJ,True,False
rule,rule,rule,rule,NOUN,True,False
require,require,require,require,VERB,True,False
the,the,the,the,DET,True,True
commission,commission,commission,commission,NOUN,True,False
to,to,to,to,PART,True,True
make,make,make,make,VERB,True,True
one,one,one,one,NUM,True,True
less,less,less,less,ADJ,True,True
pal,pal,pal,pal,NOUN,True,False
available,available,available,available,ADJ,True,False
than,than,than,than,SCONJ,True,True
apply,apply,apply,apply,VERB,True,False
for,for,for,for,ADP,True,True
.,.,.,.,PUNCT,False,False
modify,modify,modify,modify,VERB,True,False
this,this,this,this,DET,True,True
rule,rule,rule,rule,NOUN,True,False
would,would,would,would,VERB,True,True
ensure,ensure,ensure,ensure,VERB,True,False
that,that,that,that,SCONJ,True,True
party,party,party,party,NOUN,True,False
seek,seek,seek,seek,VERB,True,False
interference,interference,interference,interference,NOUN,True,False
protection,protection,protection,protection,NOUN,True,False
and,and,and,and,CCONJ,True,True
certainty,certainty,certainty,certainty,NOUN,True,False
regard,regard,regard,regard,NOUN,True,False
access,access,access,access,NOUN,True,False
to,to,to,to,ADP,True,True
3.5,3.5,3.5,3.5,NUM,False,False
ghz,ghz,ghz,ghz,NOUN,True,False
spectrum,spectrum,spectrum,spectrum,NOUN,True,False
can,can,can,can,VERB,True,True
obtain,obtain,obtain,obtain,VERB,True,False
pal,pal,pal,pal,NOUN,True,False
",",",",",",",",PUNCT,False,False
even,even,even,even,ADV,True,True
if,if,if,if,SCONJ,True,True
no,no,no,no,DET,True,True
other,other,other,other,ADJ,True,True
applicant,applicant,applicant,applicant,NOUN,True,False
apply,apply,apply,apply,VERB,True,False
for,for,for,for,ADP,True,True
pal,pal,pal,pal,NOUN,True,False
in,in,in,in,ADP,True,True
a,a,a,a,DET,True,True
give,give,give,give,ADJ,True,True
area,area,area,area,NOUN,True,False
.,.,.,.,PUNCT,False,False
additionally,additionally,additionally,additionally,ADV,True,False
",",",",",",",",PUNCT,False,False
in,in,in,in,ADP,True,True
the,the,the,the,DET,True,True
event,event,event,event,NOUN,True,False
the,the,the,the,DET,True,True
commission,commission,commission,commission,NOUN,True,False
do,do,do,do,AUX,True,True
not,not,not,not,PART,True,True
modify,modify,modify,modify,VERB,True,False
its,its,-PRON-,-pron-,DET,True,True
rule,rule,rule,rule,NOUN,True,False
to,to,to,to,PART,True,True
provide,provide,provide,provide,VERB,True,False
a,a,a,a,DET,True,True
renewal,renewal,renewal,renewal,NOUN,True,False
expectancy,expectancy,expectancy,expectancy,NOUN,True,False
for,for,for,for,ADP,True,True
pals,pals,pal,pal,NOUN,True,False
",",",",",",",",PUNCT,False,False
the,the,the,the,DET,True,True
current,current,current,current,ADJ,True,False
framework,framework,framework,framework,NOUN,True,False
would,would,would,would,VERB,True,True
risk,risk,risk,risk,VERB,True,False
phase,phase,phase,phase,NOUN,True,False
out,out,out,out,ADP,True,True
pal,pal,pal,pal,NOUN,True,False
with,with,with,with,ADP,True,True
each,each,each,each,DET,True,True
subsequentauction,subsequentauction,subsequentauction,subsequentauction,NOUN,True,False
.,.,.,.,PUNCT,False,False
for,for,for,for,ADP,True,True
example,example,example,example,NOUN,True,False
",",",",",",",",PUNCT,False,False
if,if,if,if,SCONJ,True,True
two,two,two,two,NUM,True,True
pal,pal,pal,pal,ADJ,True,False
licensee,licensee,licensee,licensee,NOUN,True,False
hold,hold,hold,hold,VERB,True,False
a,a,a,a,DET,True,True
total,total,total,total,NOUN,True,False
of,of,of,of,ADP,True,True
seven,seven,seven,seven,NUM,True,False
pal,pal,pal,pal,NOUN,True,False
in,in,in,in,ADP,True,True
a,a,a,a,DET,True,True
geographic,geographic,geographic,geographic,ADJ,True,False
area,area,area,area,NOUN,True,False
and,and,and,and,CCONJ,True,True
both,both,both,both,DET,True,True
apply,apply,apply,apply,VERB,True,False
for,for,for,for,ADP,True,True
the,the,the,the,DET,True,True
same,same,same,same,ADJ,True,True
number,number,number,number,NOUN,True,False
of,of,of,of,ADP,True,True
pal,pal,pal,pal,NOUN,True,False
that,that,that,that,SCONJ,True,True
they,they,-PRON-,-pron-,PRON,True,True
currently,currently,currently,currently,ADV,True,False
hold,hold,hold,hold,VERB,True,False
",",",",",",",",PUNCT,False,False
only,only,only,only,ADV,True,True
six,six,six,six,NUM,True,True
pal,pal,pal,pal,NOUN,True,False
would,would,would,would,VERB,True,True
be,be,be,be,AUX,True,True
award,award,award,award,NOUN,True,False
in,in,in,in,ADP,True,True
the,the,the,the,DET,True,True
auction,auction,auction,auction,NOUN,True,False
and,and,and,and,CCONJ,True,True
one,one,one,one,NUM,True,True
licensee,licensee,licensee,licensee,NOUN,True,False
would,would,would,would,VERB,True,True
have,have,have,have,AUX,True,True
less,less,less,less,ADJ,True,True
access,access,access,access,NOUN,True,False
to,to,to,to,ADP,True,True
pal,pal,pal,pal,ADJ,True,False
spectrum,spectrum,spectrum,spectrum,NOUN,True,False
than,than,than,than,SCONJ,True,True
it,it,-PRON-,-pron-,PRON,True,True
do,do,do,do,AUX,True,True
before,before,before,before,ADP,True,True
the,the,the,the,DET,True,True
auction,auction,auction,auction,NOUN,True,False
.,.,.,.,PUNCT,False,False
the,the,the,the,DET,True,True
commission,commission,commission,commission,NOUN,True,False
can,can,can,can,VERB,True,True
prevent,prevent,prevent,prevent,VERB,True,False
this,this,this,this,DET,True,True
illogical,illogical,illogical,illogical,ADJ,True,False
result,result,result,result,NOUN,True,False
by,by,by,by,ADP,True,True
make,make,make,make,NOUN,True,True
available,available,available,available,ADJ,True,False
the,the,the,the,DET,True,True
same,same,same,same,ADJ,True,True
number,number,number,number,NOUN,True,False
of,of,of,of,ADP,True,True
pals,pals,pal,pal,NOUN,True,False
as,as,as,as,SCONJ,True,True
apply,apply,apply,apply,VERB,True,False
for,for,for,for,ADP,True,True
in,in,in,in,ADP,True,True
a,a,a,a,DET,True,True
give,give,give,give,ADJ,True,True
geographic,geographic,geographic,geographic,ADJ,True,False
license,license,license,license,NOUN,True,False
area,area,area,area,NOUN,True,False
.,.,.,.,PUNCT,False,False
permit,permit,permit,permit,PROPN,True,False
pal,pal,pal,pal,ADJ,True,False
applicant,applicant,applicant,applicant,NOUN,True,False
to,to,to,to,PART,True,True
bid,bid,bid,bid,VERB,True,False
on,on,on,on,ADP,True,True
specific,specific,specific,specific,ADJ,True,False
frequency,frequency,frequency,frequency,NOUN,True,False
block,block,block,block,NOUN,True,False
will,will,will,will,VERB,True,True
ensure,ensure,ensure,ensure,VERB,True,False
access,access,access,access,NOUN,True,False
to,to,to,to,ADP,True,True
a,a,a,a,DET,True,True
stable,stable,stable,stable,ADJ,True,False
and,and,and,and,CCONJ,True,True
predictable,predictable,predictable,predictable,ADJ,True,False
frequency,frequency,frequency,frequency,NOUN,True,False
environmentthe,environmentthe,environmentthe,environmentthe,PROPN,True,False
3.5,3.5,3.5,3.5,NUM,False,False
ghz,ghz,ghz,ghz,PROPN,True,False
framework,framework,framework,framework,NOUN,True,False
provide,provide,provide,provide,VERB,True,False
that,that,that,that,SCONJ,True,True
pal,pal,pal,pal,ADJ,True,False
licensee,licensee,licensee,licensee,NOUN,True,False
will,will,will,will,VERB,True,True
obtain,obtain,obtain,obtain,VERB,True,False
right,right,right,right,ADV,True,False
to,to,to,to,ADP,True,True
a,a,a,a,DET,True,True
certain,certain,certain,certain,ADJ,True,False
amount,amount,amount,amount,NOUN,True,True
of,of,of,of,ADP,True,True
spectrum,spectrum,spectrum,spectrum,NOUN,True,False
in,in,in,in,ADP,True,True
the,the,the,the,DET,True,True
band,band,band,band,NOUN,True,False
",",",",",",",",PUNCT,False,False
but,but,but,but,CCONJ,True,True
not,not,not,not,PART,True,True
particular,particular,particular,particular,ADJ,True,False
frequency,frequency,frequency,frequency,NOUN,True,False
within,within,within,within,ADP,True,True
the,the,the,the,DET,True,True
band,band,band,band,NOUN,True,False
.,.,.,.,PUNCT,False,False
a,a,a,a,DET,True,True
spectrum,spectrum,spectrum,spectrum,PROPN,True,False
access,access,access,access,NOUN,True,False
system,system,system,system,NOUN,True,False
sas,sas,sas,sas,PROPN,True,False
administrator,administrator,administrator,administrator,NOUN,True,False
will,will,will,will,VERB,True,True
then,then,then,then,ADV,True,True
assign,assign,assign,assign,VERB,True,False
pal,pal,pal,pal,NOUN,True,False
licensee,licensee,licensee,licensee,VERB,True,False
particular,particular,particular,particular,ADJ,True,False
frequency,frequency,frequency,frequency,NOUN,True,False
within,within,within,within,ADP,True,True
the,the,the,the,DET,True,True
band,band,band,band,NOUN,True,False
consistent,consistent,consistent,consistent,ADJ,True,False
with,with,with,with,ADP,True,True
the,the,the,the,DET,True,True
amount,amount,amount,amount,NOUN,True,True
of,of,of,of,ADP,True,True
spectrum,spectrum,spectrum,spectrum,NOUN,True,False
for,for,for,for,ADP,True,True
which,which,which,which,DET,True,True
the,the,the,the,DET,True,True
entity,entity,entity,entity,NOUN,True,False
be,be,be,be,VERB,True,True
license,license,license,license,NOUN,True,False
.,.,.,.,PUNCT,False,False
however,however,however,however,ADV,True,True
",",",",",",",",PUNCT,False,False
carrier,carrier,carrier,carrier,NOUN,True,False
require,require,require,require,VERB,True,False
access,access,access,access,NOUN,True,False
to,to,to,to,ADP,True,True
a,a,a,a,DET,True,True
stable,stable,stable,stable,ADJ,True,False
and,and,and,and,CCONJ,True,True
predictable,predictable,predictable,predictable,ADJ,True,False
spectrum,spectrum,spectrum,spectrum,NOUN,True,False
environment,environment,environment,environment,NOUN,True,False
to,to,to,to,PART,True,True
plan,plan,plan,plan,VERB,True,False
network,network,network,network,NOUN,True,False
deployment,deployment,deployment,deployment,NOUN,True,False
",",",",",",",",PUNCT,False,False
which,which,which,which,DET,True,True
be,be,be,be,VERB,True,True
not,not,not,not,PART,True,True
support,support,support,support,NOUN,True,False
by,by,by,by,ADP,True,True
the,the,the,the,DET,True,True
current,current,current,current,ADJ,True,False
framework,framework,framework,framework,NOUN,True,False
.,.,.,.,PUNCT,False,False
the,the,the,the,DET,True,True
commission,commission,commission,commission,NOUN,True,False
should,should,should,should,VERB,True,True
not,not,not,not,PART,True,True
deviate,deviate,deviate,deviate,VERB,True,False
in,in,in,in,ADP,True,True
the,the,the,the,DET,True,True
3.5,3.5,3.5,3.5,NUM,False,False
ghz,ghz,ghz,ghz,PROPN,True,False
band,band,band,band,NOUN,True,False
from,from,from,from,ADP,True,True
its,its,-PRON-,-pron-,DET,True,True
usual,usual,usual,usual,ADJ,True,False
practice,practice,practice,practice,NOUN,True,False
of,of,of,of,ADP,True,True
assigning,assigning,assigning,assigning,NOUN,True,False
access,access,access,access,NOUN,True,False
to,to,to,to,ADP,True,True
specific,specific,specific,specific,ADJ,True,False
spectrum,spectrum,spectrum,spectrum,NOUN,True,False
block,block,block,block,NOUN,True,False
along,along,along,along,ADP,True,True
with,with,with,with,ADP,True,True
spectrum,spectrum,spectrum,spectrum,PROPN,True,False
access,access,access,access,NOUN,True,False
right,right,right,right,ADV,True,False
.,.,.,.,PUNCT,False,False
eliminate,eliminate,eliminate,eliminate,VERB,True,False
the,the,the,the,DET,True,True
sas,sas,sas,sas,PROPN,True,False
requirement,requirement,requirement,requirement,NOUN,True,False
to,to,to,to,PART,True,True
make,make,make,make,VERB,True,True
cbsd,cbsd,cbsd,cbsd,NOUN,True,False
registration,registration,registration,registration,NOUN,True,False
information,information,information,information,NOUN,True,False
public,public,public,public,NOUN,True,False
will,will,will,will,VERB,True,True
reduce,reduce,reduce,reduce,VERB,True,False
security,security,security,security,NOUN,True,False
risk,risk,risk,risk,NOUN,True,False
and,and,and,and,CCONJ,True,True
protect,protect,protect,protect,VERB,True,False
competitively,competitively,competitively,competitively,ADV,True,False
sensitive,sensitive,sensitive,sensitive,ADJ,True,False
deployment,deployment,deployment,deployment,NOUN,True,False
informationsas,informationsas,informationsas,informationsas,PROPN,True,False
administrator,administrator,administrator,administrator,NOUN,True,False
should,should,should,should,VERB,True,True
not,not,not,not,PART,True,True
be,be,be,be,AUX,True,True
require,require,require,require,ADJ,True,False
",",",",",",",",PUNCT,False,False
or,or,or,or,CCONJ,True,True
permit,permit,permit,permit,NOUN,True,False
",",",",",",",",PUNCT,False,False
to,to,to,to,PART,True,True
make,make,make,make,VERB,True,True
cbsd,cbsd,cbsd,cbsd,NOUN,True,False
registration,registration,registration,registration,NOUN,True,False
information,information,information,information,NOUN,True,False
public,public,public,public,NOUN,True,False
.,.,.,.,PUNCT,False,False
in,in,in,in,ADP,True,True
addition,addition,addition,addition,NOUN,True,False
to,to,to,to,ADP,True,True
concern,concern,concern,concern,NOUN,True,False
about,about,about,about,ADP,True,True
competition,competition,competition,competition,NOUN,True,False
and,and,and,and,CCONJ,True,True
consumer,consumer,consumer,consumer,NOUN,True,False
privacy,privacy,privacy,privacy,NOUN,True,False
",",",",",",",",PUNCT,False,False
the,the,the,the,DET,True,True
commission,commission,commission,commission,NOUN,True,False
should,should,should,should,VERB,True,True
take,take,take,take,VERB,True,True
into,into,into,into,ADP,True,True
account,account,account,account,NOUN,True,False
cybersecurity,cybersecurity,cybersecurity,cybersecurity,NOUN,True,False
and,and,and,and,CCONJ,True,True
national,national,national,national,ADJ,True,False
security,security,security,security,NOUN,True,False
risk,risk,risk,risk,NOUN,True,False
.,.,.,.,PUNCT,False,False
disclose,disclose,disclose,disclose,VERB,True,False
cbsd,cbsd,cbsd,cbsd,NOUN,True,False
registration,registration,registration,registration,NOUN,True,False
information,information,information,information,NOUN,True,False
to,to,to,to,ADP,True,True
the,the,the,the,DET,True,True
general,general,general,general,ADJ,True,False
public,public,public,public,NOUN,True,False
will,will,will,will,VERB,True,True
not,not,not,not,PART,True,True
serve,serve,serve,serve,VERB,True,False
any,any,any,any,DET,True,True
useful,useful,useful,useful,ADJ,True,False
purpose,purpose,purpose,purpose,NOUN,True,False
",",",",",",",",PUNCT,False,False
and,and,and,and,CCONJ,True,True
the,the,the,the,DET,True,True
harm,harm,harm,harm,NOUN,True,False
outweigh,outweigh,outweigh,outweigh,VERB,True,False
any,any,any,any,DET,True,True
purport,purport,purport,purport,NOUN,True,False
benefit,benefit,benefit,benefit,NOUN,True,False
.,.,.,.,PUNCT,False,False
sas,sas,sas,sas,PROPN,True,False
administrators,administrators,administrator,administrator,NOUN,True,False
will,will,will,will,VERB,True,True
already,already,already,already,ADV,True,True
be,be,be,be,AUX,True,True
require,require,require,require,ADJ,True,False
tocoordinate,tocoordinate,tocoordinate,tocoordinate,NOUN,True,False
with,with,with,with,ADP,True,True
each,each,each,each,DET,True,True
other,other,other,other,ADJ,True,True
",",",",",",",",PUNCT,False,False
and,and,and,and,CCONJ,True,True
member,member,member,member,NOUN,True,False
of,of,of,of,ADP,True,True
the,the,the,the,DET,True,True
public,public,public,public,NOUN,True,False
can,can,can,can,VERB,True,True
therefore,therefore,therefore,therefore,ADV,True,True
work,work,work,work,VERB,True,False
with,with,with,with,ADP,True,True
a,a,a,a,DET,True,True
sas,sas,sas,sas,PROPN,True,False
to,to,to,to,PART,True,True
determine,determine,determine,determine,VERB,True,False
where,where,where,where,ADV,True,True
they,they,-PRON-,-pron-,PRON,True,True
can,can,can,can,VERB,True,True
deploy,deploy,deploy,deploy,VERB,True,False
cbsds,cbsds,cbsds,cbsds,PROPN,True,False
on,on,on,on,ADP,True,True
a,a,a,a,DET,True,True
gaa,gaa,gaa,gaa,NOUN,True,False
basis,basis,basis,basis,NOUN,True,False
.,.,.,.,PUNCT,False,False
the,the,the,the,DET,True,True
commission,commission,commission,commission,NOUN,True,False
requirement,requirement,requirement,requirement,NOUN,True,False
that,that,that,that,SCONJ,True,True
sas,sas,sas,sas,PROPN,True,False
administrators,administrators,administrators,administrators,PROPN,True,False
obfuscate,obfuscate,obfuscate,obfuscate,PROPN,True,False
licensee,licensee,licensee,licensee,PROPN,True,False
identity,identity,identity,identity,NOUN,True,False
will,will,will,will,VERB,True,True
not,not,not,not,PART,True,True
address,address,address,address,VERB,True,False
security,security,security,security,NOUN,True,False
concern,concern,concern,concern,NOUN,True,False
",",",",",",",",PUNCT,False,False
and,and,and,and,CCONJ,True,True
be,be,be,be,AUX,True,True
insufficient,insufficient,insufficient,insufficient,ADJ,True,False
to,to,to,to,PART,True,True
address,address,address,address,VERB,True,False
privacy,privacy,privacy,privacy,NOUN,True,False
and,and,and,and,CCONJ,True,True
competitive,competitive,competitive,competitive,ADJ,True,False
concern,concern,concern,concern,NOUN,True,False
.,.,.,.,PUNCT,False,False
give,give,give,give,VERB,True,True
that,that,that,that,DET,True,True
pal,pal,pal,pal,ADJ,True,False
auction,auction,auction,auction,NOUN,True,False
information,information,information,information,NOUN,True,False
will,will,will,will,VERB,True,True
be,be,be,be,AUX,True,True
publicly,publicly,publicly,publicly,ADV,True,False
available,available,available,available,ADJ,True,False
",",",",",",",",PUNCT,False,False
determine,determine,determine,determine,VERB,True,False
which,which,which,which,DET,True,True
deployment,deployment,deployment,deployment,NOUN,True,False
belong,belong,belong,belong,NOUN,True,False
to,to,to,to,ADP,True,True
which,which,which,which,DET,True,True
pal,pal,pal,pal,ADJ,True,False
licensee,licensee,licensee,licensee,NOUN,True,False
may,may,may,may,VERB,True,True
not,not,not,not,PART,True,True
be,be,be,be,AUX,True,True
difficult,difficult,difficult,difficult,ADJ,True,False
.,.,.,.,PUNCT,False,False
the,the,the,the,DET,True,True
commission,commission,commission,commission,NOUN,True,False
should,should,should,should,VERB,True,True
eliminate,eliminate,eliminate,eliminate,VERB,True,False
the,the,the,the,DET,True,True
requirement,requirement,requirement,requirement,NOUN,True,False
that,that,that,that,SCONJ,True,True
sas,sas,sas,sas,PROPN,True,False
administrators,administrators,administrator,administrator,NOUN,True,False
make,make,make,make,VERB,True,True
cbsd,cbsd,cbsd,cbsd,NOUN,True,False
registration,registration,registration,registration,NOUN,True,False
information,information,information,information,NOUN,True,False
public,public,public,public,NOUN,True,False
",",",",",",",",PUNCT,False,False
and,and,and,and,CCONJ,True,True
should,should,should,should,VERB,True,True
instead,instead,instead,instead,ADV,True,False
prohibit,prohibit,prohibit,prohibit,VERB,True,False
such,such,such,such,ADJ,True,True
disclosure,disclosure,disclosure,disclosure,NOUN,True,False
.,.,.,.,PUNCT,False,False
the,the,the,the,DET,True,True
commission,commission,commission,commission,NOUN,True,False
should,should,should,should,VERB,True,True
modify,modify,modify,modify,VERB,True,False
emission,emission,emission,emission,NOUN,True,False
limits,limits,limit,limit,NOUN,True,False
to,to,to,to,PART,True,True
foster,foster,foster,foster,VERB,True,False
wider,wider,wide,wide,ADJ,True,False
channelization,channelization,channelization,channelization,NOUN,True,False
and,and,and,and,CCONJ,True,True
new,new,new,new,ADJ,True,False
product,product,product,product,NOUN,True,False
in,in,in,in,ADP,True,True
the,the,the,the,DET,True,True
3.5,3.5,3.5,3.5,NUM,False,False
ghz,ghz,ghz,ghz,PROPN,True,False
band,band,band,band,NOUN,True,False
.,.,.,.,PUNCT,False,False
the,the,the,the,DET,True,True
commission,commission,commission,commission,NOUN,True,False
should,should,should,should,VERB,True,True
reevaluate,reevaluate,reevaluate,reevaluate,VERB,True,False
the,the,the,the,DET,True,True
emission,emission,emission,emission,NOUN,True,False
limit,limit,limit,limit,NOUN,True,False
in,in,in,in,ADP,True,True
the,the,the,the,DET,True,True
3.5,3.5,3.5,3.5,NUM,False,False
ghz,ghz,ghz,ghz,PROPN,True,False
rule,rule,rule,rule,NOUN,True,False
in,in,in,in,ADP,True,True
light,light,light,light,NOUN,True,False
of,of,of,of,ADP,True,True
theglobal,theglobal,theglobal,theglobal,ADJ,True,False
shift,shift,shift,shift,NOUN,True,False
in,in,in,in,ADP,True,True
think,think,think,think,NOUN,True,False
towards,towards,towards,towards,ADP,True,True
5,5,5,5,NUM,False,False
g,g,g,g,NOUN,True,False
in,in,in,in,ADP,True,True
the,the,the,the,DET,True,True
3.5,3.5,3.5,3.5,NUM,False,False
ghz,ghz,ghz,ghz,PROPN,True,False
band,band,band,band,NOUN,True,False
.,.,.,.,PUNCT,False,False
some,some,some,some,DET,True,True
5,5,5,5,NUM,False,False
g,g,g,g,NOUN,True,False
operation,operation,operation,operation,NOUN,True,False
will,will,will,will,VERB,True,True
depend,depend,depend,depend,VERB,True,False
on,on,on,on,ADP,True,True
use,use,use,use,NOUN,True,False
wide,wide,wide,wide,ADJ,True,False
channel,channel,channel,channel,NOUN,True,False
",",",",",",",",PUNCT,False,False
which,which,which,which,DET,True,True
in,in,in,in,ADP,True,True
turn,turn,turn,turn,NOUN,True,False
will,will,will,will,VERB,True,True
require,require,require,require,VERB,True,False
high,high,high,high,ADJ,True,False
emission,emission,emission,emission,NOUN,True,False
limit,limit,limit,limit,NOUN,True,False
.,.,.,.,PUNCT,False,False
ericsson,ericsson,ericsson,ericsson,PROPN,True,False
have,have,have,have,AUX,True,True
consistently,consistently,consistently,consistently,ADV,True,False
advocate,advocate,advocate,advocate,VERB,True,False
for,for,for,for,ADP,True,True
emission,emission,emission,emission,NOUN,True,False
limit,limit,limit,limit,NOUN,True,False
that,that,that,that,DET,True,True
do,do,do,do,AUX,True,True
not,not,not,not,PART,True,True
unreasonably,unreasonably,unreasonably,unreasonably,ADV,True,False
discriminate,discriminate,discriminate,discriminate,VERB,True,False
against,against,against,against,ADP,True,True
wide,wide,wide,wide,ADJ,True,False
channel,channel,channel,channel,NOUN,True,False
",",",",",",",",PUNCT,False,False
and,and,and,and,CCONJ,True,True
again,again,again,again,ADV,True,True
urge,urge,urge,urge,VERB,True,False
the,the,the,the,DET,True,True
commission,commission,commission,commission,NOUN,True,False
to,to,to,to,PART,True,True
ensure,ensure,ensure,ensure,VERB,True,False
that,that,that,that,SCONJ,True,True
its,its,-PRON-,-pron-,DET,True,True
rule,rule,rule,rule,NOUN,True,False
will,will,will,will,VERB,True,True
permit,permit,permit,permit,VERB,True,False
innovative,innovative,innovative,innovative,ADJ,True,False
offering,offering,offering,offering,NOUN,True,False
use,use,use,use,NOUN,True,False
wide,wide,wide,wide,ADJ,True,False
channel,channel,channel,channel,NOUN,True,False
here,here,here,here,ADV,True,True
.,.,.,.,PUNCT,False,False
in,in,in,in,ADP,True,True
craft,craft,craft,craft,PROPN,True,False
the,the,the,the,DET,True,True
3.5,3.5,3.5,3.5,NUM,False,False
ghz,ghz,ghz,ghz,PROPN,True,False
rule,rule,rule,rule,NOUN,True,False
",",",",",",",",PUNCT,False,False
the,the,the,the,DET,True,True
commission,commission,commission,commission,NOUN,True,False
base,base,base,base,VERB,True,False
its,its,-PRON-,-pron-,DET,True,True
assumption,assumption,assumption,assumption,NOUN,True,False
on,on,on,on,ADP,True,True
the,the,the,the,DET,True,True
capability,capability,capability,capability,NOUN,True,False
of,of,of,of,ADP,True,True
the,the,the,the,DET,True,True
equipment,equipment,equipment,equipment,NOUN,True,False
and,and,and,and,CCONJ,True,True
service,service,service,service,NOUN,True,False
likely,likely,likely,likely,ADJ,True,False
to,to,to,to,PART,True,True
be,be,be,be,AUX,True,True
deploy,deploy,deploy,deploy,NOUN,True,False
in,in,in,in,ADP,True,True
the,the,the,the,DET,True,True
band,band,band,band,NOUN,True,False
.,.,.,.,PUNCT,False,False
but,but,but,but,CCONJ,True,True
at,at,at,at,ADP,True,True
the,the,the,the,DET,True,True
time,time,time,time,NOUN,True,False
the,the,the,the,DET,True,True
3.5,3.5,3.5,3.5,NUM,False,False
ghz,ghz,ghz,ghz,NOUN,True,False
order,order,order,order,NOUN,True,False
be,be,be,be,AUX,True,True
adopt,adopt,adopt,adopt,ADJ,True,False
in,in,in,in,ADP,True,True
2015,2015,2015,2015,NUM,False,False
",",",",",",",",PUNCT,False,False
the,the,the,the,DET,True,True
commission,commission,commission,commission,NOUN,True,False
do,do,do,do,AUX,True,True
not,not,not,not,PART,True,True
contemplate,contemplate,contemplate,contemplate,VERB,True,False
5,5,5,5,NUM,False,False
g,g,g,g,NOUN,True,False
operation,operation,operation,operation,NOUN,True,False
in,in,in,in,ADP,True,True
the,the,the,the,DET,True,True
band,band,band,band,NOUN,True,False
.,.,.,.,PUNCT,False,False
now,now,now,now,ADV,True,True
that,that,that,that,SCONJ,True,True
the,the,the,the,DET,True,True
importance,importance,importance,importance,NOUN,True,False
of,of,of,of,ADP,True,True
the,the,the,the,DET,True,True
3.5,3.5,3.5,3.5,NUM,False,False
ghz,ghz,ghz,ghz,PROPN,True,False
band,band,band,band,NOUN,True,False
for,for,for,for,ADP,True,True
5,5,5,5,NUM,False,False
g,g,g,g,NOUN,True,False
be,be,be,be,AUX,True,True
clear,clear,clear,clear,ADJ,True,False
and,and,and,and,CCONJ,True,True
the,the,the,the,DET,True,True
type,type,type,type,NOUN,True,False
of,of,of,of,ADP,True,True
equipment,equipment,equipment,equipment,NOUN,True,False
and,and,and,and,CCONJ,True,True
service,service,service,service,NOUN,True,False
likely,likely,likely,likely,ADJ,True,False
to,to,to,to,PART,True,True
be,be,be,be,AUX,True,True
deploy,deploy,deploy,deploy,NOUN,True,False
in,in,in,in,ADP,True,True
the,the,the,the,DET,True,True
band,band,band,band,NOUN,True,False
have,have,have,have,AUX,True,True
change,change,change,change,NOUN,True,False
",",",",",",",",PUNCT,False,False
the,the,the,the,DET,True,True
commission,commission,commission,commission,NOUN,True,False
should,should,should,should,VERB,True,True
reevaluate,reevaluate,reevaluate,reevaluate,VERB,True,False
theemission,theemission,theemission,theemission,NOUN,True,False
limit,limit,limit,limit,NOUN,True,False
to,to,to,to,PART,True,True
ensure,ensure,ensure,ensure,VERB,True,False
that,that,that,that,SCONJ,True,True
innovative,innovative,innovative,innovative,ADJ,True,False
5,5,5,5,NUM,False,False
g,g,g,g,NOUN,True,False
solution,solution,solution,solution,NOUN,True,False
be,be,be,be,AUX,True,True
not,not,not,not,PART,True,True
exclude,exclude,exclude,exclude,VERB,True,False
from,from,from,from,ADP,True,True
the,the,the,the,DET,True,True
band,band,band,band,NOUN,True,False
base,base,base,base,NOUN,True,False
on,on,on,on,ADP,True,True
outdated,outdated,outdated,outdated,ADJ,True,False
regulatory,regulatory,regulatory,regulatory,ADJ,True,False
assumption,assumption,assumption,assumption,NOUN,True,False
.,.,.,.,PUNCT,False,False
iv,iv,iv,iv,ADP,True,False
.,.,.,.,PUNCT,False,False
conclusion.the,conclusion.the,conclusion.the,conclusion.the,PROPN,False,False
commission,commission,commission,commission,PROPN,True,False
should,should,should,should,VERB,True,True
revise,revise,revise,revise,VERB,True,False
the,the,the,the,DET,True,True
pal,pal,pal,pal,ADJ,True,False
framework,framework,framework,framework,NOUN,True,False
as,as,as,as,SCONJ,True,True
set,set,set,set,VERB,True,False
forth,forth,forth,forth,ADV,True,False
above,above,above,above,ADV,True,True
to,to,to,to,PART,True,True
strengthen,strengthen,strengthen,strengthen,VERB,True,False
investment,investment,investment,investment,NOUN,True,False
incentive,incentive,incentive,incentive,NOUN,True,False
in,in,in,in,ADP,True,True
the,the,the,the,DET,True,True
3.5,3.5,3.5,3.5,NUM,False,False
ghz,ghz,ghz,ghz,PROPN,True,False
band,band,band,band,NOUN,True,False
.,.,.,.,PUNCT,False,False
the,the,the,the,DET,True,True
commission,commission,commission,commission,NOUN,True,False
should,should,should,should,VERB,True,True
also,also,also,also,ADV,True,True
revise,revise,revise,revise,VERB,True,False
the,the,the,the,DET,True,True
emission,emission,emission,emission,NOUN,True,False
limit,limit,limit,limit,NOUN,True,False
to,to,to,to,PART,True,True
allow,allow,allow,allow,VERB,True,False
for,for,for,for,ADP,True,True
use,use,use,use,NOUN,True,False
of,of,of,of,ADP,True,True
wide,wide,wide,wide,ADJ,True,False
channel,channel,channel,channel,NOUN,True,False
require,require,require,require,VERB,True,False
by,by,by,by,ADP,True,True
some,some,some,some,DET,True,True
5,5,5,5,NUM,False,False
g,g,g,g,NOUN,True,False
service,service,service,service,NOUN,True,False
.,.,.,.,PUNCT,False,False
