text,text_lower,lemma,lemma_lower,part_of_speech,is_alphabet,is_stopword
re,re,re,re,ADP,True,True
gn,gn,gn,gn,PROPN,True,False
docket,docket,docket,docket,PROPN,True,False
no,no,no,no,INTJ,True,True
.,.,.,.,NOUN,False,False
12,12,12,12,NUM,False,False
-,-,-,-,SYM,False,False
354,354,354,354,NUM,False,False
",",",",",",",",PUNCT,False,False
rm-11778,rm-11778,rm-11778,rm-11778,PROPN,False,False
and,and,and,and,CCONJ,True,True
rm-11789wps,rm-11789wps,rm-11789wps,rm-11789wps,PROPN,False,False
",",",",",",",",PUNCT,False,False
inc,inc,inc,inc,PROPN,True,False
.,.,.,.,PROPN,False,False
be,be,be,be,AUX,True,True
a,a,a,a,DET,True,True
small,small,small,small,ADJ,True,False
fixed,fixed,fix,fix,VERB,True,False
wireless,wireless,wireless,wireless,ADJ,True,False
internet,internet,internet,internet,NOUN,True,False
service,service,service,service,NOUN,True,False
provider,provider,provider,provider,NOUN,True,False
operate,operate,operate,operate,VERB,True,False
in,in,in,in,ADP,True,True
pontotoc,pontotoc,pontotoc,pontotoc,PROPN,True,False
county,county,county,county,PROPN,True,False
",",",",",",",",PUNCT,False,False
oklahoma,oklahoma,oklahoma,oklahoma,PROPN,True,False
.,.,.,.,PUNCT,False,False
we,we,-PRON-,-pron-,PRON,True,True
current,current,current,current,ADJ,True,False
serve,serve,serve,serve,VERB,True,False
approximately,approximately,approximately,approximately,ADV,True,False
150,150,150,150,NUM,False,False
customer,customer,customer,customer,NOUN,True,False
in,in,in,in,ADP,True,True
an,an,an,an,DET,True,True
area,area,area,area,NOUN,True,False
that,that,that,that,DET,True,True
be,be,be,be,VERB,True,True
exclusively,exclusively,exclusively,exclusively,ADV,True,False
rural,rural,rural,rural,ADJ,True,False
.,.,.,.,PUNCT,False,False
we,we,-PRON-,-pron-,PRON,True,True
be,be,be,be,VERB,True,True
currently,currently,currently,currently,ADV,True,False
replace,replace,replace,replace,VERB,True,False
our,our,-PRON-,-pron-,DET,True,True
electronic,electronic,electronic,electronic,ADJ,True,False
and,and,and,and,CCONJ,True,True
radio,radio,radio,radio,NOUN,True,False
to,to,to,to,PART,True,True
be,be,be,be,AUX,True,True
able,able,able,able,ADJ,True,False
to,to,to,to,PART,True,True
provide,provide,provide,provide,VERB,True,False
subscription,subscription,subscription,subscription,NOUN,True,False
plan,plan,plan,plan,NOUN,True,False
of,of,of,of,ADP,True,True
3mbps1mbps,3mbps1mbps,3mbps1mbps,3mbps1mbps,NUM,False,False
",",",",",",",",PUNCT,False,False
6mbps2mbps,6mbps2mbps,6mbps2mbps,6mbps2mbps,NUM,False,False
",",",",",",",",PUNCT,False,False
10mbps3mbps,10mbps3mbps,10mbps3mbps,10mbps3mbps,ADJ,False,False
and,and,and,and,CCONJ,True,True
25mbps5mbps,25mbps5mbps,25mbps5mbps,25mbps5mbps,ADJ,False,False
.,.,.,.,PUNCT,False,False
wps,wps,wps,wps,PROPN,True,False
",",",",",",",",PUNCT,False,False
inc,inc,inc,inc,PROPN,True,False
.,.,.,.,PROPN,False,False
currently,currently,currently,currently,ADV,True,False
be,be,be,be,AUX,True,True
use,use,use,use,NOUN,True,False
solely,solely,solely,solely,ADV,True,False
unlicensed,unlicensed,unlicensed,unlicensed,ADJ,True,False
frequency,frequency,frequency,frequency,NOUN,True,False
and,and,and,and,CCONJ,True,True
be,be,be,be,AUX,True,True
find,find,find,find,ADJ,True,False
that,that,that,that,SCONJ,True,True
it,it,-PRON-,-pron-,PRON,True,True
have,have,have,have,AUX,True,True
become,become,become,become,VERB,True,True
almost,almost,almost,almost,ADV,True,True
impossible,impossible,impossible,impossible,ADJ,True,False
to,to,to,to,PART,True,True
obtain,obtain,obtain,obtain,VERB,True,False
clear,clear,clear,clear,ADJ,True,False
and,and,and,and,CCONJ,True,True
clean,clean,clean,clean,ADJ,True,False
enough,enough,enough,enough,ADJ,True,True
channel,channel,channel,channel,NOUN,True,False
to,to,to,to,PART,True,True
provide,provide,provide,provide,VERB,True,False
the,the,the,the,DET,True,True
stable,stable,stable,stable,ADJ,True,False
quality,quality,quality,quality,NOUN,True,False
of,of,of,of,ADP,True,True
service,service,service,service,NOUN,True,False
that,that,that,that,DET,True,True
our,our,-PRON-,-pron-,DET,True,True
rural,rural,rural,rural,ADJ,True,False
customer,customer,customer,customer,NOUN,True,False
deserve,deserve,deserve,deserve,VERB,True,False
.,.,.,.,PUNCT,False,False
it,it,-PRON-,-pron-,PRON,True,True
have,have,have,have,AUX,True,True
be,be,be,be,VERB,True,True
our,our,-PRON-,-pron-,DET,True,True
desire,desire,desire,desire,NOUN,True,False
to,to,to,to,PART,True,True
evolve,evolve,evolve,evolve,VERB,True,False
into,into,into,into,ADP,True,True
a,a,a,a,DET,True,True
service,service,service,service,NOUN,True,False
provider,provider,provider,provider,NOUN,True,False
that,that,that,that,DET,True,True
would,would,would,would,VERB,True,True
provide,provide,provide,provide,VERB,True,False
the,the,the,the,DET,True,True
delivery,delivery,delivery,delivery,NOUN,True,False
of,of,of,of,ADP,True,True
our,our,-PRON-,-pron-,DET,True,True
service,service,service,service,NOUN,True,False
through,through,through,through,ADP,True,True
license,license,license,license,NOUN,True,False
frequency,frequency,frequency,frequency,NOUN,True,False
but,but,but,but,CCONJ,True,True
have,have,have,have,AUX,True,True
find,find,find,find,VERB,True,False
them,them,-PRON-,-pron-,PRON,True,True
to,to,to,to,PART,True,True
be,be,be,be,AUX,True,True
largely,largely,largely,largely,ADV,True,False
unavailable,unavailable,unavailable,unavailable,ADJ,True,False
to,to,to,to,ADP,True,True
us,us,-PRON-,-pron-,PRON,True,True
due,due,due,due,ADP,True,True
to,to,to,to,ADP,True,True
either,either,either,either,DET,True,True
availability,availability,availability,availability,NOUN,True,False
andor,andor,andor,andor,PROPN,True,False
cost,cost,cost,cost,NOUN,True,False
.,.,.,.,PUNCT,False,False
we,we,-PRON-,-pron-,PRON,True,True
be,be,be,be,VERB,True,True
hopeful,hopeful,hopeful,hopeful,ADJ,True,False
that,that,that,that,SCONJ,True,True
the,the,the,the,DET,True,True
opening,opening,opening,opening,NOUN,True,False
of,of,of,of,ADP,True,True
additional,additional,additional,additional,ADJ,True,False
spectrum,spectrum,spectrum,spectrum,NOUN,True,False
will,will,will,will,VERB,True,True
lessen,lessen,lessen,lessen,VERB,True,False
or,or,or,or,CCONJ,True,True
do,do,do,do,AUX,True,True
away,away,away,away,ADP,True,False
with,with,with,with,ADP,True,True
these,these,these,these,DET,True,True
obstacle,obstacle,obstacle,obstacle,NOUN,True,False
we,we,-PRON-,-pron-,PRON,True,True
have,have,have,have,AUX,True,True
encounter,encounter,encounter,encounter,NOUN,True,False
.,.,.,.,PUNCT,False,False
it,it,-PRON-,-pron-,PRON,True,True
be,be,be,be,VERB,True,True
wpss,wpss,wpss,wpss,PROPN,True,False
sincere,sincere,sincere,sincere,PROPN,True,False
desire,desire,desire,desire,NOUN,True,False
to,to,to,to,PART,True,True
expand,expand,expand,expand,VERB,True,False
our,our,-PRON-,-pron-,DET,True,True
service,service,service,service,NOUN,True,False
offering,offering,offer,offer,VERB,True,False
to,to,to,to,ADP,True,True
the,the,the,the,DET,True,True
rural,rural,rural,rural,ADJ,True,False
population,population,population,population,NOUN,True,False
in,in,in,in,ADP,True,True
and,and,and,and,CCONJ,True,True
around,around,around,around,ADP,True,True
our,our,-PRON-,-pron-,DET,True,True
current,current,current,current,ADJ,True,False
service,service,service,service,NOUN,True,False
area,area,area,area,NOUN,True,False
of,of,of,of,ADP,True,True
pontotoc,pontotoc,pontotoc,pontotoc,PROPN,True,False
county,county,county,county,PROPN,True,False
",",",",",",",",PUNCT,False,False
oklahoma,oklahoma,oklahoma,oklahoma,PROPN,True,False
where,where,where,where,ADV,True,True
most,most,most,most,ADJ,True,True
of,of,of,of,ADP,True,True
the,the,the,the,DET,True,True
resident,resident,resident,resident,NOUN,True,False
be,be,be,be,AUX,True,True
reduce,reduce,reduce,reduce,NOUN,True,False
to,to,to,to,ADP,True,True
a,a,a,a,DET,True,True
single,single,single,single,ADJ,True,False
option,option,option,option,NOUN,True,False
or,or,or,or,CCONJ,True,True
the,the,the,the,DET,True,True
possibility,possibility,possibility,possibility,NOUN,True,False
of,of,of,of,ADP,True,True
have,have,have,have,AUX,True,True
2,2,2,2,NUM,False,False
choice,choice,choice,choice,NOUN,True,False
at,at,at,at,ADP,True,True
most,most,most,most,ADJ,True,True
.,.,.,.,PUNCT,False,False
wp,wp,wp,wp,VERB,True,False
vehemently,vehemently,vehemently,vehemently,ADV,True,False
oppose,oppose,oppose,oppose,VERB,True,False
the,the,the,the,DET,True,True
petition,petition,petition,petition,NOUN,True,False
from,from,from,from,ADP,True,True
t,t,t,t,NOUN,True,False
-,-,-,-,PUNCT,False,False
mobile,mobile,mobile,mobile,NOUN,True,False
and,and,and,and,CCONJ,True,True
ctia,ctia,ctia,ctia,PROPN,True,False
and,and,and,and,CCONJ,True,True
believe,believe,believe,believe,VERB,True,False
that,that,that,that,SCONJ,True,True
their,their,-PRON-,-pron-,DET,True,True
propose,propose,propose,propose,NOUN,True,False
change,change,change,change,NOUN,True,False
will,will,will,will,VERB,True,True
make,make,make,make,VERB,True,True
the,the,the,the,DET,True,True
service,service,service,service,NOUN,True,False
just,just,just,just,ADV,True,True
another,another,another,another,DET,True,True
asset,asset,asset,asset,NOUN,True,False
in,in,in,in,ADP,True,True
the,the,the,the,DET,True,True
spectrum,spectrum,spectrum,spectrum,PROPN,True,False
portfolio,portfolio,portfolio,portfolio,NOUN,True,False
of,of,of,of,ADP,True,True
the,the,the,the,DET,True,True
major,major,major,major,ADJ,True,False
carrier,carrier,carrier,carrier,NOUN,True,False
.,.,.,.,PUNCT,False,False
wps,wps,wps,wps,NOUN,True,False
be,be,be,be,AUX,True,True
hopeful,hopeful,hopeful,hopeful,ADJ,True,False
that,that,that,that,SCONJ,True,True
the,the,the,the,DET,True,True
commission,commission,commission,commission,NOUN,True,False
will,will,will,will,VERB,True,True
consider,consider,consider,consider,VERB,True,False
the,the,the,the,DET,True,True
thought,thought,thought,thought,NOUN,True,False
",",",",",",",",PUNCT,False,False
need,need,need,need,NOUN,True,False
and,and,and,and,CCONJ,True,True
opinion,opinion,opinion,opinion,NOUN,True,False
of,of,of,of,ADP,True,True
the,the,the,the,DET,True,True
member,member,member,member,NOUN,True,False
that,that,that,that,DET,True,True
make,make,make,make,VERB,True,True
up,up,up,up,ADP,True,True
the,the,the,the,DET,True,True
wispa,wispa,wispa,wispa,PROPN,True,False
organization,organization,organization,organization,NOUN,True,False
",",",",",",",",PUNCT,False,False
of,of,of,of,ADP,True,True
which,which,which,which,DET,True,True
wps,wps,wps,wps,NOUN,True,False
be,be,be,be,AUX,True,True
a,a,a,a,DET,True,True
member,member,member,member,NOUN,True,False
.,.,.,.,PUNCT,False,False
