text,text_lower,lemma,lemma_lower,part_of_speech,is_alphabet,is_stopword
starry,starry,starry,starry,PROPN,True,False
",",",",",",",",PUNCT,False,False
inc,inc,inc,inc,PROPN,True,False
.,.,.,.,PROPN,False,False
starry,starry,starry,starry,PROPN,True,False
submit,submit,submit,submit,VERB,True,False
these,these,these,these,DET,True,True
comment,comment,comment,comment,NOUN,True,False
urge,urge,urge,urge,VERB,True,False
the,the,the,the,DET,True,True
federal,federal,federal,federal,ADJ,True,False
communicationscommission,communicationscommission,communicationscommission,communicationscommission,NOUN,True,False
fcc,fcc,fcc,fcc,PROPN,True,False
or,or,or,or,CCONJ,True,True
commission,commission,commission,commission,PROPN,True,False
to,to,to,to,PART,True,True
maintain,maintain,maintain,maintain,VERB,True,False
and,and,and,and,CCONJ,True,True
reaffirm,reaffirm,reaffirm,reaffirm,VERB,True,False
the,the,the,the,DET,True,True
exist,exist,exist,exist,ADJ,True,False
rule,rule,rule,rule,NOUN,True,False
for,for,for,for,ADP,True,True
the,the,the,the,DET,True,True
3.5,3.5,3.5,3.5,NUM,False,False
ghz,ghz,ghz,ghz,PROPN,True,False
citizens,citizens,citizen,citizen,NOUN,True,False
broadband,broadband,broadband,broadband,PROPN,True,False
radio,radio,radio,radio,NOUN,True,False
service,service,service,service,NOUN,True,False
cbrs,cbrs,cbr,cbr,VERB,True,False
andor,andor,andor,andor,PROPN,True,False
3.5,3.5,3.5,3.5,NUM,False,False
ghz,ghz,ghz,ghz,PROPN,True,False
band,band,band,band,NOUN,True,False
.,.,.,.,PUNCT,False,False
cbrs,cbrs,cbr,cbr,NOUN,True,False
represent,represent,represent,represent,VERB,True,False
a,a,a,a,DET,True,True
substantialstep,substantialstep,substantialstep,substantialstep,NOUN,True,False
forward,forward,forward,forward,ADV,True,False
in,in,in,in,ADP,True,True
spectrum,spectrum,spectrum,spectrum,NOUN,True,False
policy,policy,policy,policy,NOUN,True,False
and,and,and,and,CCONJ,True,True
spectrum,spectrum,spectrum,spectrum,NOUN,True,False
management,management,management,management,NOUN,True,False
",",",",",",",",PUNCT,False,False
and,and,and,and,CCONJ,True,True
will,will,will,will,VERB,True,True
drive,drive,drive,drive,VERB,True,False
investment,investment,investment,investment,NOUN,True,False
andinnovation,andinnovation,andinnovation,andinnovation,NOUN,True,False
from,from,from,from,ADP,True,True
a,a,a,a,DET,True,True
diverse,diverse,diverse,diverse,ADJ,True,False
set,set,set,set,NOUN,True,False
of,of,of,of,ADP,True,True
user,user,user,user,NOUN,True,False
and,and,and,and,CCONJ,True,True
innovator,innovator,innovator,innovator,NOUN,True,False
",",",",",",",",PUNCT,False,False
to,to,to,to,ADP,True,True
the,the,the,the,DET,True,True
benefit,benefit,benefit,benefit,NOUN,True,False
of,of,of,of,ADP,True,True
consumer,consumer,consumer,consumer,NOUN,True,False
and,and,and,and,CCONJ,True,True
the,the,the,the,DET,True,True
u.s.economy,u.s.economy,u.s.economy,u.s.economy,PROPN,False,False
.,.,.,.,PUNCT,False,False
in,in,in,in,ADP,True,True
2012,2012,2012,2012,NUM,False,False
",",",",",",",",PUNCT,False,False
the,the,the,the,DET,True,True
commission,commission,commission,commission,NOUN,True,False
see,see,see,see,VERB,True,True
an,an,an,an,DET,True,True
opportunity,opportunity,opportunity,opportunity,NOUN,True,False
to,to,to,to,PART,True,True
significantly,significantly,significantly,significantly,ADV,True,False
increase,increase,increase,increase,VERB,True,False
the,the,the,the,DET,True,True
amount,amount,amount,amount,NOUN,True,True
of,of,of,of,ADP,True,True
mid,mid,mid,mid,ADJ,True,False
-,-,-,-,ADJ,False,False
band,band,band,band,NOUN,True,False
spectrum,spectrum,spectrum,spectrum,NOUN,True,False
at,at,at,at,ADP,True,True
the,the,the,the,DET,True,True
time,time,time,time,NOUN,True,False
it,it,-PRON-,-pron-,PRON,True,True
be,be,be,be,AUX,True,True
consider,consider,consider,consider,VERB,True,False
high,high,high,high,ADJ,True,False
-,-,-,-,PUNCT,False,False
band,band,band,band,NOUN,True,False
by,by,by,by,ADP,True,True
make,make,make,make,VERB,True,True
up,up,up,up,ADP,True,True
to,to,to,to,PART,True,True
150,150,150,150,NUM,False,False
megahertzavailable,megahertzavailable,megahertzavailable,megahertzavailable,ADJ,True,False
for,for,for,for,ADP,True,True
shared,shared,shared,shared,ADJ,True,False
access,access,access,access,NOUN,True,False
.,.,.,.,PUNCT,False,False
to,to,to,to,PART,True,True
do,do,do,do,AUX,True,True
this,this,this,this,DET,True,True
",",",",",",",",PUNCT,False,False
the,the,the,the,DET,True,True
commission,commission,commission,commission,NOUN,True,False
have,have,have,have,AUX,True,True
to,to,to,to,PART,True,True
solve,solve,solve,solve,VERB,True,False
several,several,several,several,ADJ,True,True
difficult,difficult,difficult,difficult,ADJ,True,False
problem,problem,problem,problem,NOUN,True,False
",",",",",",",",PUNCT,False,False
include,include,include,include,VERB,True,False
how,how,how,how,ADV,True,True
to,to,to,to,PART,True,True
share,share,share,share,VERB,True,False
the,the,the,the,DET,True,True
spectrum,spectrum,spectrum,spectrum,NOUN,True,False
with,with,with,with,ADP,True,True
incumbent,incumbent,incumbent,incumbent,ADJ,True,False
federal,federal,federal,federal,ADJ,True,False
user,user,user,user,NOUN,True,False
and,and,and,and,CCONJ,True,True
fixed,fixed,fix,fix,VERB,True,False
satellite,satellite,satellite,satellite,NOUN,True,False
service,service,service,service,NOUN,True,False
fss,fss,fss,fss,NOUN,True,False
earth,earth,earth,earth,NOUN,True,False
station,station,station,station,NOUN,True,False
.,.,.,.,PUNCT,False,False
the,the,the,the,DET,True,True
commission,commission,commission,commission,NOUN,True,False
rely,rely,rely,rely,VERB,True,False
on,on,on,on,ADP,True,True
the,the,the,the,DET,True,True
state,state,state,state,NOUN,True,False
-,-,-,-,PUNCT,False,False
of,of,of,of,ADP,True,True
-,-,-,-,PUNCT,False,False
the,the,the,the,DET,True,True
-,-,-,-,PUNCT,False,False
art,art,art,art,NOUN,True,False
in,in,in,in,ADP,True,True
spectrum,spectrum,spectrum,spectrum,NOUN,True,False
policy,policy,policy,policy,NOUN,True,False
",",",",",",",",PUNCT,False,False
economic,economic,economic,economic,ADJ,True,False
policy,policy,policy,policy,NOUN,True,False
",",",",",",",",PUNCT,False,False
and,and,and,and,CCONJ,True,True
wireless,wireless,wireless,wireless,NOUN,True,False
and,and,and,and,CCONJ,True,True
computing,computing,computing,computing,NOUN,True,False
technology,technology,technology,technology,NOUN,True,False
to,to,to,to,PART,True,True
develop,develop,develop,develop,VERB,True,False
an,an,an,an,DET,True,True
effective,effective,effective,effective,ADJ,True,False
solution,solution,solution,solution,NOUN,True,False
to,to,to,to,PART,True,True
maximize,maximize,maximize,maximize,VERB,True,False
the,the,the,the,DET,True,True
utility,utility,utility,utility,NOUN,True,False
of,of,of,of,ADP,True,True
this,this,this,this,DET,True,True
spectrum,spectrum,spectrum,spectrum,NOUN,True,False
while,while,while,while,SCONJ,True,True
protect,protect,protect,protect,VERB,True,False
these,these,these,these,DET,True,True
incumbent,incumbent,incumbent,incumbent,NOUN,True,False
.,.,.,.,PUNCT,False,False
work,work,work,work,VERB,True,False
collaboratively,collaboratively,collaboratively,collaboratively,ADV,True,False
with,with,with,with,ADP,True,True
the,the,the,the,DET,True,True
national,national,national,national,ADJ,True,False
telecommunications,telecommunications,telecommunication,telecommunication,NOUN,True,False
and,and,and,and,CCONJ,True,True
information,information,information,information,PROPN,True,False
administration,administration,administration,administration,PROPN,True,False
and,and,and,and,CCONJ,True,True
the,the,the,the,DET,True,True
department,department,department,department,PROPN,True,False
of,of,of,of,ADP,True,True
defense,defense,defense,defense,PROPN,True,False
the,the,the,the,DET,True,True
commission,commission,commission,commission,NOUN,True,False
develop,develop,develop,develop,VERB,True,False
a,a,a,a,DET,True,True
three,three,three,three,NUM,True,True
-,-,-,-,PUNCT,False,False
tiere,tiere,tiere,tiere,NOUN,True,False
sharing,sharing,sharing,sharing,NOUN,True,False
model,model,model,model,NOUN,True,False
that,that,that,that,DET,True,True
effectively,effectively,effectively,effectively,ADV,True,False
protect,protect,protect,protect,VERB,True,False
navy,navy,navy,navy,PROPN,True,False
radar,radar,radar,radar,NOUN,True,False
",",",",",",",",PUNCT,False,False
make,make,make,make,VERB,True,True
license,license,license,license,NOUN,True,False
available,available,available,available,ADJ,True,False
where,where,where,where,ADV,True,True
and,and,and,and,CCONJ,True,True
when,when,when,when,ADV,True,True
they,they,-PRON-,-pron-,PRON,True,True
be,be,be,be,VERB,True,True
need,need,need,need,VERB,True,False
base,base,base,base,NOUN,True,False
on,on,on,on,ADP,True,True
local,local,local,local,ADJ,True,False
demand,demand,demand,demand,NOUN,True,False
",",",",",",",",PUNCT,False,False
and,and,and,and,CCONJ,True,True
otherwise,otherwise,otherwise,otherwise,ADV,True,True
make,make,make,make,VERB,True,True
the,the,the,the,DET,True,True
spectrum,spectrum,spectrum,spectrum,NOUN,True,False
available,available,available,available,ADJ,True,False
with,with,with,with,ADP,True,True
very,very,very,very,ADV,True,True
low,low,low,low,ADJ,True,False
barrier,barrier,barrier,barrier,NOUN,True,False
to,to,to,to,PART,True,True
access,access,access,access,NOUN,True,False
.,.,.,.,PUNCT,False,False
the,the,the,the,DET,True,True
result,result,result,result,NOUN,True,False
be,be,be,be,AUX,True,True
a,a,a,a,DET,True,True
spectrum,spectrum,spectrum,spectrum,NOUN,True,False
management,management,management,management,NOUN,True,False
framework,framework,framework,framework,NOUN,True,False
that,that,that,that,DET,True,True
be,be,be,be,VERB,True,True
design,design,design,design,NOUN,True,False
to,to,to,to,PART,True,True
efficiently,efficiently,efficiently,efficiently,ADV,True,False
assign,assign,assign,assign,VERB,True,False
spectrum,spectrum,spectrum,spectrum,NOUN,True,False
right,right,right,right,ADV,True,False
through,through,through,through,ADP,True,True
market,market,market,market,NOUN,True,False
-,-,-,-,PUNCT,False,False
base,base,base,base,NOUN,True,False
mechanism,mechanism,mechanism,mechanism,NOUN,True,False
",",",",",",",",PUNCT,False,False
while,while,while,while,SCONJ,True,True
protect,protect,protect,protect,ADJ,True,False
incumbent,incumbent,incumbent,incumbent,NOUN,True,False
.,.,.,.,PUNCT,False,False
since,since,since,since,SCONJ,True,True
the,the,the,the,DET,True,True
rule,rule,rule,rule,NOUN,True,False
be,be,be,be,AUX,True,True
put,put,put,put,VERB,True,True
in,in,in,in,ADP,True,True
place,place,place,place,NOUN,True,False
over,over,over,over,ADP,True,True
two,two,two,two,NUM,True,True
year,year,year,year,NOUN,True,False
ago,ago,ago,ago,ADV,True,False
",",",",",",",",PUNCT,False,False
there,there,there,there,PRON,True,True
have,have,have,have,AUX,True,True
be,be,be,be,VERB,True,True
a,a,a,a,DET,True,True
substantial,substantial,substantial,substantial,ADJ,True,False
amount,amount,amount,amount,NOUN,True,True
of,of,of,of,ADP,True,True
investment,investment,investment,investment,NOUN,True,False
in,in,in,in,ADP,True,True
this,this,this,this,DET,True,True
band,band,band,band,NOUN,True,False
and,and,and,and,CCONJ,True,True
access,access,access,access,NOUN,True,False
model,model,model,model,NOUN,True,False
from,from,from,from,ADP,True,True
equipment,equipment,equipment,equipment,NOUN,True,False
vendor,vendor,vendor,vendor,NOUN,True,False
",",",",",",",",PUNCT,False,False
wisps,wisps,wisps,wisps,PROPN,True,False
",",",",",",",",PUNCT,False,False
industrial,industrial,industrial,industrial,ADJ,True,False
user,user,user,user,NOUN,True,False
",",",",",",",",PUNCT,False,False
the,the,the,the,DET,True,True
cable,cable,cable,cable,NOUN,True,False
industry,industry,industry,industry,NOUN,True,False
",",",",",",",",PUNCT,False,False
wireless,wireless,wireless,wireless,ADJ,True,False
provider,provider,provider,provider,NOUN,True,False
",",",",",",",",PUNCT,False,False
and,and,and,and,CCONJ,True,True
other,other,other,other,ADJ,True,True
.,.,.,.,PUNCT,False,False
this,this,this,this,DET,True,True
investment,investment,investment,investment,NOUN,True,False
be,be,be,be,VERB,True,True
drive,drive,drive,drive,NOUN,True,False
by,by,by,by,ADP,True,True
the,the,the,the,DET,True,True
potential,potential,potential,potential,NOUN,True,False
for,for,for,for,ADP,True,True
low,low,low,low,ADJ,True,False
-,-,-,-,PUNCT,False,False
barrier,barrier,barrier,barrier,NOUN,True,False
access,access,access,access,NOUN,True,False
to,to,to,to,ADP,True,True
a,a,a,a,DET,True,True
substantial,substantial,substantial,substantial,ADJ,True,False
amount,amount,amount,amount,NOUN,True,True
of,of,of,of,ADP,True,True
spectrum,spectrum,spectrum,spectrum,NOUN,True,False
and,and,and,and,CCONJ,True,True
be,be,be,be,AUX,True,True
base,base,base,base,NOUN,True,False
on,on,on,on,ADP,True,True
the,the,the,the,DET,True,True
exist,exist,exist,exist,ADJ,True,False
structure,structure,structure,structure,NOUN,True,False
",",",",",",",",PUNCT,False,False
not,not,not,not,PART,True,True
base,base,base,base,VERB,True,False
upon,upon,upon,upon,SCONJ,True,True
an,an,an,an,DET,True,True
expectation,expectation,expectation,expectation,NOUN,True,False
of,of,of,of,ADP,True,True
future,future,future,future,ADJ,True,False
change,change,change,change,NOUN,True,False
.,.,.,.,PUNCT,False,False
the,the,the,the,DET,True,True
commission,commission,commission,commission,NOUN,True,False
should,should,should,should,VERB,True,True
reject,reject,reject,reject,VERB,True,False
the,the,the,the,DET,True,True
petitions,petitions,petition,petition,NOUN,True,False
",",",",",",",",PUNCT,False,False
reaffirm,reaffirm,reaffirm,reaffirm,VERB,True,False
the,the,the,the,DET,True,True
current,current,current,current,ADJ,True,False
rule,rule,rule,rule,NOUN,True,False
",",",",",",",",PUNCT,False,False
and,and,and,and,CCONJ,True,True
expeditiously,expeditiously,expeditiously,expeditiously,ADV,True,False
certify,certify,certify,certify,VERB,True,False
spectrum,spectrum,spectrum,spectrum,NOUN,True,False
access,access,access,access,NOUN,True,False
system,system,system,system,NOUN,True,False
administrators,administrators,administrator,administrator,NOUN,True,False
and,and,and,and,CCONJ,True,True
environmental,environmental,environmental,environmental,ADJ,True,False
sensing,sensing,sensing,sensing,NOUN,True,False
capability,capability,capability,capability,NOUN,True,False
operator,operator,operator,operator,NOUN,True,False
to,to,to,to,PART,True,True
enable,enable,enable,enable,VERB,True,False
use,use,use,use,NOUN,True,False
of,of,of,of,ADP,True,True
the,the,the,the,DET,True,True
band,band,band,band,NOUN,True,False
as,as,as,as,ADV,True,True
soon,soon,soon,soon,ADV,True,False
as,as,as,as,SCONJ,True,True
possible,possible,possible,possible,ADJ,True,False
.,.,.,.,PUNCT,False,False
the,the,the,the,DET,True,True
current,current,current,current,ADJ,True,False
rule,rule,rule,rule,NOUN,True,False
use,use,use,use,VERB,True,False
economic-,economic-,economic-,economic-,NOUN,False,False
and,and,and,and,CCONJ,True,True
market,market,market,market,NOUN,True,False
-,-,-,-,PUNCT,False,False
based,based,base,base,VERB,True,False
mechanism,mechanism,mechanism,mechanism,NOUN,True,False
to,to,to,to,ADP,True,True
efficiently,efficiently,efficiently,efficiently,ADV,True,False
assign,assign,assign,assign,VERB,True,False
spectrum,spectrum,spectrum,spectrum,NOUN,True,False
rightsthe,rightsthe,rightsthe,rightsthe,PROPN,True,False
current,current,current,current,ADJ,True,False
rule,rule,rule,rule,NOUN,True,False
structure,structure,structure,structure,NOUN,True,False
make,make,make,make,VERB,True,True
cbrs,cbrs,cbr,cbr,NOUN,True,False
spectrum,spectrum,spectrum,spectrum,NOUN,True,False
available,available,available,available,ADJ,True,False
on,on,on,on,ADP,True,True
a,a,a,a,DET,True,True
local,local,local,local,ADJ,True,False
basis,basis,basis,basis,NOUN,True,False
",",",",",",",",PUNCT,False,False
and,and,and,and,CCONJ,True,True
grant,grant,grant,grant,VERB,True,False
the,the,the,the,DET,True,True
right,right,right,right,NOUN,True,False
to,to,to,to,PART,True,True
exclude,exclude,exclude,exclude,VERB,True,False
other,other,other,other,ADJ,True,True
only,only,only,only,ADV,True,True
when,when,when,when,ADV,True,True
rivalry,rivalry,rivalry,rivalry,NOUN,True,False
for,for,for,for,ADP,True,True
the,the,the,the,DET,True,True
spectrum,spectrum,spectrum,spectrum,PROPN,True,False
exist,exist,exist,exist,NOUN,True,False
.,.,.,.,PUNCT,False,False
the,the,the,the,DET,True,True
framework,framework,framework,framework,NOUN,True,False
combine,combine,combine,combine,VERB,True,False
the,the,the,the,DET,True,True
weak,weak,weak,weak,ADJ,True,False
propagation,propagation,propagation,propagation,NOUN,True,False
characteristic,characteristic,characteristic,characteristic,NOUN,True,False
of,of,of,of,ADP,True,True
spectrum,spectrum,spectrum,spectrum,NOUN,True,False
in,in,in,in,ADP,True,True
the,the,the,the,DET,True,True
3.5,3.5,3.5,3.5,NUM,False,False
ghz,ghz,ghz,ghz,PROPN,True,False
band,band,band,band,NOUN,True,False
relative,relative,relative,relative,ADJ,True,False
to,to,to,to,ADP,True,True
low,low,low,low,ADJ,True,False
-,-,-,-,PUNCT,False,False
band,band,band,band,NOUN,True,False
spectrum,spectrum,spectrum,spectrum,NOUN,True,False
",",",",",",",",PUNCT,False,False
local,local,local,local,ADJ,True,False
license,license,license,license,NOUN,True,False
area,area,area,area,NOUN,True,False
",",",",",",",",PUNCT,False,False
and,and,and,and,CCONJ,True,True
small,small,small,small,ADJ,True,False
cell,cell,cell,cell,NOUN,True,False
technical,technical,technical,technical,ADJ,True,False
characteristic,characteristic,characteristic,characteristic,NOUN,True,False
to,to,to,to,PART,True,True
target,target,target,target,VERB,True,False
spectrum,spectrum,spectrum,spectrum,NOUN,True,False
availability,availability,availability,availability,NOUN,True,False
to,to,to,to,ADP,True,True
the,the,the,the,DET,True,True
location,location,location,location,NOUN,True,False
where,where,where,where,ADV,True,True
and,and,and,and,CCONJ,True,True
when,when,when,when,ADV,True,True
it,it,-PRON-,-pron-,PRON,True,True
be,be,be,be,AUX,True,True
need,need,nee,nee,VERB,True,False
.,.,.,.,PUNCT,False,False
its,its,-PRON-,-pron-,DET,True,True
simple,simple,simple,simple,NOUN,True,False
to,to,to,to,PART,True,True
understand,understand,understand,understand,VERB,True,False
and,and,and,and,CCONJ,True,True
efficient,efficient,efficient,efficient,ADJ,True,False
.,.,.,.,PUNCT,False,False
it,it,-PRON-,-pron-,PRON,True,True
be,be,be,be,VERB,True,True
axiomatic,axiomatic,axiomatic,axiomatic,ADJ,True,False
that,that,that,that,SCONJ,True,True
the,the,the,the,DET,True,True
commission,commission,commission,commission,NOUN,True,False
should,should,should,should,VERB,True,True
assign,assign,assign,assign,VERB,True,False
spectrum,spectrum,spectrum,spectrum,NOUN,True,False
right,right,right,right,ADV,True,False
to,to,to,to,ADP,True,True
those,those,those,those,DET,True,True
entity,entity,entity,entity,NOUN,True,False
that,that,that,that,DET,True,True
be,be,be,be,AUX,True,True
most,most,most,most,ADV,True,True
likely,likely,likely,likely,ADJ,True,False
to,to,to,to,PART,True,True
put,put,put,put,VERB,True,True
the,the,the,the,DET,True,True
spectrum,spectrum,spectrum,spectrum,NOUN,True,False
to,to,to,to,PART,True,True
use,use,use,use,VERB,True,False
in,in,in,in,ADP,True,True
the,the,the,the,DET,True,True
public,public,public,public,ADJ,True,False
interest,interest,interest,interest,NOUN,True,False
.,.,.,.,PUNCT,False,False
but,but,but,but,CCONJ,True,True
those,those,those,those,DET,True,True
may,may,may,may,VERB,True,True
not,not,not,not,PART,True,True
be,be,be,be,AUX,True,True
the,the,the,the,DET,True,True
same,same,same,same,ADJ,True,True
entity,entity,entity,entity,NOUN,True,False
that,that,that,that,DET,True,True
place,place,place,place,VERB,True,False
the,the,the,the,DET,True,True
high,high,high,high,ADJ,True,False
price,price,price,price,NOUN,True,False
on,on,on,on,ADP,True,True
spectrum,spectrum,spectrum,spectrum,NOUN,True,False
",",",",",",",",PUNCT,False,False
since,since,since,since,SCONJ,True,True
firm,firm,firm,firm,NOUN,True,False
frequently,frequently,frequently,frequently,ADV,True,False
find,find,find,find,VERB,True,False
value,value,value,value,NOUN,True,False
in,in,in,in,ADP,True,True
spectrum,spectrum,spectrum,spectrum,NOUN,True,False
that,that,that,that,DET,True,True
be,be,be,be,AUX,True,True
unrelated,unrelated,unrelated,unrelated,ADJ,True,False
to,to,to,to,ADP,True,True
the,the,the,the,DET,True,True
use,use,use,use,NOUN,True,False
of,of,of,of,ADP,True,True
the,the,the,the,DET,True,True
spectrum,spectrum,spectrum,spectrum,NOUN,True,False
",",",",",",",",PUNCT,False,False
include,include,include,include,VERB,True,False
as,as,as,as,SCONJ,True,True
an,an,an,an,DET,True,True
investment,investment,investment,investment,NOUN,True,False
vehicle,vehicle,vehicle,vehicle,NOUN,True,False
or,or,or,or,CCONJ,True,True
to,to,to,to,PART,True,True
foreclose,foreclose,foreclose,foreclose,VERB,True,False
other,other,other,other,ADJ,True,True
potential,potential,potential,potential,ADJ,True,False
user,user,user,user,NOUN,True,False
.,.,.,.,PUNCT,False,False
take,take,take,take,VERB,True,True
step,step,step,step,NOUN,True,False
to,to,to,to,PART,True,True
alter,alter,alter,alter,VERB,True,False
the,the,the,the,DET,True,True
cbrs,cbrs,cbr,cbr,NOUN,True,False
structure,structure,structure,structure,NOUN,True,False
to,to,to,to,PART,True,True
assign,assign,assign,assign,VERB,True,False
spectrum,spectrum,spectrum,spectrum,NOUN,True,False
right,right,right,right,ADV,True,False
in,in,in,in,ADP,True,True
a,a,a,a,DET,True,True
less,less,less,less,ADV,True,True
efficient,efficient,efficient,efficient,ADJ,True,False
manner,manner,manner,manner,NOUN,True,False
that,that,that,that,DET,True,True
be,be,be,be,VERB,True,True
in,in,in,in,ADP,True,True
place,place,place,place,NOUN,True,False
and,and,and,and,CCONJ,True,True
at,at,at,at,ADP,True,True
time,time,time,time,NOUN,True,False
where,where,where,where,ADV,True,True
the,the,the,the,DET,True,True
right,right,right,right,NOUN,True,False
to,to,to,to,PART,True,True
exclude,exclude,exclude,exclude,VERB,True,False
other,other,other,other,ADJ,True,True
user,user,user,user,NOUN,True,False
be,be,be,be,AUX,True,True
unnecessary,unnecessary,unnecessary,unnecessary,ADJ,True,False
because,because,because,because,SCONJ,True,True
there,there,there,there,PRON,True,True
be,be,be,be,AUX,True,True
not,not,not,not,PART,True,True
competition,competition,competition,competition,NOUN,True,False
for,for,for,for,ADP,True,True
the,the,the,the,DET,True,True
spectrum,spectrum,spectrum,spectrum,NOUN,True,False
would,would,would,would,VERB,True,True
be,be,be,be,AUX,True,True
inconsistent,inconsistent,inconsistent,inconsistent,ADJ,True,False
with,with,with,with,ADP,True,True
the,the,the,the,DET,True,True
public,public,public,public,ADJ,True,False
interest,interest,interest,interest,NOUN,True,False
and,and,and,and,CCONJ,True,True
the,the,the,the,DET,True,True
commissions,commissions,commission,commission,NOUN,True,False
mandate,mandate,mandate,mandate,VERB,True,False
under,under,under,under,ADP,True,True
the,the,the,the,DET,True,True
telecommunications,telecommunications,telecommunications,telecommunications,PROPN,True,False
act,act,act,act,NOUN,True,False
.,.,.,.,PUNCT,False,False
auction,auction,auction,auction,NOUN,True,False
be,be,be,be,AUX,True,True
useful,useful,useful,useful,ADJ,True,False
tool,tool,tool,tool,NOUN,True,False
for,for,for,for,ADP,True,True
assigning,assigning,assigning,assigning,NOUN,True,False
spectrum,spectrum,spectrum,spectrum,NOUN,True,False
",",",",",",",",PUNCT,False,False
but,but,but,but,CCONJ,True,True
they,they,-PRON-,-pron-,PRON,True,True
can,can,can,can,VERB,True,True
create,create,create,create,VERB,True,False
artificial,artificial,artificial,artificial,ADJ,True,False
scarcity,scarcity,scarcity,scarcity,NOUN,True,False
.,.,.,.,PUNCT,False,False
the,the,the,the,DET,True,True
cbrs,cbrs,cbr,cbr,NOUN,True,False
model,model,model,model,NOUN,True,False
improve,improve,improve,improve,VERB,True,False
upon,upon,upon,upon,SCONJ,True,True
an,an,an,an,DET,True,True
auction,auction,auction,auction,NOUN,True,False
-,-,-,-,PUNCT,False,False
only,only,only,only,ADJ,True,True
model,model,model,model,NOUN,True,False
of,of,of,of,ADP,True,True
spectrum,spectrum,spectrum,spectrum,PROPN,True,False
assignment,assignment,assignment,assignment,PROPN,True,False
in,in,in,in,ADP,True,True
two,two,two,two,NUM,True,True
key,key,key,key,ADJ,True,False
way,way,way,way,NOUN,True,False
1,1,1,1,NUM,False,False
it,it,-PRON-,-pron-,PRON,True,True
assign,assign,assign,assign,ADJ,True,False
spectrum,spectrum,spectrum,spectrum,NOUN,True,False
via,via,via,via,ADP,True,True
auction,auction,auction,auction,NOUN,True,False
largely,largely,largely,largely,ADV,True,False
only,only,only,only,ADV,True,True
when,when,when,when,ADV,True,True
there,there,there,there,PRON,True,True
be,be,be,be,VERB,True,True
competition,competition,competition,competition,NOUN,True,False
for,for,for,for,ADP,True,True
the,the,the,the,DET,True,True
spectrum,spectrum,spectrum,spectrum,NOUN,True,False
i.e.,i.e.,i.e.,i.e.,X,False,False
there,there,there,there,PRON,True,True
be,be,be,be,AUX,True,True
actual,actual,actual,actual,ADJ,True,False
scarcity,scarcity,scarcity,scarcity,NOUN,True,False
and,and,and,and,CCONJ,True,True
2,2,2,2,NUM,False,False
it,it,-PRON-,-pron-,PRON,True,True
allow,allow,allow,allow,VERB,True,False
all,all,all,all,DET,True,True
user,user,user,user,NOUN,True,False
to,to,to,to,PART,True,True
access,access,access,access,VERB,True,False
unused,unused,unused,unused,ADJ,True,False
spectrum,spectrum,spectrum,spectrum,NOUN,True,False
that,that,that,that,DET,True,True
have,have,have,have,AUX,True,True
be,be,be,be,AUX,True,True
auction,auction,auction,auction,NOUN,True,False
",",",",",",",",PUNCT,False,False
without,without,without,without,ADP,True,True
harm,harm,harm,harm,NOUN,True,False
the,the,the,the,DET,True,True
right,right,right,right,NOUN,True,False
of,of,of,of,ADP,True,True
a,a,a,a,DET,True,True
licensee,licensee,licensee,licensee,NOUN,True,False
",",",",",",",",PUNCT,False,False
if,if,if,if,SCONJ,True,True
one,one,one,one,NUM,True,True
exist,exist,exist,exist,VERB,True,False
.,.,.,.,PUNCT,False,False
the,the,the,the,DET,True,True
combination,combination,combination,combination,NOUN,True,False
of,of,of,of,ADP,True,True
target,target,target,target,NOUN,True,False
geographic,geographic,geographic,geographic,ADJ,True,False
area,area,area,area,NOUN,True,False
and,and,and,and,CCONJ,True,True
short,short,short,short,ADJ,True,False
license,license,license,license,NOUN,True,False
term,term,term,term,NOUN,True,False
will,will,will,will,VERB,True,True
force,force,force,force,VERB,True,False
licensee,licensee,licensee,licensee,VERB,True,False
to,to,to,to,PART,True,True
reconsider,reconsider,reconsider,reconsider,VERB,True,False
on,on,on,on,ADP,True,True
a,a,a,a,DET,True,True
regular,regular,regular,regular,ADJ,True,False
basis,basis,basis,basis,NOUN,True,False
whether,whether,whether,whether,SCONJ,True,True
or,or,or,or,CCONJ,True,True
not,not,not,not,PART,True,True
the,the,the,the,DET,True,True
license,license,license,license,NOUN,True,False
be,be,be,be,AUX,True,True
worth,worth,worth,worth,ADJ,True,False
the,the,the,the,DET,True,True
cost,cost,cost,cost,NOUN,True,False
of,of,of,of,ADP,True,True
acquire,acquire,acquire,acquire,VERB,True,False
it,it,-PRON-,-pron-,PRON,True,True
again,again,again,again,ADV,True,True
at,at,at,at,ADP,True,True
auction,auction,auction,auction,NOUN,True,False
.,.,.,.,PUNCT,False,False
if,if,if,if,SCONJ,True,True
there,there,there,there,PRON,True,True
continue,continue,continue,continue,VERB,True,False
to,to,to,to,PART,True,True
be,be,be,be,AUX,True,True
rivalry,rivalry,rivalry,rivalry,NOUN,True,False
for,for,for,for,ADP,True,True
the,the,the,the,DET,True,True
spectrum,spectrum,spectrum,spectrum,NOUN,True,False
and,and,and,and,CCONJ,True,True
a,a,a,a,DET,True,True
licensee,licensee,licensee,licensee,NOUN,True,False
generate,generate,generate,generate,NOUN,True,False
value,value,value,value,NOUN,True,False
from,from,from,from,ADP,True,True
the,the,the,the,DET,True,True
license,license,license,license,NOUN,True,False
",",",",",",",",PUNCT,False,False
then,then,then,then,ADV,True,True
the,the,the,the,DET,True,True
licensee,licensee,licensee,licensee,NOUN,True,False
have,have,have,have,AUX,True,True
an,an,an,an,DET,True,True
incentive,incentive,incentive,incentive,NOUN,True,False
to,to,to,to,PART,True,True
win,win,win,win,VERB,True,False
it,it,-PRON-,-pron-,PRON,True,True
again,again,again,again,ADV,True,True
at,at,at,at,ADP,True,True
auction,auction,auction,auction,NOUN,True,False
.,.,.,.,PUNCT,False,False
if,if,if,if,SCONJ,True,True
there,there,there,there,PRON,True,True
be,be,be,be,AUX,True,True
not,not,not,not,PART,True,True
rivalry,rivalry,rivalry,rivalry,VERB,True,False
",",",",",",",",PUNCT,False,False
or,or,or,or,CCONJ,True,True
if,if,if,if,SCONJ,True,True
there,there,there,there,PRON,True,True
be,be,be,be,AUX,True,True
a,a,a,a,DET,True,True
shift,shift,shift,shift,NOUN,True,False
in,in,in,in,ADP,True,True
the,the,the,the,DET,True,True
licensee,licensee,licensee,licensee,PROPN,True,False
network,network,network,network,NOUN,True,False
demand,demand,demand,demand,NOUN,True,False
",",",",",",",",PUNCT,False,False
then,then,then,then,ADV,True,True
the,the,the,the,DET,True,True
licensee,licensee,licensee,licensee,NOUN,True,False
can,can,can,can,VERB,True,True
simply,simply,simply,simply,ADV,True,False
operate,operate,operate,operate,VERB,True,False
on,on,on,on,ADP,True,True
a,a,a,a,DET,True,True
general,general,general,general,ADJ,True,False
authorized,authorized,authorize,authorize,VERB,True,False
access,access,access,access,NOUN,True,False
gaa,gaa,gaa,gaa,NOUN,True,False
basis,basis,basis,basis,NOUN,True,False
.,.,.,.,PUNCT,False,False
this,this,this,this,DET,True,True
be,be,be,be,AUX,True,True
the,the,the,the,DET,True,True
right,right,right,right,ADJ,True,False
outcome,outcome,outcome,outcome,NOUN,True,False
from,from,from,from,ADP,True,True
an,an,an,an,DET,True,True
economic,economic,economic,economic,ADJ,True,False
perspective,perspective,perspective,perspective,NOUN,True,False
",",",",",",",",PUNCT,False,False
from,from,from,from,ADP,True,True
a,a,a,a,DET,True,True
policy,policy,policy,policy,NOUN,True,False
perspective,perspective,perspective,perspective,NOUN,True,False
",",",",",",",",PUNCT,False,False
and,and,and,and,CCONJ,True,True
be,be,be,be,AUX,True,True
entirely,entirely,entirely,entirely,ADV,True,False
consistent,consistent,consistent,consistent,ADJ,True,False
with,with,with,with,ADP,True,True
the,the,the,the,DET,True,True
commissions,commissions,commission,commission,NOUN,True,False
mandate,mandate,mandate,mandate,NOUN,True,False
.,.,.,.,PUNCT,False,False
to,to,to,to,PART,True,True
suggest,suggest,suggest,suggest,VERB,True,False
that,that,that,that,SCONJ,True,True
a,a,a,a,DET,True,True
former,former,former,former,ADJ,True,True
pal,pal,pal,pal,ADJ,True,False
licensee,licensee,licensee,licensee,NOUN,True,False
be,be,be,be,AUX,True,True
stick,stick,stick,stick,NOUN,True,False
with,with,with,with,ADP,True,True
strand,strand,strand,strand,NOUN,True,False
investment,investment,investment,investment,NOUN,True,False
in,in,in,in,ADP,True,True
the,the,the,the,DET,True,True
event,event,event,event,NOUN,True,False
it,it,-PRON-,-pron-,PRON,True,True
lose,lose,lose,lose,VERB,True,False
an,an,an,an,DET,True,True
auction,auction,auction,auction,NOUN,True,False
ignore,ignore,ignore,ignore,VERB,True,False
the,the,the,the,DET,True,True
fact,fact,fact,fact,NOUN,True,False
that,that,that,that,SCONJ,True,True
it,it,-PRON-,-pron-,PRON,True,True
can,can,can,can,VERB,True,True
keep,keep,keep,keep,VERB,True,True
operate,operate,operate,operate,NOUN,True,False
on,on,on,on,ADP,True,True
a,a,a,a,DET,True,True
gaa,gaa,gaa,gaa,NOUN,True,False
basis,basis,basis,basis,NOUN,True,False
.,.,.,.,PUNCT,False,False
the,the,the,the,DET,True,True
big,big,big,big,ADJ,True,False
differentiate,differentiate,differentiate,differentiate,NOUN,True,False
right,right,right,right,ADV,True,False
between,between,between,between,ADP,True,True
a,a,a,a,DET,True,True
pal,pal,pal,pal,NOUN,True,False
and,and,and,and,CCONJ,True,True
gaa,gaa,gaa,gaa,NOUN,True,False
use,use,use,use,NOUN,True,False
be,be,be,be,AUX,True,True
that,that,that,that,SCONJ,True,True
a,a,a,a,DET,True,True
pal,pal,pal,pal,ADJ,True,False
licensee,licensee,licensee,licensee,NOUN,True,False
can,can,can,can,VERB,True,True
exclude,exclude,exclude,exclude,VERB,True,False
other,other,other,other,ADJ,True,True
user,user,user,user,NOUN,True,False
from,from,from,from,ADP,True,True
its,its,-PRON-,-pron-,DET,True,True
10-megahertz,10-megahertz,10-megahertz,10-megahertz,NUM,False,False
channel,channel,channel,channel,NOUN,True,False
.,.,.,.,PUNCT,False,False
if,if,if,if,SCONJ,True,True
a,a,a,a,DET,True,True
pal,pal,pal,pal,ADJ,True,False
licensee,licensee,licensee,licensee,NOUN,True,False
value,value,value,value,NOUN,True,False
that,that,that,that,DET,True,True
right,right,right,right,INTJ,True,False
",",",",",",",",PUNCT,False,False
then,then,then,then,ADV,True,True
it,it,-PRON-,-pron-,PRON,True,True
will,will,will,will,VERB,True,True
sufficiently,sufficiently,sufficiently,sufficiently,ADV,True,False
bid,bid,bid,bid,VERB,True,False
for,for,for,for,ADP,True,True
it,it,-PRON-,-pron-,PRON,True,True
at,at,at,at,ADP,True,True
auction,auction,auction,auction,NOUN,True,False
.,.,.,.,PUNCT,False,False
if,if,if,if,SCONJ,True,True
a,a,a,a,DET,True,True
cbrs,cbrs,cbr,cbr,NOUN,True,False
user,user,user,user,NOUN,True,False
do,do,do,do,AUX,True,True
not,not,not,not,PART,True,True
value,value,value,value,VERB,True,False
exclusivity,exclusivity,exclusivity,exclusivity,NOUN,True,False
and,and,and,and,CCONJ,True,True
be,be,be,be,AUX,True,True
comfortable,comfortable,comfortable,comfortable,ADJ,True,False
with,with,with,with,ADP,True,True
the,the,the,the,DET,True,True
shared,shared,shared,shared,ADJ,True,False
environment,environment,environment,environment,NOUN,True,False
",",",",",",",",PUNCT,False,False
then,then,then,then,ADV,True,True
it,it,-PRON-,-pron-,PRON,True,True
have,have,have,have,AUX,True,True
access,access,access,access,NOUN,True,False
to,to,to,to,ADP,True,True
the,the,the,the,DET,True,True
gaa,gaa,gaa,gaa,NOUN,True,False
portion,portion,portion,portion,NOUN,True,False
of,of,of,of,ADP,True,True
the,the,the,the,DET,True,True
band,band,band,band,NOUN,True,False
and,and,and,and,CCONJ,True,True
the,the,the,the,DET,True,True
unused,unused,unused,unused,ADJ,True,False
portion,portion,portion,portion,NOUN,True,False
of,of,of,of,ADP,True,True
pal,pal,pal,pal,ADJ,True,False
license,license,license,license,NOUN,True,False
",",",",",",",",PUNCT,False,False
and,and,and,and,CCONJ,True,True
do,do,do,do,AUX,True,True
not,not,not,not,PART,True,True
have,have,have,have,AUX,True,True
to,to,to,to,PART,True,True
pay,pay,pay,pay,VERB,True,False
for,for,for,for,ADP,True,True
a,a,a,a,DET,True,True
right,right,right,right,NOUN,True,False
it,it,-PRON-,-pron-,PRON,True,True
do,do,do,do,AUX,True,True
not,not,not,not,PART,True,True
desire,desire,desire,desire,VERB,True,False
.,.,.,.,PUNCT,False,False
this,this,this,this,DET,True,True
be,be,be,be,AUX,True,True
particularly,particularly,particularly,particularly,ADV,True,False
important,important,important,important,ADJ,True,False
for,for,for,for,ADP,True,True
user,user,user,user,NOUN,True,False
that,that,that,that,DET,True,True
do,do,do,do,AUX,True,True
not,not,not,not,PART,True,True
have,have,have,have,AUX,True,True
access,access,access,access,NOUN,True,False
to,to,to,to,ADP,True,True
sufficient,sufficient,sufficient,sufficient,ADJ,True,False
capital,capital,capital,capital,NOUN,True,False
to,to,to,to,PART,True,True
successfully,successfully,successfully,successfully,ADV,True,False
participate,participate,participate,participate,VERB,True,False
in,in,in,in,ADP,True,True
an,an,an,an,DET,True,True
auction,auction,auction,auction,NOUN,True,False
",",",",",",",",PUNCT,False,False
include,include,include,include,VERB,True,False
many,many,many,many,ADJ,True,True
wisp,wisp,wisp,wisp,NOUN,True,False
and,and,and,and,CCONJ,True,True
utility,utility,utility,utility,NOUN,True,False
.,.,.,.,PUNCT,False,False
finally,finally,finally,finally,ADV,True,False
",",",",",",",",PUNCT,False,False
the,the,the,the,DET,True,True
commissions,commissions,commission,commission,NOUN,True,False
intent,intent,intent,intent,NOUN,True,False
be,be,be,be,AUX,True,True
never,never,never,never,ADV,True,True
to,to,to,to,PART,True,True
make,make,make,make,VERB,True,True
this,this,this,this,DET,True,True
a,a,a,a,DET,True,True
band,band,band,band,NOUN,True,False
available,available,available,available,ADJ,True,False
solely,solely,solely,solely,ADV,True,False
for,for,for,for,ADP,True,True
commercial,commercial,commercial,commercial,ADJ,True,False
mobile,mobile,mobile,mobile,ADJ,True,False
wireless,wireless,wireless,wireless,PROPN,True,False
service,service,service,service,NOUN,True,False
.,.,.,.,PUNCT,False,False
the,the,the,the,DET,True,True
commission,commission,commission,commission,NOUN,True,False
explicitly,explicitly,explicitly,explicitly,ADV,True,False
establish,establish,establish,establish,VERB,True,False
this,this,this,this,DET,True,True
band,band,band,band,NOUN,True,False
to,to,to,to,PART,True,True
support,support,support,support,VERB,True,False
a,a,a,a,DET,True,True
wide,wide,wide,wide,ADJ,True,False
variety,variety,variety,variety,NOUN,True,False
of,of,of,of,ADP,True,True
user,user,user,user,NOUN,True,False
",",",",",",",",PUNCT,False,False
deployment,deployment,deployment,deployment,NOUN,True,False
model,model,model,model,NOUN,True,False
",",",",",",",",PUNCT,False,False
and,and,and,and,CCONJ,True,True
business,business,business,business,NOUN,True,False
case,case,case,case,NOUN,True,False
",",",",",",",",PUNCT,False,False
include,include,include,include,VERB,True,False
some,some,some,some,DET,True,True
solution,solution,solution,solution,NOUN,True,False
to,to,to,to,ADP,True,True
market,market,market,market,NOUN,True,False
need,need,nee,nee,VERB,True,False
not,not,not,not,PART,True,True
adequately,adequately,adequately,adequately,ADV,True,False
serve,serve,serve,serve,VERB,True,False
by,by,by,by,ADP,True,True
[,[,[,[,PUNCT,False,False
its,its,-PRON-,-pron-,DET,True,True
],],],],PUNCT,False,False
conventional,conventional,conventional,conventional,ADJ,True,False
license,license,license,license,NOUN,True,False
or,or,or,or,CCONJ,True,True
unlicensed,unlicensed,unlicensed,unlicensed,ADJ,True,False
rule,rule,rule,rule,NOUN,True,False
.,.,.,.,PUNCT,False,False
change,change,change,change,VERB,True,False
to,to,to,to,ADP,True,True
the,the,the,the,DET,True,True
current,current,current,current,ADJ,True,False
rule,rule,rule,rule,NOUN,True,False
structure,structure,structure,structure,NOUN,True,False
will,will,will,will,VERB,True,True
undermine,undermine,undermine,undermine,VERB,True,False
the,the,the,the,DET,True,True
benefit,benefit,benefit,benefit,NOUN,True,False
that,that,that,that,DET,True,True
it,it,-PRON-,-pron-,PRON,True,True
createspetitioner,createspetitioner,createspetitioner,createspetitioner,NOUN,True,False
propose,propose,propose,propose,NOUN,True,False
change,change,change,change,NOUN,True,False
would,would,would,would,VERB,True,True
fundamentally,fundamentally,fundamentally,fundamentally,ADV,True,False
undermine,undermine,undermine,undermine,VERB,True,False
the,the,the,the,DET,True,True
sound,sound,sound,sound,NOUN,True,False
structure,structure,structure,structure,NOUN,True,False
the,the,the,the,DET,True,True
commission,commission,commission,commission,NOUN,True,False
already,already,already,already,ADV,True,True
put,put,put,put,VERB,True,True
in,in,in,in,ADP,True,True
place,place,place,place,NOUN,True,False
",",",",",",",",PUNCT,False,False
introduce,introduce,introduce,introduce,VERB,True,False
economic,economic,economic,economic,ADJ,True,False
inefficiency,inefficiency,inefficiency,inefficiency,NOUN,True,False
",",",",",",",",PUNCT,False,False
and,and,and,and,CCONJ,True,True
inhibit,inhibit,inhibit,inhibit,VERB,True,False
the,the,the,the,DET,True,True
use,use,use,use,NOUN,True,False
of,of,of,of,ADP,True,True
the,the,the,the,DET,True,True
band,band,band,band,NOUN,True,False
for,for,for,for,ADP,True,True
use,use,use,use,NOUN,True,False
other,other,other,other,ADJ,True,True
than,than,than,than,SCONJ,True,True
commercial,commercial,commercial,commercial,ADJ,True,False
mobile,mobile,mobile,mobile,ADJ,True,False
wireless,wireless,wireless,wireless,PROPN,True,False
service,service,service,service,NOUN,True,False
.,.,.,.,PUNCT,False,False
first,first,first,first,ADV,True,True
",",",",",",",",PUNCT,False,False
license,license,license,license,VERB,True,False
the,the,the,the,DET,True,True
band,band,band,band,NOUN,True,False
in,in,in,in,ADP,True,True
large,large,large,large,ADJ,True,False
geographic,geographic,geographic,geographic,ADJ,True,False
area,area,area,area,NOUN,True,False
eliminate,eliminate,eliminate,eliminate,VERB,True,False
the,the,the,the,DET,True,True
ability,ability,ability,ability,NOUN,True,False
to,to,to,to,PART,True,True
target,target,target,target,VERB,True,False
license,license,license,license,NOUN,True,False
access,access,access,access,NOUN,True,False
to,to,to,to,ADP,True,True
spectrum,spectrum,spectrum,spectrum,NOUN,True,False
where,where,where,where,ADV,True,True
there,there,there,there,PRON,True,True
be,be,be,be,VERB,True,True
actual,actual,actual,actual,ADJ,True,False
rivalrous,rivalrous,rivalrous,rivalrous,ADJ,True,False
demand,demand,demand,demand,NOUN,True,False
",",",",",",",",PUNCT,False,False
result,result,result,result,VERB,True,False
in,in,in,in,ADP,True,True
large,large,large,large,ADJ,True,False
swath,swath,swath,swath,NOUN,True,False
of,of,of,of,ADP,True,True
the,the,the,the,DET,True,True
country,country,country,country,NOUN,True,False
under,under,under,under,ADP,True,True
the,the,the,the,DET,True,True
control,control,control,control,NOUN,True,False
of,of,of,of,ADP,True,True
licensee,licensee,licensee,licensee,NOUN,True,False
with,with,with,with,ADP,True,True
no,no,no,no,DET,True,True
intention,intention,intention,intention,NOUN,True,False
of,of,of,of,ADP,True,True
use,use,use,use,NOUN,True,False
the,the,the,the,DET,True,True
spectrum,spectrum,spectrum,spectrum,NOUN,True,False
in,in,in,in,ADP,True,True
all,all,all,all,DET,True,True
area,area,area,area,NOUN,True,False
.,.,.,.,PUNCT,False,False
this,this,this,this,DET,True,True
be,be,be,be,AUX,True,True
a,a,a,a,DET,True,True
small,small,small,small,ADJ,True,False
cell,cell,cell,cell,NOUN,True,False
band,band,band,band,NOUN,True,False
",",",",",",",",PUNCT,False,False
and,and,and,and,CCONJ,True,True
small,small,small,small,ADJ,True,False
cell,cell,cell,cell,NOUN,True,False
use,use,use,use,NOUN,True,False
be,be,be,be,AUX,True,True
localize,localize,localize,localize,VERB,True,False
by,by,by,by,ADP,True,True
design,design,design,design,NOUN,True,False
.,.,.,.,PUNCT,False,False
it,it,-PRON-,-pron-,PRON,True,True
be,be,be,be,VERB,True,True
therefore,therefore,therefore,therefore,ADV,True,True
unnecessary,unnecessary,unnecessary,unnecessary,ADJ,True,False
and,and,and,and,CCONJ,True,True
inefficient,inefficient,inefficient,inefficient,ADJ,True,False
to,to,to,to,PART,True,True
grant,grant,grant,grant,VERB,True,False
license,license,license,license,NOUN,True,False
right,right,right,right,ADV,True,False
over,over,over,over,ADP,True,True
a,a,a,a,DET,True,True
large,large,large,large,ADJ,True,False
license,license,license,license,NOUN,True,False
area,area,area,area,NOUN,True,False
like,like,like,like,SCONJ,True,False
a,a,a,a,DET,True,True
partial,partial,partial,partial,ADJ,True,False
economic,economic,economic,economic,ADJ,True,False
area,area,area,area,NOUN,True,False
where,where,where,where,ADV,True,True
a,a,a,a,DET,True,True
significant,significant,significant,significant,ADJ,True,False
portion,portion,portion,portion,NOUN,True,False
of,of,of,of,ADP,True,True
the,the,the,the,DET,True,True
geographic,geographic,geographic,geographic,ADJ,True,False
area,area,area,area,NOUN,True,False
will,will,will,will,VERB,True,True
go,go,go,go,VERB,True,True
unserved,unserved,unserved,unserved,ADJ,True,False
by,by,by,by,ADP,True,True
the,the,the,the,DET,True,True
licensee,licensee,licensee,licensee,NOUN,True,False
.,.,.,.,PUNCT,False,False
petitioner,petitioner,petitioner,petitioner,PROPN,True,False
do,do,do,do,AUX,True,True
not,not,not,not,PART,True,True
support,support,support,support,VERB,True,False
their,their,-PRON-,-pron-,DET,True,True
assertion,assertion,assertion,assertion,NOUN,True,False
that,that,that,that,SCONJ,True,True
large,large,large,large,ADJ,True,False
license,license,license,license,NOUN,True,False
area,area,area,area,NOUN,True,False
be,be,be,be,VERB,True,True
more,more,more,more,ADV,True,True
likely,likely,likely,likely,ADJ,True,False
to,to,to,to,PART,True,True
drive,drive,drive,drive,VERB,True,False
investment,investment,investment,investment,NOUN,True,False
than,than,than,than,SCONJ,True,True
the,the,the,the,DET,True,True
current,current,current,current,ADJ,True,False
structure,structure,structure,structure,NOUN,True,False
.,.,.,.,PUNCT,False,False
it,it,-PRON-,-pron-,PRON,True,True
may,may,may,may,VERB,True,True
be,be,be,be,AUX,True,True
the,the,the,the,DET,True,True
case,case,case,case,NOUN,True,False
that,that,that,that,SCONJ,True,True
large,large,large,large,ADJ,True,False
license,license,license,license,NOUN,True,False
area,area,area,area,NOUN,True,False
be,be,be,be,AUX,True,True
necessary,necessary,necessary,necessary,ADJ,True,False
to,to,to,to,PART,True,True
stimulate,stimulate,stimulate,stimulate,VERB,True,False
investment,investment,investment,investment,NOUN,True,False
in,in,in,in,ADP,True,True
low,low,low,low,ADJ,True,False
-,-,-,-,PUNCT,False,False
band,band,band,band,NOUN,True,False
spectrum,spectrum,spectrum,spectrum,NOUN,True,False
that,that,that,that,DET,True,True
be,be,be,be,VERB,True,True
design,design,design,design,NOUN,True,False
for,for,for,for,ADP,True,True
coverage,coverage,coverage,coverage,NOUN,True,False
and,and,and,and,CCONJ,True,True
propagate,propagate,propagate,propagate,VERB,True,False
over,over,over,over,ADP,True,True
long,long,long,long,ADJ,True,False
distance,distance,distance,distance,NOUN,True,False
.,.,.,.,PUNCT,False,False
that,that,that,that,DET,True,True
be,be,be,be,VERB,True,True
not,not,not,not,PART,True,True
the,the,the,the,DET,True,True
case,case,case,case,NOUN,True,False
here,here,here,here,ADV,True,True
.,.,.,.,PUNCT,False,False
cbrs,cbrs,cbr,cbr,NOUN,True,False
be,be,be,be,VERB,True,True
design,design,design,design,NOUN,True,False
to,to,to,to,PART,True,True
provide,provide,provide,provide,VERB,True,False
spectrum,spectrum,spectrum,spectrum,NOUN,True,False
access,access,access,access,NOUN,True,False
where,where,where,where,ADV,True,True
and,and,and,and,CCONJ,True,True
when,when,when,when,ADV,True,True
its,its,-PRON-,-pron-,DET,True,True
need,need,need,need,NOUN,True,False
.,.,.,.,PUNCT,False,False
wireless,wireless,wireless,wireless,ADJ,True,False
provider,provider,provider,provider,NOUN,True,False
will,will,will,will,VERB,True,True
use,use,use,use,VERB,True,False
sophisticated,sophisticated,sophisticated,sophisticated,ADJ,True,False
model,model,model,model,NOUN,True,False
to,to,to,to,PART,True,True
determine,determine,determine,determine,VERB,True,False
where,where,where,where,ADV,True,True
in,in,in,in,ADP,True,True
their,their,-PRON-,-pron-,DET,True,True
network,network,network,network,NOUN,True,False
they,they,-PRON-,-pron-,PRON,True,True
have,have,have,have,AUX,True,True
the,the,the,the,DET,True,True
great,great,great,great,ADJ,True,False
need,need,need,need,NOUN,True,False
for,for,for,for,ADP,True,True
additional,additional,additional,additional,ADJ,True,False
capacity,capacity,capacity,capacity,NOUN,True,False
",",",",",",",",PUNCT,False,False
and,and,and,and,CCONJ,True,True
focus,focus,focus,focus,VERB,True,False
their,their,-PRON-,-pron-,DET,True,True
cbrs,cbrs,cbr,cbr,NOUN,True,False
deployment,deployment,deployment,deployment,NOUN,True,False
in,in,in,in,ADP,True,True
those,those,those,those,DET,True,True
area,area,area,area,NOUN,True,False
.,.,.,.,PUNCT,False,False
it,it,-PRON-,-pron-,PRON,True,True
make,make,make,make,VERB,True,True
no,no,no,no,DET,True,True
sense,sense,sense,sense,NOUN,True,False
for,for,for,for,ADP,True,True
them,them,-PRON-,-pron-,PRON,True,True
to,to,to,to,PART,True,True
acquire,acquire,acquire,acquire,VERB,True,False
vast,vast,vast,vast,ADJ,True,False
geographic,geographic,geographic,geographic,ADJ,True,False
area,area,area,area,NOUN,True,False
that,that,that,that,DET,True,True
they,they,-PRON-,-pron-,PRON,True,True
have,have,have,have,AUX,True,True
no,no,no,no,DET,True,True
need,need,need,need,NOUN,True,False
",",",",",",",",PUNCT,False,False
desire,desire,desire,desire,VERB,True,False
",",",",",",",",PUNCT,False,False
or,or,or,or,CCONJ,True,True
intention,intention,intention,intention,NOUN,True,False
to,to,to,to,PART,True,True
serve,serve,serve,serve,VERB,True,False
.,.,.,.,PUNCT,False,False
furthermore,furthermore,furthermore,furthermore,ADV,True,False
",",",",",",",",PUNCT,False,False
simply,simply,simply,simply,ADV,True,False
because,because,because,because,SCONJ,True,True
census,census,census,census,NOUN,True,False
tract,tract,tract,tract,NOUN,True,False
result,result,result,result,VERB,True,False
in,in,in,in,ADP,True,True
a,a,a,a,DET,True,True
relatively,relatively,relatively,relatively,ADV,True,False
large,large,large,large,ADJ,True,False
number,number,number,number,NOUN,True,False
of,of,of,of,ADP,True,True
license,license,license,license,NOUN,True,False
do,do,do,do,AUX,True,True
not,not,not,not,PART,True,True
unreasonably,unreasonably,unreasonably,unreasonably,ADV,True,False
complicate,complicate,complicate,complicate,VERB,True,False
pal,pal,pal,pal,ADJ,True,False
auction,auction,auction,auction,NOUN,True,False
or,or,or,or,CCONJ,True,True
pal,pal,pal,pal,PROPN,True,False
license,license,license,license,PROPN,True,False
administration,administration,administration,administration,PROPN,True,False
.,.,.,.,PUNCT,False,False
the,the,the,the,DET,True,True
fcc,fcc,fcc,fcc,PROPN,True,False
just,just,just,just,ADV,True,True
successfully,successfully,successfully,successfully,ADV,True,False
complete,complete,complete,complete,ADJ,True,False
the,the,the,the,DET,True,True
world,world,world,world,NOUN,True,False
first,first,first,first,ADJ,True,True
incentive,incentive,incentive,incentive,NOUN,True,False
auction,auction,auction,auction,NOUN,True,False
",",",",",",",",PUNCT,False,False
with,with,with,with,ADP,True,True
an,an,an,an,DET,True,True
entirely,entirely,entirely,entirely,ADV,True,False
new,new,new,new,ADJ,True,False
auction,auction,auction,auction,NOUN,True,False
mechanism,mechanism,mechanism,mechanism,NOUN,True,False
and,and,and,and,CCONJ,True,True
it,it,-PRON-,-pron-,PRON,True,True
system,system,system,system,NOUN,True,False
build,build,build,build,VERB,True,False
from,from,from,from,ADP,True,True
the,the,the,the,DET,True,True
ground,ground,ground,ground,NOUN,True,False
up,up,up,up,ADP,True,True
.,.,.,.,PUNCT,False,False
the,the,the,the,DET,True,True
commission,commission,commission,commission,NOUN,True,False
clearly,clearly,clearly,clearly,ADV,True,False
have,have,have,have,AUX,True,True
the,the,the,the,DET,True,True
expertise,expertise,expertise,expertise,NOUN,True,False
and,and,and,and,CCONJ,True,True
skill,skill,skill,skill,NOUN,True,False
to,to,to,to,PART,True,True
construct,construct,construct,construct,VERB,True,False
an,an,an,an,DET,True,True
effective,effective,effective,effective,ADJ,True,False
auction,auction,auction,auction,NOUN,True,False
for,for,for,for,ADP,True,True
pal,pal,pal,pal,NOUN,True,False
",",",",",",",",PUNCT,False,False
the,the,the,the,DET,True,True
only,only,only,only,ADJ,True,True
unique,unique,unique,unique,ADJ,True,False
characteristic,characteristic,characteristic,characteristic,NOUN,True,False
of,of,of,of,ADP,True,True
which,which,which,which,DET,True,True
will,will,will,will,VERB,True,True
be,be,be,be,AUX,True,True
the,the,the,the,DET,True,True
number,number,number,number,NOUN,True,False
of,of,of,of,ADP,True,True
lot,lot,lot,lot,NOUN,True,False
up,up,up,up,ADP,True,True
for,for,for,for,ADP,True,True
auction,auction,auction,auction,NOUN,True,False
.,.,.,.,PUNCT,False,False
for,for,for,for,ADP,True,True
instance,instance,instance,instance,NOUN,True,False
",",",",",",",",PUNCT,False,False
it,it,-PRON-,-pron-,PRON,True,True
could,could,could,could,VERB,True,True
make,make,make,make,VERB,True,True
available,available,available,available,ADJ,True,False
a,a,a,a,DET,True,True
simple,simple,simple,simple,ADJ,True,False
user,user,user,user,NOUN,True,False
interface,interface,interface,interface,NOUN,True,False
that,that,that,that,DET,True,True
allow,allow,allow,allow,VERB,True,False
bidder,bidder,bidder,bidder,NOUN,True,False
to,to,to,to,PART,True,True
easily,easily,easily,easily,ADV,True,False
select,select,select,select,VERB,True,False
multiple,multiple,multiple,multiple,ADJ,True,False
license,license,license,license,NOUN,True,False
area,area,area,area,NOUN,True,False
in,in,in,in,ADP,True,True
advance,advance,advance,advance,NOUN,True,False
of,of,of,of,ADP,True,True
the,the,the,the,DET,True,True
auction,auction,auction,auction,NOUN,True,False
or,or,or,or,CCONJ,True,True
a,a,a,a,DET,True,True
bidding,bidding,bidding,bidding,NOUN,True,False
round,round,round,round,NOUN,True,False
it,it,-PRON-,-pron-,PRON,True,True
could,could,could,could,VERB,True,True
create,create,create,create,VERB,True,False
api,api,api,api,NOUN,True,False
to,to,to,to,PART,True,True
allow,allow,allow,allow,VERB,True,False
bidder,bidder,bidder,bidder,NOUN,True,False
to,to,to,to,PART,True,True
use,use,use,use,VERB,True,False
custom,custom,custom,custom,NOUN,True,False
software,software,software,software,NOUN,True,False
tool,tool,tool,tool,NOUN,True,False
to,to,to,to,PART,True,True
submit,submit,submit,submit,VERB,True,False
their,their,-PRON-,-pron-,DET,True,True
bid,bid,bid,bid,NOUN,True,False
or,or,or,or,CCONJ,True,True
it,it,-PRON-,-pron-,PRON,True,True
could,could,could,could,VERB,True,True
use,use,use,use,VERB,True,False
the,the,the,the,DET,True,True
auction,auction,auction,auction,NOUN,True,False
design,design,design,design,NOUN,True,False
itself,itself,-PRON-,-pron-,PRON,True,True
for,for,for,for,ADP,True,True
instance,instance,instance,instance,NOUN,True,False
",",",",",",",",PUNCT,False,False
it,it,-PRON-,-pron-,PRON,True,True
could,could,could,could,VERB,True,True
use,use,use,use,VERB,True,False
package,package,package,package,NOUN,True,False
bidding,bidding,bidding,bidding,NOUN,True,False
.,.,.,.,PUNCT,False,False
finally,finally,finally,finally,ADV,True,False
",",",",",",",",PUNCT,False,False
because,because,because,because,SCONJ,True,True
this,this,this,this,DET,True,True
band,band,band,band,NOUN,True,False
lack,lack,lack,lack,NOUN,True,False
buildout,buildout,buildout,buildout,NOUN,True,False
requirement,requirement,requirement,requirement,NOUN,True,False
",",",",",",",",PUNCT,False,False
there,there,there,there,PRON,True,True
be,be,be,be,AUX,True,True
no,no,no,no,DET,True,True
additional,additional,additional,additional,ADJ,True,False
administrative,administrative,administrative,administrative,ADJ,True,False
burden,burden,burden,burden,NOUN,True,False
on,on,on,on,ADP,True,True
licensee,licensee,licensee,licensee,PROPN,True,False
from,from,from,from,ADP,True,True
hold,hold,hold,hold,VERB,True,False
many,many,many,many,ADJ,True,True
license,license,license,license,NOUN,True,False
.,.,.,.,PUNCT,False,False
second,second,second,second,ADV,True,False
",",",",",",",",PUNCT,False,False
extend,extend,extend,extend,VERB,True,False
license,license,license,license,NOUN,True,False
term,term,term,term,NOUN,True,False
to,to,to,to,ADP,True,True
10,10,10,10,NUM,False,False
year,year,year,year,NOUN,True,False
will,will,will,will,VERB,True,True
decrease,decrease,decrease,decrease,VERB,True,False
investment,investment,investment,investment,NOUN,True,False
and,and,and,and,CCONJ,True,True
innovation,innovation,innovation,innovation,NOUN,True,False
in,in,in,in,ADP,True,True
the,the,the,the,DET,True,True
band,band,band,band,NOUN,True,False
.,.,.,.,PUNCT,False,False
an,an,an,an,DET,True,True
equipment,equipment,equipment,equipment,NOUN,True,False
ecosystem,ecosystem,ecosystem,ecosystem,NOUN,True,False
already,already,already,already,ADV,True,True
exist,exist,exist,exist,VERB,True,False
",",",",",",",",PUNCT,False,False
the,the,the,the,DET,True,True
sass,sass,sass,sass,NOUN,True,False
be,be,be,be,VERB,True,True
in,in,in,in,ADP,True,True
the,the,the,the,DET,True,True
second,second,second,second,ADJ,True,False
phase,phase,phase,phase,NOUN,True,False
of,of,of,of,ADP,True,True
approval,approval,approval,approval,NOUN,True,False
",",",",",",",",PUNCT,False,False
and,and,and,and,CCONJ,True,True
3gpp,3gpp,3gpp,3gpp,X,False,False
establish,establish,establish,establish,VERB,True,False
a,a,a,a,DET,True,True
band,band,band,band,NOUN,True,False
class,class,class,class,NOUN,True,False
for,for,for,for,ADP,True,True
the,the,the,the,DET,True,True
3.5,3.5,3.5,3.5,NUM,False,False
ghz,ghz,ghz,ghz,PROPN,True,False
band,band,band,band,NOUN,True,False
in,in,in,in,ADP,True,True
late,late,late,late,ADJ,True,False
2016,2016,2016,2016,NUM,False,False
.,.,.,.,PUNCT,False,False
there,there,there,there,PRON,True,True
have,have,have,have,AUX,True,True
be,be,be,be,AUX,True,True
substantial,substantial,substantial,substantial,ADJ,True,False
investment,investment,investment,investment,NOUN,True,False
and,and,and,and,CCONJ,True,True
innovation,innovation,innovation,innovation,NOUN,True,False
in,in,in,in,ADP,True,True
the,the,the,the,DET,True,True
band,band,band,band,NOUN,True,False
base,base,base,base,NOUN,True,False
upon,upon,upon,upon,SCONJ,True,True
the,the,the,the,DET,True,True
current,current,current,current,ADJ,True,False
rule,rule,rule,rule,NOUN,True,False
structure,structure,structure,structure,NOUN,True,False
.,.,.,.,PUNCT,False,False
while,while,while,while,SCONJ,True,True
provide,provide,provide,provide,VERB,True,False
a,a,a,a,DET,True,True
pal,pal,pal,pal,ADJ,True,False
licensee,licensee,licensee,licensee,NOUN,True,False
a,a,a,a,DET,True,True
10-year,10-year,10-year,10-year,NUM,False,False
term,term,term,term,NOUN,True,False
allow,allow,allow,allow,VERB,True,False
it,it,-PRON-,-pron-,PRON,True,True
to,to,to,to,PART,True,True
spread,spread,spread,spread,VERB,True,False
its,its,-PRON-,-pron-,DET,True,True
investment,investment,investment,investment,NOUN,True,False
over,over,over,over,ADP,True,True
a,a,a,a,DET,True,True
long,long,long,long,ADJ,True,False
term,term,term,term,NOUN,True,False
",",",",",",",",PUNCT,False,False
petitioner,petitioner,petitioner,petitioner,NOUN,True,False
provide,provide,provide,provide,VERB,True,False
no,no,no,no,DET,True,True
evidence,evidence,evidence,evidence,NOUN,True,False
to,to,to,to,PART,True,True
demonstrate,demonstrate,demonstrate,demonstrate,VERB,True,False
that,that,that,that,SCONJ,True,True
the,the,the,the,DET,True,True
net,net,net,net,ADJ,True,False
total,total,total,total,ADJ,True,False
investment,investment,investment,investment,NOUN,True,False
from,from,from,from,ADP,True,True
any,any,any,any,DET,True,True
one,one,one,one,NOUN,True,True
or,or,or,or,CCONJ,True,True
all,all,all,all,DET,True,True
pal,pal,pal,pal,ADJ,True,False
licensee,licensee,licensee,licensee,NOUN,True,False
will,will,will,will,VERB,True,True
increase,increase,increase,increase,VERB,True,False
over,over,over,over,ADP,True,True
that,that,that,that,DET,True,True
10-year,10-year,10-year,10-year,NUM,False,False
period,period,period,period,NOUN,True,False
relative,relative,relative,relative,ADJ,True,False
to,to,to,to,ADP,True,True
three,three,three,three,NUM,True,True
consecutive,consecutive,consecutive,consecutive,ADJ,True,False
license,license,license,license,NOUN,True,False
term,term,term,term,NOUN,True,False
over,over,over,over,ADP,True,True
short,short,short,short,ADJ,True,False
period,period,period,period,NOUN,True,False
.,.,.,.,PUNCT,False,False
instead,instead,instead,instead,ADV,True,False
of,of,of,of,ADP,True,True
incentivize,incentivize,incentivize,incentivize,VERB,True,False
licensee,licensee,licensee,licensee,NOUN,True,False
to,to,to,to,PART,True,True
invest,invest,invest,invest,VERB,True,False
",",",",",",",",PUNCT,False,False
long,long,long,long,ADJ,True,False
license,license,license,license,NOUN,True,False
term,term,term,term,NOUN,True,False
incentivize,incentivize,incentivize,incentivize,VERB,True,False
them,them,-PRON-,-pron-,PRON,True,True
to,to,to,to,PART,True,True
wait,wait,wait,wait,VERB,True,False
.,.,.,.,PUNCT,False,False
long,long,long,long,ADJ,True,False
license,license,license,license,NOUN,True,False
term,term,term,term,NOUN,True,False
in,in,in,in,ADP,True,True
cbrs,cbrs,cbr,cbr,NOUN,True,False
",",",",",",",",PUNCT,False,False
especially,especially,especially,especially,ADV,True,False
couple,couple,couple,couple,NOUN,True,False
with,with,with,with,ADP,True,True
large,large,large,large,ADJ,True,False
license,license,license,license,NOUN,True,False
area,area,area,area,NOUN,True,False
",",",",",",",",PUNCT,False,False
will,will,will,will,VERB,True,True
reduce,reduce,reduce,reduce,VERB,True,False
the,the,the,the,DET,True,True
availability,availability,availability,availability,NOUN,True,False
of,of,of,of,ADP,True,True
spectrum,spectrum,spectrum,spectrum,NOUN,True,False
for,for,for,for,ADP,True,True
other,other,other,other,ADJ,True,True
use,use,use,use,NOUN,True,False
",",",",",",",",PUNCT,False,False
thus,thus,thus,thus,ADV,True,True
limit,limit,limit,limit,VERB,True,False
the,the,the,the,DET,True,True
pool,pool,pool,pool,NOUN,True,False
of,of,of,of,ADP,True,True
company,company,company,company,NOUN,True,False
that,that,that,that,DET,True,True
could,could,could,could,VERB,True,True
invest,invest,invest,invest,VERB,True,False
in,in,in,in,ADP,True,True
the,the,the,the,DET,True,True
band,band,band,band,NOUN,True,False
and,and,and,and,CCONJ,True,True
minimize,minimize,minimize,minimize,VERB,True,False
overall,overall,overall,overall,ADJ,True,False
investment,investment,investment,investment,NOUN,True,False
.,.,.,.,PUNCT,False,False
finally,finally,finally,finally,ADV,True,False
",",",",",",",",PUNCT,False,False
while,while,while,while,SCONJ,True,True
short,short,short,short,ADJ,True,False
license,license,license,license,NOUN,True,False
term,term,term,term,NOUN,True,False
may,may,may,may,VERB,True,True
result,result,result,result,VERB,True,False
in,in,in,in,ADP,True,True
less,less,less,less,ADJ,True,True
auction,auction,auction,auction,NOUN,True,False
revenue,revenue,revenue,revenue,NOUN,True,False
",",",",",",",",PUNCT,False,False
the,the,the,the,DET,True,True
ability,ability,ability,ability,NOUN,True,False
to,to,to,to,PART,True,True
operate,operate,operate,operate,VERB,True,False
on,on,on,on,ADP,True,True
a,a,a,a,DET,True,True
gaa,gaa,gaa,gaa,NOUN,True,False
basis,basis,basis,basis,NOUN,True,False
",",",",",",",",PUNCT,False,False
even,even,even,even,ADV,True,True
in,in,in,in,ADP,True,True
the,the,the,the,DET,True,True
event,event,event,event,NOUN,True,False
that,that,that,that,SCONJ,True,True
anincumbent,anincumbent,anincumbent,anincumbent,NOUN,True,False
pal,pal,pal,pal,PROPN,True,False
licensee,licensee,licensee,licensee,PROPN,True,False
lose,lose,lose,lose,VERB,True,False
the,the,the,the,DET,True,True
license,license,license,license,NOUN,True,False
at,at,at,at,ADP,True,True
auction,auction,auction,auction,NOUN,True,False
",",",",",",",",PUNCT,False,False
minimize,minimize,minimize,minimize,VERB,True,False
the,the,the,the,DET,True,True
risk,risk,risk,risk,NOUN,True,False
and,and,and,and,CCONJ,True,True
disincentive,disincentive,disincentive,disincentive,ADJ,True,False
of,of,of,of,ADP,True,True
stranded,stranded,stranded,stranded,ADJ,True,False
investment,investment,investment,investment,NOUN,True,False
.,.,.,.,PUNCT,False,False
third,third,third,third,ADV,True,True
",",",",",",",",PUNCT,False,False
renew,renew,renew,renew,VERB,True,False
license,license,license,license,NOUN,True,False
without,without,without,without,ADP,True,True
require,require,require,require,VERB,True,False
the,the,the,the,DET,True,True
licensee,licensee,licensee,licensee,NOUN,True,False
to,to,to,to,PART,True,True
demonstrate,demonstrate,demonstrate,demonstrate,VERB,True,False
that,that,that,that,SCONJ,True,True
it,it,-PRON-,-pron-,PRON,True,True
be,be,be,be,AUX,True,True
use,use,use,use,VERB,True,False
the,the,the,the,DET,True,True
spectrum,spectrum,spectrum,spectrum,NOUN,True,False
be,be,be,be,AUX,True,True
inconsistent,inconsistent,inconsistent,inconsistent,ADJ,True,False
with,with,with,with,ADP,True,True
the,the,the,the,DET,True,True
letter,letter,letter,letter,NOUN,True,False
of,of,of,of,ADP,True,True
the,the,the,the,DET,True,True
telecommunications,telecommunications,telecommunications,telecommunications,PROPN,True,False
act,act,act,act,PROPN,True,False
.,.,.,.,PUNCT,False,False
short,short,short,short,ADJ,True,False
license,license,license,license,NOUN,True,False
term,term,term,term,NOUN,True,False
in,in,in,in,ADP,True,True
cbrs,cbrs,cbr,cbr,NOUN,True,False
help,help,help,help,VERB,True,False
force,force,force,force,NOUN,True,False
licensee,licensee,licensee,licensee,NOUN,True,False
to,to,to,to,PART,True,True
regularly,regularly,regularly,regularly,ADV,True,False
consider,consider,consider,consider,VERB,True,False
whether,whether,whether,whether,SCONJ,True,True
or,or,or,or,CCONJ,True,True
not,not,not,not,PART,True,True
they,they,-PRON-,-pron-,PRON,True,True
need,need,need,need,VERB,True,False
or,or,or,or,CCONJ,True,True
value,value,value,value,VERB,True,False
the,the,the,the,DET,True,True
license,license,license,license,NOUN,True,False
it,it,-PRON-,-pron-,PRON,True,True
become,become,become,become,VERB,True,True
an,an,an,an,DET,True,True
ongoing,ongoing,ongoing,ongoing,ADJ,True,False
expense,expense,expense,expense,NOUN,True,False
rather,rather,rather,rather,ADV,True,True
than,than,than,than,SCONJ,True,True
an,an,an,an,DET,True,True
asset,asset,asset,asset,NOUN,True,False
.,.,.,.,PUNCT,False,False
if,if,if,if,SCONJ,True,True
a,a,a,a,DET,True,True
pal,pal,pal,pal,ADJ,True,False
licensee,licensee,licensee,licensee,NOUN,True,False
decide,decide,decide,decide,VERB,True,False
it,it,-PRON-,-pron-,PRON,True,True
do,do,do,do,AUX,True,True
not,not,not,not,PART,True,True
need,need,need,need,VERB,True,False
a,a,a,a,DET,True,True
license,license,license,license,NOUN,True,False
",",",",",",",",PUNCT,False,False
another,another,another,another,DET,True,True
entity,entity,entity,entity,NOUN,True,False
could,could,could,could,VERB,True,True
win,win,win,win,VERB,True,False
it,it,-PRON-,-pron-,PRON,True,True
at,at,at,at,ADP,True,True
auction,auction,auction,auction,NOUN,True,False
",",",",",",",",PUNCT,False,False
or,or,or,or,CCONJ,True,True
the,the,the,the,DET,True,True
channel,channel,channel,channel,NOUN,True,False
could,could,could,could,VERB,True,True
be,be,be,be,AUX,True,True
return,return,return,return,NOUN,True,False
to,to,to,to,ADP,True,True
the,the,the,the,DET,True,True
gaa,gaa,gaa,gaa,NOUN,True,False
pool,pool,pool,pool,NOUN,True,False
.,.,.,.,PUNCT,False,False
this,this,this,this,DET,True,True
mechanism,mechanism,mechanism,mechanism,NOUN,True,False
prevent,prevent,prevent,prevent,VERB,True,False
warehouse,warehouse,warehouse,warehouse,NOUN,True,False
by,by,by,by,ADP,True,True
impose,impose,impose,impose,VERB,True,False
a,a,a,a,DET,True,True
real,real,real,real,ADJ,True,False
cost,cost,cost,cost,NOUN,True,False
on,on,on,on,ADP,True,True
hold,hold,hold,hold,NOUN,True,False
the,the,the,the,DET,True,True
spectrum,spectrum,spectrum,spectrum,NOUN,True,False
in,in,in,in,ADP,True,True
the,the,the,the,DET,True,True
form,form,form,form,NOUN,True,False
of,of,of,of,ADP,True,True
bid,bid,bid,bid,NOUN,True,False
to,to,to,to,PART,True,True
retain,retain,retain,retain,VERB,True,False
the,the,the,the,DET,True,True
license,license,license,license,NOUN,True,False
through,through,through,through,ADP,True,True
multiple,multiple,multiple,multiple,ADJ,True,False
auction,auction,auction,auction,NOUN,True,False
",",",",",",",",PUNCT,False,False
and,and,and,and,CCONJ,True,True
the,the,the,the,DET,True,True
gaa,gaa,gaa,gaa,NOUN,True,False
tier,tier,tier,tier,NOUN,True,False
ensure,ensure,ensure,ensure,VERB,True,False
the,the,the,the,DET,True,True
spectrum,spectrum,spectrum,spectrum,NOUN,True,False
be,be,be,be,AUX,True,True
available,available,available,available,ADJ,True,False
to,to,to,to,ADP,True,True
other,other,other,other,ADJ,True,True
user,user,user,user,NOUN,True,False
.,.,.,.,PUNCT,False,False
allow,allow,allow,allow,VERB,True,False
licensee,licensee,licensee,licensee,PROPN,True,False
to,to,to,to,PART,True,True
renew,renew,renew,renew,VERB,True,False
10-year,10-year,10-year,10-year,NUM,False,False
license,license,license,license,NOUN,True,False
into,into,into,into,ADP,True,True
perpetuity,perpetuity,perpetuity,perpetuity,NOUN,True,False
",",",",",",",",PUNCT,False,False
and,and,and,and,CCONJ,True,True
with,with,with,with,ADP,True,True
no,no,no,no,DET,True,True
buildout,buildout,buildout,buildout,NOUN,True,False
requirement,requirement,requirement,requirement,NOUN,True,False
",",",",",",",",PUNCT,False,False
serve,serve,serve,serve,VERB,True,False
no,no,no,no,DET,True,True
legitimate,legitimate,legitimate,legitimate,ADJ,True,False
policy,policy,policy,policy,NOUN,True,False
purpose,purpose,purpose,purpose,NOUN,True,False
.,.,.,.,PUNCT,False,False
spectrum,spectrum,spectrum,spectrum,PROPN,True,False
license,license,license,license,PROPN,True,False
be,be,be,be,VERB,True,True
a,a,a,a,DET,True,True
limited,limited,limited,limited,ADJ,True,False
right,right,right,right,NOUN,True,False
to,to,to,to,PART,True,True
use,use,use,use,VERB,True,False
a,a,a,a,DET,True,True
public,public,public,public,ADJ,True,False
resource,resource,resource,resource,NOUN,True,False
",",",",",",",",PUNCT,False,False
and,and,and,and,CCONJ,True,True
the,the,the,the,DET,True,True
commission,commission,commission,commission,NOUN,True,False
have,have,have,have,AUX,True,True
a,a,a,a,DET,True,True
statutory,statutory,statutory,statutory,ADJ,True,False
obligation,obligation,obligation,obligation,NOUN,True,False
to,to,to,to,PART,True,True
ensure,ensure,ensure,ensure,VERB,True,False
licensee,licensee,licensee,licensee,NOUN,True,False
use,use,use,use,VERB,True,False
that,that,that,that,DET,True,True
right,right,right,right,NOUN,True,False
to,to,to,to,PART,True,True
serve,serve,serve,serve,VERB,True,False
the,the,the,the,DET,True,True
public,public,public,public,ADJ,True,False
interest,interest,interest,interest,NOUN,True,False
.,.,.,.,PUNCT,False,False
in,in,in,in,ADP,True,True
the,the,the,the,DET,True,True
event,event,event,event,NOUN,True,False
that,that,that,that,DET,True,True
the,the,the,the,DET,True,True
commission,commission,commission,commission,NOUN,True,False
do,do,do,do,AUX,True,True
change,change,change,change,VERB,True,False
the,the,the,the,DET,True,True
license,license,license,license,NOUN,True,False
term,term,term,term,NOUN,True,False
to,to,to,to,ADP,True,True
10,10,10,10,NUM,False,False
year,year,year,year,NOUN,True,False
",",",",",",",",PUNCT,False,False
it,it,-PRON-,-pron-,PRON,True,True
must,must,must,must,VERB,True,True
impose,impose,impose,impose,VERB,True,False
stringent,stringent,stringent,stringent,ADJ,True,False
buildout,buildout,buildout,buildout,NOUN,True,False
requirement,requirement,requirement,requirement,NOUN,True,False
that,that,that,that,DET,True,True
be,be,be,be,VERB,True,True
tailor,tailor,tailor,tailor,NOUN,True,False
to,to,to,to,ADP,True,True
the,the,the,the,DET,True,True
type,type,type,type,NOUN,True,False
of,of,of,of,ADP,True,True
deployment,deployment,deployment,deployment,NOUN,True,False
that,that,that,that,DET,True,True
limit,limit,limit,limit,VERB,True,False
a,a,a,a,DET,True,True
licensee,licensee,licensee,licensee,NOUN,True,False
ability,ability,ability,ability,NOUN,True,False
to,to,to,to,PART,True,True
use,use,use,use,VERB,True,False
license,license,license,license,NOUN,True,False
saver,saver,saver,saver,NOUN,True,False
and,and,and,and,CCONJ,True,True
must,must,must,must,VERB,True,True
force,force,force,force,VERB,True,False
licensee,licensee,licensee,licensee,VERB,True,False
to,to,to,to,PART,True,True
forfeit,forfeit,forfeit,forfeit,VERB,True,False
those,those,those,those,DET,True,True
area,area,area,area,NOUN,True,False
of,of,of,of,ADP,True,True
its,its,-PRON-,-pron-,DET,True,True
license,license,license,license,NOUN,True,False
that,that,that,that,DET,True,True
be,be,be,be,VERB,True,True
not,not,not,not,PART,True,True
in,in,in,in,ADP,True,True
use,use,use,use,NOUN,True,False
",",",",",",",",PUNCT,False,False
or,or,or,or,CCONJ,True,True
those,those,those,those,DET,True,True
license,license,license,license,NOUN,True,False
it,it,-PRON-,-pron-,PRON,True,True
have,have,have,have,AUX,True,True
not,not,not,not,PART,True,True
construct,construct,construct,construct,VERB,True,False
",",",",",",",",PUNCT,False,False
consistent,consistent,consistent,consistent,ADJ,True,False
with,with,with,with,ADP,True,True
the,the,the,the,DET,True,True
use,use,use,use,VERB,True,False
-,-,-,-,PUNCT,False,False
or,or,or,or,CCONJ,True,True
-,-,-,-,PUNCT,False,False
lose,lose,lose,lose,ADJ,True,False
model,model,model,model,NOUN,True,False
in,in,in,in,ADP,True,True
other,other,other,other,ADJ,True,True
band,band,band,band,NOUN,True,False
.,.,.,.,PUNCT,False,False
finally,finally,finally,finally,ADV,True,False
",",",",",",",",PUNCT,False,False
t,t,t,t,PROPN,True,False
-,-,-,-,PUNCT,False,False
mobiles,mobiles,mobiles,mobiles,NOUN,True,False
request,request,request,request,NOUN,True,False
change,change,change,change,NOUN,True,False
amount,amount,amount,amount,NOUN,True,True
to,to,to,to,ADP,True,True
re,re,re,re,NOUN,True,True
-,-,-,-,VERB,False,False
farm,farm,farm,farm,VERB,True,False
the,the,the,the,DET,True,True
band,band,band,band,NOUN,True,False
solely,solely,solely,solely,ADV,True,False
to,to,to,to,PART,True,True
support,support,support,support,VERB,True,False
wide,wide,wide,wide,ADJ,True,False
-,-,-,-,PUNCT,False,False
area,area,area,area,NOUN,True,False
commercial,commercial,commercial,commercial,ADJ,True,False
wireless,wireless,wireless,wireless,NOUN,True,False
network,network,network,network,NOUN,True,False
",",",",",",",",PUNCT,False,False
which,which,which,which,DET,True,True
be,be,be,be,VERB,True,True
inconsistent,inconsistent,inconsistent,inconsistent,ADJ,True,False
with,with,with,with,ADP,True,True
the,the,the,the,DET,True,True
fcc,fcc,fcc,fcc,PROPN,True,False
intent,intent,intent,intent,NOUN,True,False
as,as,as,as,SCONJ,True,True
it,it,-PRON-,-pron-,PRON,True,True
have,have,have,have,AUX,True,True
affirm,affirm,affirm,affirm,VERB,True,False
consistently,consistently,consistently,consistently,ADV,True,False
since,since,since,since,SCONJ,True,True
2012,2012,2012,2012,NUM,False,False
.,.,.,.,PUNCT,False,False
the,the,the,the,DET,True,True
current,current,current,current,ADJ,True,False
structure,structure,structure,structure,NOUN,True,False
make,make,make,make,VERB,True,True
this,this,this,this,DET,True,True
spectrum,spectrum,spectrum,spectrum,NOUN,True,False
available,available,available,available,ADJ,True,False
to,to,to,to,ADP,True,True
a,a,a,a,DET,True,True
wide,wide,wide,wide,ADJ,True,False
variety,variety,variety,variety,NOUN,True,False
of,of,of,of,ADP,True,True
user,user,user,user,NOUN,True,False
to,to,to,to,PART,True,True
support,support,support,support,VERB,True,False
a,a,a,a,DET,True,True
wide,wide,wide,wide,ADJ,True,False
variety,variety,variety,variety,NOUN,True,False
of,of,of,of,ADP,True,True
use,use,use,use,NOUN,True,False
",",",",",",",",PUNCT,False,False
include,include,include,include,VERB,True,False
fix,fix,fix,fix,NOUN,True,False
and,and,and,and,CCONJ,True,True
mobile,mobile,mobile,mobile,ADJ,True,False
wireless,wireless,wireless,wireless,ADJ,True,False
broadband,broadband,broadband,broadband,NOUN,True,False
",",",",",",",",PUNCT,False,False
internet,internet,internet,internet,NOUN,True,False
of,of,of,of,ADP,True,True
things,things,thing,thing,NOUN,True,False
",",",",",",",",PUNCT,False,False
and,and,and,and,CCONJ,True,True
other,other,other,other,ADJ,True,True
industrial,industrial,industrial,industrial,ADJ,True,False
use,use,use,use,NOUN,True,False
like,like,like,like,INTJ,True,False
smart,smart,smart,smart,ADJ,True,False
grid,grid,grid,grid,NOUN,True,False
application,application,application,application,NOUN,True,False
.,.,.,.,PUNCT,False,False
importantly,importantly,importantly,importantly,ADV,True,False
",",",",",",",",PUNCT,False,False
wisps,wisps,wisps,wisps,PROPN,True,False
relyon,relyon,relyon,relyon,PROPN,True,False
this,this,this,this,DET,True,True
spectrum,spectrum,spectrum,spectrum,NOUN,True,False
to,to,to,to,PART,True,True
deploy,deploy,deploy,deploy,VERB,True,False
much,much,much,much,ADJ,True,True
need,need,need,need,NOUN,True,False
broadband,broadband,broadband,broadband,NOUN,True,False
service,service,service,service,NOUN,True,False
to,to,to,to,ADP,True,True
unserved,unserved,unserved,unserved,ADJ,True,False
and,and,and,and,CCONJ,True,True
underserved,underserved,underserved,underserved,ADJ,True,False
community,community,community,community,NOUN,True,False
.,.,.,.,PUNCT,False,False
rural,rural,rural,rural,ADJ,True,False
broadband,broadband,broadband,broadband,PROPN,True,False
deployment,deployment,deployment,deployment,NOUN,True,False
be,be,be,be,VERB,True,True
a,a,a,a,DET,True,True
cornerstone,cornerstone,cornerstone,cornerstone,NOUN,True,False
of,of,of,of,ADP,True,True
chairman,chairman,chairman,chairman,NOUN,True,False
pais,pais,pais,pais,PROPN,True,False
policy,policy,policy,policy,NOUN,True,False
agenda,agenda,agenda,agenda,NOUN,True,False
the,the,the,the,DET,True,True
chairman,chairman,chairman,chairman,NOUN,True,False
should,should,should,should,VERB,True,True
reaffirm,reaffirm,reaffirm,reaffirm,VERB,True,False
this,this,this,this,DET,True,True
commitment,commitment,commitment,commitment,NOUN,True,False
and,and,and,and,CCONJ,True,True
reject,reject,reject,reject,VERB,True,False
t,t,t,t,PROPN,True,False
-,-,-,-,PUNCT,False,False
mobiles,mobiles,mobile,mobile,NOUN,True,False
petition,petition,petition,petition,NOUN,True,False
",",",",",",",",PUNCT,False,False
which,which,which,which,DET,True,True
would,would,would,would,VERB,True,True
destroy,destroy,destroy,destroy,VERB,True,False
wisps,wisps,wisps,wisps,PROPN,True,False
opportunity,opportunity,opportunity,opportunity,NOUN,True,False
to,to,to,to,PART,True,True
access,access,access,access,VERB,True,False
this,this,this,this,DET,True,True
spectrum,spectrum,spectrum,spectrum,NOUN,True,False
.,.,.,.,PUNCT,False,False
t,t,t,t,PROPN,True,False
-,-,-,-,PUNCT,False,False
mobiles,mobiles,mobile,mobile,NOUN,True,False
petition,petition,petition,petition,NOUN,True,False
be,be,be,be,AUX,True,True
also,also,also,also,ADV,True,True
inconsistent,inconsistent,inconsistent,inconsistent,ADJ,True,False
with,with,with,with,ADP,True,True
the,the,the,the,DET,True,True
heavily,heavily,heavily,heavily,ADV,True,False
negotiate,negotiate,negotiate,negotiate,ADJ,True,False
agreement,agreement,agreement,agreement,NOUN,True,False
with,with,with,with,ADP,True,True
federal,federal,federal,federal,ADJ,True,False
user,user,user,user,NOUN,True,False
for,for,for,for,ADP,True,True
shared,shared,shared,shared,ADJ,True,False
access,access,access,access,NOUN,True,False
to,to,to,to,ADP,True,True
the,the,the,the,DET,True,True
3550,3550,3550,3550,NUM,False,False
-,-,-,-,SYM,False,False
3650,3650,3650,3650,NUM,False,False
mhz,mhz,mhz,mhz,PROPN,True,False
band,band,band,band,NOUN,True,False
.,.,.,.,PUNCT,False,False
federal,federal,federal,federal,ADJ,True,False
user,user,user,user,NOUN,True,False
support,support,support,support,NOUN,True,False
this,this,this,this,DET,True,True
effort,effort,effort,effort,NOUN,True,False
precisely,precisely,precisely,precisely,ADV,True,False
because,because,because,because,SCONJ,True,True
it,it,-PRON-,-pron-,PRON,True,True
be,be,be,be,AUX,True,True
a,a,a,a,DET,True,True
smart,smart,smart,smart,ADJ,True,False
approach,approach,approach,approach,NOUN,True,False
to,to,to,to,ADP,True,True
spectrum,spectrum,spectrum,spectrum,NOUN,True,False
policy,policy,policy,policy,NOUN,True,False
that,that,that,that,DET,True,True
allow,allow,allow,allow,VERB,True,False
them,them,-PRON-,-pron-,PRON,True,True
to,to,to,to,PART,True,True
continue,continue,continue,continue,VERB,True,False
to,to,to,to,PART,True,True
operate,operate,operate,operate,VERB,True,False
and,and,and,and,CCONJ,True,True
be,be,be,be,AUX,True,True
protect,protect,protect,protect,ADJ,True,False
",",",",",",",",PUNCT,False,False
while,while,while,while,SCONJ,True,True
develop,develop,develop,develop,VERB,True,False
and,and,and,and,CCONJ,True,True
use,use,use,use,VERB,True,False
new,new,new,new,ADJ,True,False
tool,tool,tool,tool,NOUN,True,False
to,to,to,to,PART,True,True
enable,enable,enable,enable,VERB,True,False
commercial,commercial,commercial,commercial,ADJ,True,False
use,use,use,use,NOUN,True,False
.,.,.,.,PUNCT,False,False
furthermore,furthermore,furthermore,furthermore,ADV,True,False
",",",",",",",",PUNCT,False,False
revisit,revisit,revisit,revisit,VERB,True,False
the,the,the,the,DET,True,True
technical,technical,technical,technical,ADJ,True,False
rule,rule,rule,rule,NOUN,True,False
will,will,will,will,VERB,True,True
require,require,require,require,VERB,True,False
a,a,a,a,DET,True,True
substantial,substantial,substantial,substantial,ADJ,True,False
amount,amount,amount,amount,NOUN,True,True
of,of,of,of,ADP,True,True
engineering,engineering,engineering,engineering,NOUN,True,False
analysis,analysis,analysis,analysis,NOUN,True,False
to,to,to,to,PART,True,True
reconsider,reconsider,reconsider,reconsider,VERB,True,False
the,the,the,the,DET,True,True
exclusion,exclusion,exclusion,exclusion,NOUN,True,False
zone,zone,zone,zone,NOUN,True,False
which,which,which,which,DET,True,True
will,will,will,will,VERB,True,True
grow,grow,grow,grow,VERB,True,False
significantly,significantly,significantly,significantly,ADV,True,False
",",",",",",",",PUNCT,False,False
esc,esc,esc,esc,PROPN,True,False
requirement,requirement,requirement,requirement,NOUN,True,False
",",",",",",",",PUNCT,False,False
protection,protection,protection,protection,NOUN,True,False
for,for,for,for,ADP,True,True
fss,fss,fss,fss,NOUN,True,False
earth,earth,earth,earth,NOUN,True,False
station,station,station,station,NOUN,True,False
",",",",",",",",PUNCT,False,False
and,and,and,and,CCONJ,True,True
other,other,other,other,ADJ,True,True
technical,technical,technical,technical,ADJ,True,False
requirement,requirement,requirement,requirement,NOUN,True,False
for,for,for,for,ADP,True,True
the,the,the,the,DET,True,True
band,band,band,band,NOUN,True,False
.,.,.,.,PUNCT,False,False
take,take,take,take,VERB,True,True
such,such,such,such,DET,True,True
an,an,an,an,DET,True,True
action,action,action,action,NOUN,True,False
would,would,would,would,VERB,True,True
delay,delay,delay,delay,VERB,True,False
the,the,the,the,DET,True,True
use,use,use,use,NOUN,True,False
of,of,of,of,ADP,True,True
this,this,this,this,DET,True,True
band,band,band,band,NOUN,True,False
for,for,for,for,ADP,True,True
year,year,year,year,NOUN,True,False
",",",",",",",",PUNCT,False,False
minimize,minimize,minimize,minimize,NOUN,True,False
investment,investment,investment,investment,NOUN,True,False
",",",",",",",",PUNCT,False,False
and,and,and,and,CCONJ,True,True
deter,deter,deter,deter,VERB,True,False
ongoing,ongoing,ongoing,ongoing,ADJ,True,False
innovation,innovation,innovation,innovation,NOUN,True,False
.,.,.,.,PUNCT,False,False
the,the,the,the,DET,True,True
market,market,market,market,NOUN,True,False
be,be,be,be,AUX,True,True
ready,ready,ready,ready,ADJ,True,False
for,for,for,for,ADP,True,True
the,the,the,the,DET,True,True
3.5,3.5,3.5,3.5,NUM,False,False
ghz,ghz,ghz,ghz,PROPN,True,False
band,band,band,band,NOUN,True,False
to,to,to,to,PART,True,True
come,come,come,come,VERB,True,False
on,on,on,on,ADP,True,True
line,line,line,line,NOUN,True,False
.,.,.,.,PUNCT,False,False
the,the,the,the,DET,True,True
commission,commission,commission,commission,NOUN,True,False
can,can,can,can,VERB,True,True
stimulate,stimulate,stimulate,stimulate,VERB,True,False
substantial,substantial,substantial,substantial,ADJ,True,False
economic,economic,economic,economic,ADJ,True,False
activity,activity,activity,activity,NOUN,True,False
continue,continue,continue,continue,VERB,True,False
innovation,innovation,innovation,innovation,NOUN,True,False
and,and,and,and,CCONJ,True,True
new,new,new,new,ADJ,True,False
investment,investment,investment,investment,NOUN,True,False
by,by,by,by,ADP,True,True
dismiss,dismiss,dismiss,dismiss,VERB,True,False
the,the,the,the,DET,True,True
petitions,petitions,petition,petition,NOUN,True,False
and,and,and,and,CCONJ,True,True
expeditiously,expeditiously,expeditiously,expeditiously,ADV,True,False
certify,certify,certify,certify,VERB,True,False
sas,sas,sas,sas,PROPN,True,False
administrators,administrators,administrators,administrators,PROPN,True,False
and,and,and,and,CCONJ,True,True
esc,esc,esc,esc,PROPN,True,False
operator,operator,operator,operator,NOUN,True,False
.,.,.,.,PUNCT,False,False
