text,text_lower,lemma,lemma_lower,part_of_speech,is_alphabet,is_stopword
qualcomm,qualcomm,qualcomm,qualcomm,PROPN,True,False
incorporated,incorporated,incorporated,incorporated,PROPN,True,False
qualcomm,qualcomm,qualcomm,qualcomm,PROPN,True,False
be,be,be,be,AUX,True,True
pleased,pleased,pleased,pleased,ADJ,True,False
to,to,to,to,PART,True,True
provide,provide,provide,provide,VERB,True,False
these,these,these,these,DET,True,True
comment,comment,comment,comment,NOUN,True,False
on,on,on,on,ADP,True,True
thepetition,thepetition,thepetition,thepetition,NOUN,True,False
for,for,for,for,ADP,True,True
rulemake,rulemake,rulemake,rulemake,NOUN,True,False
file,file,file,file,NOUN,True,False
by,by,by,by,ADP,True,True
ctia,ctia,ctia,ctia,PROPN,True,False
and,and,and,and,CCONJ,True,True
t,t,t,t,PROPN,True,False
-,-,-,-,PUNCT,False,False
mobile,mobile,mobile,mobile,PROPN,True,False
usa,usa,usa,usa,PROPN,True,False
seek,seek,seek,seek,PROPN,True,False
change,change,change,change,NOUN,True,False
to,to,to,to,ADP,True,True
the,the,the,the,DET,True,True
3.5,3.5,3.5,3.5,NUM,False,False
ghzband,ghzband,ghzband,ghzband,NOUN,True,False
licensing,licensing,licensing,licensing,NOUN,True,False
rule,rule,rule,rule,NOUN,True,False
and,and,and,and,CCONJ,True,True
in,in,in,in,ADP,True,True
support,support,support,support,NOUN,True,False
of,of,of,of,ADP,True,True
qualcomms,qualcomms,qualcomms,qualcomms,PROPN,True,False
own,own,own,own,ADJ,True,True
filing,filing,filing,filing,NOUN,True,False
proposing,proposing,propose,propose,VERB,True,False
change,change,change,change,NOUN,True,False
to,to,to,to,ADP,True,True
theemission,theemission,theemission,theemission,NOUN,True,False
limit,limit,limit,limit,NOUN,True,False
that,that,that,that,DET,True,True
currently,currently,currently,currently,ADV,True,False
apply,apply,apply,apply,VERB,True,False
to,to,to,to,ADP,True,True
3.5,3.5,3.5,3.5,NUM,False,False
ghz,ghz,ghz,ghz,PROPN,True,False
band,band,band,band,NOUN,True,False
operation,operation,operation,operation,NOUN,True,False
.,.,.,.,PUNCT,False,False
it,it,-PRON-,-pron-,PRON,True,True
be,be,be,be,VERB,True,True
critically,critically,critically,critically,ADV,True,False
important,important,important,important,ADJ,True,False
thatthe,thatthe,thatthe,thatthe,DET,True,False
fcc,fcc,fcc,fcc,PROPN,True,False
move,move,move,move,NOUN,True,True
forward,forward,forward,forward,ADV,True,False
quickly,quickly,quickly,quickly,ADV,True,False
to,to,to,to,PART,True,True
implement,implement,implement,implement,VERB,True,False
the,the,the,the,DET,True,True
change,change,change,change,NOUN,True,False
cover,cover,cover,cover,NOUN,True,False
herein,herein,herein,herein,PROPN,True,True
so,so,so,so,SCONJ,True,True
this,this,this,this,DET,True,True
important,important,important,important,ADJ,True,False
mid,mid,mid,mid,ADJ,True,False
-,-,-,-,NOUN,False,False
band,band,band,band,NOUN,True,False
spectrum,spectrum,spectrum,spectrum,NOUN,True,False
can,can,can,can,VERB,True,True
be,be,be,be,AUX,True,True
use,use,use,use,NOUN,True,False
for,for,for,for,ADP,True,True
4,4,4,4,NUM,False,False
g,g,g,g,NOUN,True,False
lte,lte,lte,lte,NOUN,True,False
advanced,advanced,advance,advance,VERB,True,False
and,and,and,and,CCONJ,True,True
5,5,5,5,NUM,False,False
g,g,g,g,NOUN,True,False
mobile,mobile,mobile,mobile,ADJ,True,False
broadband,broadband,broadband,broadband,NOUN,True,False
operation,operation,operation,operation,NOUN,True,False
as,as,as,as,SCONJ,True,True
soona,soona,soona,soona,NOUN,True,False
possible,possible,possible,possible,ADJ,True,False
to,to,to,to,PART,True,True
enable,enable,enable,enable,VERB,True,False
well,well,well,well,ADV,True,True
and,and,and,and,CCONJ,True,True
fast,fast,fast,fast,VERB,True,False
mobile,mobile,mobile,mobile,ADJ,True,False
broadband,broadband,broadband,broadband,NOUN,True,False
for,for,for,for,ADP,True,True
consumer,consumer,consumer,consumer,NOUN,True,False
.,.,.,.,PUNCT,False,False
act,act,act,act,VERB,True,False
quickly,quickly,quickly,quickly,ADV,True,False
in,in,in,in,ADP,True,True
thisdocket,thisdocket,thisdocket,thisdocket,NOUN,True,False
",",",",",",",",PUNCT,False,False
along,along,along,along,ADP,True,True
with,with,with,with,ADP,True,True
other,other,other,other,ADJ,True,True
fcc,fcc,fcc,fcc,PROPN,True,False
action,action,action,action,NOUN,True,False
to,to,to,to,PART,True,True
open,open,open,open,VERB,True,False
up,up,up,up,ADP,True,True
additional,additional,additional,additional,ADJ,True,False
mobile,mobile,mobile,mobile,ADJ,True,False
spectrum,spectrum,spectrum,spectrum,NOUN,True,False
band,band,band,band,PROPN,True,False
",",",",",",",",PUNCT,False,False
will,will,will,will,VERB,True,True
helpdrive,helpdrive,helpdrive,helpdrive,VERB,True,False
economic,economic,economic,economic,ADJ,True,False
growth,growth,growth,growth,NOUN,True,False
and,and,and,and,CCONJ,True,True
positively,positively,positively,positively,ADV,True,False
impact,impact,impact,impact,VERB,True,False
virtually,virtually,virtually,virtually,ADV,True,False
every,every,every,every,DET,True,True
facet,facet,facet,facet,NOUN,True,False
of,of,of,of,ADP,True,True
american,american,american,american,ADJ,True,False
life,life,life,life,NOUN,True,False
.,.,.,.,PUNCT,False,False
qualcomm,qualcomm,qualcomm,qualcomm,PROPN,True,False
believe,believe,believe,believe,VERB,True,False
that,that,that,that,SCONJ,True,True
the,the,the,the,DET,True,True
3.5,3.5,3.5,3.5,NUM,False,False
ghz,ghz,ghz,ghz,PROPN,True,False
band,band,band,band,NOUN,True,False
should,should,should,should,VERB,True,True
be,be,be,be,AUX,True,True
make,make,make,make,VERB,True,True
available,available,available,available,ADJ,True,False
use,use,use,use,VERB,True,False
a,a,a,a,DET,True,True
provenlicense,provenlicense,provenlicense,provenlicense,NOUN,True,False
framework,framework,framework,framework,NOUN,True,False
and,and,and,and,CCONJ,True,True
with,with,with,with,ADP,True,True
emission,emission,emission,emission,NOUN,True,False
limit,limit,limit,limit,NOUN,True,False
that,that,that,that,DET,True,True
will,will,will,will,VERB,True,True
not,not,not,not,PART,True,True
impact,impact,impact,impact,VERB,True,False
the,the,the,the,DET,True,True
exist,exist,exist,exist,ADJ,True,False
protection,protection,protection,protection,NOUN,True,False
ofoperation,ofoperation,ofoperation,ofoperation,NOUN,True,False
on,on,on,on,ADP,True,True
adjacent,adjacent,adjacent,adjacent,ADJ,True,False
band,band,band,band,NOUN,True,False
",",",",",",",",PUNCT,False,False
while,while,while,while,SCONJ,True,True
enable,enable,enable,enable,PROPN,True,False
channel,channel,channel,channel,PROPN,True,False
wide,wide,wide,wide,ADJ,True,False
than,than,than,than,SCONJ,True,True
10,10,10,10,NUM,False,False
mhz,mhz,mhz,mhz,NOUN,True,False
that,that,that,that,DET,True,True
be,be,be,be,VERB,True,True
crucial,crucial,crucial,crucial,ADJ,True,False
for,for,for,for,ADP,True,True
maximize,maximize,maximize,maximize,VERB,True,False
the,the,the,the,DET,True,True
potential,potential,potential,potential,NOUN,True,False
of,of,of,of,ADP,True,True
this,this,this,this,DET,True,True
band,band,band,band,NOUN,True,False
for,for,for,for,ADP,True,True
4,4,4,4,NUM,False,False
g,g,g,g,NOUN,True,False
and,and,and,and,CCONJ,True,True
5,5,5,5,NUM,False,False
g,g,g,g,NOUN,True,False
.,.,.,.,PUNCT,False,False
the,the,the,the,DET,True,True
current,current,current,current,ADJ,True,False
rule,rule,rule,rule,NOUN,True,False
place,place,place,place,NOUN,True,False
undue,undue,undue,undue,ADJ,True,False
limit,limit,limit,limit,NOUN,True,False
on,on,on,on,ADP,True,True
the,the,the,the,DET,True,True
3.5,3.5,3.5,3.5,NUM,False,False
ghz,ghz,ghz,ghz,PROPN,True,False
band,band,band,band,NOUN,True,False
pal,pal,pal,pal,ADJ,True,False
license,license,license,license,NOUN,True,False
and,and,and,and,CCONJ,True,True
penalize,penalize,penalize,penalize,VERB,True,False
operation,operation,operation,operation,NOUN,True,False
with,with,with,with,ADP,True,True
channel,channel,channel,channel,NOUN,True,False
wide,wide,wide,wide,ADJ,True,False
than,than,than,than,SCONJ,True,True
10,10,10,10,NUM,False,False
mhz,mhz,mhz,mhz,NOUN,True,False
even,even,even,even,ADV,True,True
though,though,though,though,SCONJ,True,True
the,the,the,the,DET,True,True
penalty,penalty,penalty,penalty,NOUN,True,False
have,have,have,have,AUX,True,True
nothing,nothing,nothing,nothing,PRON,True,True
to,to,to,to,PART,True,True
do,do,do,do,AUX,True,True
with,with,with,with,ADP,True,True
adjacent,adjacent,adjacent,adjacent,ADJ,True,False
band,band,band,band,NOUN,True,False
operation,operation,operation,operation,NOUN,True,False
.,.,.,.,PUNCT,False,False
introduction,introduction,introduction,introduction,NOUN,True,False
and,and,and,and,CCONJ,True,True
summaryqualcomm,summaryqualcomm,summaryqualcomm,summaryqualcomm,PROPN,True,False
be,be,be,be,AUX,True,True
very,very,very,very,ADV,True,True
excited,excited,excited,excited,ADJ,True,False
by,by,by,by,ADP,True,True
the,the,the,the,DET,True,True
possibility,possibility,possibility,possibility,NOUN,True,False
of,of,of,of,ADP,True,True
deploy,deploy,deploy,deploy,VERB,True,False
small,small,small,small,ADJ,True,False
cell,cell,cell,cell,NOUN,True,False
and,and,and,and,CCONJ,True,True
user,user,user,user,NOUN,True,False
device,device,device,device,NOUN,True,False
that,that,that,that,DET,True,True
support,support,support,support,VERB,True,False
the,the,the,the,DET,True,True
3.5,3.5,3.5,3.5,NUM,False,False
ghz,ghz,ghz,ghz,PROPN,True,False
band,band,band,band,NOUN,True,False
because,because,because,because,SCONJ,True,True
we,we,-PRON-,-pron-,PRON,True,True
believe,believe,believe,believe,VERB,True,False
that,that,that,that,SCONJ,True,True
small,small,small,small,ADJ,True,False
cell,cell,cell,cell,NOUN,True,False
will,will,will,will,VERB,True,True
play,play,play,play,VERB,True,False
a,a,a,a,DET,True,True
core,core,core,core,ADJ,True,False
role,role,role,role,NOUN,True,False
in,in,in,in,ADP,True,True
enable,enable,enable,enable,ADJ,True,False
well,well,well,well,INTJ,True,True
",",",",",",",",PUNCT,False,False
fast,fast,fast,fast,ADJ,True,False
mobile,mobile,mobile,mobile,ADJ,True,False
broadband,broadband,broadband,broadband,NOUN,True,False
for,for,for,for,ADP,True,True
consumer,consumer,consumer,consumer,NOUN,True,False
.,.,.,.,PUNCT,False,False
in,in,in,in,ADP,True,True
this,this,this,this,DET,True,True
regard,regard,regard,regard,NOUN,True,False
",",",",",",",",PUNCT,False,False
qualcomm,qualcomm,qualcomm,qualcomm,PROPN,True,False
respectfully,respectfully,respectfully,respectfully,ADV,True,False
request,request,request,request,VERB,True,False
that,that,that,that,SCONJ,True,True
the,the,the,the,DET,True,True
commission,commission,commission,commission,NOUN,True,False
consider,consider,consider,consider,VERB,True,False
change,change,change,change,VERB,True,False
the,the,the,the,DET,True,True
emission,emission,emission,emission,NOUN,True,False
limit,limit,limit,limit,NOUN,True,False
that,that,that,that,DET,True,True
apply,apply,apply,apply,VERB,True,False
to,to,to,to,ADP,True,True
3.5,3.5,3.5,3.5,NUM,False,False
ghz,ghz,ghz,ghz,PROPN,True,False
cbsds,cbsds,cbsds,cbsds,NOUN,True,False
and,and,and,and,CCONJ,True,True
end,end,end,end,VERB,True,False
user,user,user,user,NOUN,True,False
devices,devices,device,device,NOUN,True,False
because,because,because,because,SCONJ,True,True
the,the,the,the,DET,True,True
present,present,present,present,ADJ,True,False
limit,limit,limit,limit,NOUN,True,False
require,require,require,require,VERB,True,False
4,4,4,4,NUM,False,False
g,g,g,g,NOUN,True,False
lte,lte,lte,lte,NOUN,True,False
and,and,and,and,CCONJ,True,True
5,5,5,5,NUM,False,False
g,g,g,g,PROPN,True,False
new,new,new,new,ADJ,True,False
radio,radio,radio,radio,NOUN,True,False
5,5,5,5,NUM,False,False
g,g,g,g,NOUN,True,False
nr,nr,nr,nr,NOUN,True,False
device,device,device,device,NOUN,True,False
operate,operate,operate,operate,VERB,True,False
with,with,with,with,ADP,True,True
channel,channel,channel,channel,PROPN,True,False
bandwidth,bandwidth,bandwidth,bandwidth,NOUN,True,False
great,great,great,great,ADJ,True,False
than,than,than,than,SCONJ,True,True
10,10,10,10,NUM,False,False
mhz,mhz,mhz,mhz,NOUN,True,False
to,to,to,to,PART,True,True
engage,engage,engage,engage,VERB,True,False
in,in,in,in,ADP,True,True
power,power,power,power,NOUN,True,False
backoff,backoff,backoff,backoff,NOUN,True,False
so,so,so,so,ADV,True,True
-,-,-,-,PUNCT,False,False
call,call,call,call,VERB,True,True
additional,additional,additional,additional,ADJ,True,False
-,-,-,-,PUNCT,False,False
mandatory,mandatory,mandatory,mandatory,ADJ,True,False
power,power,power,power,NOUN,True,False
reduction,reduction,reduction,reduction,NOUN,True,False
or,or,or,or,CCONJ,True,True
a,a,a,a,DET,True,True
-,-,-,-,PUNCT,False,False
mpr,mpr,mpr,mpr,PROPN,True,False
",",",",",",",",PUNCT,False,False
which,which,which,which,DET,True,True
diminish,diminish,diminish,diminish,VERB,True,False
the,the,the,the,DET,True,True
quality,quality,quality,quality,NOUN,True,False
of,of,of,of,ADP,True,True
mobile,mobile,mobile,mobile,ADJ,True,False
broadband,broadband,broadband,broadband,NOUN,True,False
service,service,service,service,NOUN,True,False
that,that,that,that,DET,True,True
could,could,could,could,VERB,True,True
otherwise,otherwise,otherwise,otherwise,ADV,True,True
be,be,be,be,AUX,True,True
provide,provide,provide,provide,ADJ,True,False
to,to,to,to,ADP,True,True
consumer,consumer,consumer,consumer,NOUN,True,False
.,.,.,.,PUNCT,False,False
ctia,ctia,ctia,ctia,PROPN,True,False
and,and,and,and,CCONJ,True,True
qualcomm,qualcomm,qualcomm,qualcomm,PROPN,True,False
previously,previously,previously,previously,ADV,True,False
raise,raise,raise,raise,VERB,True,False
this,this,this,this,DET,True,True
issue,issue,issue,issue,NOUN,True,False
in,in,in,in,ADP,True,True
this,this,this,this,DET,True,True
docket,docket,docket,docket,NOUN,True,False
",",",",",",",",PUNCT,False,False
but,but,but,but,CCONJ,True,True
it,it,-PRON-,-pron-,PRON,True,True
be,be,be,be,AUX,True,True
even,even,even,even,ADV,True,True
more,more,more,more,ADV,True,True
pressing,pressing,pressing,pressing,ADJ,True,False
today,today,today,today,NOUN,True,False
because,because,because,because,SCONJ,True,True
the,the,the,the,DET,True,True
band,band,band,band,NOUN,True,False
be,be,be,be,AUX,True,True
become,become,become,become,VERB,True,True
increasingly,increasingly,increasingly,increasingly,ADV,True,False
important,important,important,important,ADJ,True,False
for,for,for,for,ADP,True,True
4,4,4,4,NUM,False,False
g,g,g,g,NOUN,True,False
lte,lte,lte,lte,NOUN,True,False
and,and,and,and,CCONJ,True,True
5,5,5,5,NUM,False,False
g,g,g,g,NOUN,True,False
nr,nr,nr,nr,ADP,True,False
operation,operation,operation,operation,NOUN,True,False
.,.,.,.,PUNCT,False,False
also,also,also,also,ADV,True,True
",",",",",",",",PUNCT,False,False
as,as,as,as,SCONJ,True,True
qualcomm,qualcomm,qualcomm,qualcomm,PROPN,True,False
previously,previously,previously,previously,ADV,True,False
recommend,recommend,recommend,recommend,VERB,True,False
in,in,in,in,ADP,True,True
this,this,this,this,DET,True,True
docket,docket,docket,docket,NOUN,True,False
",",",",",",",",PUNCT,False,False
3.5,3.5,3.5,3.5,NUM,False,False
ghz,ghz,ghz,ghz,NOUN,True,False
spectrum,spectrum,spectrum,spectrum,NOUN,True,False
right,right,right,right,NOUN,True,False
should,should,should,should,VERB,True,True
be,be,be,be,AUX,True,True
award,award,award,award,NOUN,True,False
by,by,by,by,ADP,True,True
geographic,geographic,geographic,geographic,ADJ,True,False
area,area,area,area,NOUN,True,False
license,license,license,license,NOUN,True,False
that,that,that,that,DET,True,True
be,be,be,be,AUX,True,True
large,large,large,large,ADJ,True,False
than,than,than,than,SCONJ,True,True
census,census,census,census,NOUN,True,False
tract,tract,tract,tract,NOUN,True,False
and,and,and,and,CCONJ,True,True
run,run,run,run,VERB,True,False
for,for,for,for,ADP,True,True
ten,ten,ten,ten,NUM,True,True
year,year,year,year,NOUN,True,False
term,term,term,term,NOUN,True,False
with,with,with,with,ADP,True,True
a,a,a,a,DET,True,True
renewal,renewal,renewal,renewal,NOUN,True,False
expectation,expectation,expectation,expectation,NOUN,True,False
like,like,like,like,SCONJ,True,False
most,most,most,most,ADJ,True,True
other,other,other,other,ADJ,True,True
mobile,mobile,mobile,mobile,ADJ,True,False
service,service,service,service,NOUN,True,False
license,license,license,license,NOUN,True,False
award,award,award,award,NOUN,True,False
today,today,today,today,NOUN,True,False
via,via,via,via,ADP,True,True
auction,auction,auction,auction,NOUN,True,False
.,.,.,.,PUNCT,False,False
licensee,licensee,licensee,licensee,PROPN,True,False
also,also,also,also,ADV,True,True
should,should,should,should,VERB,True,True
be,be,be,be,AUX,True,True
permit,permit,permit,permit,ADJ,True,False
to,to,to,to,PART,True,True
disaggregate,disaggregate,disaggregate,disaggregate,VERB,True,False
or,or,or,or,CCONJ,True,True
partition,partition,partition,partition,VERB,True,False
the,the,the,the,DET,True,True
spectrum,spectrum,spectrum,spectrum,PROPN,True,False
assign,assign,assign,assign,PROPN,True,False
in,in,in,in,ADP,True,True
these,these,these,these,DET,True,True
large,large,large,large,ADJ,True,False
geographic,geographic,geographic,geographic,ADJ,True,False
license,license,license,license,NOUN,True,False
because,because,because,because,SCONJ,True,True
it,it,-PRON-,-pron-,PRON,True,True
accomplish,accomplish,accomplish,accomplish,VERB,True,False
the,the,the,the,DET,True,True
same,same,same,same,ADJ,True,True
purpose,purpose,purpose,purpose,NOUN,True,False
the,the,the,the,DET,True,True
fcc,fcc,fcc,fcc,PROPN,True,False
seek,seek,seek,seek,VERB,True,False
to,to,to,to,PART,True,True
accomplish,accomplish,accomplish,accomplish,VERB,True,False
via,via,via,via,ADP,True,True
the,the,the,the,DET,True,True
current,current,current,current,ADJ,True,False
short,short,short,short,ADJ,True,False
license,license,license,license,NOUN,True,False
term,term,term,term,NOUN,True,False
and,and,and,and,CCONJ,True,True
census,census,census,census,NOUN,True,False
tract,tract,tract,tract,PROPN,True,False
license,license,license,license,NOUN,True,False
area,area,area,area,NOUN,True,False
unlike,unlike,unlike,unlike,ADP,True,False
census,census,census,census,NOUN,True,False
tract,tract,tract,tract,NOUN,True,False
license,license,license,license,NOUN,True,False
with,with,with,with,ADP,True,True
limited,limited,limited,limited,ADJ,True,False
term,term,term,term,NOUN,True,False
",",",",",",",",PUNCT,False,False
the,the,the,the,DET,True,True
request,request,request,request,NOUN,True,False
change,change,change,change,NOUN,True,False
to,to,to,to,ADP,True,True
the,the,the,the,DET,True,True
3.5,3.5,3.5,3.5,NUM,False,False
ghz,ghz,ghz,ghz,PROPN,True,False
license,license,license,license,NOUN,True,False
support,support,support,support,NOUN,True,False
wide,wide,wide,wide,ADJ,True,False
area,area,area,area,NOUN,True,False
license,license,license,license,NOUN,True,False
deployment,deployment,deployment,deployment,NOUN,True,False
and,and,and,and,CCONJ,True,True
allow,allow,allow,allow,VERB,True,False
the,the,the,the,DET,True,True
spectrum,spectrum,spectrum,spectrum,PROPN,True,False
marketplace,marketplace,marketplace,marketplace,NOUN,True,False
to,to,to,to,PART,True,True
operate,operate,operate,operate,VERB,True,False
more,more,more,more,ADV,True,True
effectively,effectively,effectively,effectively,ADV,True,False
.,.,.,.,PUNCT,False,False
these,these,these,these,DET,True,True
request,request,request,request,NOUN,True,False
modification,modification,modification,modification,NOUN,True,False
will,will,will,will,VERB,True,True
help,help,help,help,VERB,True,False
promote,promote,promote,promote,VERB,True,False
u.s,u.s,u.s,u.s,PROPN,False,False
.,.,.,.,PROPN,False,False
investment,investment,investment,investment,NOUN,True,False
in,in,in,in,ADP,True,True
the,the,the,the,DET,True,True
3.5,3.5,3.5,3.5,NUM,False,False
ghz,ghz,ghz,ghz,PROPN,True,False
band,band,band,band,NOUN,True,False
and,and,and,and,CCONJ,True,True
help,help,help,help,VERB,True,False
the,the,the,the,DET,True,True
u.s,u.s,u.s,u.s,PROPN,False,False
.,.,.,.,PROPN,False,False
continue,continue,continue,continue,VERB,True,False
its,its,-PRON-,-pron-,DET,True,True
global,global,global,global,ADJ,True,False
leadership,leadership,leadership,leadership,NOUN,True,False
as,as,as,as,SCONJ,True,True
5,5,5,5,NUM,False,False
g,g,g,g,NOUN,True,False
begin,begin,begin,begin,VERB,True,False
to,to,to,to,PART,True,True
launch,launch,launch,launch,VERB,True,False
commercially,commercially,commercially,commercially,ADV,True,False
around,around,around,around,ADP,True,True
the,the,the,the,DET,True,True
world,world,world,world,NOUN,True,False
",",",",",",",",PUNCT,False,False
begin,begin,begin,begin,VERB,True,False
in,in,in,in,ADP,True,True
2019,2019,2019,2019,NUM,False,False
.,.,.,.,PUNCT,False,False
qualcomm,qualcomm,qualcomm,qualcomm,PROPN,True,False
request,request,request,request,PROPN,True,False
that,that,that,that,SCONJ,True,True
the,the,the,the,DET,True,True
fcc,fcc,fcc,fcc,PROPN,True,False
revise,revise,revise,revise,NOUN,True,False
without,without,without,without,ADP,True,True
delay,delay,delay,delay,NOUN,True,False
the,the,the,the,DET,True,True
set,set,set,set,NOUN,True,False
of,of,of,of,ADP,True,True
rule,rule,rule,rule,NOUN,True,False
address,address,address,address,NOUN,True,False
herein,herein,herein,herein,PROPN,True,True
so,so,so,so,SCONJ,True,True
this,this,this,this,DET,True,True
important,important,important,important,ADJ,True,False
band,band,band,band,NOUN,True,False
can,can,can,can,VERB,True,True
be,be,be,be,AUX,True,True
put,put,put,put,VERB,True,True
to,to,to,to,PART,True,True
use,use,use,use,NOUN,True,False
in,in,in,in,ADP,True,True
early,early,early,early,ADJ,True,False
2018.discussioncertain,2018.discussioncertain,2018.discussioncertain,2018.discussioncertain,NUM,False,False
change,change,change,change,NOUN,True,False
to,to,to,to,ADP,True,True
the,the,the,the,DET,True,True
3.5,3.5,3.5,3.5,NUM,False,False
ghz,ghz,ghz,ghz,PROPN,True,False
band,band,band,band,NOUN,True,False
technical,technical,technical,technical,ADJ,True,False
and,and,and,and,CCONJ,True,True
licensing,licensing,licensing,licensing,NOUN,True,False
rule,rule,rule,rule,NOUN,True,False
be,be,be,be,AUX,True,True
need,need,nee,nee,VERB,True,False
to,to,to,to,PART,True,True
support,support,support,support,VERB,True,False
successful,successful,successful,successful,ADJ,True,False
license,license,license,license,NOUN,True,False
4,4,4,4,NUM,False,False
g,g,g,g,NOUN,True,False
lte,lte,lte,lte,NOUN,True,False
advanced,advanced,advance,advance,VERB,True,False
and,and,and,and,CCONJ,True,True
5,5,5,5,NUM,False,False
g,g,g,g,NOUN,True,False
operation,operation,operation,operation,NOUN,True,False
in,in,in,in,ADP,True,True
this,this,this,this,DET,True,True
bandthe,bandthe,bandthe,bandthe,ADJ,True,False
fcc,fcc,fcc,fcc,PROPN,True,False
should,should,should,should,VERB,True,True
revise,revise,revise,revise,VERB,True,False
the,the,the,the,DET,True,True
emission,emission,emission,emission,NOUN,True,False
limit,limit,limit,limit,NOUN,True,False
to,to,to,to,PART,True,True
support,support,support,support,VERB,True,False
20,20,20,20,NUM,False,False
mhz,mhz,mhz,mhz,NOUN,True,False
and,and,and,and,CCONJ,True,True
40,40,40,40,NUM,False,False
mhz,mhz,mhz,mhz,NOUN,True,False
wide,wide,wide,wide,ADJ,True,False
channel,channel,channel,channel,NOUN,True,False
for,for,for,for,ADP,True,True
both,both,both,both,DET,True,True
pal,pal,pal,pal,NOUN,True,False
and,and,and,and,CCONJ,True,True
gaa,gaa,gaa,gaa,VERB,True,False
operationsthe,operationsthe,operationsthe,operationsthe,PROPN,True,False
commission,commission,commission,commission,NOUN,True,False
should,should,should,should,VERB,True,True
revise,revise,revise,revise,VERB,True,False
the,the,the,the,DET,True,True
3.5,3.5,3.5,3.5,NUM,False,False
ghz,ghz,ghz,ghz,PROPN,True,False
band,band,band,band,PROPN,True,False
emission,emission,emission,emission,NOUN,True,False
limit,limit,limit,limit,NOUN,True,False
to,to,to,to,PART,True,True
appropriately,appropriately,appropriately,appropriately,ADV,True,False
support,support,support,support,VERB,True,False
4,4,4,4,NUM,False,False
g,g,g,g,NOUN,True,False
lte,lte,lte,lte,NOUN,True,False
and,and,and,and,CCONJ,True,True
5,5,5,5,NUM,False,False
g,g,g,g,NOUN,True,False
nr,nr,nr,nr,NOUN,True,False
channel,channel,channel,channel,NOUN,True,False
wide,wide,wide,wide,ADJ,True,False
than,than,than,than,SCONJ,True,True
10,10,10,10,NUM,False,False
mhz,mhz,mhz,mhz,NOUN,True,False
.,.,.,.,PUNCT,False,False
the,the,the,the,DET,True,True
current,current,current,current,ADJ,True,False
3.5,3.5,3.5,3.5,NUM,False,False
ghz,ghz,ghz,ghz,PROPN,True,False
band,band,band,band,NOUN,True,False
emission,emission,emission,emission,NOUN,True,False
limit,limit,limit,limit,NOUN,True,False
",",",",",",",",PUNCT,False,False
which,which,which,which,DET,True,True
require,require,require,require,VERB,True,False
significant,significant,significant,significant,ADJ,True,False
signal,signal,signal,signal,NOUN,True,False
attenuation,attenuation,attenuation,attenuation,NOUN,True,False
outside,outside,outside,outside,ADP,True,False
the,the,the,the,DET,True,True
channel,channel,channel,channel,NOUN,True,False
of,of,of,of,ADP,True,True
operation,operation,operation,operation,NOUN,True,False
",",",",",",",",PUNCT,False,False
force,force,force,force,NOUN,True,False
mobile,mobile,mobile,mobile,ADJ,True,False
device,device,device,device,NOUN,True,False
use,use,use,use,NOUN,True,False
a,a,a,a,DET,True,True
20,20,20,20,NUM,False,False
mhz,mhz,mhz,mhz,PROPN,True,False
channel,channel,channel,channel,NOUN,True,False
bandwidth,bandwidth,bandwidth,bandwidth,NOUN,True,False
to,to,to,to,PART,True,True
implement,implement,implement,implement,VERB,True,False
4,4,4,4,NUM,False,False
db,db,db,db,NOUN,True,False
additional,additional,additional,additional,ADJ,True,False
-,-,-,-,PUNCT,False,False
maximum,maximum,maximum,maximum,NOUN,True,False
power,power,power,power,NOUN,True,False
reduction,reduction,reduction,reduction,NOUN,True,False
a,a,a,a,DET,True,True
-,-,-,-,PUNCT,False,False
mpr,mpr,mpr,mpr,PROPN,True,False
to,to,to,to,PART,True,True
comply,comply,comply,comply,VERB,True,False
.,.,.,.,PUNCT,False,False
require,require,require,require,VERB,True,False
the,the,the,the,DET,True,True
transmit,transmit,transmit,transmit,NOUN,True,False
power,power,power,power,NOUN,True,False
level,level,level,level,NOUN,True,False
for,for,for,for,ADP,True,True
20,20,20,20,NUM,False,False
mhz,mhz,mhz,mhz,NOUN,True,False
operation,operation,operation,operation,NOUN,True,False
to,to,to,to,PART,True,True
be,be,be,be,AUX,True,True
reduce,reduce,reduce,reduce,VERB,True,False
by,by,by,by,ADP,True,True
4,4,4,4,NUM,False,False
db,db,db,db,ADV,True,False
significantly,significantly,significantly,significantly,ADV,True,False
diminish,diminish,diminish,diminish,VERB,True,False
signal,signal,signal,signal,NOUN,True,False
coverage,coverage,coverage,coverage,NOUN,True,False
",",",",",",",",PUNCT,False,False
the,the,the,the,DET,True,True
quality,quality,quality,quality,NOUN,True,False
of,of,of,of,ADP,True,True
service,service,service,service,NOUN,True,False
",",",",",",",",PUNCT,False,False
and,and,and,and,CCONJ,True,True
the,the,the,the,DET,True,True
usefulness,usefulness,usefulness,usefulness,NOUN,True,False
of,of,of,of,ADP,True,True
the,the,the,the,DET,True,True
band,band,band,band,NOUN,True,False
for,for,for,for,ADP,True,True
mobile,mobile,mobile,mobile,PROPN,True,False
operation,operation,operation,operation,NOUN,True,False
.,.,.,.,PUNCT,False,False
impose,impose,impose,impose,VERB,True,False
this,this,this,this,DET,True,True
penalty,penalty,penalty,penalty,NOUN,True,False
within,within,within,within,ADP,True,True
the,the,the,the,DET,True,True
3550,3550,3550,3550,NUM,False,False
-,-,-,-,SYM,False,False
3700,3700,3700,3700,NUM,False,False
mhz,mhz,mhz,mhz,PROPN,True,False
band,band,band,band,NOUN,True,False
provide,provide,provide,provide,VERB,True,False
no,no,no,no,DET,True,True
great,great,great,great,ADJ,True,False
protection,protection,protection,protection,NOUN,True,False
for,for,for,for,ADP,True,True
adjacent,adjacent,adjacent,adjacent,ADJ,True,False
channel,channel,channel,channel,NOUN,True,False
operation,operation,operation,operation,NOUN,True,False
and,and,and,and,CCONJ,True,True
be,be,be,be,AUX,True,True
not,not,not,not,PART,True,True
in,in,in,in,ADP,True,True
the,the,the,the,DET,True,True
public,public,public,public,ADJ,True,False
interest,interest,interest,interest,NOUN,True,False
.,.,.,.,PUNCT,False,False
40,40,40,40,NUM,False,False
mhz,mhz,mhz,mhz,NOUN,True,False
operation,operation,operation,operation,NOUN,True,False
would,would,would,would,VERB,True,True
require,require,require,require,VERB,True,False
even,even,even,even,ADV,True,True
great,great,great,great,ADJ,True,False
a,a,a,a,DET,True,True
-,-,-,-,PUNCT,False,False
mpr,mpr,mpr,mpr,NOUN,True,False
and,and,and,and,CCONJ,True,True
suffer,suffer,suffer,suffer,VERB,True,False
an,an,an,an,DET,True,True
even,even,even,even,ADV,True,True
bad,bad,bad,bad,ADJ,True,False
penalty,penalty,penalty,penalty,NOUN,True,False
",",",",",",",",PUNCT,False,False
again,again,again,again,ADV,True,True
without,without,without,without,ADP,True,True
any,any,any,any,DET,True,True
corresponding,corresponding,corresponding,corresponding,ADJ,True,False
benefit,benefit,benefit,benefit,NOUN,True,False
.,.,.,.,PUNCT,False,False
to,to,to,to,PART,True,True
enable,enable,enable,enable,VERB,True,False
20,20,20,20,NUM,False,False
mhz,mhz,mhz,mhz,NOUN,True,False
-,-,-,-,PUNCT,False,False
wide,wide,wide,wide,ADJ,True,False
and,and,and,and,CCONJ,True,True
40,40,40,40,NUM,False,False
mhz,mhz,mhz,mhz,NOUN,True,False
-,-,-,-,PUNCT,False,False
wide,wide,wide,wide,ADJ,True,False
mobile,mobile,mobile,mobile,ADJ,True,False
broadband,broadband,broadband,broadband,NOUN,True,False
operation,operation,operation,operation,NOUN,True,False
at,at,at,at,ADP,True,True
the,the,the,the,DET,True,True
same,same,same,same,ADJ,True,True
transmit,transmit,transmit,transmit,NOUN,True,False
power,power,power,power,NOUN,True,False
level,level,level,level,NOUN,True,False
at,at,at,at,ADP,True,True
which,which,which,which,DET,True,True
10,10,10,10,NUM,False,False
mhz,mhz,mhz,mhz,NOUN,True,False
lte,lte,lte,lte,NOUN,True,False
operation,operation,operation,operation,NOUN,True,False
be,be,be,be,AUX,True,True
permit,permit,permit,permit,NOUN,True,False
within,within,within,within,ADP,True,True
the,the,the,the,DET,True,True
band,band,band,band,NOUN,True,False
and,and,and,and,CCONJ,True,True
without,without,without,without,ADP,True,True
impact,impact,impact,impact,NOUN,True,False
the,the,the,the,DET,True,True
adjacent,adjacent,adjacent,adjacent,ADJ,True,False
band,band,band,band,NOUN,True,False
",",",",",",",",PUNCT,False,False
the,the,the,the,DET,True,True
fcc,fcc,fcc,fcc,PROPN,True,False
should,should,should,should,VERB,True,True
revise,revise,revise,revise,VERB,True,False
rule,rule,rule,rule,NOUN,True,False
section,section,section,section,NOUN,True,False
96.41e1,96.41e1,96.41e1,96.41e1,NUM,False,False
to,to,to,to,PART,True,True
provide,provide,provide,provide,VERB,True,False
20,20,20,20,NUM,False,False
mhz,mhz,mhz,mhz,NOUN,True,False
operation,operation,operation,operation,NOUN,True,False
with,with,with,with,ADP,True,True
an,an,an,an,DET,True,True
additional,additional,additional,additional,ADJ,True,False
10,10,10,10,NUM,False,False
mhz,mhz,mhz,mhz,NOUN,True,False
on,on,on,on,ADP,True,True
both,both,both,both,DET,True,True
side,side,side,side,NOUN,True,True
of,of,of,of,ADP,True,True
the,the,the,the,DET,True,True
operate,operate,operate,operate,ADJ,True,False
channel,channel,channel,channel,NOUN,True,False
edge,edge,edge,edge,NOUN,True,False
i.e.,i.e.,i.e.,i.e.,X,False,False
",",",",",",",",PUNCT,False,False
20,20,20,20,NUM,False,False
mhz,mhz,mhz,mhz,NOUN,True,False
total,total,total,total,ADJ,True,False
to,to,to,to,PART,True,True
achieve,achieve,achieve,achieve,VERB,True,False
the,the,the,the,DET,True,True
-25,-25,-25,-25,PROPN,False,False
dbmmhz,dbmmhz,dbmmhz,dbmmhz,NOUN,True,False
limit,limit,limit,limit,VERB,True,False
and,and,and,and,CCONJ,True,True
provide,provide,provide,provide,VERB,True,False
40,40,40,40,NUM,False,False
mhz,mhz,mhz,mhz,NOUN,True,False
operation,operation,operation,operation,NOUN,True,False
an,an,an,an,DET,True,True
additional30,additional30,additional30,additional30,NOUN,False,False
mhz,mhz,mhz,mhz,NOUN,True,False
on,on,on,on,ADP,True,True
both,both,both,both,DET,True,True
side,side,side,side,NOUN,True,True
of,of,of,of,ADP,True,True
the,the,the,the,DET,True,True
transmit,transmit,transmit,transmit,NOUN,True,False
channel,channel,channel,channel,NOUN,True,False
edge,edge,edge,edge,NOUN,True,False
i.e.,i.e.,i.e.,i.e.,X,False,False
",",",",",",",",PUNCT,False,False
40,40,40,40,NUM,False,False
mhz,mhz,mhz,mhz,NOUN,True,False
total,total,total,total,VERB,True,False
to,to,to,to,PART,True,True
achieve,achieve,achieve,achieve,VERB,True,False
the,the,the,the,DET,True,True
-25,-25,-25,-25,PROPN,False,False
dbmmhz,dbmmhz,dbmmhz,dbmmhz,NOUN,True,False
limit,limit,limit,limit,NOUN,True,False
.,.,.,.,PUNCT,False,False
the,the,the,the,DET,True,True
-13,-13,-13,-13,PROPN,False,False
dbmmhz,dbmmhz,dbmmhz,dbmmhz,NOUN,True,False
limit,limit,limit,limit,VERB,True,False
",",",",",",",",PUNCT,False,False
which,which,which,which,DET,True,True
the,the,the,the,DET,True,True
fcc,fcc,fcc,fcc,PROPN,True,False
initially,initially,initially,initially,ADV,True,False
propose,propose,propose,propose,VERB,True,False
to,to,to,to,PART,True,True
apply,apply,apply,apply,VERB,True,False
throughout,throughout,throughout,throughout,ADP,True,True
the,the,the,the,DET,True,True
band,band,band,band,NOUN,True,False
",",",",",",",",PUNCT,False,False
would,would,would,would,VERB,True,True
apply,apply,apply,apply,VERB,True,False
from,from,from,from,ADP,True,True
the,the,the,the,DET,True,True
channel,channel,channel,channel,NOUN,True,False
edge,edge,edge,edge,NOUN,True,False
up,up,up,up,ADP,True,True
until,until,until,until,ADP,True,True
the,the,the,the,DET,True,True
point,point,point,point,NOUN,True,False
where,where,where,where,ADV,True,True
the,the,the,the,DET,True,True
-25,-25,-25,-25,PROPN,False,False
dbmmhz,dbmmhz,dbmmhz,dbmmhz,NOUN,True,False
limit,limit,limit,limit,NOUN,True,False
begin,begin,begin,begin,VERB,True,False
",",",",",",",",PUNCT,False,False
and,and,and,and,CCONJ,True,True
protect,protect,protect,protect,VERB,True,False
adjacent,adjacent,adjacent,adjacent,ADJ,True,False
channel,channel,channel,channel,NOUN,True,False
operation,operation,operation,operation,NOUN,True,False
within,within,within,within,ADP,True,True
that,that,that,that,DET,True,True
portion,portion,portion,portion,NOUN,True,False
of,of,of,of,ADP,True,True
the,the,the,the,DET,True,True
band,band,band,band,NOUN,True,False
to,to,to,to,ADP,True,True
the,the,the,the,DET,True,True
same-13,same-13,same-13,same-13,NOUN,False,False
dbmmhz,dbmmhz,dbmmhz,dbmmhz,NOUN,True,False
emission,emission,emission,emission,NOUN,True,False
level,level,level,level,NOUN,True,False
that,that,that,that,DET,True,True
have,have,have,have,AUX,True,True
work,work,work,work,NOUN,True,False
well,well,well,well,ADV,True,True
in,in,in,in,ADP,True,True
other,other,other,other,ADJ,True,True
mobile,mobile,mobile,mobile,ADJ,True,False
band,band,band,band,NOUN,True,False
",",",",",",",",PUNCT,False,False
as,as,as,as,SCONJ,True,True
the,the,the,the,DET,True,True
fcc,fcc,fcc,fcc,PROPN,True,False
have,have,have,have,AUX,True,True
acknowledge,acknowledge,acknowledge,acknowledge,VERB,True,False
in,in,in,in,ADP,True,True
this,this,this,this,DET,True,True
proceeding,proceeding,proceeding,proceeding,NOUN,True,False
.,.,.,.,PUNCT,False,False
as,as,as,as,SCONJ,True,True
t,t,t,t,PROPN,True,False
-,-,-,-,PUNCT,False,False
mobile,mobile,mobile,mobile,PROPN,True,False
usa,usa,usa,usa,PROPN,True,False
note,note,note,note,PROPN,True,False
",",",",",",",",PUNCT,False,False
failure,failure,failure,failure,NOUN,True,False
to,to,to,to,PART,True,True
revise,revise,revise,revise,VERB,True,False
the,the,the,the,DET,True,True
emission,emission,emission,emission,NOUN,True,False
limit,limit,limit,limit,NOUN,True,False
for,for,for,for,ADP,True,True
the,the,the,the,DET,True,True
3.5,3.5,3.5,3.5,NUM,False,False
ghz,ghz,ghz,ghz,PROPN,True,False
band,band,band,band,NOUN,True,False
will,will,will,will,VERB,True,True
threaten,threaten,threaten,threaten,VERB,True,False
coverage,coverage,coverage,coverage,NOUN,True,False
",",",",",",",",PUNCT,False,False
diminish,diminish,diminish,diminish,VERB,True,False
the,the,the,the,DET,True,True
utility,utility,utility,utility,NOUN,True,False
of,of,of,of,ADP,True,True
the,the,the,the,DET,True,True
band,band,band,band,NOUN,True,False
",",",",",",",",PUNCT,False,False
and,and,and,and,CCONJ,True,True
depress,depress,depress,depress,ADJ,True,False
deployment,deployment,deployment,deployment,NOUN,True,False
.,.,.,.,PUNCT,False,False
qualcomms,qualcomms,qualcomms,qualcomms,PROPN,True,False
june,june,june,june,PROPN,True,False
19,19,19,19,NUM,False,False
",",",",",",",",PUNCT,False,False
2017,2017,2017,2017,NUM,False,False
ex,ex,ex,ex,PROPN,True,False
parte,parte,parte,parte,PROPN,True,False
filing,filing,filing,filing,NOUN,True,False
propose,propose,propose,propose,NOUN,True,False
revision,revision,revision,revision,NOUN,True,False
to,to,to,to,ADP,True,True
the,the,the,the,DET,True,True
text,text,text,text,NOUN,True,False
of,of,of,of,ADP,True,True
rule,rule,rule,rule,NOUN,True,False
section,section,section,section,NOUN,True,False
96.41e,96.41e,96.41e,96.41e,PROPN,False,False
to,to,to,to,PART,True,True
implement,implement,implement,implement,VERB,True,False
the,the,the,the,DET,True,True
proposal,proposal,proposal,proposal,NOUN,True,False
.,.,.,.,PUNCT,False,False
we,we,-PRON-,-pron-,PRON,True,True
be,be,be,be,VERB,True,True
not,not,not,not,PART,True,True
ask,ask,ask,ask,VERB,True,False
the,the,the,the,DET,True,True
fcc,fcc,fcc,fcc,PROPN,True,False
to,to,to,to,PART,True,True
modify,modify,modify,modify,VERB,True,False
the,the,the,the,DET,True,True
additional,additional,additional,additional,ADJ,True,False
-40,-40,-40,-40,PROPN,False,False
dbmmhz,dbmmhz,dbmmhz,dbmmhz,VERB,True,False
protection,protection,protection,protection,NOUN,True,False
level,level,level,level,NOUN,True,False
in,in,in,in,ADP,True,True
paragraph,paragraph,paragraph,paragraph,NOUN,True,False
e2,e2,e2,e2,NOUN,False,False
of,of,of,of,ADP,True,True
rule,rule,rule,rule,NOUN,True,False
section,section,section,section,NOUN,True,False
96.41,96.41,96.41,96.41,NUM,False,False
the,the,the,the,DET,True,True
fcc,fcc,fcc,fcc,PROPN,True,False
adopt,adopt,adopt,adopt,VERB,True,False
to,to,to,to,PART,True,True
protect,protect,protect,protect,VERB,True,False
operation,operation,operation,operation,NOUN,True,False
below,below,below,below,ADP,True,True
and,and,and,and,CCONJ,True,True
above,above,above,above,ADP,True,True
the,the,the,the,DET,True,True
3550,3550,3550,3550,NUM,False,False
-,-,-,-,SYM,False,False
3700,3700,3700,3700,NUM,False,False
mhz,mhz,mhz,mhz,PROPN,True,False
band,band,band,band,NOUN,True,False
.,.,.,.,PUNCT,False,False
thus,thus,thus,thus,ADV,True,True
",",",",",",",",PUNCT,False,False
our,our,-PRON-,-pron-,DET,True,True
proposal,proposal,proposal,proposal,NOUN,True,False
will,will,will,will,VERB,True,True
not,not,not,not,PART,True,True
have,have,have,have,AUX,True,True
any,any,any,any,DET,True,True
increase,increase,increase,increase,NOUN,True,False
impact,impact,impact,impact,NOUN,True,False
on,on,on,on,ADP,True,True
user,user,user,user,NOUN,True,False
in,in,in,in,ADP,True,True
the,the,the,the,DET,True,True
adjacent,adjacent,adjacent,adjacent,ADJ,True,False
band,band,band,band,NOUN,True,False
.,.,.,.,PUNCT,False,False
the,the,the,the,DET,True,True
propose,propose,propose,propose,NOUN,True,False
revision,revision,revision,revision,NOUN,True,False
be,be,be,be,AUX,True,True
design,design,design,design,NOUN,True,False
to,to,to,to,PART,True,True
enable,enable,enable,enable,VERB,True,False
wide,wide,wide,wide,ADJ,True,False
bandwidth,bandwidth,bandwidth,bandwidth,NOUN,True,False
operation,operation,operation,operation,NOUN,True,False
in,in,in,in,ADP,True,True
the,the,the,the,DET,True,True
3.5,3.5,3.5,3.5,NUM,False,False
ghz,ghz,ghz,ghz,PROPN,True,False
band,band,band,band,NOUN,True,False
at,at,at,at,ADP,True,True
the,the,the,the,DET,True,True
same,same,same,same,ADJ,True,True
power,power,power,power,NOUN,True,False
level,level,level,level,NOUN,True,False
permit,permit,permit,permit,NOUN,True,False
for,for,for,for,ADP,True,True
10,10,10,10,NUM,False,False
mhz,mhz,mhz,mhz,PROPN,True,False
channel,channel,channel,channel,PROPN,True,False
for,for,for,for,ADP,True,True
channel,channel,channel,channel,PROPN,True,False
locate,locate,locate,locate,VERB,True,False
away,away,away,away,ADV,True,False
from,from,from,from,ADP,True,True
the,the,the,the,DET,True,True
3550,3550,3550,3550,NUM,False,False
mhz,mhz,mhz,mhz,NOUN,True,False
and,and,and,and,CCONJ,True,True
3700,3700,3700,3700,NUM,False,False
mhz,mhz,mhz,mhz,PROPN,True,False
band,band,band,band,NOUN,True,False
edges.3.5,edges.3.5,edges.3.5,edges.3.5,PROPN,False,False
ghz,ghz,ghz,ghz,NOUN,True,False
operation,operation,operation,operation,NOUN,True,False
in,in,in,in,ADP,True,True
channel,channel,channel,channel,PROPN,True,False
on,on,on,on,ADP,True,True
or,or,or,or,CCONJ,True,True
near,near,near,near,SCONJ,True,False
the,the,the,the,DET,True,True
band,band,band,band,NOUN,True,False
edge,edge,edge,edge,NOUN,True,False
would,would,would,would,VERB,True,True
continue,continue,continue,continue,VERB,True,False
to,to,to,to,PART,True,True
be,be,be,be,AUX,True,True
constrain,constrain,constrain,constrain,NOUN,True,False
by,by,by,by,ADP,True,True
the,the,the,the,DET,True,True
-40,-40,-40,-40,PROPN,False,False
dbmmhz,dbmmhz,dbmmhz,dbmmhz,VERB,True,False
additional,additional,additional,additional,ADJ,True,False
protection,protection,protection,protection,NOUN,True,False
level,level,level,level,NOUN,True,False
requirement,requirement,requirement,requirement,NOUN,True,False
for,for,for,for,ADP,True,True
adjacent,adjacent,adjacent,adjacent,ADJ,True,False
band,band,band,band,NOUN,True,False
.,.,.,.,PUNCT,False,False
the,the,the,the,DET,True,True
suggest,suggest,sugg,sugg,ADJ,True,False
revision,revision,revision,revision,NOUN,True,False
be,be,be,be,AUX,True,True
consistent,consistent,consistent,consistent,ADJ,True,False
with,with,with,with,ADP,True,True
the,the,the,the,DET,True,True
way,way,way,way,NOUN,True,False
in,in,in,in,ADP,True,True
which,which,which,which,DET,True,True
the,the,the,the,DET,True,True
emission,emission,emission,emission,NOUN,True,False
mask,mask,mask,mask,NOUN,True,False
be,be,be,be,AUX,True,True
define,define,define,define,NOUN,True,False
in,in,in,in,ADP,True,True
3gpp,3gpp,3gpp,3gpp,NUM,False,False
specification,specification,specification,specification,NOUN,True,False
",",",",",",",",PUNCT,False,False
which,which,which,which,DET,True,True
scale,scale,scale,scale,VERB,True,False
with,with,with,with,ADP,True,True
bandwidth,bandwidth,bandwidth,bandwidth,NOUN,True,False
and,and,and,and,CCONJ,True,True
recognize,recognize,recognize,recognize,VERB,True,False
that,that,that,that,DET,True,True
wide,wide,wide,wide,ADJ,True,False
bandwidthchannel,bandwidthchannel,bandwidthchannel,bandwidthchannel,NOUN,True,False
require,require,require,require,VERB,True,False
a,a,a,a,DET,True,True
wide,wide,wide,wide,ADJ,True,False
roll,roll,roll,roll,NOUN,True,False
-,-,-,-,PUNCT,False,False
off,off,off,off,ADP,True,True
bandwidth,bandwidth,bandwidth,bandwidth,NOUN,True,False
.,.,.,.,PUNCT,False,False
accordingly,accordingly,accordingly,accordingly,ADV,True,False
",",",",",",",",PUNCT,False,False
qualcomm,qualcomm,qualcomm,qualcomm,PROPN,True,False
respectfully,respectfully,respectfully,respectfully,ADV,True,False
request,request,request,request,VERB,True,False
that,that,that,that,SCONJ,True,True
the,the,the,the,DET,True,True
fcc,fcc,fcc,fcc,PROPN,True,False
revise,revise,revise,revise,VERB,True,False
the,the,the,the,DET,True,True
emission,emission,emission,emission,NOUN,True,False
limit,limit,limit,limit,NOUN,True,False
in,in,in,in,ADP,True,True
rule,rule,rule,rule,NOUN,True,False
section,section,section,section,NOUN,True,False
96.41e,96.41e,96.41e,96.41e,PROPN,False,False
as,as,as,as,ADV,True,True
set,set,set,set,VERB,True,False
out,out,out,out,ADP,True,True
in,in,in,in,ADP,True,True
our,our,-PRON-,-pron-,DET,True,True
june,june,june,june,PROPN,True,False
19,19,19,19,NUM,False,False
",",",",",",",",PUNCT,False,False
2017,2017,2017,2017,NUM,False,False
ex,ex,ex,ex,PROPN,True,False
parte,parte,parte,parte,PROPN,True,False
filing,filing,filing,filing,NOUN,True,False
.,.,.,.,PUNCT,False,False
the,the,the,the,DET,True,True
3.5,3.5,3.5,3.5,NUM,False,False
ghz,ghz,ghz,ghz,PROPN,True,False
band,band,band,band,NOUN,True,False
should,should,should,should,VERB,True,True
be,be,be,be,AUX,True,True
license,license,license,license,NOUN,True,False
use,use,use,use,VERB,True,False
partial,partial,partial,partial,ADJ,True,False
economic,economic,economic,economic,ADJ,True,False
areas,areas,area,area,NOUN,True,False
and,and,and,and,CCONJ,True,True
allow,allow,allow,allow,VERB,True,False
for,for,for,for,ADP,True,True
partitioning,partitioning,partitioning,partitioning,NOUN,True,False
and,and,and,and,CCONJ,True,True
disaggregation,disaggregation,disaggregation,disaggregation,NOUN,True,False
of,of,of,of,ADP,True,True
spectrum,spectrum,spectrum,spectrum,PROPN,True,False
rightsthe,rightsthe,rightsthe,rightsthe,PROPN,True,False
fccs,fccs,fccs,fccs,PROPN,True,False
present,present,present,present,ADJ,True,False
licensing,licensing,licensing,licensing,NOUN,True,False
framework,framework,framework,framework,NOUN,True,False
for,for,for,for,ADP,True,True
the,the,the,the,DET,True,True
3.5,3.5,3.5,3.5,NUM,False,False
ghz,ghz,ghz,ghz,PROPN,True,False
band,band,band,band,NOUN,True,False
be,be,be,be,AUX,True,True
administratively,administratively,administratively,administratively,ADV,True,False
burdensome,burdensome,burdensome,burdensome,ADJ,True,False
",",",",",",",",PUNCT,False,False
overly,overly,overly,overly,ADV,True,False
complex,complex,complex,complex,ADJ,True,False
",",",",",",",",PUNCT,False,False
and,and,and,and,CCONJ,True,True
introduce,introduce,introduce,introduce,VERB,True,False
interference,interference,interference,interference,NOUN,True,False
challenge,challenge,challenge,challenge,NOUN,True,False
between,between,between,between,ADP,True,True
ten,ten,ten,ten,NUM,True,True
of,of,of,of,ADP,True,True
thousand,thousand,thousand,thousand,NUM,True,False
of,of,of,of,ADP,True,True
adjacent,adjacent,adjacent,adjacent,ADJ,True,False
census,census,census,census,NOUN,True,False
-,-,-,-,PUNCT,False,False
tract,tract,tract,tract,NOUN,True,False
-,-,-,-,PUNCT,False,False
sized,sized,sized,sized,ADJ,True,False
licensee,licensee,licensee,licensee,NOUN,True,False
.,.,.,.,PUNCT,False,False
the,the,the,the,DET,True,True
present,present,present,present,ADJ,True,False
licensing,licensing,licensing,licensing,NOUN,True,False
approach,approach,approach,approach,NOUN,True,False
use,use,use,use,VERB,True,False
census,census,census,census,NOUN,True,False
tract,tract,tract,tract,NOUN,True,False
where,where,where,where,ADV,True,True
there,there,there,there,PRON,True,True
be,be,be,be,VERB,True,True
over,over,over,over,ADP,True,True
"74,000","74,000","74,000","74,000",NUM,False,False
census,census,census,census,NOUN,True,False
tract,tract,tract,tract,NOUN,True,False
in,in,in,in,ADP,True,True
the,the,the,the,DET,True,True
u.s,u.s,u.s,u.s,PROPN,False,False
.,.,.,.,PROPN,False,False
can,can,can,can,VERB,True,True
result,result,result,result,VERB,True,False
in,in,in,in,ADP,True,True
more,more,more,more,ADJ,True,True
than,than,than,than,SCONJ,True,True
"500,000","500,000","500,000","500,000",NUM,False,False
discrete,discrete,discrete,discrete,ADJ,True,False
pal,pal,pal,pal,ADJ,True,False
license,license,license,license,NOUN,True,False
.,.,.,.,PUNCT,False,False
this,this,this,this,DET,True,True
licensing,licensing,licensing,licensing,NOUN,True,False
system,system,system,system,NOUN,True,False
provide,provide,provide,provide,VERB,True,False
for,for,for,for,ADP,True,True
a,a,a,a,DET,True,True
previously,previously,previously,previously,ADV,True,False
unforeseen,unforeseen,unforeseen,unforeseen,ADJ,True,False
number,number,number,number,NOUN,True,False
of,of,of,of,ADP,True,True
border,border,border,border,NOUN,True,False
area,area,area,area,NOUN,True,False
with,with,with,with,ADP,True,True
bi,bi,bi,bi,ADJ,True,False
-,-,-,-,ADJ,False,False
directional,directional,directional,directional,ADJ,True,False
co,co,co,co,ADJ,True,False
-,-,-,-,NOUN,False,False
channel,channel,channel,channel,ADJ,True,False
interference,interference,interference,interference,NOUN,True,False
risk,risk,risk,risk,NOUN,True,False
.,.,.,.,PUNCT,False,False
as,as,as,as,SCONJ,True,True
ctia,ctia,ctia,ctia,PROPN,True,False
note,note,note,note,PROPN,True,False
",",",",",",",",PUNCT,False,False
the,the,the,the,DET,True,True
three,three,three,three,NUM,True,True
-,-,-,-,PUNCT,False,False
tiere,tiere,tiere,tiere,NOUN,True,False
spectrum,spectrum,spectrum,spectrum,NOUN,True,False
access,access,access,access,NOUN,True,False
regime,regime,regime,regime,NOUN,True,False
be,be,be,be,AUX,True,True
novel,novel,novel,novel,ADJ,True,False
enough,enough,enough,enough,ADV,True,True
without,without,without,without,ADP,True,True
introduce,introduce,introduce,introduce,VERB,True,False
a,a,a,a,DET,True,True
licensing,licensing,licensing,licensing,NOUN,True,False
framework,framework,framework,framework,NOUN,True,False
comprise,comprise,comprise,comprise,NOUN,True,False
of,of,of,of,ADP,True,True
"74,000","74,000","74,000","74,000",NUM,False,False
geographic,geographic,geographic,geographic,ADJ,True,False
area,area,area,area,NOUN,True,False
.,.,.,.,PUNCT,False,False
qualcomm,qualcomm,qualcomm,qualcomm,PROPN,True,False
agree,agree,agree,agree,VERB,True,False
with,with,with,with,ADP,True,True
ctia,ctia,ctia,ctia,PROPN,True,False
and,and,and,and,CCONJ,True,True
t,t,t,t,PROPN,True,False
-,-,-,-,PUNCT,False,False
mobile,mobile,mobile,mobile,PROPN,True,False
usa,usa,usa,usa,PROPN,True,False
that,that,that,that,SCONJ,True,True
the,the,the,the,DET,True,True
fcc,fcc,fcc,fcc,PROPN,True,False
should,should,should,should,VERB,True,True
license,license,license,license,VERB,True,False
the,the,the,the,DET,True,True
3.5,3.5,3.5,3.5,NUM,False,False
ghz,ghz,ghz,ghz,NOUN,True,False
pal,pal,pal,pal,NOUN,True,False
on,on,on,on,ADP,True,True
a,a,a,a,DET,True,True
partial,partial,partial,partial,ADJ,True,False
economic,economic,economic,economic,ADJ,True,False
area,area,area,area,NOUN,True,False
pea,pea,pea,pea,PROPN,True,False
basis,basis,basis,basis,NOUN,True,False
for,for,for,for,ADP,True,True
it,it,-PRON-,-pron-,PRON,True,True
will,will,will,will,VERB,True,True
enable,enable,enable,enable,VERB,True,False
flexible,flexible,flexible,flexible,ADJ,True,False
network,network,network,network,NOUN,True,False
deployment,deployment,deployment,deployment,NOUN,True,False
and,and,and,and,CCONJ,True,True
result,result,result,result,VERB,True,False
in,in,in,in,ADP,True,True
less,less,less,less,ADJ,True,True
interference,interference,interference,interference,NOUN,True,False
problem,problem,problem,problem,NOUN,True,False
and,and,and,and,CCONJ,True,True
less,less,less,less,ADV,True,True
administrative,administrative,administrative,administrative,ADJ,True,False
issue,issue,issue,issue,NOUN,True,False
.,.,.,.,PUNCT,False,False
pea,pea,pea,pea,PROPN,True,False
licensing,licensing,licensing,licensing,NOUN,True,False
of,of,of,of,ADP,True,True
pal,pal,pal,pal,PROPN,True,False
will,will,will,will,VERB,True,True
allow,allow,allow,allow,VERB,True,False
license,license,license,license,NOUN,True,False
to,to,to,to,PART,True,True
deploy,deploy,deploy,deploy,VERB,True,False
network,network,network,network,NOUN,True,False
in,in,in,in,ADP,True,True
target,target,target,target,NOUN,True,False
area,area,area,area,NOUN,True,False
and,and,and,and,CCONJ,True,True
readily,readily,readily,readily,ADV,True,False
expand,expand,expand,expand,VERB,True,False
those,those,those,those,DET,True,True
deployment,deployment,deployment,deployment,NOUN,True,False
as,as,as,as,SCONJ,True,True
need,need,need,need,NOUN,True,False
.,.,.,.,PUNCT,False,False
to,to,to,to,ADP,True,True
the,the,the,the,DET,True,True
extent,extent,extent,extent,NOUN,True,False
the,the,the,the,DET,True,True
commission,commission,commission,commission,NOUN,True,False
want,want,want,want,VERB,True,False
to,to,to,to,PART,True,True
encourage,encourage,encourage,encourage,VERB,True,False
opportunity,opportunity,opportunity,opportunity,NOUN,True,False
in,in,in,in,ADP,True,True
small,small,small,small,ADJ,True,False
service,service,service,service,NOUN,True,False
area,area,area,area,NOUN,True,False
",",",",",",",",PUNCT,False,False
it,it,-PRON-,-pron-,PRON,True,True
should,should,should,should,VERB,True,True
revise,revise,revise,revise,VERB,True,False
its,its,-PRON-,-pron-,DET,True,True
3.5,3.5,3.5,3.5,NUM,False,False
ghz,ghz,ghz,ghz,PROPN,True,False
rule,rule,rule,rule,NOUN,True,False
to,to,to,to,PART,True,True
permit,permit,permit,permit,VERB,True,False
partitioning,partitioning,partitioning,partitioning,NOUN,True,False
and,and,and,and,CCONJ,True,True
disaggregation,disaggregation,disaggregation,disaggregation,NOUN,True,False
via,via,via,via,ADP,True,True
secondary,secondary,secondary,secondary,ADJ,True,False
market,market,market,market,NOUN,True,False
transaction,transaction,transaction,transaction,NOUN,True,False
",",",",",",",",PUNCT,False,False
which,which,which,which,DET,True,True
have,have,have,have,AUX,True,True
work,work,work,work,NOUN,True,False
well,well,well,well,ADV,True,True
for,for,for,for,ADP,True,True
many,many,many,many,ADJ,True,True
other,other,other,other,ADJ,True,True
mobile,mobile,mobile,mobile,ADJ,True,False
band,band,band,band,NOUN,True,False
.,.,.,.,PUNCT,False,False
the,the,the,the,DET,True,True
approach,approach,approach,approach,NOUN,True,False
set,set,set,set,VERB,True,False
out,out,out,out,ADP,True,True
in,in,in,in,ADP,True,True
the,the,the,the,DET,True,True
current,current,current,current,ADJ,True,False
licensing,licensing,licensing,licensing,NOUN,True,False
rule,rule,rule,rule,NOUN,True,False
may,may,may,may,VERB,True,True
invite,invite,invite,invite,VERB,True,False
rent,rent,rent,rent,NOUN,True,False
-,-,-,-,PUNCT,False,False
seek,seek,seek,seek,NOUN,True,False
spectrum,spectrum,spectrum,spectrum,NOUN,True,False
speculator,speculator,speculator,speculator,NOUN,True,False
with,with,with,with,ADP,True,True
limited,limited,limited,limited,ADJ,True,False
interest,interest,interest,interest,NOUN,True,False
in,in,in,in,ADP,True,True
put,put,put,put,VERB,True,True
the,the,the,the,DET,True,True
band,band,band,band,NOUN,True,False
to,to,to,to,PART,True,True
use,use,use,use,VERB,True,False
",",",",",",",",PUNCT,False,False
particularly,particularly,particularly,particularly,ADV,True,False
because,because,because,because,SCONJ,True,True
the,the,the,the,DET,True,True
rule,rule,rule,rule,NOUN,True,False
do,do,do,do,AUX,True,True
notinclude,notinclude,notinclude,notinclude,VERB,True,False
a,a,a,a,DET,True,True
build,build,build,build,NOUN,True,False
-,-,-,-,PUNCT,False,False
out,out,out,out,ADP,True,True
requirement,requirement,requirement,requirement,NOUN,True,False
and,and,and,and,CCONJ,True,True
thus,thus,thus,thus,ADV,True,True
offer,offer,offer,offer,VERB,True,False
no,no,no,no,DET,True,True
incentive,incentive,incentive,incentive,NOUN,True,False
to,to,to,to,PART,True,True
deploy,deploy,deploy,deploy,VERB,True,False
network,network,network,network,NOUN,True,False
.,.,.,.,PUNCT,False,False
the,the,the,the,DET,True,True
fcc,fcc,fcc,fcc,PROPN,True,False
should,should,should,should,VERB,True,True
revise,revise,revise,revise,VERB,True,False
its,its,-PRON-,-pron-,DET,True,True
licensing,licensing,licensing,licensing,NOUN,True,False
rule,rule,rule,rule,NOUN,True,False
for,for,for,for,ADP,True,True
this,this,this,this,DET,True,True
band,band,band,band,NOUN,True,False
to,to,to,to,PART,True,True
well,well,well,well,ADV,True,True
match,match,match,match,VERB,True,False
the,the,the,the,DET,True,True
rule,rule,rule,rule,NOUN,True,False
that,that,that,that,DET,True,True
applyto,applyto,applyto,applyto,VERB,True,False
other,other,other,other,ADJ,True,True
license,license,license,license,NOUN,True,False
band,band,band,band,NOUN,True,False
",",",",",",",",PUNCT,False,False
such,such,such,such,ADJ,True,True
as,as,as,as,SCONJ,True,True
the,the,the,the,DET,True,True
new,new,new,new,ADJ,True,False
600,600,600,600,NUM,False,False
mhz,mhz,mhz,mhz,PROPN,True,False
band,band,band,band,NOUN,True,False
and,and,and,and,CCONJ,True,True
the,the,the,the,DET,True,True
millimeter,millimeter,millimeter,millimeter,PROPN,True,False
wave,wave,wave,wave,PROPN,True,False
band,band,band,band,NOUN,True,False
which,which,which,which,DET,True,True
areall,areall,areall,areall,ADV,True,False
license,license,license,license,VERB,True,False
on,on,on,on,ADP,True,True
a,a,a,a,DET,True,True
pea,pea,pea,pea,ADJ,True,False
basis,basis,basis,basis,NOUN,True,False
",",",",",",",",PUNCT,False,False
for,for,for,for,ADP,True,True
this,this,this,this,DET,True,True
mid,mid,mid,mid,ADJ,True,False
-,-,-,-,NOUN,False,False
band,band,band,band,NOUN,True,False
spectrum,spectrum,spectrum,spectrum,NOUN,True,False
will,will,will,will,VERB,True,True
serve,serve,serve,serve,VERB,True,False
a,a,a,a,DET,True,True
critical,critical,critical,critical,ADJ,True,False
role,role,role,role,NOUN,True,False
in,in,in,in,ADP,True,True
mobileprovider,mobileprovider,mobileprovider,mobileprovider,NOUN,True,False
ability,ability,ability,ability,NOUN,True,False
to,to,to,to,PART,True,True
provide,provide,provide,provide,VERB,True,False
user,user,user,user,NOUN,True,False
a,a,a,a,DET,True,True
seamless,seamless,seamless,seamless,NOUN,True,False
5,5,5,5,NUM,False,False
g,g,g,g,NOUN,True,False
experience,experience,experience,experience,NOUN,True,False
.,.,.,.,PUNCT,False,False
as,as,as,as,SCONJ,True,True
qualcomm,qualcomm,qualcomm,qualcomm,PROPN,True,False
have,have,have,have,AUX,True,True
explain,explain,explain,explain,VERB,True,False
inthis,inthis,inthis,inthis,DET,True,False
and,and,and,and,CCONJ,True,True
other,other,other,other,ADJ,True,True
fcc,fcc,fcc,fcc,PROPN,True,False
spectrum,spectrum,spectrum,spectrum,NOUN,True,False
proceeding,proceeding,proceeding,proceeding,PROPN,True,False
",",",",",",",",PUNCT,False,False
mobile,mobile,mobile,mobile,NOUN,True,False
operator,operator,operator,operator,NOUN,True,False
will,will,will,will,VERB,True,True
need,need,need,need,VERB,True,False
a,a,a,a,DET,True,True
combination,combination,combination,combination,NOUN,True,False
of,of,of,of,ADP,True,True
low,low,low,low,ADJ,True,False
-,-,-,-,PUNCT,False,False
band,band,band,band,NOUN,True,False
",",",",",",",",PUNCT,False,False
mid,mid,mid,mid,NOUN,True,False
-,-,-,-,NOUN,False,False
band,band,band,band,NOUN,True,False
",",",",",",",",PUNCT,False,False
and,and,and,and,CCONJ,True,True
high,high,high,high,ADJ,True,False
-,-,-,-,PUNCT,False,False
band,band,band,band,NOUN,True,False
spectrum,spectrum,spectrum,spectrum,NOUN,True,False
to,to,to,to,ADP,True,True
service,service,service,service,NOUN,True,False
user,user,user,user,NOUN,True,False
and,and,and,and,CCONJ,True,True
each,each,each,each,DET,True,True
band,band,band,band,NOUN,True,False
type,type,type,type,NOUN,True,False
will,will,will,will,VERB,True,True
meet,meet,meet,meet,VERB,True,False
differentneed,differentneed,differentneed,differentneed,NOUN,True,False
.,.,.,.,PUNCT,False,False
mid,mid,mid,mid,ADJ,True,False
-,-,-,-,ADJ,False,False
band,band,band,band,NOUN,True,False
spectrum,spectrum,spectrum,spectrum,NOUN,True,False
like,like,like,like,SCONJ,True,False
the,the,the,the,DET,True,True
3.5,3.5,3.5,3.5,NUM,False,False
ghz,ghz,ghz,ghz,PROPN,True,False
band,band,band,band,NOUN,True,False
will,will,will,will,VERB,True,True
provide,provide,provide,provide,VERB,True,False
capacity,capacity,capacity,capacity,NOUN,True,False
and,and,and,and,CCONJ,True,True
coverage,coverage,coverage,coverage,NOUN,True,False
benefit,benefit,benefit,benefit,NOUN,True,False
indense,indense,indense,indense,PROPN,True,False
urban,urban,urban,urban,ADJ,True,False
and,and,and,and,CCONJ,True,True
suburban,suburban,suburban,suburban,ADJ,True,False
market,market,market,market,NOUN,True,False
",",",",",",",",PUNCT,False,False
as,as,as,as,SCONJ,True,True
t,t,t,t,NOUN,True,False
-,-,-,-,PUNCT,False,False
mobile,mobile,mobile,mobile,PROPN,True,False
usa,usa,usa,usa,PROPN,True,False
note,note,note,note,NOUN,True,False
.,.,.,.,PUNCT,False,False
integration,integration,integration,integration,NOUN,True,False
of,of,of,of,ADP,True,True
this,this,this,this,DET,True,True
band,band,band,band,NOUN,True,False
intoprovider,intoprovider,intoprovider,intoprovider,NOUN,True,False
network,network,network,network,NOUN,True,False
can,can,can,can,VERB,True,True
occur,occur,occur,occur,VERB,True,False
seamlessly,seamlessly,seamlessly,seamlessly,ADV,True,False
where,where,where,where,ADV,True,True
the,the,the,the,DET,True,True
licensing,licensing,licensing,licensing,NOUN,True,False
term,term,term,term,NOUN,True,False
for,for,for,for,ADP,True,True
these,these,these,these,DET,True,True
band,band,band,band,NOUN,True,False
be,be,be,be,AUX,True,True
similar,similar,similar,similar,ADJ,True,False
",",",",",",",",PUNCT,False,False
which,which,which,which,DET,True,True
include,include,include,include,VERB,True,False
large,large,large,large,ADJ,True,False
area,area,area,area,NOUN,True,False
pea,pea,pea,pea,NOUN,True,False
license,license,license,license,NOUN,True,False
and,and,and,and,CCONJ,True,True
a,a,a,a,DET,True,True
ten,ten,ten,ten,NUM,True,True
-,-,-,-,PUNCT,False,False
year,year,year,year,NOUN,True,False
license,license,license,license,NOUN,True,False
term,term,term,term,NOUN,True,False
with,with,with,with,ADP,True,True
a,a,a,a,DET,True,True
renewal,renewal,renewal,renewal,NOUN,True,False
expectancy,expectancy,expectancy,expectancy,NOUN,True,False
.,.,.,.,PUNCT,False,False
ten,ten,ten,ten,NUM,True,True
-,-,-,-,PUNCT,False,False
year,year,year,year,NOUN,True,False
license,license,license,license,NOUN,True,False
term,term,term,term,NOUN,True,False
with,with,with,with,ADP,True,True
a,a,a,a,DET,True,True
right,right,right,right,NOUN,True,False
of,of,of,of,ADP,True,True
renewal,renewal,renewal,renewal,NOUN,True,False
will,will,will,will,VERB,True,True
ensure,ensure,ensure,ensure,VERB,True,False
successful,successful,successful,successful,ADJ,True,False
deployment,deployment,deployment,deployment,NOUN,True,False
of,of,of,of,ADP,True,True
licensed,licensed,license,license,VERB,True,False
mobile,mobile,mobile,mobile,PROPN,True,False
services,services,service,service,NOUN,True,False
in,in,in,in,ADP,True,True
the,the,the,the,DET,True,True
3.5,3.5,3.5,3.5,NUM,False,False
ghz,ghz,ghz,ghz,PROPN,True,False
bandqualcomm,bandqualcomm,bandqualcomm,bandqualcomm,PROPN,True,False
support,support,support,support,NOUN,True,False
ctias,ctias,ctia,ctia,NOUN,True,False
and,and,and,and,CCONJ,True,True
t,t,t,t,PROPN,True,False
-,-,-,-,PUNCT,False,False
mobile,mobile,mobile,mobile,NOUN,True,False
usas,usas,usas,usas,PROPN,True,False
proposal,proposal,proposal,proposal,NOUN,True,False
to,to,to,to,PART,True,True
adopt,adopt,adopt,adopt,VERB,True,False
a,a,a,a,DET,True,True
ten,ten,ten,ten,NUM,True,True
-,-,-,-,PUNCT,False,False
year,year,year,year,NOUN,True,False
license,license,license,license,NOUN,True,False
term,term,term,term,NOUN,True,False
with,with,with,with,ADP,True,True
an,an,an,an,DET,True,True
expectation,expectation,expectation,expectation,NOUN,True,False
of,of,of,of,ADP,True,True
renewal,renewal,renewal,renewal,NOUN,True,False
for,for,for,for,ADP,True,True
pal,pal,pal,pal,ADJ,True,False
license,license,license,license,NOUN,True,False
because,because,because,because,SCONJ,True,True
this,this,this,this,DET,True,True
approach,approach,approach,approach,NOUN,True,False
will,will,will,will,VERB,True,True
provide,provide,provide,provide,VERB,True,False
the,the,the,the,DET,True,True
necessary,necessary,necessary,necessary,ADJ,True,False
incentive,incentive,incentive,incentive,NOUN,True,False
to,to,to,to,PART,True,True
invest,invest,invest,invest,VERB,True,False
in,in,in,in,ADP,True,True
pal,pal,pal,pal,NOUN,True,False
.,.,.,.,PUNCT,False,False
a,a,a,a,DET,True,True
ten,ten,ten,ten,NUM,True,True
-,-,-,-,PUNCT,False,False
year,year,year,year,NOUN,True,False
licensing,licensing,licensing,licensing,NOUN,True,False
term,term,term,term,NOUN,True,False
be,be,be,be,AUX,True,True
consistent,consistent,consistent,consistent,ADJ,True,False
with,with,with,with,ADP,True,True
the,the,the,the,DET,True,True
commissions,commissions,commission,commission,NOUN,True,False
prove,prove,prove,prove,VERB,True,False
approach,approach,approach,approach,NOUN,True,False
in,in,in,in,ADP,True,True
most,most,most,most,ADJ,True,True
other,other,other,other,ADJ,True,True
license,license,license,license,NOUN,True,False
mobile,mobile,mobile,mobile,NOUN,True,False
band,band,band,band,NOUN,True,False
",",",",",",",",PUNCT,False,False
and,and,and,and,CCONJ,True,True
it,it,-PRON-,-pron-,PRON,True,True
have,have,have,have,AUX,True,True
help,help,help,help,NOUN,True,False
make,make,make,make,VERB,True,True
theu.s,theu.s,theu.s,theu.s,PROPN,False,False
.,.,.,.,PUNCT,False,False
the,the,the,the,DET,True,True
global,global,global,global,ADJ,True,False
leader,leader,leader,leader,NOUN,True,False
in,in,in,in,ADP,True,True
wireless,wireless,wireless,wireless,NOUN,True,False
.,.,.,.,PUNCT,False,False
the,the,the,the,DET,True,True
commission,commission,commission,commission,NOUN,True,False
also,also,also,also,ADV,True,True
adopt,adopt,adopt,adopt,VERB,True,False
this,this,this,this,DET,True,True
approach,approach,approach,approach,NOUN,True,False
in,in,in,in,ADP,True,True
the,the,the,the,DET,True,True
spectrum,spectrum,spectrum,spectrum,PROPN,True,False
frontiers,frontiers,frontier,frontier,NOUN,True,False
proceed,proceed,proceed,proceed,VERB,True,False
for,for,for,for,ADP,True,True
the,the,the,the,DET,True,True
28,28,28,28,NUM,False,False
ghz,ghz,ghz,ghz,NOUN,True,False
and,and,and,and,CCONJ,True,True
3739,3739,3739,3739,NUM,False,False
ghz,ghz,ghz,ghz,PROPN,True,False
band,band,band,band,NOUN,True,False
that,that,that,that,DET,True,True
like,like,like,like,SCONJ,True,False
the,the,the,the,DET,True,True
3.5,3.5,3.5,3.5,NUM,False,False
ghz,ghz,ghz,ghz,PROPN,True,False
band,band,band,band,NOUN,True,False
will,will,will,will,VERB,True,True
see,see,see,see,VERB,True,True
network,network,network,network,NOUN,True,False
deployment,deployment,deployment,deployment,NOUN,True,False
comprise,comprise,comprise,comprise,NOUN,True,False
mostly,mostly,mostly,mostly,ADV,True,True
of,of,of,of,ADP,True,True
small,small,small,small,ADJ,True,False
cell,cell,cell,cell,NOUN,True,False
.,.,.,.,PUNCT,False,False
a,a,a,a,DET,True,True
renewal,renewal,renewal,renewal,NOUN,True,False
expectancy,expectancy,expectancy,expectancy,NOUN,True,False
be,be,be,be,AUX,True,True
a,a,a,a,DET,True,True
critically,critically,critically,critically,ADV,True,False
important,important,important,important,ADJ,True,False
component,component,component,component,NOUN,True,False
of,of,of,of,ADP,True,True
a,a,a,a,DET,True,True
mobile,mobile,mobile,mobile,ADJ,True,False
license,license,license,license,NOUN,True,False
for,for,for,for,ADP,True,True
it,it,-PRON-,-pron-,PRON,True,True
will,will,will,will,VERB,True,True
remove,remove,remove,remove,VERB,True,False
the,the,the,the,DET,True,True
uncertainty,uncertainty,uncertainty,uncertainty,NOUN,True,False
of,of,of,of,ADP,True,True
have,have,have,have,AUX,True,True
to,to,to,to,PART,True,True
regularly,regularly,regularly,regularly,ADV,True,False
participate,participate,participate,participate,VERB,True,False
in,in,in,in,ADP,True,True
auction,auction,auction,auction,NOUN,True,False
to,to,to,to,PART,True,True
retain,retain,retain,retain,VERB,True,False
access,access,access,access,NOUN,True,False
to,to,to,to,ADP,True,True
pals,pals,pal,pal,NOUN,True,False
.,.,.,.,PUNCT,False,False
the,the,the,the,DET,True,True
present,present,present,present,ADJ,True,False
3.5,3.5,3.5,3.5,NUM,False,False
ghz,ghz,ghz,ghz,NOUN,True,False
licensing,licensing,licensing,licensing,NOUN,True,False
framework,framework,framework,framework,NOUN,True,False
",",",",",",",",PUNCT,False,False
with,with,with,with,ADP,True,True
short,short,short,short,ADJ,True,False
three,three,three,three,NUM,True,True
-,-,-,-,PUNCT,False,False
year,year,year,year,NOUN,True,False
license,license,license,license,NOUN,True,False
term,term,term,term,NOUN,True,False
and,and,and,and,CCONJ,True,True
no,no,no,no,DET,True,True
renewal,renewal,renewal,renewal,NOUN,True,False
expectancy,expectancy,expectancy,expectancy,NOUN,True,False
",",",",",",",",PUNCT,False,False
severely,severely,severely,severely,ADV,True,False
undercut,undercut,undercut,undercut,VERB,True,False
the,the,the,the,DET,True,True
usefulness,usefulness,usefulness,usefulness,NOUN,True,False
of,of,of,of,ADP,True,True
the,the,the,the,DET,True,True
pal,pal,pal,pal,PROPN,True,False
tier,tier,tier,tier,NOUN,True,False
.,.,.,.,PUNCT,False,False
offer,offer,offer,offer,VERB,True,False
mobile,mobile,mobile,mobile,ADJ,True,False
pal,pal,pal,pal,PROPN,True,False
license,license,license,license,VERB,True,False
the,the,the,the,DET,True,True
option,option,option,option,NOUN,True,False
to,to,to,to,PART,True,True
operate,operate,operate,operate,VERB,True,False
on,on,on,on,ADP,True,True
a,a,a,a,DET,True,True
gaa,gaa,gaa,gaa,NOUN,True,False
basis,basis,basis,basis,NOUN,True,False
follow,follow,follow,follow,VERB,True,False
the,the,the,the,DET,True,True
loss,loss,loss,loss,NOUN,True,False
of,of,of,of,ADP,True,True
a,a,a,a,DET,True,True
pal,pal,pal,pal,NOUN,True,False
in,in,in,in,ADP,True,True
a,a,a,a,DET,True,True
subsequent,subsequent,subsequent,subsequent,ADJ,True,False
auction,auction,auction,auction,NOUN,True,False
do,do,do,do,AUX,True,True
not,not,not,not,PART,True,True
provide,provide,provide,provide,VERB,True,False
the,the,the,the,DET,True,True
necessary,necessary,necessary,necessary,ADJ,True,False
certainty,certainty,certainty,certainty,NOUN,True,False
to,to,to,to,PART,True,True
justify,justify,justify,justify,VERB,True,False
significant,significant,significant,significant,ADJ,True,False
investment,investment,investment,investment,NOUN,True,False
in,in,in,in,ADP,True,True
the,the,the,the,DET,True,True
band,band,band,band,NOUN,True,False
because,because,because,because,SCONJ,True,True
gaa,gaa,gaa,gaa,NOUN,True,False
operation,operation,operation,operation,NOUN,True,False
do,do,do,do,AUX,True,True
not,not,not,not,PART,True,True
have,have,have,have,AUX,True,True
interference,interference,interference,interference,NOUN,True,False
protection,protection,protection,protection,NOUN,True,False
from,from,from,from,ADP,True,True
other,other,other,other,ADJ,True,True
cbrs,cbrs,cbr,cbr,NOUN,True,False
user,user,user,user,NOUN,True,False
.,.,.,.,PUNCT,False,False
moreover,moreover,moreover,moreover,ADV,True,True
",",",",",",",",PUNCT,False,False
in,in,in,in,ADP,True,True
area,area,area,area,NOUN,True,False
where,where,where,where,ADV,True,True
demand,demand,demand,demand,NOUN,True,False
for,for,for,for,ADP,True,True
spectrum,spectrum,spectrum,spectrum,PROPN,True,False
be,be,be,be,AUX,True,True
high,high,high,high,ADJ,True,False
",",",",",",",",PUNCT,False,False
there,there,there,there,PRON,True,True
be,be,be,be,AUX,True,True
no,no,no,no,DET,True,True
certainty,certainty,certainty,certainty,NOUN,True,False
that,that,that,that,SCONJ,True,True
mobile,mobile,mobile,mobile,ADJ,True,False
licensee,licensee,licensee,licensee,NOUN,True,False
who,who,who,who,PRON,True,True
invest,invest,invest,invest,VERB,True,False
in,in,in,in,ADP,True,True
the,the,the,the,DET,True,True
band,band,band,band,NOUN,True,False
as,as,as,as,SCONJ,True,True
pal,pal,pal,pal,PROPN,True,False
operator,operator,operator,operator,NOUN,True,False
will,will,will,will,VERB,True,True
have,have,have,have,AUX,True,True
sufficient,sufficient,sufficient,sufficient,ADJ,True,False
access,access,access,access,NOUN,True,False
to,to,to,to,ADP,True,True
gaa,gaa,gaa,gaa,NOUN,True,False
spectrum,spectrum,spectrum,spectrum,NOUN,True,False
.,.,.,.,PUNCT,False,False
echo,echo,echo,echo,VERB,True,False
the,the,the,the,DET,True,True
point,point,point,point,NOUN,True,False
make,make,make,make,VERB,True,True
in,in,in,in,ADP,True,True
the,the,the,the,DET,True,True
ctia,ctia,ctia,ctia,NOUN,True,False
and,and,and,and,CCONJ,True,True
t,t,t,t,PROPN,True,False
-,-,-,-,PUNCT,False,False
mobile,mobile,mobile,mobile,PROPN,True,False
usa,usa,usa,usa,PROPN,True,False
petitions,petitions,petition,petition,NOUN,True,False
",",",",",",",",PUNCT,False,False
the,the,the,the,DET,True,True
implementation,implementation,implementation,implementation,NOUN,True,False
of,of,of,of,ADP,True,True
a,a,a,a,DET,True,True
three,three,three,three,NUM,True,True
-,-,-,-,PUNCT,False,False
tier,tier,tier,tier,NOUN,True,False
licensing,licensing,licensing,licensing,NOUN,True,False
framework,framework,framework,framework,NOUN,True,False
in,in,in,in,ADP,True,True
the,the,the,the,DET,True,True
3.5,3.5,3.5,3.5,NUM,False,False
ghz,ghz,ghz,ghz,PROPN,True,False
band,band,band,band,NOUN,True,False
be,be,be,be,AUX,True,True
novel,novel,novel,novel,ADJ,True,False
enough,enough,enough,enough,ADV,True,True
",",",",",",",",PUNCT,False,False
and,and,and,and,CCONJ,True,True
the,the,the,the,DET,True,True
fcc,fcc,fcc,fcc,PROPN,True,False
should,should,should,should,VERB,True,True
stick,stick,stick,stick,VERB,True,False
with,with,with,with,ADP,True,True
well,well,well,well,ADV,True,True
-,-,-,-,PUNCT,False,False
establish,establish,establish,establish,VERB,True,False
and,and,and,and,CCONJ,True,True
prove,prove,prove,prove,VERB,True,False
licensing,licensing,license,license,VERB,True,False
model,model,model,model,NOUN,True,False
in,in,in,in,ADP,True,True
this,this,this,this,DET,True,True
band,band,band,band,NOUN,True,False
because,because,because,because,SCONJ,True,True
mobile,mobile,mobile,mobile,ADJ,True,False
operator,operator,operator,operator,NOUN,True,False
desperately,desperately,desperately,desperately,ADV,True,False
need,need,need,need,VERB,True,False
to,to,to,to,PART,True,True
incorporate,incorporate,incorporate,incorporate,VERB,True,False
this,this,this,this,DET,True,True
spectrum,spectrum,spectrum,spectrum,NOUN,True,False
into,into,into,into,ADP,True,True
their,their,-PRON-,-pron-,DET,True,True
network,network,network,network,NOUN,True,False
to,to,to,to,PART,True,True
continue,continue,continue,continue,VERB,True,False
meeting,meeting,meet,meet,VERB,True,False
user,user,user,user,NOUN,True,False
exponentially,exponentially,exponentially,exponentially,ADV,True,False
increase,increase,increase,increase,VERB,True,False
data,data,data,data,NOUN,True,False
demand,demand,demand,demand,NOUN,True,False
.,.,.,.,PUNCT,False,False
qualcomm,qualcomm,qualcomm,qualcomm,PROPN,True,False
and,and,and,and,CCONJ,True,True
our,our,-PRON-,-pron-,DET,True,True
wireless,wireless,wireless,wireless,ADJ,True,False
industry,industry,industry,industry,NOUN,True,False
partner,partner,partner,partner,NOUN,True,False
be,be,be,be,AUX,True,True
work,work,work,work,NOUN,True,False
hard,hard,hard,hard,ADV,True,False
through,through,through,through,ADP,True,True
the,the,the,the,DET,True,True
standard,standard,standard,standard,ADJ,True,False
process,process,process,process,NOUN,True,False
and,and,and,and,CCONJ,True,True
develop,develop,develop,develop,VERB,True,False
chipset,chipset,chipset,chipset,NOUN,True,False
and,and,and,and,CCONJ,True,True
equipment,equipment,equipment,equipment,NOUN,True,False
to,to,to,to,PART,True,True
operate,operate,operate,operate,VERB,True,False
in,in,in,in,ADP,True,True
this,this,this,this,DET,True,True
band,band,band,band,NOUN,True,False
",",",",",",",",PUNCT,False,False
and,and,and,and,CCONJ,True,True
the,the,the,the,DET,True,True
change,change,change,change,NOUN,True,False
set,set,set,set,VERB,True,False
out,out,out,out,ADP,True,True
here,here,here,here,ADV,True,True
will,will,will,will,VERB,True,True
not,not,not,not,PART,True,True
delay,delay,delay,delay,VERB,True,False
these,these,these,these,DET,True,True
ongoing,ongoing,ongoing,ongoing,ADJ,True,False
effort,effort,effort,effort,NOUN,True,False
.,.,.,.,PUNCT,False,False
accordingly,accordingly,accordingly,accordingly,ADV,True,False
",",",",",",",",PUNCT,False,False
qualcomm,qualcomm,qualcomm,qualcomm,PROPN,True,False
believe,believe,believe,believe,VERB,True,False
that,that,that,that,SCONJ,True,True
3.5,3.5,3.5,3.5,NUM,False,False
ghz,ghz,ghz,ghz,PROPN,True,False
spectrum,spectrum,spectrum,spectrum,NOUN,True,False
right,right,right,right,NOUN,True,False
should,should,should,should,VERB,True,True
be,be,be,be,AUX,True,True
allocate,allocate,allocate,allocate,VERB,True,False
by,by,by,by,ADP,True,True
use,use,use,use,NOUN,True,False
prove,prove,prove,prove,NOUN,True,False
and,and,and,and,CCONJ,True,True
successful,successful,successful,successful,ADJ,True,False
large,large,large,large,ADJ,True,False
geographic,geographic,geographic,geographic,ADJ,True,False
area,area,area,area,NOUN,True,False
and,and,and,and,CCONJ,True,True
ten,ten,ten,ten,NUM,True,True
-,-,-,-,PUNCT,False,False
year,year,year,year,NOUN,True,False
license,license,license,license,NOUN,True,False
term,term,term,term,NOUN,True,False
with,with,with,with,ADP,True,True
an,an,an,an,DET,True,True
expectation,expectation,expectation,expectation,NOUN,True,False
of,of,of,of,ADP,True,True
renewal,renewal,renewal,renewal,NOUN,True,False
",",",",",",",",PUNCT,False,False
like,like,like,like,SCONJ,True,False
most,most,most,most,ADJ,True,True
every,every,every,every,DET,True,True
mobile,mobile,mobile,mobile,ADJ,True,False
license,license,license,license,NOUN,True,False
award,award,award,award,NOUN,True,False
today,today,today,today,NOUN,True,False
via,via,via,via,ADP,True,True
auction,auction,auction,auction,NOUN,True,False
.,.,.,.,PUNCT,False,False
conclusionqualcomm,conclusionqualcomm,conclusionqualcomm,conclusionqualcomm,PROPN,True,False
have,have,have,have,AUX,True,True
do,do,do,do,AUX,True,True
extensive,extensive,extensive,extensive,ADJ,True,False
work,work,work,work,NOUN,True,False
on,on,on,on,ADP,True,True
small,small,small,small,ADJ,True,False
cell,cell,cell,cell,NOUN,True,False
technology,technology,technology,technology,NOUN,True,False
and,and,and,and,CCONJ,True,True
on,on,on,on,ADP,True,True
the,the,the,the,DET,True,True
spectrum,spectrum,spectrum,spectrum,NOUN,True,False
access,access,access,access,NOUN,True,False
system,system,system,system,NOUN,True,False
set,set,set,set,VERB,True,False
out,out,out,out,ADP,True,True
in,in,in,in,ADP,True,True
the,the,the,the,DET,True,True
fcc,fcc,fcc,fcc,PROPN,True,False
rule,rule,rule,rule,NOUN,True,False
for,for,for,for,ADP,True,True
share,share,share,share,NOUN,True,False
spectrum,spectrum,spectrum,spectrum,NOUN,True,False
with,with,with,with,ADP,True,True
incumbent,incumbent,incumbent,incumbent,ADJ,True,False
federal,federal,federal,federal,ADJ,True,False
user,user,user,user,NOUN,True,False
",",",",",",",",PUNCT,False,False
and,and,and,and,CCONJ,True,True
we,we,-PRON-,-pron-,PRON,True,True
be,be,be,be,VERB,True,True
very,very,very,very,ADV,True,True
excited,excited,excited,excited,ADJ,True,False
about,about,about,about,ADP,True,True
the,the,the,the,DET,True,True
deployment,deployment,deployment,deployment,NOUN,True,False
of,of,of,of,ADP,True,True
these,these,these,these,DET,True,True
technology,technology,technology,technology,NOUN,True,False
in,in,in,in,ADP,True,True
the,the,the,the,DET,True,True
3.5,3.5,3.5,3.5,NUM,False,False
ghz,ghz,ghz,ghz,PROPN,True,False
band,band,band,band,NOUN,True,False
start,start,start,start,NOUN,True,False
soon,soon,soon,soon,ADV,True,False
.,.,.,.,PUNCT,False,False
as,as,as,as,SCONJ,True,True
explain,explain,explain,explain,PROPN,True,False
herein,herein,herein,herein,PROPN,True,True
",",",",",",",",PUNCT,False,False
qualcomm,qualcomm,qualcomm,qualcomm,PROPN,True,False
respectfully,respectfully,respectfully,respectfully,ADV,True,False
request,request,request,request,VERB,True,False
that,that,that,that,SCONJ,True,True
the,the,the,the,DET,True,True
fcc,fcc,fcc,fcc,PROPN,True,False
i,i,i,i,PRON,True,True
change,change,change,change,VERB,True,False
the,the,the,the,DET,True,True
licensing,licensing,licensing,licensing,NOUN,True,False
term,term,term,term,NOUN,True,False
for,for,for,for,ADP,True,True
the,the,the,the,DET,True,True
3.5,3.5,3.5,3.5,NUM,False,False
ghz,ghz,ghz,ghz,NOUN,True,False
pal,pal,pal,pal,NOUN,True,False
to,to,to,to,PART,True,True
be,be,be,be,AUX,True,True
license,license,license,license,VERB,True,False
on,on,on,on,ADP,True,True
a,a,a,a,DET,True,True
pea,pea,pea,pea,ADJ,True,False
basis,basis,basis,basis,NOUN,True,False
with,with,with,with,ADP,True,True
a,a,a,a,DET,True,True
ten,ten,ten,ten,NUM,True,True
-,-,-,-,PUNCT,False,False
year,year,year,year,NOUN,True,False
term,term,term,term,NOUN,True,False
and,and,and,and,CCONJ,True,True
a,a,a,a,DET,True,True
renewal,renewal,renewal,renewal,NOUN,True,False
expectancy,expectancy,expectancy,expectancy,NOUN,True,False
",",",",",",",",PUNCT,False,False
and,and,and,and,CCONJ,True,True
ii,ii,ii,ii,PROPN,True,False
modify,modify,modify,modify,VERB,True,False
the,the,the,the,DET,True,True
emission,emission,emission,emission,NOUN,True,False
limit,limit,limit,limit,NOUN,True,False
for,for,for,for,ADP,True,True
pal,pal,pal,pal,NOUN,True,False
and,and,and,and,CCONJ,True,True
gaa,gaa,gaa,gaa,NOUN,True,False
operation,operation,operation,operation,NOUN,True,False
to,to,to,to,PART,True,True
permit,permit,permit,permit,VERB,True,False
wide,wide,wide,wide,ADJ,True,False
bandwidth,bandwidth,bandwidth,bandwidth,PROPN,True,False
mobile,mobile,mobile,mobile,ADJ,True,False
operation,operation,operation,operation,NOUN,True,False
that,that,that,that,SCONJ,True,True
4,4,4,4,NUM,False,False
g,g,g,g,NOUN,True,False
lte,lte,lte,lte,NOUN,True,False
network,network,network,network,NOUN,True,False
can,can,can,can,VERB,True,True
use,use,use,use,VERB,True,False
today,today,today,today,NOUN,True,False
and,and,and,and,CCONJ,True,True
5,5,5,5,NUM,False,False
g,g,g,g,NOUN,True,False
network,network,network,network,NOUN,True,False
will,will,will,will,VERB,True,True
soon,soon,soon,soon,ADV,True,False
use,use,use,use,VERB,True,False
to,to,to,to,PART,True,True
support,support,support,support,VERB,True,False
gigabit,gigabit,gigabit,gigabit,PROPN,True,False
mobile,mobile,mobile,mobile,PROPN,True,False
broadband,broadband,broadband,broadband,PROPN,True,False
service,service,service,service,PROPN,True,False
.,.,.,.,PUNCT,False,False
