text,text_lower,lemma,lemma_lower,part_of_speech,is_alphabet,is_stopword
re,re,re,re,ADP,True,True
gn,gn,gn,gn,PROPN,True,False
docket,docket,docket,docket,PROPN,True,False
no,no,no,no,INTJ,True,True
.,.,.,.,NOUN,False,False
12,12,12,12,NUM,False,False
-,-,-,-,SYM,False,False
354,354,354,354,NUM,False,False
",",",",",",",",PUNCT,False,False
rm-11778,rm-11778,rm-11778,rm-11778,PROPN,False,False
and,and,and,and,CCONJ,True,True
rm-11789i,rm-11789i,rm-11789i,rm-11789i,NOUN,False,False
be,be,be,be,VERB,True,True
write,write,write,write,VERB,True,False
this,this,this,this,DET,True,True
on,on,on,on,ADP,True,True
behalf,behalf,behalf,behalf,NOUN,True,False
of,of,of,of,ADP,True,True
onlinenw,onlinenw,onlinenw,onlinenw,PROPN,True,False
an,an,an,an,DET,True,True
internet,internet,internet,internet,NOUN,True,False
service,service,service,service,NOUN,True,False
provider,provider,provider,provider,NOUN,True,False
locate,locate,locate,locate,PROPN,True,False
in,in,in,in,ADP,True,True
oregon,oregon,oregon,oregon,PROPN,True,False
.,.,.,.,PUNCT,False,False
this,this,this,this,DET,True,True
be,be,be,be,AUX,True,True
regard,regard,regard,regard,NOUN,True,False
the,the,the,the,DET,True,True
propose,propose,propose,propose,NOUN,True,False
change,change,change,change,NOUN,True,False
to,to,to,to,ADP,True,True
the,the,the,the,DET,True,True
cbrs,cbrs,cbr,cbr,NOUN,True,False
band,band,band,band,NOUN,True,False
propose,propose,propose,propose,NOUN,True,False
by,by,by,by,ADP,True,True
ctia,ctia,ctia,ctia,PROPN,True,False
and,and,and,and,CCONJ,True,True
t,t,t,t,PROPN,True,False
-,-,-,-,PUNCT,False,False
mobile,mobile,mobile,mobile,PROPN,True,False
.,.,.,.,PUNCT,False,False
in,in,in,in,ADP,True,True
addition,addition,addition,addition,NOUN,True,False
to,to,to,to,PART,True,True
provide,provide,provide,provide,VERB,True,False
dsl,dsl,dsl,dsl,PROPN,True,False
and,and,and,and,CCONJ,True,True
fiber,fiber,fiber,fiber,NOUN,True,False
service,service,service,service,NOUN,True,False
a,a,a,a,DET,True,True
large,large,large,large,ADJ,True,False
portion,portion,portion,portion,NOUN,True,False
of,of,of,of,ADP,True,True
our,our,-PRON-,-pron-,DET,True,True
business,business,business,business,NOUN,True,False
be,be,be,be,AUX,True,True
provide,provide,provide,provide,VERB,True,False
wireless,wireless,wireless,wireless,ADJ,True,False
internet,internet,internet,internet,NOUN,True,False
service,service,service,service,NOUN,True,False
to,to,to,to,ADP,True,True
rural,rural,rural,rural,ADJ,True,False
internet,internet,internet,internet,NOUN,True,False
user,user,user,user,NOUN,True,False
in,in,in,in,ADP,True,True
the,the,the,the,DET,True,True
willamette,willamette,willamette,willamette,PROPN,True,False
valley,valley,valley,valley,PROPN,True,False
.,.,.,.,PUNCT,False,False
our,our,-PRON-,-pron-,DET,True,True
wireless,wireless,wireless,wireless,ADJ,True,False
coverage,coverage,coverage,coverage,NOUN,True,False
be,be,be,be,AUX,True,True
primarily,primarily,primarily,primarily,ADV,True,False
rural,rural,rural,rural,ADJ,True,False
where,where,where,where,ADV,True,True
we,we,-PRON-,-pron-,PRON,True,True
be,be,be,be,VERB,True,True
the,the,the,the,DET,True,True
good,good,good,good,ADJ,True,False
and,and,and,and,CCONJ,True,True
sometimes,sometimes,sometimes,sometimes,ADV,True,True
only,only,only,only,ADV,True,True
choice,choice,choice,choice,NOUN,True,False
for,for,for,for,ADP,True,True
internet,internet,internet,internet,NOUN,True,False
access,access,access,access,NOUN,True,False
.,.,.,.,PUNCT,False,False
we,we,-PRON-,-pron-,PRON,True,True
have,have,have,have,AUX,True,True
rural,rural,rural,rural,ADJ,True,False
service,service,service,service,NOUN,True,False
wireless,wireless,wireless,wireless,NOUN,True,False
service,service,service,service,NOUN,True,False
provide,provide,provide,provide,VERB,True,False
speed,speed,speed,speed,NOUN,True,False
between,between,between,between,ADP,True,True
3,3,3,3,NUM,False,False
mbp,mbp,mbp,mbp,NOUN,True,False
and,and,and,and,CCONJ,True,True
11,11,11,11,NUM,False,False
mbp,mbp,mbp,mbp,NOUN,True,False
.,.,.,.,PUNCT,False,False
we,we,-PRON-,-pron-,PRON,True,True
have,have,have,have,AUX,True,True
over,over,over,over,ADP,True,True
2500,2500,2500,2500,NUM,False,False
customer,customer,customer,customer,NOUN,True,False
with,with,with,with,ADP,True,True
wireless,wireless,wireless,wireless,ADJ,True,False
service,service,service,service,NOUN,True,False
on,on,on,on,ADP,True,True
a,a,a,a,DET,True,True
variety,variety,variety,variety,NOUN,True,False
of,of,of,of,ADP,True,True
unlicensed,unlicensed,unlicensed,unlicensed,ADJ,True,False
frequency,frequency,frequency,frequency,NOUN,True,False
include,include,include,include,VERB,True,False
900,900,900,900,NUM,False,False
mhz,mhz,mhz,mhz,NOUN,True,False
",",",",",",",",PUNCT,False,False
2.4,2.4,2.4,2.4,NUM,False,False
ghz,ghz,ghz,ghz,PROPN,True,False
",",",",",",",",PUNCT,False,False
5,5,5,5,NUM,False,False
ghz,ghz,ghz,ghz,NOUN,True,False
",",",",",",",",PUNCT,False,False
and,and,and,and,CCONJ,True,True
3.65,3.65,3.65,3.65,NUM,False,False
ghz,ghz,ghz,ghz,NOUN,True,False
.,.,.,.,PUNCT,False,False
we,we,-PRON-,-pron-,PRON,True,True
have,have,have,have,AUX,True,True
use,use,use,use,NOUN,True,False
3.65,3.65,3.65,3.65,NUM,False,False
ghz,ghz,ghz,ghz,NOUN,True,False
equipment,equipment,equipment,equipment,NOUN,True,False
to,to,to,to,PART,True,True
provide,provide,provide,provide,VERB,True,False
service,service,service,service,NOUN,True,False
to,to,to,to,ADP,True,True
hundred,hundred,hundred,hundred,NUM,True,True
of,of,of,of,ADP,True,True
our,our,-PRON-,-pron-,DET,True,True
customer,customer,customer,customer,NOUN,True,False
across,across,across,across,ADP,True,True
our,our,-PRON-,-pron-,DET,True,True
coverage,coverage,coverage,coverage,NOUN,True,False
area,area,area,area,NOUN,True,False
.,.,.,.,PUNCT,False,False
additional,additional,additional,additional,ADJ,True,False
frequency,frequency,frequency,frequency,NOUN,True,False
be,be,be,be,AUX,True,True
critical,critical,critical,critical,ADJ,True,False
for,for,for,for,ADP,True,True
our,our,-PRON-,-pron-,DET,True,True
further,further,further,further,ADJ,True,True
growth,growth,growth,growth,NOUN,True,False
and,and,and,and,CCONJ,True,True
our,our,-PRON-,-pron-,DET,True,True
ability,ability,ability,ability,NOUN,True,False
to,to,to,to,PART,True,True
provide,provide,provide,provide,VERB,True,False
fast,fast,fast,fast,ADJ,True,False
speed,speed,speed,speed,NOUN,True,False
to,to,to,to,ADP,True,True
our,our,-PRON-,-pron-,DET,True,True
exist,exist,exist,exist,ADJ,True,False
customer,customer,customer,customer,NOUN,True,False
.,.,.,.,PUNCT,False,False
this,this,this,this,DET,True,True
frequency,frequency,frequency,frequency,NOUN,True,False
have,have,have,have,AUX,True,True
be,be,be,be,AUX,True,True
especially,especially,especially,especially,ADV,True,False
useful,useful,useful,useful,ADJ,True,False
as,as,as,as,SCONJ,True,True
the,the,the,the,DET,True,True
low,low,low,low,ADJ,True,False
noise,noise,noise,noise,NOUN,True,False
floor,floor,floor,floor,NOUN,True,False
and,and,and,and,CCONJ,True,True
allow,allow,allow,allow,VERB,True,False
power,power,power,power,NOUN,True,False
level,level,level,level,NOUN,True,False
allow,allow,allow,allow,VERB,True,False
us,us,-PRON-,-pron-,PRON,True,True
to,to,to,to,PART,True,True
provide,provide,provide,provide,VERB,True,False
high,high,high,high,ADJ,True,False
speed,speed,speed,speed,NOUN,True,False
service,service,service,service,NOUN,True,False
over,over,over,over,ADP,True,True
moderate,moderate,moderate,moderate,ADJ,True,False
range,range,range,range,NOUN,True,False
.,.,.,.,PUNCT,False,False
give,give,give,give,VERB,True,True
our,our,-PRON-,-pron-,DET,True,True
geography,geography,geography,geography,NOUN,True,False
this,this,this,this,DET,True,True
be,be,be,be,AUX,True,True
an,an,an,an,DET,True,True
especially,especially,especially,especially,ADV,True,False
effective,effective,effective,effective,ADJ,True,False
frequency,frequency,frequency,frequency,NOUN,True,False
for,for,for,for,ADP,True,True
provide,provide,provide,provide,VERB,True,False
service,service,service,service,NOUN,True,False
to,to,to,to,ADP,True,True
a,a,a,a,DET,True,True
large,large,large,large,ADJ,True,False
number,number,number,number,NOUN,True,False
of,of,of,of,ADP,True,True
rural,rural,rural,rural,ADJ,True,False
location,location,location,location,NOUN,True,False
.,.,.,.,PUNCT,False,False
we,we,-PRON-,-pron-,PRON,True,True
be,be,be,be,VERB,True,True
not,not,not,not,PART,True,True
in,in,in,in,ADP,True,True
favor,favor,favor,favor,NOUN,True,False
of,of,of,of,ADP,True,True
the,the,the,the,DET,True,True
propose,propose,propose,propose,NOUN,True,False
change,change,change,change,NOUN,True,False
to,to,to,to,ADP,True,True
the,the,the,the,DET,True,True
cbrs,cbrs,cbr,cbr,NOUN,True,False
band,band,band,band,NOUN,True,False
.,.,.,.,PUNCT,False,False
the,the,the,the,DET,True,True
current,current,current,current,ADJ,True,False
cbrs,cbrs,cbr,cbr,NOUN,True,False
design,design,design,design,NOUN,True,False
will,will,will,will,VERB,True,True
allow,allow,allow,allow,VERB,True,False
us,us,-PRON-,-pron-,PRON,True,True
to,to,to,to,PART,True,True
expand,expand,expand,expand,VERB,True,False
our,our,-PRON-,-pron-,DET,True,True
service,service,service,service,NOUN,True,False
in,in,in,in,ADP,True,True
a,a,a,a,DET,True,True
cost,cost,cost,cost,NOUN,True,False
effective,effective,effective,effective,ADJ,True,False
manner,manner,manner,manner,NOUN,True,False
.,.,.,.,PUNCT,False,False
give,give,give,give,VERB,True,True
the,the,the,the,DET,True,True
opportunity,opportunity,opportunity,opportunity,NOUN,True,False
to,to,to,to,PART,True,True
purchase,purchase,purchase,purchase,VERB,True,False
license,license,license,license,NOUN,True,False
for,for,for,for,ADP,True,True
rural,rural,rural,rural,ADJ,True,False
area,area,area,area,NOUN,True,False
will,will,will,will,VERB,True,True
allow,allow,allow,allow,VERB,True,False
us,us,-PRON-,-pron-,PRON,True,True
to,to,to,to,PART,True,True
make,make,make,make,VERB,True,True
use,use,use,use,NOUN,True,False
of,of,of,of,ADP,True,True
this,this,this,this,DET,True,True
spectrum,spectrum,spectrum,spectrum,NOUN,True,False
.,.,.,.,PUNCT,False,False
this,this,this,this,DET,True,True
will,will,will,will,VERB,True,True
allow,allow,allow,allow,VERB,True,False
us,us,-PRON-,-pron-,PRON,True,True
to,to,to,to,PART,True,True
provide,provide,provide,provide,VERB,True,False
more,more,more,more,ADJ,True,True
speed,speed,speed,speed,NOUN,True,False
to,to,to,to,PART,True,True
exist,exist,exist,exist,VERB,True,False
customer,customer,customer,customer,NOUN,True,False
in,in,in,in,ADP,True,True
addition,addition,addition,addition,NOUN,True,False
to,to,to,to,PART,True,True
reach,reach,reach,reach,VERB,True,False
new,new,new,new,ADJ,True,False
customer,customer,customer,customer,NOUN,True,False
in,in,in,in,ADP,True,True
our,our,-PRON-,-pron-,DET,True,True
service,service,service,service,NOUN,True,False
area,area,area,area,NOUN,True,False
.,.,.,.,PUNCT,False,False
the,the,the,the,DET,True,True
suggest,suggest,sugg,sugg,ADJ,True,False
change,change,change,change,NOUN,True,False
would,would,would,would,VERB,True,True
make,make,make,make,VERB,True,True
it,it,-PRON-,-pron-,PRON,True,True
more,more,more,more,ADV,True,True
difficult,difficult,difficult,difficult,ADJ,True,False
for,for,for,for,ADP,True,True
us,us,-PRON-,-pron-,PRON,True,True
to,to,to,to,PART,True,True
acquire,acquire,acquire,acquire,VERB,True,False
and,and,and,and,CCONJ,True,True
use,use,use,use,VERB,True,False
the,the,the,the,DET,True,True
additional,additional,additional,additional,ADJ,True,False
3.5,3.5,3.5,3.5,NUM,False,False
ghz,ghz,ghz,ghz,PROPN,True,False
spectrum,spectrum,spectrum,spectrum,NOUN,True,False
.,.,.,.,PUNCT,False,False
new,new,new,new,ADJ,True,False
frequency,frequency,frequency,frequency,NOUN,True,False
availability,availability,availability,availability,NOUN,True,False
be,be,be,be,AUX,True,True
very,very,very,very,ADV,True,True
rare,rare,rare,rare,ADJ,True,False
opportunity,opportunity,opportunity,opportunity,NOUN,True,False
for,for,for,for,ADP,True,True
small,small,small,small,ADJ,True,False
business,business,business,business,NOUN,True,False
such,such,such,such,ADJ,True,True
as,as,as,as,SCONJ,True,True
ours,ours,-PRON-,-pron-,PRON,True,True
and,and,and,and,CCONJ,True,True
the,the,the,the,DET,True,True
propose,propose,propose,propose,NOUN,True,False
change,change,change,change,NOUN,True,False
would,would,would,would,VERB,True,True
limit,limit,limit,limit,VERB,True,False
our,our,-PRON-,-pron-,DET,True,True
opportunity,opportunity,opportunity,opportunity,NOUN,True,False
to,to,to,to,PART,True,True
participate,participate,participate,participate,VERB,True,False
in,in,in,in,ADP,True,True
this,this,this,this,DET,True,True
benefit,benefit,benefit,benefit,NOUN,True,False
.,.,.,.,PUNCT,False,False
as,as,as,as,SCONJ,True,True
such,such,such,such,ADJ,True,True
we,we,-PRON-,-pron-,PRON,True,True
be,be,be,be,VERB,True,True
very,very,very,very,ADV,True,True
much,much,much,much,ADV,True,True
against,against,against,against,ADP,True,True
the,the,the,the,DET,True,True
propose,propose,propose,propose,NOUN,True,False
change,change,change,change,NOUN,True,False
.,.,.,.,PUNCT,False,False
thank,thank,thank,thank,VERB,True,False
you,you,-PRON-,-pron-,PRON,True,True
for,for,for,for,ADP,True,True
your,your,-PRON-,-pron-,DET,True,True
consideration,consideration,consideration,consideration,NOUN,True,False
.,.,.,.,PUNCT,False,False
