text,score
"to whom it may concern , i be write on behalf of our company , a better wireless , nisp , llc in regard to the petition file by t - mobile and ctia regard propose change in the cbrs band rule .",2
"we be a wireless internet service provider wisp locate in west central minnesota , provide high speed internet service to 200 customer in our service area .",0
"our service area be predominantly rural area that have the choice of our service , cellular internet , satellite , and some area cable tv.we",0
have service package start at 31 mbps to 200200 mbps .,0
we have plan toinvest in lte technology to create a well service for our customer utilize the exist 3.650 - 3.700 mhz .,1
"we have plan the upgrade begin this fall , partner with school district , city fire , ems ,",-1
"police to bring quality affordable internet to enrolled family of the school district , and 700 mhz public safety to the public safety entities .",1
"to date , we have plan on an initial investment of over 150,000.00 for the cbrsband .",0
this 3.650 - 3.700 mhz be critical to our operation and the ability to get high speed internet to enrolled family of these school district in our plan coverage area .,-1
the primary reason for use lte be the introduction of the cbrs band .,0
this include the benefit of an additional 100 mhz of spectrum for our plan lte service be a huge benefit to all our customer by help to eliminate interference and will allow us to deploy in many more area .,1
the fcc entertain,1
the idea of make change to the cbrs band at this point be very upsetting to us and our approximate 200 customer in the plan service area to beupgrade .,-1
"the fact that one of the petitioner be a major mobile carrier , and the other be an association of mobile carrier be very disturbing , since these be the large carrier that have collectively increase the cost of spectrum to the point that only large caarrierscan afford it , price company like wisp completely out of the market .",1
now they want to take spectrum that be specifically set aside for company like wisp to provideaffordable internet to people and school kid in rural area that the large carrier do not want to provide service to unless they can get a government subsidy to do so .,1
"if you allow them to succeed , you be just tell the rural american school kids and rural american families you do not care about them receive quality affordable internet service , as without this band it become even more difficult to provide .",1
"you should be able to tell , we be very much opposed to both petition .",0
"we be very sure our current and propose customer would agree , know how these petition will adversely affect them .",0
please allow us to continue provide our rural families quality affordable choice in internet service by say no to the change these petition be request .,1
"respectfully submit , mitchell koepa better wireless , nisp , llc",2
