text,score
"to whom it may concerni be write on behalf of our company arbuckle communications , llc regard the petition file by ctia and t - mobile request",1
propose change to the cbrs band .,0
we strongly oppose the change and would like to take this opportunity to share how this would be devastating to our network and the businesses and residents of our community .,-1
we be a telecommunications provider locate in southern oklahoma that have be deeply root in our community since we be originally found in 1931 .,0
"throughout the many year of provide product and service to businesses and resident in our area , we have adapt our product offering to stay relevant to our customer need over time .",0
arbuckle communications become an internet provider in 1998 and a wireless internet service provider wisp in 2005 .,0
our customer have always be and will always be our top - priority .,1
"we currently serve nearly 4,000 business and residential customers in southern oklahoma and have plan to extend our network and continue to grow .",0
"our coverage area encompass over 6,000 square mile and provide service to many customer that without us would not have any other high - speed internet option .",0
our network be currently able to deliver speed up to 100mb on a dedicated bandwidth plan while our standard residential plans deliver 10mb download with the ability to burst up to 50mb .,1
we do this all while provide our customer no contracts and unlimited data usage .,1
our company be one of the early - adopters in the 3650 - 3700 mhz band .,0
"we be originally grant our nn 3650 - 3700 mhz license from the federal communications commission on january 19 , 2011 .",0
we have build the backbone of our network use this 50 mhz of spectrum since that time .,1
"since 2011 we have invest over 750,000 dollar in this band without any government subsidies .",0
"we currently have 70 cambium 450 3.65 access points and 16 cambium 320 wimax access points serve nearly 1,500 business and residential customers in our market .",0
"we have continue to deploy our 3.65 product over the last six year in hope of eventually not only be able to continue to use the 50 mhz we already occupy , but to also gain access to the additional 100 mhz that could become available for us to use .",2
this additional spectrum would immediately give us the ability to upgrade our exist wireless access points that would ultimately provide fast package for our customer .,1
at the end of the day every upgrade we do to our network be to continue to support the businesses and residents of southern oklahoma .,1
"we have and will continue to provide the fast , most - reliable , and good customer service to our client .",3
the cbrs band be essential to help us continue to do this .,0
we adamantly oppose any change you would consider regard the cbrs band .,-1
we ask that you please give us the opportunity to continue to provide solution for our customer in these rural markets that would not have any other quality option .,0
please say no to the petition and no to the change ctia and t - mobile be request .,0
