text,score
"to whom it may concerni be write on behalf of my company , broadband corp regard the petition file by ctia and t - mobile regard",2
propose change to the cbrs band .,0
"broadband corp be a wireless internet service provider wisp base in central minnesota , we provide high speed internet service to over 1000 household in our service area .",0
"our coverage area be primarily rural , where most of our customer have limit choice .",-1
we have service plan range from 3 mbps to 50 mbps .,0
we have have a 3650 3700 license for nearly 10 year .,0
"in that time we have invest over 1,000,000 in this band .",0
"in preparation for the cbrs band we have invest over 250,000 in existing and new technology .",0
"with an additional 250,000 plane over the next 12 month .",0
this investment be design with the expansion of the cbrs band in mind and will be capable of utilize this band as soon as it be available .,2
"for a company our size , this be a very substantial investment .",0
the primary reason for the investment in this technology be the introduction of the cbrs band .,0
without the cbrs band we will have to limit our investment and subscriber growth to maintain our exist service .,-1
the benefit of have an additional 100 mhz of spectrum for our fix wireless service,1
be very significate in allow us to provide fast and additional service to new and existing customer .,1
"not only will it allow us to offer high speed to our customer , it will help eliminate interference , provide for additional household to receive service in our exist coverage and allow us to deploy the technology in more area",-1
.because of the potential for the cbrs band to be modify from it current proposal we now have stop any further investment in this band until we can be reasonably certain that the cbrs band will be a viable vehicle for our future growth .,1
"the fact that one of the petitioner be a major mobile carrier , and the other be an association of mobile carrier i find concern , these be the same large company who have collectively increase the cost of spectrum to the point that only large mobile carrier can afford it , price spectrum out of range for company like ours .",1
we feel the fcc original intent be to make the cbrs band spectrum available for some exciting innovation for both large and small company that have the potential to be a future model for spectrum policy .,3
the change propose we believe would eliminate this potential for innovation .,1
we be very much opposed to both petition .,0
"i be certain that our customer would agree ,",0
know how adversely these petition would affect them .,0
our rural customer deserve to have the choice of provider just like those in large population area .,1
please allow us to continue to give them that choice by say no to the change these petition be request .,0
