text,score
i be write to oppose the ctia petition and the t - mobile petition .,-1
these petition be on behalf of very large company that would love to gain access and control of the propose cbrs band and rule to give priority to their service offering .,2
"i be write on behalf of ebtx wireless , llc .",0
"we be a small family own wisp that serve rural area in north wharton county , texas and extreme west fort bend county , texas .",0
we instal our first customer in november 2016 .,0
we have grow to over 130 customer in our short time in business .,0
"we may seem small to you , but we be add 10 - 20 customer per month which be a great number for the number of household in our market .",1
we have plan to serve our local area with tremendous service by use many different technology and frequency .,0
"for a small company , we have make significant investment into lte equipment in the 3650 - 3700 mhz band to serve our rural customer base with high speed internet .",1
this investment be make with hope of be able to participate in the auction for spectrum that be propose for the cbrs band .,0
the small census block auction make perfect sense for rural america to afford small company like our to be able to gain access to spectrum without fear of interference from other or produce interference for other .,1
the large operator would love to make a broader regionalize auction of spectrum to preclude small operator like us from be able to even enter the game .,2
small operator like us be more in tune with the need and desire of our local citizen .,1
"we generally provide same day service for problem or outage , unlike the big operator that would want to schedule a service call in x number of day .",-1
"our rural area need and desire a solid solution for internet that have great speed , reliabilityand service .",2
"our lte investment have allow us to serve customer with high speed internet , that have no other option besides very expensive and throttle satellite internet prior to our put our 3650 lte gear into place .",-2
the ability to gain access to un - interfered spectrum would allow us the opportunity to increase the speed we offer to each customer and to offer that service to more and more customer that be unable to get high speed internet in our rural setting .,0
the big company like ctia and t - mobile would love to monopolize the spectrum and push out those of us already use the spectrum available to serve our surround area .,3
"in our rural area , we be not the only rural provider use the 3650 - 3700 mhz spectrum .",0
we currently coordinate frequency with a competitor .,0
allow us all to be able to participate in the cbrs auction on a census tract basis would allow both of us to better serve our rural customer due to de - congest the available spectrum in our area .,2
"interference will be reduce , our company could invest and expand into more and more remote area know that we have some protection to help offset the additional investment that expansion will require .",0
"our goal for ebtx wireless , be to offer our small area of texas the good , most available , most reliable , and fast reasonably price internet service that anyone in the area can have access to .",5
more time than not in rural america small operation like our be able to do thing more effectively than large company .,2
we make our decision and customer plan base on what our consumer want and desire rather than force our customer into plan like the big company t - mobile and ctia .,1
"the big guy always want to paint their coverage map with their color to boast how much coverage they can offer , but they be not in tune with the rural area like rural wisp .",1
rural wisps serve a great portion of the map that the big guy do not really care to provide enough equipment to cover .,2
"insure small census block auction for the cbrs band and a reasonable manner for the auction , will help rural wisps continue to improve our current coverage and allow us the opportunity to invest tobetter penetrate our rural area with great , reliable , high speed internet due to the reduction incongestion and interference in the propose spectrum .",3
