text,score
"northwest communications comments re fcc proceed 12 - 254 oppose ctia and t - mobile petitions to amend the rules for the cbrs bandto whom it may concern , northwest communications oppose the ctia and t - mobile petition .",-3
"northwest communications provide fix wireless service to nearly 3,000 plus residential and business subscriber in 45 community in northwest iowa and we be expand , at least hope to expand our service to more community and surround resident who have very few option .",0
we have be provide fix wireless solution since 2000.the cbrs band and the additional 100 mhz would allow us to increase our speed in these area and vastly help improve our coverage and datum rate that would be available to our customer and future customer if they could have access to 50 meg broadband and more .,2
we be invest hundred of thousand in our network to be able to achieve broadband speed our customer need .,0
in rural iowa we be see many more business out of the home and telecommuter .,0
not to mention all of our farmer and agricultural industry that continually require more and more bandwidth for their operation as ag technology greatly increase .,0
"this cbrs spectrum would allow us to offer fast broadband too many more rural customer in underserved area with very few provider , many time there be one or maybe two with limited service option .",0
unless they choose a mobile carrier for their broadband need or a satellite provider with low and expensive data cap .,-1
"with cbrs and additional capacity , i can only imagine what the fix wireless industry could do in a short time period for all the rural consumer need more option for broadband .",0
the ctia and t - mobile be hope to delay our progress as usual and then do nothing with the spectrum for year .,0
please help remove the road block and let us actually provide broadband to our customer in timely manner .,1
