text,score
"re cbrs band commentsoppose petition file by ctia and t - mobilefourway computer products , inc. be an internet provider servicing northern indiana southwestern low michigan .",0
"we service more than 4,000 customer in our service area .",0
many of the customer we service have no other viable option .,0
we provide service level that meet and exceed the fcc requirement .,1
our service level start at 6mb1mb and to to 100mb100mb .,0
we have be utilize the 3650 - 3700 mhz band for the last several year .,0
we have be deploy with the expectation that we will be able to utilize the additional spectrum to continue to deliver the service that our customer need will need in the future .,0
this require that we be able to deliver fast more reliable connection .,2
change to the cbrs plan be consider be troubling .,-1
we have be invest our own capital to enhance the capability of our network to meet customer demand .,2
we have never ask for subsidy or financial assistance .,0
"if be require to replace equipment that have already be deploy , that will place an undue hardship on our business .",-2
this will obviously make it hard for us to meet customer demand .,-1
"our customer , our business our employee will suffer .",-1
"if i have not be clear , i be very much opposed to the change propose to the cbrs band by ctia and t - mobile .",1
