text,score
we be a fixed internet service provider in oregon washington,0
and we oppose this petition .,-1
"we be currently license and offer service in the 3.65 ghz band 50 mhz , with a small customer base of 1250 customer .",0
"it be important and necessary for us to increase the available bandwidth per customer , and it be strongly urge by the fcc .",2
currently with the limited bandwidth available it be very difficult to offer more then 105 for these multi - point service .,-1
"the 900 , 2.4 , 3.65 , and 5 ghz band be extremely overloaded and continually require monitor to protect our customer throughput and bandwidth .",0
we be a leader in fix wireless broadband service we could greatly benefit by add bandwidth increase our service offering beyond 10010 mbs .,1
more efficient equipment and increase bandwidth offer the only opportunity to be a well service provider within rural america .,2
our investment in wireless have be very extensive and well over 1 mm in site acquisition and the build of our wireless network .,1
we be currently offer service off 45 site within oregon and washington with all licensed backbone and point to multi - point service .,1
be able to offer high bandwidth to these customer require large continue investment and must be support by the fcc .,1
"in close this be go to make it difficult for us , a small carrier , to compete in the large player arena for this additional bandwidth .",-1
large company will definitely have advantage of additional capital over the small independent company like columbia energy .,2
the high bandwidth customer currently require p - t - p to achieve speed of 100100mbs .,0
"instal equipment for p - t - mp would be greatly appreciate and would allow us to do something we have never be able to offer previously which would be a high bandwidth to every customer with low latency , and not the select few .",0
our customer do not have access to service that suburban customer have available .,1
our rural customer need access to the high throughput that could be achieve through more available bandwidth .,1
therefore i believe it would be in the consumer good interest to have access to extended bandwidth with less interference .,0
as a small rural access provider we currently do not have the ability to compete with large carrier in the spectrum auction and do not have the ability to spend million of dollar to compete and offer these service in the rural market .,0
our average customer be several mile from the close tower and usually their neighbor .,0
we do not spend thousand of dollar on advertising as it be,0
money well spend on service .,1
rural service be extremely unfriendly to long haul link and do not perform well over extended range with low latency .,-1
when you have more tower you engineer everything for overall performance to each customer .,0
"rural america need this nprm , and our ability to offer well throughput and quality of service .",1
what they do not need be increase price because of spectrum auctions .,0
