text,score
"new americas open technology institute and public knowledge together the public interest organizations or pio , in response to the commissions public notice , submit thesecomment in opposition to the petitions for rulemaking file by ctia and by t - mobile usa , inc. t - mobile in relation to the citizens broadband radio service cbrs spectrumband .",-1
the commission should reject any change to the exist cbrs three - tier accessframework or to the priority access licensing rule .,-1
"the ctia and t - mobile proposal to tailorlicense rule to closely fit the carrier wide - area business model will needlessly forecloselocalize , innovative and potentially compete new user and use that will benefit bothconsumer and the business community more broadly .",1
executive summarythe commission should reject the change to the citizens broadband radio service cbrs propose by petitioner ctia and t - mobile .,-1
"as an initial matter , the petitions should be dismiss because they be , in reality , late - file and redundant petition for reconsideration address precisely the same issue , and make the same argument , that the commission reject in the cbrs order on reconsideration more than a year ago .",-2
"substantively , the petition should be reject because they urge the commission to adopt a spectrum industrial policy for the benefit of one type of provider a handful of wide - area cellular provider to the detriment of thousand of other user and use case , some of which would compete directly with ctias member .",-1
"the commission should trust market force , not adopt an industrial policy .",1
"ctia and t - mobile propose to fundamentally redefine priority access licenses pal to tightly fit the mobile carrier business model and , thereby , to foreclose potential competitor to , or substitute for , the offering of the large mobile carrier .",0
"the petitions propose to convert the cbrs band from a flexible , small cell band that facilitate the wide possible variety of user and use case , include small rural broadband provider and very localized network solution , into yet another band design for the sole use and benefit of three or four national mobile carrier for a particular and still undefined set of service generically label 5g.in craft cbrs as a unique framework for small cell spectrum access , the commission never intend pal to be auction solely to fit the business model of wide - area network operator .",3
the cbrs concept of make spectrum available on a localized and target basis be user- and industry - neutral .,1
"as the cbrs order state , the intention be to make pal available and affordable to the large possible number of user , include rural wisp , private neutral host lte network , office complex , factory customize machine - to - machinenetwork , utility , airport , shopping mall , and sport arena .",1
these localized and third - party use may or may not have the same capability as a mobile carrier 5 g offering from the user perspective .,1
"that be a judgment the commission should leave to the marketplace as the cbrs order wisely do rather than adopt an industrial policy fashion by an incumbent industry segment to foreclose diversity , innovation and choice concern americas wireless future .",1
the underutilized 3550 - 3700 mhz band be already attract substantial investment base on the technical and regulatory rule adopt by the commission in the 2015 cbrs order .,0
"the new framework combination of small area , short - term licensing priority access licenses and band - wide opportunistic access , open to anyone general authorized access , have so far stimulate interest , investment activity and innovative use case that exceed expectation .",2
auctioning license with coverage area large than census tract would undermine the purpose of this small cell innovation band .,0
"in rural and other low - density area , auction pal the size of pea , or even the size of county , would make the license unaffordable for rural broadband provider or any wireless service other than a deep - pocketed wide - area cellular provider .",0
"since mobile carrier already have coverage spectrum and network , the use of 3.5 ghz to densify network with additional capacity would almost certainly be target at and limit to urban core and other high - traffic and high - arpu location .",-1
"a traditional licensing scheme base on exclusive access to very large geographic area for inherently small cell deployment would not allow the large possible number of business , individual , nonprofit institution and other entity the ability to self - provision capacity for mobile data offload , for neutral host lte network , or to customize highly - localize network for machine - to - machine , smart city and other connectivity need .",1
"the ctia and t - mobile petitions compound the foreclosure effect of their proposal to license only very large geography by propose to replace limited - term pal with 10-year license term that renew automatically , create virtually permanent license right .",0
"convert pal license into traditional cellular industry license , as ctia propose , would make pal prohibitively expensive and uneconomic for all but the large wide - area mobile carrier for several distinct reason explain herein .",-2
"as an alternative to large license area and automatic renewal , if the commission propose that package bidding be in the public interest , we suggest that package bid be limit to three or at most four of the pals 30 - 40 megahertz in each census tract .",-1
"this compromise could ensure that one or more licensee can achieve area - wide even regional quality of service , for at least a certain level of capacity , while in most case leave at least some pa spectrum available for more localized or small - area operator seek only a single or small number of license .",1
the commission should summarily reject t - mobiles proposal to disrupt the balance the commission strike between licensed and effectively unlicensed access to this mid - band spectrum .,-3
t - mobiles extreme proposal would also pull the rug out from under rural wisps and the many innovative use case and market entrant that be already well along in their plan to intensively use the band to meet a myriad of local need describe in the next section .,2
"finally , our group strongly oppose the proposal by ctia and t - mobile to rescind public disclosure of the cbsd registration information use by sas operator to calculate protection area both between pal and for the purpose of facilitate access to vacant pal spectrum on a gaa basis .",1
"we also oppose t - mobiles proposal to replace dynamic channel assignment , manage by the spectrum access system to protect naval operation , with specific and static channel assignment .",0
"the ctia and t - mobile proposals amount to an industrial policy tailor to benefit a single industry segment and exclude other user and innovative use casesit be obvious to everyone that the ctia and t - mobile petitions have a single purpose to change the fundamental character of the priority access licenses pal to tightly fit their business model and , thereby , to foreclose potential competitor to , or substitute for , the offering of the large mobile carrier .",2
"in contrast to the industry - specific spectrum policy propose by ctia and t - mobile , in the cbrs order the commission make it clear that its intention be to accommodate a far broad and diverse set of user and use case , include rural wireless isp wisp , utility , enterprise broadband provider , private lte network include neutral host network in high - traffic venue , government agency , school and library .",1
"it remain unclear how the high - capacity , low - latency wireless network of the future with capability the carrier call 5 g will be deploy and interconnect , but if current 4 g capability be any indication with roughly 80 of mobile device datum traffic dependent on a combination of wi - fi and fix network the commission would be wise to retain the industry - and technology - neutral framework of cbrs and reject the ctias and t - mobiles blatant gambit to hobble non - cellular provider and service .",-1
"cbrs be design to encourage more intensive , localized use of the band by market entrants and innovative use case , not only mobile carriersuntil the late 1990 , the fcc design exclusive allocation to accommodate specific technology and business model .",2
the result be a table of frequency allocations deride as a fossilized record of fade service and technology .,0
this command - and - control approachbecame increasingly subject to criticism by advocate of both flexible licensing and unlicensed use .,0
"narrow , highly - specify allocation can rapidly become obsolete or spectrally inefficient , since [ a]ny narrow allocation lock in a particular technology or spectrum use long after it have be surpass by an exist service or technology .",-1
or by an entirely new service or technology .,0
"begin with the service rule for the new personal communications service pcs spectrum allocate for mobile telephone in 1993 , the commission begin to allow licensee great flexibility with respect to both service offer and technology use .",3
"although pcs and subsequent mobile terrestrial imt license be rightly laud for offer flexibility with respect to service rule , they have also be fashion in very particular way to advance a specific cellular industry business model base on wide - area coverage very large geographic license area , long term 10 year , non - competitive renewability permanent license , and gsm technology allocate distinct uplink and downlink channel .",4
the commissions policy with respect to license term and geography generally intend to facilitate wide - area network offer ubiquitous coverage use relatively high power and expensive base station .,1
"accordingly , the amortization period for coverage network be many year , which justify long term .",0
"similarly , the risk of coverage gap have encourage carrier to push for license area roughly as large their intend customer base .",0
"this have create tension between national and regional carrier , as the commission experience in the debate that lead to partial economic area pea license in the tv incentive auction , asadvocate by the competitive carriers association .",1
"and as the aws-3 and other recent auction demonstrate , the use case for very large geographic area license and the auction winner be predictably limit to large mobile carrier typically national , sometimes regional , as in the case of pea .",0
"the cbrs band be intend to be something very different an inherently small cell band accessible on both a licensed and unlicensed gaa basis to a far large and more diverse set of user and use case , for both outdoor and indoor deployment .",0
"ctia , t - mobile , and their equipment supplier qualcomm , et al .",0
spend several year argue that pals should be fashion just like traditional cellular wide - area license .,1
"the commission , in 2015 and again in 2016 , reject this traditional wide - area cellular licensing model , include on reconsideration after review exactly the same argument that ctia and t - mobile repurpose in cursory form in their new petition .",-1
the cbrs order quite purposefully fashion a spectrum access regime that make[s ],0
"the 3.5 ghz band hospitable to a wide variety of user , deployment model , and business case , include some solution to market need not adequately serve by our conventional license or unlicensed rule .",1
"to date , the commission have seek to avoid adopt a command - and - control style allocation that be fashion to boost the prospect of one specific industry andor business model .",1
"with respect to license term and renewability , the cbrs recon order make it clear that even for large carrier , the economic and upgrade cycle for small cell use may resemble those forwi - fi deployment rather than traditional macro cell deployment .",2
"the commission note that non - renewable , short - term license be essential so that the broad number of user be able to efficiently target their use of the 3.5 ghz band to their specific need . .",1
while permit periodic market - base reassignment of these right in response to change in local condition and operator need .,1
"with respect to geographic license area , the cbrs order never intend pal to be auction solely to fit the business model of wide - area network operator .",1
"quite the opposite be the case and , our group believe , rightly so .",1
the cbrs concept of make spectrum available on a localized and target basis be user- and industry - neutral .,1
"as the cbrs order state , the intention be to make pal available and affordable to the large possible number of user , include rural wisp , private neutral host lte network , office complex , factory customize machine - to - machine network , utility , airport , shopping mall , college campus , and sport arena such as the nascar innovation describe below .",2
these localized and third - party use may or may not have the same capability as a mobile carrier 5 g offering from the user perspective .,1
"that be a judgment the commission should leave to the marketplace as the cbrs order wisely do rather than adopt an industrial policy fashion by an incumbent industry segment to foreclose diversity , innovation and choice .",2
"of course , the cbrs order do not seek to exclude incumbent mobile carrier , which the commission expect to be one of many industry segment benefit from more localized and target access to high - capacity spectrum .",1
"but , at the same time , the commission wiselyadopte an industry- and technology - neutral approach that also look ahead to the wide varietyof high - capacity wireless networking solution that be likely to be component part of a future5 g ecosystem -- include connectivity solution customize and deploy by end usersthemselve , much as wi - fi be today .",0
"as the next section detail , the cbrs order correctlypredicte that if mid - band , small area , and affordable pal together with additional gaaspectrum be make available , innovative new user and use case will emergethis regulatory adaptability should make the 3.5 ghz band hospitable to a wide variety of user , deployment model , and business case , include some solution to market need not adequately serve by our conventional license or unlicensed rule .",4
"real estate owner can deploy neutral host system in high - traffic venue , allow for cost - effective network share among multiple wireless provider and their customer .",1
"manufacturer , utility , and other large industry can construct private wireless broadband network to automate process that require some measure of interference protection and yet be not appropriately outsource to a commercial cellular network .",0
"smart grid , rural broadband , small cell backhaul , and other point - to - multipoint network can potentially access three time more bandwidth than be available under our previous 3650 - 3700 mhz band rule .",2
"all of these application could share common wireless technology , provide economy of scale and facilitate intensive use of the spectrum .",1
"notably , as the highlight sentence above suggest , the commission specificallyintende that pal spectrum license for relatively localize geographic area census tractswould allow a wide variety of industry and small operator to acquire some measure ofinterference protection for deployment that be not appropriately outsource to a commercialcellular network .",3
"unfortunately , these use case which the commission anticipate could notrely on either gaa spectrum alone , or on off - the - shelf mobile carrier offering would becripple by the ctia and t - mobile proposal to turn pal into expensive and permanentlicense cover enormous geographic area .",-2
"finally , its also important to realize that the wide variety of new use and user thecommission seek to facilitate with its unique pal licensing framework will also be far lesslikely to leverage the gaa half of the band if ctia and t - mobile succeed in their effort to effectively foreclose access to pals .",6
"first , the enterprise that would need to rely on pal to ensure interference protection , or quality of service , for at least a portion of their activity would not deploy at all and so would also forsake the ability to leverage gaa spectrum for add capacity .",0
"and even the enterprise and school , library and other institutional venue that feel comfortable rely entirely on gaa spectrum would likely face a diminished and considerably more expensive market for hardware and service .",0
while a diverse and intensive use of pal and gaa spectrum would likely fuel a mass market for off - the - shelf access point and other gear much as wi - fi do on the unlicensed band,-1
"a market gear initially and primarily to serve the proprietary need of a few large mobile carrier would likely leave that potential mass market under - develop , if not dead in the water .",-2
"and , no doubt , that would be a bonus for ctias member , who would then have most gaa spectrum for their own free use as well .",2
"investment and innovation by new users and for new uses be emerge , facilitate by the unique cbrs frameworkthe underutilize 3550 - 3700 mhz band",2
be already attract substantial investment basedon,0
the technical and regulatory rule adopt by the commission in the 2015 cbrs order .,0
"the new framework combination of small area , short - term licensing priority access licenses and band - wide opportunistic access , open to anyone general authorized access , have so far stimulate interest , investment activity and innovative use case that exceed expectation .",2
"the 47 company participate in the wireless innovation forum have spend ten of thousand of hour develop technical standard to implement cbrs , while 55 company include chipmaker , mobile carrier , cable company , equipment manufacturer and more have joinedthe cbrs alliance .",1
"multiple company have apply for certification as sas andor sensing system esc provider , while at least a dozen firm have obtain experimental authorization to trial equipment and technology in the band .",0
many of the investment and innovation already be deploy or test by small operator and by chip and equipment maker,1
suggest that the non - traditional approach to license in this small cell band will promote the public interest by facilitate a wide variety of new user and use case .,2
"the cbrs framework allow even the small rural operator , market entrant and individual venue to access this small cell spectrum to pioneer or implement innovative new service .",1
change the rule would substantially impede the investment and innovation that have already start .,0
"even reopen the rulemaking process would create uncertainty throughout the ecosystem , impose a chilling effect on investment and interest in innovate in the space .",-1
"the current , uniquely accessible and settle cbrs framework have mpiosvated rural wisps , utility and enterprise user to deploy , or prepare to deploy , on cbrs spectrum equipment maker be begin to manufacture and sell the gear necessary to deploy current and next - generation network and institutional venue be experiment with the technology for localized network in preparation for the data - intensive wireless future .",1
rural area be uniquely poise to benefit from advancement in the band .,2
"rise broadband , the large fixed wireless internet service provider wisp , be use its 16.9 million grant from the fcc under the agencys rural broadband experiment program to deploy base station today that be capable , once the commission authorize operation below 3650 mhz , ofoperate across the entire 3.5 ghz band .",1
this investment will fund ten project in five state .,0
"as the wisp association wispa have report , many other rural wisp be poise to replicate this approach to build out fix wireless network capable of extend broadband into unserved and underserved rural , small town and exurban area .",2
investment in deployment base on the current cbrs spectrum framework be also target the market for private lte and neutral host mobile service indoor and in hard - to - serve location .,-1
"sercomm corporation have develop product in cooperation with federated wireless that will deliver robust , in - home lte network service use the 3.5 ghz band .",1
hotel and other venue owner can deploy lte via the cbrs band at a fraction of the cost of instal a das network in the same locationwhich be the current preferred method of in - building deployment for cellular network .,0
ericsson have already successfully test its radio system architecture with federated wireless spectrum access systems product .,1
another leading solution develop specifically around both small area pal and gaa access to cbrs spectrum,1
be ruckus wirelesss openg small cell product .,0
"ruckus have collaborate with qualcomm to use the 3.5 ghz band by combine coordinate share spectrum ... with neutral host - capable small cell to enable cost - effective , ubiquitous in - buildingcellular coverage .",2
"as the company explain in their release , the strategy will make it easy to deploy and provide an attractive total cost of ownership tco while improve coverage and performance .",3
"these neutral host lte network , whether indoor or outdoor , can be both complementary and , at the end user option , competitive with mobile carrier service .",2
ruckus wireless assert,0
"the openg small cell will be generally available in the third quarter of 2017.the current cbrs framework be also create manufacturing , industrial , and internet - of - thing iot use case .",1
"ge digital , alongside nokia and qualcomm , develop a private lte network for industrial iot use the cbrs band .",0
"the company will be integrate 3.5 ghz support product into their predix platform , which will serve as one of the pre - eminent architecture for the industrial internet .",2
a standalone lte network that network device within a localized area have the power to improve performance and reliability for these industrial setting .,1
"private , user - control network rely on a combination of pal and gaa spectrum can also be customize to serve factory automation and other end - user need without the necessity of rely on what may turn out to be a less - than - optimal large mobile carrier offering .",1
"telrad networks , another cbrs alliance member , announce in march introduce a new ltecustomer premises equipment offering that it note be especially suit for the cbrs band in the united states .",0
commitment to the current cbrs framework be especially important for equipment manufacturer and software company with current investment and commitment .,3
"cbrs in 3.5 ghz band fit perfectly with what we do with neutral - host cellular and wi - fi network that we have be deploy , assert derek peterson , cto of boingo wireless .",1
"accord to boingo wireless , the 3.5 ghz cbrs spectrum band be yet another innovative cycle for us to be able to take bandwidth and be able to find new way to take advantage of neutral host bandwidth .",2
. . there be a lot of new venue opportunity that we can take advantage that be kind of closed to us before where we be try to use wi - fi to fill them .,1
small cell company accelleran have develop hardware that be specifically design for the cbrs rule as they currently stand .,0
"qualcomm announce in february 2017 that its snapdragon x20 modem will support cbrs spectrum , include neutral host lte networkinggear produce by oem such as ruckus .",1
huawei announce last year it plan to invest in cbrs and provide the gear for 3.5 ghz service .,0
"business leader at ruckus wireless and rise broadband be concerned the commission may open up the rule in the 3.5 ghz band , which they describe as good for small business , but also crucial to maintain because the 3.55 to 3.65 ghz band be use worldwide , mean there be equipment maker across the globe make the gear for the band of spectrum for reasonable price in which wireless company have already begin invest .",1
"we get nervous when they be think about change the rule , say jeff kohler of jab wireless , who do business as rise broadband .",-1
"david wright , director of regulatory affair and network standard at ruckus , state",0
[ m]ajor change would upset expectation and undermine investment .,-2
wright say ruckus have be actively develop product for the 3.5 ghz band for the past two to three year and have conduct trial with various service provider and enterprise customer .,0
"finally , innovative network deployment have advance under the current framework , and service provider will continue to innovate in the band give regulatory certainty .",1
"this february , nokia , alphabet 's access group and qualcomm , in a partnership with nascar , use the cbrs spectrum band to build a virtual reality zone inside stock car race car , stream a 360-degree video streaming through youtube live event in real - time .",0
the company broadcast the event live in high - definition over a private lte network rely entirely on the 3.5 ghz band .,0
the company want the trial to act as a catalyst for carrier and enterprise to start think about leverage this band for new application .,1
"the use of cbrs spectrum in the 3.5 ghz band have not only be test , but be be look at as a foundation for enterprise , campus , venue and other group to deploy private lte network .",0
"nokia have also already build an lte small cell product call flexizone that be specifically tailor to the cbrs band for enterprise , venue and the hospitality industry .",0
this sort of innovative use of the 3.5 ghz band of spectrum show precisely why the sharing structure of the cbrs rule be so key to help company in the space .,2
many company and coalition be in the process of invest in future technology use the cbrs spectrum - sharing rule .,0
"to date , federated wireless have be involve in 40 trial , range from technology trial to operational pilot , and expect to receive fcc certification for its 3.5 ghz cbrs product before the end of 2017 .",0
federated wireless have finish more than half of the trial and other be ongoing .,0
alphabet have also make investment in the cbrs space .,0
the company have help address two of three requirement for the cbrs band to be ready for prime time include hardware development and development of a spectrum access system .,1
alphabet have complete an end - to - end test of consumer device connect to cbrs base station and form a trust tester program design to ensure interoperability between cbrs base station and the spectrum access system set to manage resource .,1
"nokia , juni , zte , sercomm , ericsson and ruckus wireless be among the company to participate in the first set of test with the access sas platform .",0
"in october of 2016 , cbrs alliance member spidercloud wireless introduce what it tout as the industrys first enterprise small cell system that simultaneously offer lte service on licensed spectrum and on the 3.5 ghz cbrs band .",-1
the companys dual - mode system allow mobile operator and neutral host operator to build a footprint of cbrs small cell before cbrs capable connect device be widely available .,2
"proposed change to priority access licensing rule would exclude competing and innovative user and use case and should be rejectedlarge license area will exclude localized , small and new users , undermine the value of the cbrs frameworkauctioning license with coverage area large than census tract would undermine the purpose of this small cell innovation band .",0
"in rural and other very low - density area , auction pal the size of pea or even county would make the license unaffordable for rural broadband provider or any wireless service other than a deep - pocketed wide - area cellular provider .",0
"this foreclosure effect would be compound by petitioner proposal to make pal effectively permanent license through a combination of ten - year term , automatic renewal , and limited or no build - out requirement .",0
"even if there be build - out requirement , if they be base on population , mobile carrier would satisfy them a decade hence by build out almost solely in high - density andor high - arpu area where the economic return justify put the spectrum to work .",2
"since mobile carrier already have coverage spectrum and network , the use of 3.5 ghz to densify network with additional capacity would almost certainly be target at and limit to urban core and other high - traffic and high - arpu location .",-1
"large pal area will foreclose small isp serve rural , small town areasauctioning pal as large as partial economic areas , or even county , will make the license prohibitively expensive for small and more locally - focused wireless provider e.g. , wisps seek to offer service to small , more target area .",-2
"wisps and other small operator do not have the capital or the economic business case to outbid national or regional wide - area cellular provider for license that often cover hundred of square mile , million of people , andor very diverse area include urban , suburban , rural and small town community .",0
"provider seek a license to offer service to a target area , such as a campus or shopping mall , would face a similar dilemma .",-1
"the most desirable pea from the perspective of a national mobile carrier typically include not only major metropolitan area , but hundred of square mile of diverse non - urbanareas with substantially vary condition .",1
"there be only 416 pea nationwide , 62 of which have population in excess of 1 million .",0
"many include new york and los angeles include a major metropolitan market , but then extend more than a hundred mile inland as well , encompass rural area and hundred of small town where wisps but probably not national mobile carrier could deploy on a targeted basis use 3.5 ghz spectrum .",1
"the pea that include the city of los angeles population 3,976,322 , stretch east all the way across california to border the pea for las vegas , nevada .",0
"it also border the pea for saint george , utah .",1
"if a wisp or other service provider need pal to serve small town or rural area between los angeles and las vegas , it would be face with the daunting prospect of pay many million of dollar upfront for a license value almost entirely by the fact it cover the city and county of los angeles .",-1
the mismatch between pea and the use case and investment capital of potential licensee other than major cellular carrier be not limit to pea that include major city .,-1
"overall , 337 of the 416 pea cover an area with a population of more than 100,000 americans .",0
"by comparison , the average population of census tract , accord to the census bureau , be 4,000 people .",0
"for example , virtually the entire state of maine be a single pea .",0
"the state of montana have six pea , but it also contain 271 census tract .",0
"another example be puerto rico , which be include in a single pea .",0
"puerto rico have a population of 3.4 million people and a land areaof 3,421 square mile .",0
while pea licensing be good policy for wide - area coverage spectrum such as the recent tv incentive auction,1
it be not good policy for low power,1
", capacity spectrum with variable use case .",0
"while large mobile carrier may be interested in pal license to add capacity to their network in san juan or other coastal town and resort , most of puerto rico contain rural area and village .",0
local operator or other user could not possibly purchase a license for the entire island .,0
"large pal area will foreclose localized users and use casesmore broadly , the foreclosure effect of large license area and expensive license would be even more noticeable in metro market .",-1
"a traditional licensing scheme base on exclusive access to very large geographic area for inherently small cell deployment would not allow the large possible number of business , individual , nonprofit institution and other entity the ability to self - provision capacity for mobile data offload , for neutral host lte network , or to customize highly - localize network for machine - to - machine , smart city and other connectivity need .",1
the opportunity loss and spectrum inefficiency inherent in auction very large geographic area license for a small cell band,-2
"be particularly true for indoor use ,",0
"where the connectivity need of a wide variety of enterprise application may not be well suited to commercial mobile network offering , a reality the commission acknowledge in its spectrum frontiers nprm.very large area and expensive license be not a good fit for small cell",2
", high - capacity use case .",0
"because cbrs be a low - power , small cell band , it be a near - certainty that the vast majority of 5 g mobile carrier deployment will be small or microcell - sized .",0
"as a result , coverage area for each cell will be small , with deployment by licensed provider likely focus in urban area and within building .",0
"license these band on an exclusive basis across broad geographic area , as desire by petitioner , will ensure that resident and competitor will not be able to deploy 5 g service in those area not rapidly serve by the licensee , or even to self - provision complementary or alternative high - bandwidth network .",1
"license area as large as pea , or even as large as county , be likely to leave the spectrum unused for many year , and perhaps indefinitely , in low - density and hence low - arpu environment outside of central urban area , shopping district and well - traffic venue .",1
"in contrast , the model prove to achieve the high rate of spectrum re - use and both fast and affordable connectivity indoor be the open access by both operator and end user to low - power and small cell spectrum currently exemplify by wi - fi .",2
"at least in urban area , where the cbrs technical rule limit pals to very low power and small cell deployment , investment at the edge for datum offload , neutral host lte network , iot and myriad other purpose",-1
"be , like wi - fi , far more likely to make widespread and more intensive re - use of the band than would result from exclusive control of pal spectrum by a handful of national or regional wide - area operator .",1
"at the same time , we acknowledge the concern of t - mobile and other potential wide - area operator who do not want to end up with coverage hole and reliance on gaa spectrum for use as part of a service they market as a quality - of - service offering .",-1
although wide - area operator have legitimate if purely hypothetical concern about exposure risk if they be out - bid on most or all pal in a few critical location .,-3
", we believe this rationale be overblown for at least two reason first , ctias member , include t - mobile , will not be rely entirely on pal spectrum for their gigabit - capacity 5 g service .",-1
"carrier will aggregate pal capacity , along with other band , include presumably lte over unlicensed mid - band spectrum at 5 ghz which be also not guarantee for qos .",0
"second , an auction of census tract be the good market test of the high and good use of a pal be a particular community .",2
"nonetheless , if the commission decide to propose enlarging pal licensing area , rather than completely foreclose pal for localized user and use , the commission could reconsider package bidding for a limited number of pal license .",-1
"in the 2014 fnprm , the commission ask if it should adopt package bidding if it adopt census tract , or something small , as the appropriate geographic license area .",1
"our group oppose package bidding at that time , express the concern it could completely negate the benefit of small licensing area and the market test of what use be most highly value in discrete community census tract .",-2
"most obviously , package bidding could deny even a single license to local entity seek one or more pal for very localized purpose e.g. , cover a college campus , an office park or neighborhood tailor to their need even if they be willing to bid more for that particular license than a large regional operator .",0
"therefore , as an alternative to large license area , if the commission propose that package bidding be in the public interest , we suggest that package bid be limit to three or at most four of the pals 30 - 40 megahertz in each census tract .",-1
"this compromise could ensure that one or more licensee can achieve area - wide even regional quality of service , for at least acertain level of capacity , while in most case leave at least some pa spectrum available for more localized or small - area operator seek only a single or small number of license .",1
"long pal license term and automatic renewal create expensive , permanent licenses that foreclose the ability of market forces to easily accommodate new users and technologiesthe ctia and t - mobile petitions compound the foreclosure effect of their proposal tolicense only very large geography by also propose to replace limited - term pal with 10-year license term that renew automatically , create virtually permanent license right .",-1
"convert pal license into traditional cellular industry license , as ctia propose , would make pal prohibitively expensive and uneconomic for all but the large wide - area mobile carrier in several respect .",-1
"first , the cost of each pal would be high , perhaps by a factor of 100-to-200 base on the average number of pop in pea and census tract and by a far high multiple in the top 60 pea , each of which cover more than one million pop .",1
"for example , as note above , the pea contain the city and county of los angeles which stretch east and north to the border of nevada and utah have nearly 20 million people .",0
"this mean that this single pea which would be purchase primarily base on its value in l.a. county contain nearly 5,000 census tract .",0
"thus , a small wireless provider or other alternative user that would deploy in , for example , 100 census tract , would need to be able and willing to pay at least 50 time as much per pop as it may if it could acquire spectrum in small increment .",1
"second , these much high spectrum cost would be entirely frontloade .",0
the current pal rule manage to help both small company and taxpayer by effectively lease pal spectrum for short interval .,1
"this lower the upfront capital cost for market entrant and small operator , while ensure a continue return to the public in the form of periodic auctionrevenue that continue indefinitely .",0
"periodic payment to the public will not only net more revenue over the long run , it will also match the amount pay at recur auction to the current value and use case of the band .",0
"this balance be not only a win - win for investment and taxpayer , but it boost the economy long term by encourage more innovation and ensure that spectrum assignment do not fossilize into under - perform public asset as most band allocate decade ago do today .",5
"the commission wisely anticipate this market - base and competitive refreshing of the cbrs band over time in the cbrs order , statingnon - renewable , short - term license be an essential component of the overall framework .. . .",3
"permit periodic , market - base reassignment of these right in response to change in local considtion and operator need .",1
"third , while census tract cover a uniform number of pop and be thus far large in rural than in urban area pea be highly variable , both in term of population and geography .",0
"as the commissions listing of pea indicate at a glance , although there be 416 pea in total , the 10 large pea include more than 100 million americans because they be center on but extend in some case hundred of mile beyond the very large metropolitan market e.g. , new york , l.a. , chicago .",0
the population cover by those 10 range from nearly 6 million houston to more than 25 million new york city .,0
"as a result , any aspire pal holder in the top 10 pea , or even in the top 60 pea all of which include more than 1 million pop , will need an enormous amount of upfront capital and a use case to justify that expense .",3
"not surprisingly , the only wireless operator fit that description be the petitioners .",0
"together , long and perpetual license term , combine with large license area , will do their intend job of drive small operator , start - up , market entrant , innovator and individual enterprise and local institution such as school , library , public park , harbor , etal .",0
"out of the pal market , except perhaps for the lucky few that may find a mobile carrier willing to do a leasing deal in an area where it have no interest in build out .",2
"exacerbate the opportunity loss to american business and consumer from lose access to pal spectrum , ctia and t - mobile do not propose strict use - it - or - lose - it build - out requirement .",-5
the commission correctly conclude in the cbrs order that our decision not to impose specific construction requirement for pals further increase the flexibility and fungibility of these license and reduce the barrier to fluid movement between service tier .,1
"however , that decision presuppose small - area license that would not automatically renew after an initial three- or at the initial licensee option six - year term .",0
"if the license term become long , permanent and affordable only to large mobile carrier , then ctia and t - mobile should also embrace strict build - out requirement .",0
"the public interest organizations propose that if the commission incorporate any of the petitioners propose pal change in a nprm , that it also propose short and strict build - out requirement by census tract .",-1
the only legitimate rationale that ctias member have for its propose licensing change be a fear that they may be outbid in certain census tract and face a coverage gap with respect to a wide - area deployment .,0
give this rationale and ctias insistence that have multiple pal in every census tract,0
the commission should hold them to it by require deployment in every census tract .,0
any census tract not serve after the initial license term,0
"should be return for auction as a small area pal which , in any case , would be a far well fit with the small cell nature of the band and useful to other entity .",2
"the commission should summarily reject t - mobiles proposal to relitigate the merit of a balance between licensed and unlicensed use of the 3.5 ghz bandwhile ctia limit its propose change to ensure that mobile carrier will be the only company with the economic incentive or capital to acquire pal license , t - mobile up the ante , perhaps intentionally play bad cop so that its extreme proposal allow ctias propose spectrum industrial policy seem reasonable by comparison .",-2
"t - mobile effectively ask the commission to reverse the cbrs framework in its entirety , eliminate the gaa allocation , and exclusively auction the entire 150 megahertz for exclusive use by a handful of national or regional carrier .",1
"all of this be in the service of prompiosng 5 g ,",0
a catch - all term for what will most productively encompass a variety of high - capacity wireless networking solution include many if not most that will be fuel by access to mid - band gaa spectrum .,2
the commission should summarily reject t - mobiles proposal to disrupt the balance the commission strike between licensed and effectively unlicensed access to this mid - band spectrum .,-3
"t - mobiles extreme proposal would also pull the rug out from under rural wisps and the many innovative use case and market entrant that be already well along in their plan to intensively use the band to meet a myriad of local need , as describe in the section above .",2
"a balance between licensed and gaa access to the band benefits consumers and the entire wireless ecosystemamong the many flaw in t - mobiles reasoning , its proposal to reverse the gaaallocation ignore the fact that open access , low - power spectrum have prove to be a uniquely positive complement to license carrier spectrum , benefit consumer by make mobile device connectivity more available , fast and affordable .",5
"although pios do not believe that the utility of small cell gaa across the 3550 - 3700 mhz band be limited to offload traffic frommobile broadband device , even for that purpose it should be clear from trend in wi - fi offload that both consumer and even the wireless industry overall would benefit if every individual consumer , business and public space have the option to incorporate additional open access bandwidth into a small cell network that could be access by almost any device .",1
"since wi - fi be small cell by definition , one of the prove benefit be that it facilitate spectrum frequency re - use over very small area a home , business , or school .",2
"because of its efficiency and low cost , unlicensed spectrum carry far more datum traffic than do licensed carrier band .",-1
recent estimate suggest wi - fi carry 80 of mobile device datum traffic .,0
"there be no reason to believe that the open and effectively unlicensed gaa spectrum in the 3.5 ghz cbrs will not play a similar , complementary role in the wireless ecosystem .",1
"indeed , that be exactly the model that characterize the private neutral host lte access point develop by ruckus and qualcomm , which allow any indoor venue to provide high - capacity lte connectivity to the customer of any mobile carrier network .",0
"in the future , open access spectrum whether gaa or unlicense under part 15 rule will be even more important for u.s. economic growth .",1
"accord to cisco , by 2020 , the internet of thing will connect 50 billion device , with an economic impact estimate at 19 trillion .",0
"similarly , mckinsey have estimate that iot application could have an economic impact of up to33 trillion by 2025 .",0
"the vast majority of iot traffic already travel over unlicensed spectrum , and that will continue to be true .",-1
"it be in the economic interest of both the carrier , and the public interest more broadly , for unlicensed spectrum to be allocate in generous amount to facilitate the deployment of next - generation unlicensed technology upon which consumer , competitor , and the carrier themselves , will inevitably rely .",-1
it be also tell that t - mobiles proposal to auction the gaa portion of the band be tie to a propose 50 megahertz spectrum cap .,0
"although t - mobile seem to be telegraph its expectation that the commission will approve a merger result in a three - carrier mobile marketplace and try to guarantee it will end up with one third of the band at a low cost than an unrestricted auction would generate even the companys purport attempt to preserve a bit of competition be unlikely to survive inevitable verizon and att opposition to any spectrum aggregation limit , particularly a band - specific cap .",-1
the commission should retain dynamic channel,1
"assignmentthe public interest organizations strongly oppose t - mobiles proposal to replacedynamic channel assignment , manage by the spectrum access system to protect naval operation , with specific and static channel assignment .",-1
apparently this proposal presuppose the elimination of gaa spectrum and the exclusive auction of pal across the cbrs band entire 150 megahertz .,-1
"if so , it serve primarily to highlight yet another flaw in t - mobiles misguide attempt to remake cbrs as a band design exclusively for three or four large incumbent mobile carrier .",-1
"under the current rule , navy radar be ensure protection bothtechnically and politically in part because when a pal holder be notify it must clear off its licensed channel to protect military operation , the sas temporarily relocate that licensee to gaa spectrum .",3
there be no interruption of what the pal holder expect to be quality of service spectrum .,-1
"however , under t - mobiles proposal , pal holder would have no gaa spectrum to use when and where the sas require them to vacate one or more channel to accommodate naval radar operation .",0
"presumably t - mobile expect that if the commission adopt its proposal , the mobile industry can then go to congress and put pressure on the navy to vacate the band .",0
cbsd registration information must be publicly available to optimize productive use of the band and hold sas operators,2
accountablethe public interest organizations strongly oppose the proposal by ctia and t - mobile to rescind public disclosure of the cbsd registration information use by sas operator to calculate protection area both between pal and for the purpose of facilitate access to vacant pal spectrum on a gaa basis .,1
"under the current rule , section 96.55a3 make basic cbsd registration information publicly available while obfuscate the identity of the licensee provide the information .",1
"this rule be , in fact , less transparent than the similar publicly - available information in the tv bands database , which include a similar site - base registration requirement for access point and it be less transparent than the commissions",3
"other publicly - viewable and accountable database for site - base license , include uls , which typically include not only location information , but the name and contact information of licensee .",1
"it be readily apparent that because ctia and t - mobile do not prevail in their previous effort to preclude opportunistic access to vacant pal spectrum , they be seek secrecy as a backdoor mean of undermine more efficient and intensive use of the entire cbrs band .",0
"thesas , of course , need to know the location of deployment to protect incumbent user the navy , primarily , but also fss , to avoid harmful interference between pal holder , and to facilitate efficient and intensive use of vacant pal spectrum by either approve or deny gaa request to operate on pal spectrum .",1
"in its second report and order , the commission facilitate opportunistic access to unused pal spectrum so - call use - it - or - share - it , in lieu of build - out requirement , by define use of pal frequency on an engineering basis that establish default and maximum",0
"and , we believe , conservative protection contour around pal deployment .",0
"there be many productive reason why user of the band in particular benefit by database transparency , particularly with respect to what pal spectrum be actually in use .",3
"by keep site - base deployment secret , ctia and t - mobile make it nearly impossible for wisps and other operator to assess whether there be enough vacant pal spectrum in an area to support a deployment .",1
"secrecy would also make it difficult for pal holder to assess on their own why they may be experience interference , or to assess whether certain pal be more likely to be available for auction because licensee have not build out .",-1
"finally , incumbent and public advocacy group can also play a productive role in hold the sas operator and other stakeholder accountable but only if there be a meaningful level of transparency concern the band actual use .",1
"the public should not need to trust a black box process control by compete sas operator , some of which will be sponsor by consortium of pal holder e.g. , ctia or under financial pressure to please the pal holder that choose to use them and pay for fee , include for value - add service .",1
"for a well - know example of why public transparency and accountability be important when the commission delegate its spectrum management authority to compete privatedatabase operator , look no further than the tv bands database .",2
the national association of broadcasters have use the transparency of the tvbd to hold sas operator and some registrant,0
accountable for erroneous or expired registration entry which if not correct could make the band share regime less efficient and even prone to heighten interference risk .,-2
"the public interest stake for transparency and accountability be far great for cbrs , where it be military radar that need to be protect by accurate registration and where very valuable pal spectrum could lie fallow indefinitely if there be no way to question potentially erroneous or expire sas registration .",1
conclusionour group urge the commission to summarily dismiss the ctia and t - mobile proposal and focus on an expedite implementation of the rule as adopt in 2015 and 2016 .,0
the uncertainty and delay inherent in re - open the rule for the benefit of one particular group of company would not serve the broad public interest in our view .,0
"the cbrs be design to promote innovation , competition , rural broadband access and consumer choice .",1
the ctia and t - mobile proposal to tailor licensing rule to well fit the carrier wide - area business model will needlessly foreclose localize and potentially compete new user and use .,0
we urge the commission to reject any effort to backtrack on this unique achievement in forward - think spectrum policy .,0
