text,score
"comment of federated wireless ,",0
"inc.federated wireless , inc.",0
federated wireless offer these comment on the petition forrulemake file in the above - caption proceeding .,0
"in particular , federated wireless urge thefederal communications commission commission to 1 act to resolve pende petition forrulemake relate to the priority access license pal tier of the citizens broadband radioservice cbrs , but expeditiously move forward with certification for spectrum access systemsas administrator and environmental sensing capability esc operator by january 2018so that general authorized access gaa deployment and operation can commence while thecommission consider any appropriate rule change for pal spectrum 2 summarily reject therequest by t - mobile usa , inc. t - mobile to convert the cbrs into a traditional , exclusivelicense regime and 3 seek comment on how to good balance",2
the datum security and privacy needsof cbrs user with the need to securely share certain information to maximize the efficiency of spectrum use .,1
it be paramount that consideration of any potential change to the cbrs rule for pal spectrum not delay commercial launch of service on gaa spectrum,0
", squander significant industry momentum.in their petition , ctia and t - mobile request that the commission make a number ofchange to the exist cbrs rule relate to priority access license pal spectrum , include increase the size of pal license area from census tract to partial economic areas , lengthen pal term from three to ten year , and add a renewal expectancy to pals .",1
t - mobile and qualcomm incorporated qualcomm additionally ask that the commission relax the cbrs out - of - band emission oobe limit .,-1
"federated wireless support the petitioner request that the commission consider these specific issue , and encourage the commission to promptly seek comment on , and resolve , the ctia petition for rulemaking and qualcomm ex parte as they relate to the question of license area and license term for pal spectrum and oobe limit for citizens broadband service devices cbsds .",1
"federated want to make clear , however , that there be ample industry support for the commission move ahead with all expedition to complete sas and esc certification by january 2018 , as plan , so that commercial service on gaa spectrum can be deploy in 2018 while the commission consider change for the pal spectrum in parallel .",3
"industry be anxious to begin use and test the gaa spectrum , together with sas and esc technology , and there be no reason todelay gaa operation while question relate to pal spectrum and oobe limit be consider .",-2
"indeed , consideration of the t - mobile and qualcomm request with respect to oobe limit can and should proceed in parallel with sas and esc certification , as oobe limit have no bearing on the certification and operation of the sas .",-1
"further , as qualcomm be seek a relaxation of the oobe limit for cbsds and end user device there be no reason to delay the certification of device that comply with the current oobe limit .",-3
"should the commission decide to adopt the proposal , the device that comply with the more stringent current limit will similarly comply with the newly adopt , less stringent oobe limit .",-4
"follow the adoption of the 3.5 ghz order , industry interest in , and momentum toward , the dense , widespread commercial use of the cbrs spectrum have continue to grow at a tremendous rate .",-1
"since its founding less than a year ago , the cbrs alliance have see its membership grow from the seven found company to more than 65 company across the cbrs ecosystem , include wireless carrier , cable operator , wireless internet service providers , device and equipment manufacturer , tower company , and prospective sas administrator and esc operator .",0
the wireless innovation foruma consensus group comprise of stakeholder acrossthe cbrs ecosystemha develop and be now finalize the standard and protocol to enable the cbrs sharing framework .,1
"cbrs stakeholder have engage in a wide variety of trial , include large - scale field trial , in preparation for the commencement of commercial operation in the near term .",1
"in addition , the commission have conditionally certify seven applicant to serve as sas administratorsand receive a second wave of application , with final certification of sas administrator expect in early january",0
"2018.as demonstrate above , there be widespread momentum throughout all sector of the cbrs ecosystem , and the service be ready to launch as soon as sas certification be complete .",1
"in view of this industry readiness , it be paramount that any proceeding the commission initiate be narrowly target to address the question as to pal license area , license term , and minor adjustment to technical rule raise by the ctia petition and qualcomm ex parte .",1
"but consideration of these issue do not have to , and should not , stall progress on certification and launch service on gaa spectrum , ensure that cbrs spectrum be promptly put to the widespread , dense , share use the commission envision in the 3.5 ghz order .",-1
"the t - mobile petition constitute a transparent and unreasonable attempt to retrofit the 3.5 ghz innovation band into a traditional exclusive license regime , which already be reject by the commission , and should be again.in its petition , t - mobile request that the commission make drastic change to the cbrslicensing scheme to allow pal user to occupy the entire 150 mhz of cbrs spectrum , to bid on specific , fix spectrum block , and to further increase the permitted output power for outdoor operation to align with conventional macrocell operation .",-1
"this proposal constitute a bald - faced attempt to transform the innovative three - tier sharing framework into a traditional exclusive licensing scheme , with the practical effect of undermine the dense sharing regime the part 96 rule seek to enable .",-1
the commission already consider these argument in the past and reject them .,-1
it should do the same here .,0
"the cumulative effect of t - mobiles proposal would be to allow three pal user to occupy the entire cbrs spectrum in a give license area , each with a fix 50 mhz allocation , to the detrimentand quite possibly the exclusionof opportunistic use by gaa user .",-1
"in effect , notwithstanding require protection of federal and satellite incumbent , the pal tier would be convert to primary status under a traditional exclusive licensing scheme , with the gaa tier , at well , relegate to secondary status .",2
"this proposal would eviscerate the gaa tier , as the opportunistic use t - mobile propose would be insufficient to support the development of the gaa ecosystem envision by the commission in the 3.5 ghz order .",-1
"the commission consider similar request to t - mobiles in 2015 and reach the same conclusion , find that the combination of fix channel assignment for pals and indefinite license renewal could permanently prevent gaa use of certain portion of the band , particularly in region of highcommercial interest .",0
"moreover , with regard to t - mobiles request that the entire 150 mhz belicense on a pal basis , the commission already conclude that ensure that a stable andsignificant quantity of spectrum be available for both priority access licensees and gaa will fosterinnovation , encourage efficient use of the band , and create an environment conducive to a widearray of potential user and use .",5
"the commission have rightly reject request to license the 3.5 ghz band on a traditional , exclusive basis in the first ro , instead decide to enable innovative share use in the band .",1
"thet - mobile petition provide no rational basis for its attempt to relitigate the decision the commissionmade in reliance on a robust record , instead rely only on conclusory statement that carriersrequire certainty to invest in deployment and a stable and predictable spectrum environment inorder to plan their network .",3
this be simply an unsupported repetition of an argument thecommission have already consider and find,-1
"unconvincingwe realize that operator traditionally have plan their network with certain static assumption about frequency assignment , reflect the exclusive - use license they hold in other band .",-1
"however , we do not agree that static assignment be always necessary to plan and operate a network particularly a network with island of small cell cluster or that utilize a flexibly assign band would disrupt network deployment .",-2
"to the contrary , as explain above , we believe that automate assignment will benefit wireless broadband provider by provide an additional measure of resiliency and flexibility .",2
"with respect to t - mobiles claim that its proposal be necessary to incent carrier investment in cbrs , just as in 2015 , the record include substantial evidence from commenter that be interested in invest in a three - tier band and , as such , we do not believe that it be in the public interest to delay or compromise its implementation .",0
"as note above , more than 65 companiesare engage in the cbrs alliance and be actively invest in the service and move toward commercial launch .",0
"federated wireless itself , in partnership with a number of industry player , have complete or have underway more than 40 trial , some of which be large - scale field trial , of cbrs technology and operation .",0
other stakeholder be similarly engage in widespread preparation for commencement of commercial operation .,0
"there be , without question , widespread industry interest and investment in the cbrs ecosystem as it exist under the current part 96 rule .",0
"finally , t - mobile have characterize its proposal as necessary to incent carrier to invest in and deploy 5 g technology in the band .",0
"this ignore the fact that the cbrs be explicitly a technologically neutral service , as clearly reflect in both the part 96 rule and the text of the 3.5 ghz order .",0
"as the commission explain in 2015 , the 3.5 ghz band could potentially engender a wide diversity of network deployment , include by some nontraditional entrant that do not operate mobile network in other spectrum .",0
"to this end , we will observe the development of technology standard for this band , with an eye toward ensure they include , rather than preclude , a wide variety of use and user .",1
"the evolution of the cbrs since adoption of the 3.5 ghz order have bear this out , as the expect use of cbrs will include multiple technology include lte , wimax , and proprietary technology .",-1
"just as other band have evolve to accommodate the introduction of new technology , so , too , will the cbrs.t - mobiles proposal to license the entire cbrs on a pal basis , with fix 50 mhz spectrum block , be a simple recitation of argument the commission have consider and previously reject .",-1
"it be therefore unsurprise that no other carrier or wireless trade association have join in t - mobiles request , despite t - mobiles protestation that its proposal be necessary to promote carrier investment in the band .",0
"t - mobiles proposal be unsupported , and unsupportable in view of the record on which the commission rely in the 3.5 ghz order and the ongoing industry engagement in the band .",-1
"it must be promptly , and summarily , reject .",0
"the commission should consider how best to balance the privacy and security of cbrs user information with the need to securely exchange information to enable dense , efficient spectrum sharing.in the 3.5 ghz order , the commission require that sas administrators must make cbsdregistration information available to the general public , but they must obfuscate the identity of the licensee provide the information for any public disclosure .",3
"in their petition , both ctia and t - mobile object to the publication of cbsd registration information and ask that the commission require that sas administrator protect such information from public disclosure .",0
"as the commission have previously note , the type of cbrs user information that may be share and the circumstance under which it may be exchange require that the commission strike an appropriate balance between the legitimate data privacy and security concern of cbrs user and the need for current and prospective user to effectively plan their future deployment .",0
where this appropriate balance lie have be the subject of ongoing discussion in the cbrs community .,0
"in september 2016 , a number of cbrs stakeholder present to the commission a propose framework to categorize the type of cbrs information to be hold by sas administrator and govern the way in which information fall under each category could be use .",-1
"under this framework , certain type of cbsd registration information would be publish , with the remain cbrs user information treat confidentially .",0
"federated wireless be the first prospective sas administrator to highlight the need to assure the security of cbrs user sensitive and proprietary datum , explain to the commission that cbrs user must be assure that their valuable information will be handle appropriately , competitively sensitive information will not be disclose , and end user privacy will be maintain .",4
federated wireless agree with ctia that publication of precise cbsd registration information serve no public benefit .,2
sas administrator should nevertheless be permit to depict information need by current or prospective cbrs user to plan and operate their installation .,0
such information could include visualization base on certain anonymize or obfuscate registration information .,0
"to this end , the commission may wish to clarify the meaning of section 96.55a3 , which provide that sas administrators must make cbsd registration information available to the general public , but they must obfuscate the identity of the licensee provide the information for any public disclosure .",1
"in particular , the commission should clarify the meaningof cbsd registration information and obfuscate the identity of the licensee provide the information with respect to sas administrator publication and datum protection obligation .",2
"federated wireless encourage the commission to take the concern of ctia and t - mobile into consideration and promptly seek comment on how well to clarify the meaning of section96.55a3 to maintain the privacy and security of cbrs user datum , while also ensure that current and prospective user be able to successfully plan their deployment .",3
"conclusion.federated wireless commend the commission on its innovative effort in develop the cbrs , and stand ready for its certification later this year and commercial launch in 2018 .",3
"with respect to the petition before the commission , federated recommend that the commission should 1 resolve the pende petition for rulemake relate to the pal tier while in parallel push forward with final certification of sas administrator and esc operator by january 2018 , as plan , so that gaa deployment and operation can commence in 2018 while the commission consider any appropriate rule change for pal spectrum 2 summarily reject the request by t - mobile to convert the cbrs into a traditional , exclusive licensing regime and 3 seek comment on how well to balance the datum security and privacy need of cbrs user with the need to allow current and prospective user to plan their deployment and maximize the efficiency of spectrum use .",3
