text,score
"comment of sacred wind communication , inc.sacred wind communications , inc. sacred wind , by its undersigned counsel , respectfully submit these comment in response to the public notice release in the above - referenced proceeding by the wireless telecommunications bureau bureau of the federal communications commission fcc or commission on october 23 , 2015 .",1
the public notice seek comment on the appropriate method for determine the protect contour for grandfathere 3.65 ghz band licensee pursuant to the report and order and second further notice of proposed rulemaking that establish the citizens broadband radio service cbrs in the 3550 - 3700 mhz band 3.5 ghz ro.introduction and summaryin,2
"the 3.5 ghz ro ,",0
"the commission adopt rule govern the 3.5 ghz band , include rule for incorporate the exist 3.65 ghz band into the new cbrs , and adopt rule protect the operation of exist 3.65 ghz licensee i.e. , grandfathered wireless broadband licensees , during a transition period , within their grandfathered wireless protection zones protection zones .",3
"sacred wind be an incumbent 3.65 ghz licensee , and appreciate the commissions effort to provide some level of incumbent protection within the protection zones during the transition period end april 17 , 2020.in the public notice , the bureau propose and seek comment on a two - pronged approach to define the protection zones around each register base station of a 3.65 ghz licensee .",4
the first prong apply to sector with unregistered customer premise equipment cpe that operate below the power limit for mobile and portable station in the 3.65 ghz band technical rule .,0
"the propose contour for a protection zone for base station with unregistered cpe would be a sector , base on a 4.4-km radius and the base station antenna parameter .",1
"the second prong , which apply to register cpe i.e. , cpe that operate as a fix station above the mobile and portable power limit , be the primary focus of sacred winds comment .",0
"under the second prong , the protection zone for register cpe would extend to the furth cpe unit register in the universal licensing system uls , and also be a function of the base station antenna parameter register in uls azimuth and beamwidth , create wedge - shape protection zone extend to the furthest register cpe.for the reason discuss below , sacred wind urge the bureau to clarify the ambiguous phrase the furth cpe unit register in uls in the propose second prong .",0
"the bureaushould adopt a protection approach for fix cpe , whereby cpe be not require to be register by any particular date , but instead may be add to expand the protection zones around exist base station during the entire transition period .",2
"as an alternative , the bureau should clarify that either the propose contour for 3.65 ghz network that use fix cpe extend 18 km from the base station within the provider territory , or for provider serve tribal land , establish tribal protection zones as discuss more fully below .",1
"through these approach , the bureau would ensure that provider like sacred wind , a carrier of last resort serve remote navajo reservation and near - reservation land in new mexico , can realize the benefit of its significant investment to expand its service , free from interference , to its remote , historically un- and under - serve subscriber base .",3
"discussionbackground on sacred windsacred wind be a privately own , new mexico - base corporation form in 2004 to introduce basic telephone and broadband service to the many thousand of unserved home on the navajo reservation and near - reservation land in new mexico , as well as to navajo school , business , and government location , such as local chapter house .",1
"in 2006 , the company acquire from qwest corporation a portion of qwests service territory comprise approximately 3,200 square mile in northwestern new mexico on the navajo reservation and near - reservation land know as the checkerboard , as well as limited qwest copper loop facility in this territory .",0
"sacred wind serve a population of approximately 23,300 , 98 percent of whom be navajo citizen .",0
"the population density of its service territory be about 7.3 people per square mile , one of the most sparsely populated area in the country .",0
"sacred wind be a carrier of last resort for 6,300 household , mean that it can not terminate or withdraw from providingtelephone service unless the new mexico public regulatory commission prc find that another telecommunication company be able to provide service without interruption .",-1
no other such company exist in sacred winds service area at this time .,0
"last - mile wireline technology be particularly ill - suited for remote tribal land , such as sacred winds service territory .",0
"as the commission recognize in its 2000 report and order on extend wireless service to tribal land , [ v]arious factor contribute to the low penetration rate on tribal land .",0
"chief among these factor be geographic remoteness , sparse population cluster , low income level and high unemployment rate .",0
"in general , the sparse population over a vast land area make deployment of a wired telecommunications network cost prohibitive .",-1
"for that reason , sacred wind have build out an alternative to a wireline network that still allow sacred wind to bring voice and broadband service to its service area .",0
that alternative be an ip - base hybrid fiberpoint - to - point microwave backbone network integrate with a 3.65 ghz wimax fix wireless local loop fwll access network .,1
"for remote subscriber , the fwll system replace the typical copper , twisted pair distribution system with a point - to - multipoint radio access network operate on a 3.65 ghz wimax platform .",-1
"this system have be deploy and be operate under sacred winds non - exclusive 3.65 ghz nationwide license , with local database registration .",0
system reliability on its network approach the network reliability of tier 1 provider 99.999 percent reliability or downtime of 5 minute per year .,0
"sacred wind be also operate an all - ip network , use ip - base ethernet transmission across its entire network , include the last mile , use wimax ieee 802.16 equipment .",0
"the use of wimax technology and the manage nature of ip transmission throughout the sacred wind network provide residential subscriber with wirelinequality service and broadband service of up to 10 mbps , with broadband service to school and business of up to 100 mbps .",0
"to achieve this level of reliability , sacred wind have incorporate redundancy and protection into its 3.65 ghz wimax network , rely on physically separate wimax network for working and protection channel , include separate frequency , separate tower equipment include separate amplifier and antenna , and separate baseband processing unit with redundant power supply for the working and protection equipment .",1
the system rely on 45 mhz of spectrum in the 3.65 ghz band .,0
"the protection zone approach must allow for the protection of later - deploy fix cpe within a providers service territory , and alternative approach must be consider that protect ongoing build out into remote tribal areasthe bureau should adopt an approach that allow for protection of later - register cpethe second prong propose in the public notice , specifically the use of the phrase the furth cpe unit register in uls , be ambiguous and should be clarify by the bureau .",3
the public notice do not specify whether cpe registration be require by a particular date in order for register cpe to be consider within the second prong protection zone .,1
"but presumably the public notice be default to language from the 3.5 ghz ro , which provide that interference protection be afford to incumbent within protection zones around base or fix station that be register in uls on or before april 17 , 2015 and construct , in service , and fully compliant with the rule in part 90 ,",3
subpart z . . .,0
"as of april 17 , 2016 .",0
"however , the 3.5 ghz ro allow deployment of cpe during the transition period , and for that equipment to beprotecte from harmful interference within a protection zone .",-1
"even in the case of registeredcpe , the protection zone be around and define with respect to operation from a base station , and the bureau should clarify that additional cpe may expand a protection zone if deployedaround exist 3.65 ghz base station .",3
"sacred wind understand that the 3.5 ghz ro fix the covered base station to thoseregistere on or before april 17 , 2015 , and construct by april 17 , 2016 , which preventscreation of new protection zones use later - deploy base station .",1
"the commission reasonedthat the april 17 , 2015 deadline be necessary to prevent a speculative land rush in siteregistration during the period between the adoption date and the effective date of the new andrevise rule .",1
the same reasoning do not apply to define protection zones for additionalcpe deploy during the transition period around such base station .,1
as the commissionexplained[i]t be appropriate to define the grandfathered wireless protection zones base on the contour of base and fix access point that define the network .,2
"as such , in this context , fix or base station do not include subscriber unit , customer premise equipment , or remote terminal that communicate with base station or access point .",0
". . grandfathered wireless protection zones will not be specifically define for subscriber unit operate by grandfathered wireless broadband licensees , regardless of whether they have be register in uls.sacred wind be concerned that , if additional cpe can not be add during the transitionperiod to extend , and be include in , a protection zone , its ability to provide adequate last - miletelecommunication service without experience harmful interference during the transitionperiod will be impede .",-1
sacred wind can not predict the extent of the potential impact or theamount of service disruption that the influx of citizens broadband radio service devices cbsds will have in its current service area .,-1
"however , if and when the technology encroach into the sacred wind customer service area , it be possible if not likely that a remote customer that be not protect will experience service interference from a foreign device and be cut off from voice and broadband service , include critical service , such as 911.accordingly , sacred wind urge the bureau to clarify that it be not impose any deadline on cpe registration in a manner that would prevent incumbent from include within protection zones additional cpe deploy during the transition period around exist base station .",-2
"otherwise , 3.65 ghz incumbent like sacred wind would be prevent from have interference protection for later - deploy cpe that may be locate beyond the furth cpe currently deploy .",1
"the commission should clarify the furthest cpe distance limit , or , alternatively , establish tribal protection zonesthe bureaus concept of the furth cpe unit also require clarification .",0
"the bureau have calculate that a typical register cpe would have a maximum range of approximately 18 km from a base station , and , therefore , caution[ed ] license that any cpe distance in excess of this will be evaluate for legitimacy .",0
"base on this statement , it seem that the bureau can clarify the propose contour for 3.65 ghz network that use fix cpe by set the distance limit at 18 km , without any reference to the furth cpe unit .",-1
"although the bureau may believe this be overprotective , it should have the add benefit of provide certainty and would cut down on the sheer information and uls update necessary to define the protection zone .",2
"in other word , for operator with fix service territory , like sacred wind , exist basestation utilize fix cpe would have a protection zone that extend 18 km from the station within their service territory for protection of register cpe and later - deploy cpe.sacred wind also urge the bureau to consider an alternative methodology for determine protection zones to serve tribal land , which it refer to as a tribal protection zone .",5
"specifically , to qualify for protection through a tribal protection zone , the follow would be appropriate",4
considerationsthe 3.65 ghz licensee must be an incumbent provider of last resort,0
provide access to emergency voice,-1
"911 servicesthe provider must predominantly serve tribal land in the target area , or be a tribally - own carrier serve the target areathe provider must have a substantial record of serve the area with 3.65 ghz technology andthe target area must be within a census tract area , the centroid of which be locate on tribal land .",0
"this type of tribal protection zone would be define by the census tract within the overlap between the incumbent service territory and the tribal land , where at least one exist 3.65 ghz base station have be previously deploy to serve part of the target area , but additional base station will be necessary to serve more insular area on the tribal land .",0
"this approach would allow for growth to serve more remote area , while protect carrier of last resort use 3.65 ghz technology from potential interference from new cbsds .",0
"the public notice propose static contours would not protect sacred wind exist deployment plans and investmentdepending on the bureaus resolution of the ambiguity describe above regard the furth cpe unit register in uls , sacred winds significant investment and plan to serve additional last - mile customer may be in jeopardy .",0
"assume that the bureaus definition of the protection zone be base on the furth , register cpe as of april 17 , 2015 , the public notice envision static outward boundary for protection zones that may only contract , rather than expand , under the rule .",1
"if so , sacred winds protection zones would be limited and unable to expand upon deployment of additional cpe .",-1
"sacred wind be already in the midst of deployment of voice and broadband to additional remote customer , and the bureaus propose approach would not protect sacred winds plan and exist investment as a carrier of last resort during the transition period .",1
it would also undermine the notion of grandfathere during the transition period by limit cpe to exist subscriber .,-2
"as a carrier of last resort in new mexico , sacred wind be obligate to ensure that interference - free telecommunications service be provide to its customer .",0
"sacred wind have the ability to reach potential customer in need by build out cpe around its exist base station , and new base station necessary to serve more remote area on tribal land .",0
"like other carrier of last resort , sacred wind utilize the 3.65 ghz band for voice and broadband service , but be probably unique in its customer circumstance .",1
"because of their remote location , sacred winds historically underserve navajo customer base",0
be highly dependent on sacred wind 3.65 ghz technology to communicate with the outside world .,0
sacred wind arguably possess the large fixed wireless system for voice and broadband in the country and the largest911 fix wireless - delivery system .,0
"the goal be to provide this critical access to most , if not all , of the navajo household in sacred winds service territory .",-1
sacred winds job be not do .,0
"to this end , sacred wind have develop a five - year plan , recently approve by the new mexico prc for expansion of its network to serve some of the most remote customer in its service territory .",1
"that order grant sacred winds petition to receive support from the state rural universal service fund srusf , pursuant to the new mexico rural telecommunications act , in the amount of 1.4 million per year for a five - year period from january 2016 through december 31 , 2020 , which largely coincide with the 3.65 ghz transition period .",1
"this authorization for srusf funding take sacred wind approximately four year to secure , and require submission of detailed plan concern how it will use funding over the five - year period .",0
"in addition , to implement its expansion plan , sacred wind be pursue additional federal funding from the u.s. department of agricultures rural utilities service rus program that aim to ensure access to affordable and reliable telecommunications service to rural community .",2
"with this funding , sacred wind intend to build out its voice and broadband network , expand and improve its exist service , and introduce broadband where it be previously not available .",2
"the srusf be intend to ensure that telecommunications service be provide at affordable rate in rural , high - cost area throughout new mexico .",1
"to obtain approval , sacred wind be require to show how it will use the funding through submission of a five - year plan .",1
"sacred wind plan to serve as many as 800 new customer , include by expand service tocurrently unserve customer .",0
"sacred wind expect that most , if not all , of its new customer will be low - income individual in remote , high - cost area of new mexico that qualify for the tribal lifeline program .",1
"the lifeline customer live in the most remote area of the navajo reservation and near - reservation land , and sacred wind be commit to reach them with interference - free service as soon as possible .",0
"the importance of this mission , plan for expansion , and the need for interference - freeservice can not be understate , as new customer will have access to 911 service and will be ableto communicate with their doctor , employer , and extend family member from theirhome .",-1
"service be anticipate at additional public housing project expect to be complete inthe come year , as well as in home that currently lack electricity , but may have it in thefuture .",0
"although imminent , build - out have not yet occur in some location , not only becauseof the need to secure required support , but because legal hurdle often delay the process ofobtaine right - of - way on navajo and federal land that predominate sacred winds serviceterritory .",2
these issue demonstrate that the protection zones should not be limit by cpe thatis currently in place around sacred winds base station .,-1
"instead , sacred wind should bepermitte to expand its protection zones with additional cpe , as well as new base stationsnecessary to serve the most remote area on tribal land where at least one exist 3.65 ghzbase station have be previously deploy , without fear of interference to critical service during the transition period .",-1
"ultimately , the prc have declare that [ t]he project sacred wind have detail for which srusf support fund be request will further the public interest by increase sacred winds ability to maintain its network and continue to expand service to some of the most unserved or underserved member of our society .",1
"to accomplish its plan , sacred wind have commit to match the 1.4 million funding and spend over 10.5 million in the next five year for capital investment upgrade , as well as over 4.5 million for network upgrade , maintenance , and other operational expense .",2
sacred wind plan to use additional fix 3.65 ghz cpe to serve these remote customer pursuant to its obligation as a carrier of last resort .,0
"it be important that the bureau recognize the unique situation of sacred wind and ensure that the protection methodology it adopt will protect additional cpe sacred wind deploy from base station that be beyond the boundary of its currently deploy fix cpe , and alternatively , establish tribal protection zones that will allow it to bring service to the most remote , insular tribal area free from the risk of potential interference .",2
"conclusionthe bureau should clarify the protection zone contour to explain that additional register cpe may expand protection zones at any time during the transition period if deploy around exist base station , and alternatively , establish tribal protection zones that will allow provider serve tribal land with 3.65 ghz technology to bring service to the most remote , insular tribal area free from the risk of potential interference .",1
the addition of cpe and expansion of the protection zones be necessary to protect sacred winds critical network and significant investment from the potential influx of new cbsd user in the 3.65 ghz band during the transition period consistent with its mission as a carrier of last resort to remote navajo reservation and near reservation land .,3
