text,score
"the wireless innovation forum be a u.s.-based international non - profit organization drive technology innovation in commercial , civil , and defense communication around the world .",2
"in 2014 , the wireless innovation forum create the spectrum sharing committee , which concentrate on shape and implement the commissions regulation for the citizens broadband radio service cbrs in the 3.5 ghz band .",1
"the spectrum sharing committee presently have broad participation among a wide range of 3.5 ghz stakeholder , include wireless operator , sas developer , equipment manufacturer , satellite operator , wireless internet service providers wisps , utility , the u.s. government , and other .",0
"after the release of the commissions 3650 mhz public notice , the spectrum sharing committee establish a task group specifically to address the question raise in the notice .",0
"the task group support discussion among relevant stakeholder in the 3650 - 3700 mhz segment , especially the cbrs and wisp community .",1
"the goal of the task group be to reachconsensus on reasonable protection criterion for incumbent grandfathere operator , while enable to the great extent possible deployment of cbrs device and associated service .",3
the comment present here reflect the discussion of the task group.1,0
general resultsthe task groups general consensus be that the commissions propose two - pronged approach be not sufficiently effective at protect wisp operation and may block cbrs deployment unnecessarily .,3
"this approach do not , for example , explicitly take into account protection of wisp base station , which be typically mount at high site with good visibility to surround area .",2
"in this case , the fcc implicit assumption that the received signal strength at the base station from a cbrs device outside a boundary must be less than the signal strength at the boundary be not necessarily correct .",1
"whether receive signal strength at the base station exceed receive signal strength at the propose boundary will depend on the base station visibility to the boundary and the technical condition antenna height above ground , for example for which the boundary signal strength limit be define , which be not discuss in the notice .",0
"on the other hand , protect a boundary that be define solely by the maximum distance to a register cpe can result in very inefficient use of spectrum .",0
"consider , for example , a case where a base station have omnidirectional coverage , several cpe within a short distance of the base , and a single cpe locate at a considerably large distance , perhaps on a distant hill with a good view of the base station .",1
"the boundary for this base station would then be a circle whose radius be equal to the distance to that single distant cpe , and that boundary must be protect at all point around the entire circle , even though there be but one cpe at a single point on that circle .",1
"the general consensus of the task group be that protect individual device location , include the base station , be a more effective method to protect wisp operation , while not block cbrs use in area where such blocking be unnecessary .",2
"to implement these protection , we believe that wisp deployment should be register with sass through a central third - party database maintain by a multi - stakeholder group , with regular confirmation that such deployment remain in operation .",1
"wisps should be allow to update the registration datum during the grandfathere period to protect new customer , as well as to indicate device that no long require protection .",3
"besides allow maximal flexibility and efficiency in protect wisp operation , establish",2
a third - party database will relieve the commission of expend limited resource on develop new web service to support modify part 90 registrations.2 specific protection frameworkwe discuss below the specific point agree to by consensus of the task group participantsper - device protection .,2
"instead of provide area or boundary protection , which may both over - protect and under - protect station in some situation , the sas will provide per - device interference protection for grandfathere 3650 - 3700 mhz operation during the grandfathering period at the register location .",3
"since these station be fix , not mobile , device protection base on a fix location , rather than a zone of potential operation , be appropriate .",2
"in this context , the term device refer to base station also refer to as fix access point and cpe.protection require registration .",0
"protection provide by the sas for grandfathere protection will be base on registration information i.e. , grandfathere licensee must register in order to be entitle to protection , and they will be protect base on their registered operational parameter .",4
"in this context , registration refer to a third - partyprocess , not registration in the uls see below .",0
"with regard to low - power unregistered device , it be the general consensus of the task group that such device will be sufficiently protect by virtue of protection of the associated base station and surround register cpe , but if necessary , such device could be register in the third - party database for explicit protection .",6
operator - sas registration .,0
a multi - stakeholder group will develop a streamlined process by which incumbent 3650 - 3700 mhz part 90 licensee will provide device parameter to the sas operator for protection .,2
"the winnforum expect that the follow high - level principle will be follow in develop such a processuls datum may be use as a starting place for datum collection , especially in identify base station that qualify for grandfathere protection under part 96 .",2
"licensee with grandfathere base station register in the uls as of april 17,2015 , and otherwise compliant with the fcc grandfathere restriction will be entitle to protection .",1
"the party will work together cooperatively to design mechanism for lightweight reporting of device parameter i.e. , base station and cpe .",2
"we expect that this collect datum will largely track the requirement for cbsd datum reporting set forth in section 96.39 , 96.43 and 96.45 of the commissions rule .",0
"reporting requirement will encompass some of the datum require during registration in uls , but will also include additional datum .",0
"in particular , licensee will specify whether transmitter be base station or cpe .",0
"for each cpe , licensee will indicate the base station to which the cpe connect .",0
"in some situation e.g. cbsd operate between a base station and cpe with the antenna orient towards the cpe , a cpe may be vulnerable to interference even if the base station be not .",-2
"in such case , a sas will protect vulnerable cpe .",0
"since we expect transition to part 96 to require sas registration of most cpe eventually , licensee may seek registration of cpe through the multi - stakeholder process , rather than uls , and may seek protection of cpe be serve by a qualified grandfathere base station .",2
the final state of 3650 - 3700 mhz registration with the sas at the end of the grandfathering period will be identical to that require by continue authorization under part 96 full registration of all cbsd - qualifying equipment with sas.alternative arrangement .,0
"3650 - 3700 mhz licensee may establish weak protection level with respect to cbsd neighbor as long as those arrangement be communicate to the sas , and the sass must share such information with other sass .",1
change to parameter .,0
change to operational parameter must be promptly report to the third - party database .,1
grandfathered part 90 licensee should be require to report facility take out of service at the same time as report to the fcc pursuant to 90.1307 .,0
"during the transition period , grandfathere operator will not be permit to add new base station entitle to grandfathere protection to their registration but will be permit to modify the technical parameter of exist facility to accurately reflect operation .",2
"of course , new base station may be register as allow for by part 90 and part 96 , but they will not be entitle to grandfathere protection .",1
protection level .,1
"the protection level the sas should enforce be for the received signal interference level at the device itself , and thus must take into account the antennacharacteristic know by the sas .",0
this protection level should be an aggregate protection of -95 dbmmhz .,2
sas data exchange .,0
all sass must exchange with other sas any and all parameter datum they gather regard grandfathered device which inform the interference protection,1
"summarybased on the work of its multi - stakeholder task group , the wireless innovation forum believe that the foregoing method for protection of grandfathere part 90 system in the 3650 - 3700 mhz band be superior to the two - pronged approach propose in the notice .",4
"it will provide protection for base station which be not explicitly consider in the notice , while not block area and boundary that do not require protection .",2
it have the additional benefit of smooth the assimilation of part 90 operation into the part 96 framework .,2
