text,score
exelon corporation hereby respond to the commissions request for commentsregarde the method for determine the protect contour for grandfathered 3650 - 3700 mhz band licensee .,1
"as detailed herein , exelon request the commission revise its propose wireless protection zone methodology to fully protect fix system that be in the process of be deploy .",2
"backgroundexelon be a fortune 150 company that work in every stage of the energy businesspower generation , competitive energy sale , transmission , and delivery .",3
"exelon generation be one of the large competitive united states power generator , with approximately 32,000 megawatt of own capacity comprise one of the nation 's clean , low - cost power generation fleet .",2
"constellation provide energy product and service to more than 2 million residential , public sector and business customer , include more than two - third of the fortune 100 .",1
"exelon 's three utility deliver electricity and natural gas to more than 7.8 million customer in central maryland bge , northern illinois",0
"comed and southeastern pennsylvania peco.exelon currently have an extensive number of 3.65 ghz base station and cpe deployedin the baltimore , philadelphia , and chicago region support critical electric and gascommunication such as distribution automation da , advanced metering infrastructureami , supervisory control and data acquisition scada and telemetry .",1
"the system allrequire a reliable communication medium to allow the electric and gas grid to be monitor , control and support .",2
"in addition to deploy unit , exelon be in the process of further build out its 3.65 ghznetworks and have make a multimillion dollar investment to support future application at itsbge , comed , and peco electric and gas utility .",1
"in addition to da , ami , scada , andtelemetry , such application include the replacement of analog lease line currently provide bycarrier such as att and verizon .",0
the carrier have announce the sun set of analog leaseline which play a major role in today electric and gas utility communication .,0
the commission should modify its methodology for determine the grandfathered wireless protection zonesthe commissions public notice request comment on the propose methodology forwireless protection zones for grandfathere 3.65 ghz band station .,2
"the public notice state , in part , the second prong of the approach will provide protection to each base station register cpe .",1
"protect sector around each base station will be define base on the distance from the base station to the furth cpe unit register in uls and the base station antenna parameter e.g. , azimuth and beamwidth register in uls .",1
"all station that operate above the mobile power limit be require to be register in uls and , therefore sector - base protection zone will only be use in area where licensee have register cpe unit .",0
a diagram in appendix c show a graphic representation of this methodology .,0
we seek comment on this two - pronged approach .,0
the commissions second prong approach to determine the wireless protection zone for 3.65 ghz base station and register cpe would be very damaging to exelon utility .,0
exelon have heavily invest and build out 75 site in the 3.65 ghz band total 334 base station radio which support 475 cpe unit .,1
"the 475 cpe unit will provide backhaul communication for more than 25,500 da device and 1.6 million ami meter .",0
the number of device be backhaule by exelon,0
3.65 ghz network will continue to increase as more device be add to the smart grid .,1
limit the protection zone to area in which cpe currently be register would be a disservice to grandfathere licensee that use the 3.65 ghz band for fix communication .,-1
in most case utility be instal fix cpe unit on 80 - 100 foot pole .,0
"exelon have already make investment in pole and associate 3.65 ghz radio equipment to install cpe unit , many of which will not be construct by april 17 , 2016 .",0
"under the commissions propose methodology , although those cpe unit would be communicate with a grandfathere base station , they would not necessarily receive protection from cbrs user .",1
"the commissions current proposal do not take into account cpe unit that have already be plan , but not build - out , or future cpe unit that will be communicate with grandfathere base station .",0
"this be contrary to the commissions rule for other radio service , many of which allow up to 10 year to fully construct a system .",0
"also , the commission generally allow licensee the option to request extended implementation plan or extension of construction period .",0
"in fact , in this instance the commission effectively grant mobile 3.65 ghz band user the ability to grow their system within a 4.4 km protection zone , which itbelieve be the maximum range of mobile 3.65 ghz band device .",2
"on the other hand , licensee such as exelon that have opt to use the 3.65 ghz band for fix communication be not grant access to their maximum range of operation , but be limit base on the location of cpe that be register by april 17 , 2015 and deploy by april 17 , 2016.exelon believe the commissions wireless protection zone methodology should be base station - centric and should provide protection to any cpe that be associate with a grandfathere base station capable of provide the require rssi and cinr to support the application that it be carry .",3
"exelon currently have cpe location that be a distance of 16 - 24 km away from the grandfathere base station that be provide connectivity i.e. , serve base station .",0
"thus , the commission should grant exelon a protection zone of up to 24 km from each grandfathere base station , regardless of the location of cpe that be currently deploy .",1
"this method will not penalize grandfathere 3.65 ghz base station licensee that have plan cpe location in a particular sector of a grandfathere base station , but do not expect to deploy those cpe until after april 17 , 2016 .",-1
"at the same time , it will allow grandfathered base station licensee to continue to build out their network , provide protection for their investment , and , in exelon case , continue to support effective and reliable critical infrastructure communication .",3
the commission should make certain other changes and clarifications to its proposalthere be two other issue with the commissions proposal that that be of particular concern to exelon .,-2
update to technical parameters of grandfathered stationsthe commission ask that the frequency be use by the 3.65 ghz base station andcpes be add to the database .,0
"however , the public notice contain no discussion of how a 3.65ghz base station licensee would change the frequency or the channel bandwidth of the grandfathered base station .",0
change frequency and channel bandwidth be option that many licensee use to mitigate potential interference or increase data rate require by a particular service .,-1
"the sas should allow licensee the ability to change the operating parameter i.e. frequency , channel bandwidths antenna , etc .",0
of grandfathere 3.65 ghz base station while maintain grandfathered status .,0
this could be do either by access the sas database and enter the parameter manually or by have the 3.65 ghz base station communicate the parameter directly to the new sas database .,0
cpe serve by multiple base stationsthe commission,0
ask that licensee list the frequency of the serve grandfather basestation .,0
how will the situation be handle when there be a secondary grandfathere base station that server a cpe,0
what kind of reporting be need if the cpe fail over to the secondary grandfathere base station should all grandfathere base station that be capable of serve a cpe,0
be list the fcc database and,0
the new sas should allow for a cpe to be serve by multiple 3.65 ghz grandfathere base station .,0
this would allow the protection for both the primary and secondary 3.65 ghz grandfathere base station to the cpe.iv .,1
conclusionexelon urge the commission to modify its propose wireless protections zonesmethodology for grandfathere 3.65 ghz band consistent with these comment .,1
