text,score
"qualcomm incorporated qualcomm hereby comment on the petitions for reconsideration file in the above - caption proceeding to support certain request make in ctias petition for reconsideration and to address related concern raise in the satellite industry association sia petition for reconsideration , as discuss below .",0
introduction summaryqualcomm support the ctia petitions request to modify the 3.5 ghz emission and interference limit regulation in new rule section 96.41e .,-1
see 47 c.f.r. 96.41e .,0
"first , the commission need to allow emission measurement to be make use an rms i.e. , root mean square detector and permit average power measurement , as ctia request .",0
this modification be fully consistent with many other licensed and unlicensed operation cover by fcc rule thathave be in place for decade .,0
"without it , mobile deployment will be force to operate with substantially less power , which impact system performance .",0
"second , qualcomm support the ctia request to relax the out - of - band emission oobe limit on 3.5 ghz cbsds and end user devices that would force lte channel use signal bandwidth great than 10 mhz to engage in power backoff .",1
the adopted oobe limit will have a detrimental impact on the utility of the band by require mobile device use 20 mhz and large lte channel to implement 3 db and great additional - maximum power reduction a - mpr in order to comply .,-1
require the transmit power level for20 mhz lte operation to be cut in half,0
will significantly diminish signal coverage and overall utility of the band .,0
the fcc should grant the ctia petition on this issue and revise the 3.5 ghz band emission limit as detailed herein to appropriately support channel wide than 10 mhz .,-1
"third , qualcomm support ctias request to relax the additional protection level requirement limit emission below 3530 mhz and above 3720 mhz to be below-40 dbmmhz , which be need to support 20 mhz and 40 mhz - wide lte channel just inside the 3550 - 3700 mhz band .",2
sia request to move the -40 dbmmhz protection level inside the 3.5 ghz band should be reject .,0
"qualcomm encourage the fcc to promptly address each of these issue , as well as those raise in other petitions and in the fnprm , so this band can be put to use to address the loom spectrum crunch without delay .",1
discussionthe fcc must allow measurement use an rms detector and should adjust the 3.5 ghz emission limit to support lte channel great than 10 mhz3.5 ghz emission need to be measure with an rms detectorqualcomm strongly support ctias request to allow emission measurement to bemade use an rms detector .,2
the 3.5 ghz report order require emission measurementsto be perform with peak detector in maximum hold .,0
"virtually all license mobile andunlicense operation cover by the commissions rule , however , allow for average powermeasurement and use of an rms i.e. , root mean square detector .",0
this same approachshould be apply to the 3.5 ghz band .,0
"the decision to impose a peak detector requirement , which be make without any discussion in the 3.5 ghz report order , will require all form oflte and other technology to operate with substantially low transmit power level , whichnegatively impact signal coverage and system performance .",-1
"in fact , the peak - to - average ratio for emission from lte signal can easily exceed10 db , which mean that the measurement requirement impose in the 3.5 ghz report ordercould force 3.5 ghz equipment to operate with at least 10 db less power .",-1
this would effectivelycripple the band ability to support mobile broadband operation .,1
"accordingly , qualcomm respectfully request that the fcc grant ctias request and make this change to rule section 96.41e3iv emaximum eirp and emission power measurement shall be perform with a peak detector in maximum hold .",1
over any interval of continuous transmission use instrumentation calibrate in term of an rms - equivalent voltage .,0
this change be critically important to ensure the success of 3.5 ghz band mobile operation .,2
"the emissions limits in the 3.5 ghz report order , which be design to support 10 mhz lte channels , would forcewider channel lte operations to use substantially less transmit powerqualcomm also support the ctia petition for reconsideration of the emission limit in rule section 96.41e12.the emission limit that apply outside of the channel of operation be design around support 10 mhz - wide lte channel , and thus would force 20 mhz lte and 40 mhz lte operation to use substantially low transmit power than the level 10 mhz lte operation be permit to use and therefore should be revise .",0
"specifically , the authorize emission limit that apply outside the channel of operation will require mobile device operate with 20 mhz lte channel to implement 3 db a - mpr and force 40 mhz channelization to implement even great a - mpr .",0
"such substantial amount of power backoff , i.e. , reduce transmit power by half for 20 mhz lte and by even more for40 mhz lte , will create coverage challenge and limit the band ability to support wide bandwidth lte operation with great throughput and an improve mobile user experience .",2
this problem apply throughout the entire 3.5 ghz band and impact both pal and gaa operation .,-1
"thus , it be imperative that the fcc grant the requested relief .",1
"qualcomm proposes revise text to support wider - bandwidth lte channelsin order to enable 20 mhz lte and 40 mhz lte mobile broadband operation at thesame transmit power level at which 10 mhz lte operation be permit , the fcc shouldrevise rule section 96.41e1 to provide 20 mhz lte operation with an additional 10 mhzon both side of the operate channel edge",1
"i.e. , 20 mhz total to achieve the -25 dbmmhzlimit and provide 40 mhz lte operation an additional 30 mhz on both side of the transmitchannel edge",0
"i.e. , 40 mhz total to achieve the -25 dbmmhz limit .",-1
"the -13 dbmmhz limit , which the fcc initially propose to apply throughout the band , would apply from the channeledge up until the point where the -25 dbmmhz limit begin , and protect adjacent channeloperation within that portion of the band to the same -13 dbmmhz emission level that hasworke well in other mobile band , as the fcc acknowledge in the 3.5 ghz report order .",0
suggest revision to rule section 96.41e to implement this change,0
appear below3.5 ghz emissions and interference limitsgeneral protection level .,0
"except as otherwise specify below , for channel and frequency assignment make by the sas to cbsds , the power of any emission outside the fundamental emission whether in or outside of the authorize band for a 10 mhz operate channel shall not exceed -13 dbmmhz within 0 - 10 megahertz above the upper sas - assign channel edge and within 0 - 10 megahertz below the low sas - assign channel edge .",1
"at all frequency great than 10 megahertz above the upper sas assign channel edge and less than 10 mhz below the low sas assign channel edge for a 10 mhz operate channel , the power of any emission shall not exceed -25 dbmmhz .",2
"for a 20 mhz operate channel , the power of any emission outside the fundamental emission whether in or outside of the authorize band shall not exceed -13 dbmmhz within 0 - 20 mhz above the upper sas - assign channel edge and within 0 - 20 mhz below the low sas - assign channel edge at all frequency great than 20 mhz above the upper sas assign channel edge and less than 20 mhz below the low sas assign channel edge , the power of any emission shall not exceed -25 dbmmhz .",3
"for a 40 mhz operate channel , the power of anyemission outside the fundamental emission whether in or outside of the authorize band shall not exceed -13 dbmmhz within 0 - 40 mhz above the upper sas - assign channel edge and within 0 - 40 mhz below the low sas - assign channel edge at all frequency great than 40 mhz above the upper sas assign channel edge and less than 40 mhz below the low sas assign channel edge , the power of any emission shall not exceed -25 dbmmhz .",3
"for operate channel between 10 mhz and 20 mhz and between 20 mhz and 40 mhz , linear interpolation may be use to determine the point of transition from -13 dbmmhz to -25 dbmmhz .",0
"the upper and low sas assign channel edge be the upper and low limit of any channel assign to a cbsd by an sas , or in the case of multiple contiguous channel , the upper and lower limit of the combine contiguous channel .",-2
these propose revision recognize that wide bandwidth transmission channel require a wide roll - off bandwidth and be design to allow the emission mask to scale with bandwidth .,0
qualcomm recommend that the spectrum emission mask be scale to the channel bandwidth consistent with the manner in which the mask be define in 3gpp specification .,2
"the -40 dbmmhz protection level be not need below 3550 mhzin addition to the emission limit discuss above that unduly constrain lte operation in channel size great than 10 mhz operate anywhere within the 3.5 ghz band , the fcc adopt additional protection level that apply outside the band edge .",2
"in particular , the commission adopt a very stringent -40 dbmmhz emission limit below 3530 mhz and above 3720 mhz just 20 mhz off of the low and upper edge of the 3550 - 3700 mhz band .",-2
see 47 c.f.r. 96.41e2 .,0
this requirement will force 20 mhz and 40 mhz lte operation bothpal and gaa just inside the 3.5 ghz band to implement a - mpr even if the reliefdiscusse above in section i.b be adopt and significantly impact the usefulness of the band .,0
impose such a stringent level just 20 mhz off of the low band edge,-2
be not need toprotect service in the band below the 3550 mhz band edge .,0
when it consider impose thisadditional -40 dbmmhz protection level,0
"20 mhz outside the edge of the 3.5 ghz band , thefcc focus on the c - band earth station receiver that operate above 3702 mhz , just outside theupper edge of the 3.5 ghz band .",0
"with regard to the low edge of the band , the-13 and-25 dbmmhz emission level address above will protect government radar system and thelimite private land mobile operation below 3550 mhz .",2
"indeed , the commission determinedin the 3.5 ghz report order that these emission level would adequately protect federalradar operation adjacent to mobile operation when they be both inside the shared band .",1
"accordingly , there be no technical need to require additional protection outside the low edge ofthe band , and qualcomm agree with ctia that the fcc should remove the -40 dbmmhzadditional protection requirement impose below 3530 mhz .",1
"the fcc should not impose a -40 dbmmhz emission level inside the upper portion of the 3.5 ghz band , as sia requestswhile there be no technical need to provide additional protection of -40 dbmmhz below the low band edge , as explain above , qualcomm recognize the concern raise in the sia petition for reconsideration relate to the need to protect c - band earth station receiver operate above 3702 mhz .",0
"sias petition , however , seek to overturn the commissionsdecision to expand the 3.5 ghz band to include the 3650 - 3700 mhz portion , as explain below .",-1
"the sia request be completely unnecessary , the 3.5 ghz report order note that c - band earth station receiver operate between 3700 and 3720 mhz currently withstand out - of - band emission at the -13 dbmmhz level , presumably without any adverse effect .",-2
"indeed , the -13 dbmmhz level that work well in many low sub-3 ghz frequency band that support commercial mobile broadband operation also can protect satellite operation above 3700 mhz where signal propagation loss be great .",4
"sia nonetheless ask the commission to impose the -40 dbmmhz additional protection requirement at 3680 mhz , which be well inside the 3550 - 3700 mhz band and would prevent any mobile operation from be deploy within the upper portion of the band .",1
sia believe that such a requirement be need to protect c - band earth station receiver above 3702 mhz .,1
sia also claim that the fcc violate the law by set the -40 dbmmhz emission level at 3720 mhz because that requirement be not formally propose in the nprm that precede the3.5 ghz report order .,-1
sias petition seek reconsideration of this issue fail for several reason .,-2
"first , the possible extension of the 3.5 ghz band to include the 3650 - 3700 mhz portion of the band be under consideration by the commission since the very beginning of this proceeding , so sias claim that the oobe rule , which govern emission outside the upper edge of the band , be adopt without proper notice be misplace .",1
"second , as note above , the fccs part 90 rule currently permit emission at the - 13 dbmmhz level above 3700 mhz .",0
"as qualcomm explain in its comment on the fnprm , before the fcc consider implement much more stringent emission limit , it should verify that satellite receiver blocking be not the actual limit factor , in which case more stringent oobe limit will not help and would impose an unnecessary regulatory burden .",-8
"third , sias loss calculation assume all bad case parameter despite the fact that they will not all be present in the overwhelming majority of case .",-3
"for example , sia assume that cbsds and end user devices be transmit at maximum power , but the fcc rule require all 3.5 ghz equipment to implement transmit power control and limit operate power to the minimum necessary to support successful communication .",1
see 47 c.f.r. 96.41c .,0
"sia also assume that c - band earth station receiver be operate at very low elevation angle when only those receiver locate in the northernmost region of the u.s. , e.g. , alaska , will operate use such low angle .",0
"in addition , small cell locate indoor will present much less interference potential to satellite operation .",-1
"in sum , there be no question that any harmful interference to c - band operation can be avoid through use of low transmit power , low antenna gain , and low height by nearby 3.5 ghz mobile equipment and the use of accurate information on the c - band earth station receiver operating parameter .",0
"indeed , it will be critically important to maintain an accurate database of c - band satellite receiver and their specific operating parameter , so the 3.5 ghz sas can determine the appropriate operating level for nearby 3.5 ghz cbsds and end user devices to avoid cause harmful interference to c - band operation .",1
"accordingly , there be no sound technical or legal basis for the fcc to reconsider the additional protection level it impose above 3720 mhz along the line request by sia .",0
the commission can and should explore relax this protection level along the line request by ctia for the reason detail above and in ctias filing .,1
"conclusionqualcomm have do extensive work on small cell technology and spectrum sharing with incumbent federal user in the 3.5 ghz band , and we be eager to put this new spectrum band to use .",2
"we again applaud the commissions sound decision in the 3.5 ghz report order to implement flexible , technology neutral rule in this new band consistent with the fcc longstanding policy promote technological neutrality and competition in emerge band to permit lte unlicensed technology within this band and encourage the fcc to promptly address the issue raise in the fnprm and petitions for reconsideration , so that this important band can provide mobile service to consumer in the most timely manner .",5
