text,score
"the open technology institute at new america oti and public knowledge pk be pleased to submit these comment in response to the second further notice of propose rulemaking fnprm adopt by the federal communications commission commission on april 17 , 2015.introduction and summaryoti and pk greatly appreciate the commissions innovative and persistent effort over the past two year to create a new citizens broadband radio service that both unlock the tremendous potential of underutilize spectrum in the 3.5 ghz band and create a three - tier framework for open additional underutilize band for dynamic sharing on both a licensed and unlicensed basis .",3
"in these comment we address two of the three distinct issue raise in the second fnprm first , how the commission should determine whether a priority access license pal be actually in use for the purpose of implement the use - it - or - share",-1
- it rule for opportunistic general authorized access gaa to pal spectrum that be not in use .,-1
"andsecond , how to ensure that fixed satellite service fss site be protect from harmful interference while leverage the capability of the spectrum access system sas to maximize secondary use of spectrum near fss site .",1
"with respect to the determination of when pal spectrum be in use , as the fnprm acknowledge , oti and pk have previously address this issue at length in comment and reply comment file on behalf of the broad public interest spectrum coalition pisc in the proceeding lead to adoption of the report and order .",1
we fully agree with the commissions find that permit opportunistic access to unused priority access channel would maximize the flexibility and utility of the 3.5 ghz band for the wide range of potential user and ensure that the band will be in consistent and productive use .,2
the commission should authorize opportunistic access to unused pal spectrum by define actual use along two dimension geography and time .,-1
the commission have the opportunity to leverage the capability of the sas use information report to the sas under the rule already adopt to dynamically determine where and when the licensed spectrum be in actual use .,2
"pal holder be require to report the basic operational characteristic of each and every citizens broadband radio service device cbsd to the sas at the time the cbsd be register , and to immediately update the sas if any parameter change , in order to protect federal and other incumbent , for channel assignment , and other purpose .",1
"similarly , the cbsds regularly contact the sas and provide or could provide basic information on whether they be currently or recently actively transmit .",0
"the commission should take advantage of the capability of the sas and require that the pal protection area where and active usage when be each consistently and objectively determine on a dynamic basis by the sas.allowing the sas to calculate the protection area be consistent , objective and also impose no add reporting burden on pal operator .",5
"the location and basic operational characteristic of each and every cbsd need to make to make the calculation e.g. , accurate geolocation , conduct power level , height above average terrain , antenna type be already require to be report to the sas as part of the cbsd registration process and update if there be any change e.g. , in location or eirp.with respect to protect incumbent fss site from harmful interference , oti and pk urge the commission to authorize the sas to customize protection zone for each fss site base on real - world condition , such as terrain , cbsd operate parameter and earth station point angle , rather than rely on any sort of generic exclusion zone or protection criterion base on worst - cast assumption .",1
"oti and pk suggest the commission further leverage the capability of the sas to monitor and calculate the aggregate level of interference to fss site on a dynamic basis , rather than define exclusion zone base on bad - case assumption about the density of simultaneous pal and gaa transmission .",0
"the commission should adopt an engineering definition of actual use and require the spectrum access system to calculate protection areas consistently based on the operational specification of each registered cbsdsince the report and orders state goal in adopt a use - it - or - share - it rule be to ensure that the band will be in consistent and productive use , the commission should authorize opportunistic access to unused pal spectrum by define actual use along two dimension geography and time .",3
the commission have the opportunity to leverage the capability of the sas use information report under the rule to the sas to dynamically determine where andwhen the licensed spectrum be in actual use .,2
"pal holder be already require to report the basic operational characteristic of each and every cbsd to the sas at the time the cbsd be register and to immediately update that information if it change in order to protect federal and other incumbent , for channel assignment , and other purpose .",1
"similarly , the cbsds regularly contact the sas and provide or could provide basic information on whether they be currently or recently actively transmit .",0
oti and pk strongly believe that the public interest be well serve if the commission take advantage of the capability of the sas and require that the pal protection area where and active usage when be each consistently and objectively determine on a dynamic basis by the sas.allowing the sas to manage gaa use of partial license area be particularly important because the commission decide to adopt pal area that be as large as census tract .,7
"if a pal be intend for a particular office park , cluster of building , or even a small neighborhood or town in a large census tract",0
"some cover hundred of square mile or more , much of the bandwidth on that 10 mhz channel could be waste if the sas be not authorize to allow at least gaa use in a manner that will not impose harmful interference on the licensed operation .",-4
"where oti and pk support an engineering definition of actual use that , as the report and order put it , effectively leverag[es ] the sas to define a boundary that would forbid gaa access near priority access cbsds .",1
"the commission can best promote consistency , accountability and spectrum efficiency by require that the neutral sas administrator certify by the agency make this calculation by apply a standardized algorithm to the geolocation and basic operational",1
the sas will have all the basic information it need to protect a cbsd when it be put into actual service and be actually in use .,1
"the report and order require[s ] that as part of registration , the cbsd should provide the sas with a number of operational parameter , include geographic location , antenna height above ground level meter , cbsd operational category category acategory b , requested authorization status , unique fcc identification number , user contact information , air interface technology , unique serial number , and additional information on its deployment profile e.g. , indooroutdoor operation .",0
"the rule adopt in the report and order require additional technical specification at registration for category b cbsds , include antenna gain , antenna beam width , antenna azimuth for sector site , and antenna height above ground level .",1
"the report and order further provide that [ i]f any of the required registration information change , the cbsd shall update the sas within 60 second of such change .",0
"in addition , recognize that accurate reporting of cbsd operational characteristic be critical , the report and order require that [ a]ll information provide by the cbsd to the sas must be true , complete , correct , and make in good faith , and failure to provide such information will void the user authority to operate the cbsd.requiring the sas to use this verified registration datum and any update to generate the protection area ensure consistency and accountability , since the commission will have easy access to the underlying datum report for each cbsd .",4
"this approach also avoid impose any add burden on pal holder , who would otherwise need to calculate and report protection area to the sas an add burden that could easily result in inconsistent , unreliable or out - of - date polygon enforce by the sas , depend on the verification and enforcement measuresadopte by the commission .",-4
"even if some additional technical specification be need to make the sas calculation more accurate , by the time a pal operator have register the cbsd and be ready to commence commercial service , it will obviously have the require information readily at hand as part of the process of prepare link budget , deploy base station and conduct site activation and commissioning test prior to commence commercial service .",3
when priority access licensee should always have exclusive access to a 10 megahertz channel of spectrum when and where they will actually use it .,0
"as carrier have observe , this actual use could occur prior to the commencement of actual commercial operation .",0
"for example , a pal holder will typically conduct pre - operational testing , or may decide in certain location to use the spectrum for a purpose that do not operate 247 e.g. , for point - to - point backhaul during business hour , or for network offload during peak hour .",0
in all of these situation and many other we can not foresee the pal spectrum normally use by a deployed and register cbsd may not be in actual use for substantial period of time .,0
if the sas can determine those fallow time period and manage opportunistic gaa use on a temporary basis the commissions goal of more intensive and widely available use of the band will be advance .,0
"oti and pk therefore recommend that in addition to define actual use on a geographic basis , the commission should leverage the plan capability of the sas to also define actual use in temporal term .",3
"as the fnprm note , the wireless internet service providers association wispa have already propose an apparently workable way to do this that impose no costly burden or risk on pal operator .",-3
wispa propose that any cbsd that have not receive 300 end - user packet within each five - minute interval would be deem by the sasto not in use .,0
"a wispa technical paper state that the sas can differentiate between [ cbsds ] that be handle actual , real - world customer traffic and [ cbsds ] that be simply idle and not serve real , end - user need .",-1
"since the cbsd be require to be in contact with the sas on a regular basis either directly , or through a network proxy that aggregate cbsd information for the sas , an objective temporal dimension to the commissions definition of actual use seem feasible and would impose no extra burden on pal operator .",-1
"in addition to incorporate the time dimension in the definition of actual use , oti and pk believe that each individual pal operator should have the responsibility to affirmatively notify the sas through a simple online web portal , presumably when its actual operation initially need to preclude opportunistic gaa use of bandwidth in a specify area .",-1
the commission should allow pa licensee to notify the sas in advance that they will need to occupy the channel for testing or other purpose on a particular date or range of date .,0
"in this respect , it be imperative that the commission clearly define actual use so that pal holder be not able to use pre - deployment testing , or any other temporary use , to permanently foreclose opportunistic and non - harmful gaa access to unused spectrum .",0
"moreover , the commission should not require pal holder to provide the sas with notification that they have commence actual service , since its possible certain pa licensee will decide not to deny access to gaa use which , in geographically cabin area , may be primarily device control by affiliate user employee , client , etc ..",-1
our group suggest that the rule should simply require that the sas authorize gaa use of any unused palspectrum until one of the sas administrator receive a notification from the licensee a process that should be make easy through an online portal .,1
"economic definition of use oti and pk believe that , on balance , the economic approach to define actual use be not in the public interest .",0
"the proposal by mit economist william lehr , summarize in the second fnprm , amount to a blank check for warehousing spectrum , contrary to the commissions state goal of facilitate intensive use by the wide range of potential user .",1
"it be also completely unnecessary , since the propose rule establish out - of - band emission limit sufficient to protect neighbor pal .",0
maintain fallow pal spectrum as a guard band inside a pal area be also unnecessary under the rule adopt in the report and order .,-1
"the sas be already require to authorize request gaa operation on unused spectrum in a pal area only to the extent this would not cause harmful interference with actual pal operation , as discuss just above .",-2
"more generally , give pal holder the option to pay to keep spectrum fallow be directly contradictory to the animate spirit of the three - tier , citizens broadband radio service framework , which be the admonition in the 2012 report of the presidents council of advisors on science and technology pcast that [ t]he essential element of this new federal spectrum architecture be that the norm for spectrum use should be share , not exclusivity .",-2
"although most exclusive - use mobile spectrum be intensively use , create a precedent that payment for non - use trump actual use of this public resource by the general public be not a public policy shift that oti and pk can support .",2
"oti and pk acknowledge that the lehr proposal have one very attractive feature , which be that a 5050 split between initial auction payment and an option strike price could encourage pa licensee to initially see if they can operate effectivity without exclude gaa user from share their license spectrum .",0
its entirely possible that firm will acquire pals as a sort of insurance policy against the possibility that gaa spectrum will not deliver the quality of service they need for their business model .,0
"they may find that in practice , gaa spectrum work well enough , without the add expense of purchase a license .",3
"since the sas will be coordinate user to minimize interference and the band presumably will not be congest in most place , at least not initially the incentive not to trigger exclusivity by pay the strike price be a positive one .",-1
"nevertheless , oti and pk continue to believe that on balance an engineering definition of use that reflect both geographic and temporal dimension and be determine and enforce objectively by the sas be the most promising path to open the maximum amount of 3.5 ghz small cell spectrum for opportunistic access by gaa user .",0
"the commission should authorize the sas to customize interference protection zones for fss site based on real - world criteria and a goal of maximize access to fallow spectrum capacitythe commission correctly conclude in the report and order that the 150 km circular protection zone around license fss earth station in the 3650 - 3700 mhz band rely on a one - size - fit - all approach to protect incumbent fss site and result in exclusion zone that be excessively large , overly simplistic , and inefficient give the capability of the sas to predict realistic path loss .",0
"although oti and pk expect that the technical expertise available to the wireless innovation forums multi - stakeholder group process will provide reliable answer tothe implementation question raise in the second fnprm , our group be able to offer a few general principle that we believe should guide the commissions final decision on how well to implement rule that balance the protection of incumbent fss site with the goal of maximize the utilization of citizens broadband radio service spectrum by the american people .",5
"first , oti and pk urge the commission to authorize the sas to customize protection zone for each fss site base on real - world condition , such as terrain , cbsd operate parameter and earth station point angle , rather than rely on any sort of generic exclusion zone or protection criterion base on worst - cast assumption .",0
"any initial over - protection of fss site , whether for technical or political reason , would be a tremendous waste of spectrum capacity that could threaten the long - term viability of the unique cbrs framework .",-1
"one great advantage of the sas as a fcc - certify and automate enforcement mechanism be that if minimal protection zone generate use real - world condition fail to adequately protect a particular fss site , the sas can implement a fix that will immediately prevent any pal or gaa device from operate in a place or manner that continue to cause harmful interference .",1
"second , oti and pk suggest the commission further leverage the capability of the sas to monitor and calculate the aggregate level of interference to fss site on a dynamic basis , rather than define exclusion zone base on bad - case assumption about the density of simultaneous pal and gaa transmission .",0
incumbent fss operation should be protect from the potential aggregate interference cause by multiple low - power device operate in proximity to their site .,0
"however , this do not mean that the power level , height or other technical parameter of cbsds necessarily need to be constrain so long as the sas be able to monitor and put an appropriate limit on the density of use when aggregate interference reach a harmful threshold .",-2
"finally , oti and pk encourage the commission to establish a baseline propagation model for out - of - band emission , while also allow sas provider and equipment provider incentive to develop more accurate and efficient propagation modeling method .",3
"allow sas provider to differentiate themselves by offer more sophisticated modeling technique would encourage competition among provider to improve their spectrum availability calculation , thereby improve utilization of the band in general .",4
"in addition , oti and pk agree with the commissions observation in the second fnprm that market incentive may .",0
. . encourage industry to deploy radio with improve lower adjacent channel emission and thereby have great access to spectrum .,3
