text,score
wi - fi alliance submit these comment in the above - referenced proceeding in which the commission seek further input on several issue to optimize its recently establish rule for the citizens broadband radio service cbrs in the 3.5 ghz band .,-1
"as wi - fi alliance have previously explain in the proceeding , there be a well - document , grow need for unlicensed spectrum capacity , and the 3.5 ghz band can help satisfy those requirement .",1
"in consider how to define use of priority access license pal frequency , the commission should therefore continue to promote maximum opportunistic access of the 3.5 ghz band by general authorized access gaa device .",-1
"the commission should likewise not apply its secondary market rule , which be contrary to the premise of the 3.5 ghz band share - use architecture , to pal in the band .",0
nor should the commission over - protect satellite licensee in or around the 3.5 ghz band .,1
adopt restriction and exclusion zone beyond what be necessary would compromise the commission effort to create additional capacity for unlicensed operation .,-3
"background and introductionwi - fi alliance be a global , non - profit industry association of more than 600 lead company from dozen of country , include 213 from the united states , who be devoted to a vision of connect everyone and everything , everywhere .",1
"with technology development , market building , and regulatory program , wi - fi alliance have enable widespread adoption of wi - fi worldwide , certifyingthousand of wi - fi product each year .",0
"the wi - fi alliance mission be to provide a highly effective collaboration forum for stakeholder , deliver excellent connectivity experience through interoperability , embrace technology innovation , promote the adoption of wi - fi technology worldwide , advocate for fair worldwide spectrum rule , and to lead , develop , and embrace industry - agree standard .",6
"wi - fi alliance appreciate the commission effort to create additional capacity for unlicensedoperation in the 3.5 ghz band , and applaud the recent adoption of the 3.5 ghz report and order .",2
"in the order , the commission adopt a novel hybrid framework for the 3.5 ghz band that automaticallycoordinate spectrum use base on local supply and demand .",0
"in so do , the commission strike an appropriate balance between maximize the availability of the 3.5 ghz band for gaa operation andpermitte use of the band by pals .",0
this approach will facilitate [ ] evolution of the band and an ever - change mix of gaa and priority access bandwidth over time .,1
"as the commission explore additional issue regard the new cbrs , it should continue to promote opportunistic use of the 3.5 ghz band by gaa device .",-1
"specifically , the commissions understanding of the use of pal spectrum should center on the transmission or reception of radiofrequency energy .",0
the commission must also recognize that adopt any form of secondary market rule for the transfer of pal would be contrary to the share - use concept that characterize the 3.5 ghz band .,0
"finally , the commission should provide the correct amount of protection for and not over - protect satellite licensee in or around the band .",3
commentsuse of pal spectrum should be base on transmission or reception of radiofrequency energywi - fi alliance support employ an engineering - base approach for allow opportunisticaccess to unused pal channel .,1
such an approach would maximiz[e ],0
the flexibility and utility of the3.5 ghz band for the wide range of potential user by permit access base on information provide to the spectrum access system sas by pal regard current use of transmitter or receiver,2
employ the applicable channel assignment .,0
"unless there be a current report that radiofrequency rf energy be be actively transmit or receive on pal channel , those channel should be available for gaa use .",1
"the sas should be permit to terminate gaa use of a pal channel upon notice from the pal , in which case the sas would then re - assign the gaa user to another channel .",0
this engineering - base model be both easy to understand and fair to those share the 3.5 ghz band .,2
pal should not be permit to defeat potential gaa use by reserve channel for guard bandsin which there be no active transmission or reception .,1
to do so would unnecessarily limit the opportunistic use of pal spectrum by gaa user .,-2
"first , the commission have create technical rule thatassume no such guard band be necessary .",0
"second , if pal believe they require protection additional to what the commission have already find appropriate , they should use guard band internal to their 10 megahertz channel block .",2
add yet another layer of protection to pal in the form of unnecessary guard band would undermine what the commission have already conclude regard the level of protection necessary .,1
"finally , the commissions suggest alternative approach of use an economic definition of use be unnecessarily complicate and do not adhere to the commissions goal of sharingspectrum .",0
by view[e ],0
the pal as an option to exclude gaa usage and provide pal licensee .,0
"right to exclude gaa access , the commission would not be foster the sharing envision by the presidents council of advisors on science and technology pcast in its july 2012recommendation .",1
"b. the secondary market rule should not apply to pal usebecause a primary purpose of the commissions new regulatory framework for the 3.5 ghz bandis to foster share use between pal and gaa use , allow licensee to divert potential gaa use tolessee through secondary market be contrary to the public interest .",0
"intend to promote limited spectrum right , the pal rule specify short license term , non - renewal of the license , and other characteristic to meet specific not general licensee need .",0
it would be contrary to those goal for pal to allow other to use the spectrum except through the sas process .,0
the secondary market rule promote use of spectrum when the licensee be not employ its authorize frequency .,0
"however , in the 3.5 ghz band , the sas perform precisely that role , take the place of secondary market rule while eliminate both transaction cost and time .",1
"as the commission have explain at length , the sas will serve [ ] as an advanced , highly automate frequency coordinator across the band .",1
it protect high tier user .,1
. and optimize frequency use to allow maximum capacity and coexistence for both gaa andpriority access user .,0
"accordingly , secondary market rule for 3.5 ghz pal holder would be redundant .",-1
"the commission should not over - protect fss operationsas an initial matter , the commission should clarify exactly which fix satellite service fssearth station be to be protect under the cbsd rule .",2
there be discrepancy between different source of commission information .,0
"specifically , when the commission adopt service rule in 2005 make the 3650 - 3700 mhz band available for terrestrial operation , it provide a list of protect fssstation and a link to that list remain on the commissions website .",2
"however , the list of protectedearth station below 3700 mhz reference in the report and order include fss station",0
"e.g. , certain earth station in connecticut and long island that be not grandfathere in 2005 and should not be grandfathere after - the - fact .",0
"wi - fi alliance support the commission conclusion , draw on the national telecommunications and information administration ntias recommendation ,",2
that exclusion zoneswere too large and unnecessarily uniform .,-1
the commissions rule should similarly provide only those protection realistically require for fss operation .,1
"the level of protection need for fss station will depend on , among other thing , terrain characteristic and the operational parameter of the fss station and the potentially impactful 3.5 ghz station .",1
sass should be permit to calculate exclusion zone base on those operational parameter .,-1
such an approach would be consistent with the sassgeneral function optimize frequency use to unlock the 3.5 ghz band maximum potential .,1
"finally , the rule may unnecessarily limit 3.5 ghz band use by require the protection of non - existent earth station in the 3700 - 4200 mhz band .",0
wi - fi alliance expect that many of these c band earth station licensee neglect to affirmatively notify the commission when their operation cease and their authorization should be terminate .,-1
this practice result in many more earth station authorization than there be station that require protection .,1
the commission should therefore review the c - band license earth station database to ascertain which be still in existence .,0
"conclusionswi - fi alliance applaud the commission for opening up the 3.5 ghz band for a variety of shared use , and for consider further proposal in an effort to maximize the band potential .",2
"because of the ever - increase need for more spectrum for unlicensed operation , it be critical that rule promote the use of gaa device to the maximum extent feasible , without unnecessarily limit access to pal spectrum or protecting satellite user .",-2
