text,score
"att services inc. , on behalf of the subsidiary and affiliate of att inc.",0
collectively att hereby submit the follow comment in response to the commissions second further notice of propose rulemake second fnprm in the above - caption proceeding .,0
"in the second fnprm , the commission seek comment on a few focused issue in establish the citizens broadband radio service cbrs .",-1
"att believe the cbrs , which principally contemplate the deployment of small cell technology in the 3.5 ghz band , have the potential to play an important role in address the ever - increase demand for mobile service .",1
"accordingly , att comment be direct at action the commission can and should take to promote an effective cbrs environment .",1
"first , the commission should define use of priority access license pal in a manner that ensure interference prevention and simplifies administration of the commissions use - it - or - share - it rule .",0
"second , the commission should adopt secondary market policy that provide maximum flexibility to pals and do not stifle a nascent market for spectrum access in this band .",0
"third , and finally , the commissionshould minimize its involvement in the development of coexistence mechanism in the 3.5 ghz band , and instead permit industry multi - stakeholder group to formulate good practice and standard for this band .",1
"the commission definition of use of pal frequency should prioritize simplicity , certainty , and interference prevention.as the commission note in the second fnprm , pal frequency use must be carefullydefine in connection with the commissions use - it - or - share - it rule .",-1
"under the regime adopt by the commission , the spectrum access system sas will automatically make 3.5 ghz spectrum available for low - priority general authorized access gaa use in area where the spectrum have not be license or it have be license",1
but it be not in use .,0
the commission have propose a variety of approach to define use in this context .,1
"as explain further below , att believe the commission should adopt a rule that , once the pal begin to offer service in a census tract , their license spectrum be deem to be in use in that census tract and the sas should therefore preclude gaa use in that census tract for the license frequency .",0
"this approach good balance the need of gaa and pal user , and will promote efficient , interference - free operation in the 3.5 ghz band .",2
"the commission have propose three way to define use in the context of its use - it - or - share - it - rule an engineering definition , an economic definition , and a hybrid definition .",0
the engineering definition generally involve the sas use of priority access device location and technical character to establish a boundary within which no gaa use be permit .,0
"theeconomic definition of use , meanwhile , be premise on the notion that pal licensee would acquire the right to exclude gaa user and would obtain this right upon payment of a certain percentage of the license price .",2
the commission also suggest the possibility of a hybrid definition that would combine the engineering and economic approach .,0
"as the commission note , all three approach have several associate challenge , which include implementation difficulty , enforceability , and potential for abuse .",-2
"att believe that the commission will best achieve its objective by adopt a bright line rule provide that , once a pal begin to offer service in a census tract , the sas will block gaa use in that census tract for the license frequency .",2
att propose rule ensure that potentially interfere gaa device do not operate in close proximity to active pal service .,-1
"by use define geographic area to determine use , this approach will be easy to implement and enforce .",1
"as an add benefit , tie the use - it - or - share - it requirement to actual use by pal licensee on a census tract basis",1
will encourage pal licensee to build and exploit the license they have purchase .,0
"thus , the commission will achieve multiple public interest objective through adoption of this requirement .",0
"att supports flexible secondary market policy for pal spectrum.by encourage a robust secondary market in the 3.5 ghz band , the commission willpromote the public interest by ensure that spectrum be put to its most efficient use .",5
"specifically , the commission should permit partitioning and disaggregation of pal license , as this will enable licensee to most effectively meet their and other spectrum need .",1
"second , att support the development of spectrum exchange that will facilitate a robust secondary market for pal right .",4
"finally , att believe that the commission should not stifle secondary market by adopt premature and unnecessary spectrum attribution and aggregation rule for this band .",-2
"instead , the commission should support the development of a secondary market characterize by low - cost , minimally burdensome transaction .",0
"to best promote efficient spectrum use , the commission should grant pal licensee the flexibility to sell or lease their spectrum right on the secondary market , include via partition andor disaggregation .",4
att support the commissions view that application of our secondary market rule will increase liquidity of the spectrum as well as reduce cost and increase flexibility of use .,3
"however , att believe that the commission can and should best achieve these goal through permit the voluntary partitioning and disaggregation of license .",1
while the commission state its belief that our initial view be to prohibit .,-1
"further segmentation of pal give their relatively small size census tracts and limited duration three year , att note that there be numerous scenario in which permit such partitioning would yield public interest benefit justify any potential regulatory complexity .",0
"in fact , the use of small license area raise the potential for facility that a licensee may desire to serve incrementally to be split among multiple license region a process for allow rationalization of license boundary , therefore , would be in the public interest .",-1
"in addition , a pal may wish to make its spectrum available to an area comprise a very discrete portion of the license areasay a hospital or a university require the partitioning of a license .",1
"indeed , in other band there have be numerous spectrum lease cover extremely small area thathave yield considerable benefit .",1
"specifically , wireless carrier be lease their spectrum tocorrectional facility so that they may employ managed access system that detect contraband cell phone .",0
"because there be cognizable benefit to license partitioning and disaggregation even in very small area and because such arrangement can be readily administer and havebeen administer in other band , there be no reason for the commission to prohibit them .",1
att also believe that voluntary spectrum exchange could facilitate a vibrant anddeep market for pal right .,3
"in particular , a well - design spectrum exchange could provideuniversal , current information regard 3.5 ghz spectrum usage and opportunity for spectrumaccess via the secondary market .",2
"this , in turn , will facilitate spectral efficiency and will helpensure that spectrum flow to its high and good use .",2
"such process would work well , moreover , if the fcc can find a way to reduce transaction cost between lessor and lessee andcreate a mechanism for regulatory approval of such transaction that be very rapid or eveninstant .",4
"functionally , there be no reason why the sas and a spectrum exchange nee be thesame entity , and att submit that sas and exchange function should be capable of disaggregation from each other .",1
"to that end , the commission should not adopt any rulerequiring that the same entity serve as both the sas and a spectrum exchange for secondarymarket transaction or create any artificial barrier to competitive exchange .",1
the commission also seek comment on the application of its spectrum aggregation limit and spectrum attribution standard to the 3.5 ghz band .,-1
"att believe that the imposition of these rule on the 3.5 ghz band be premature and , most likely , unnecessary .",-2
"with respect to spectrum aggregation there be no basis to judge what , if any , aggregation limit should apply to pal license .",0
"the 3.5 ghz spectrum ecosystem be nascent , and no competitive issue have arise that would suggest a need for regulation in this area .",0
"for similar reason , the attribution standard apply in the exist rule to transaction involve wireless license should not apply to pal .",0
"the commission can best promote the growth of 3.5 ghz band service by maintain flexible policy , include a robust secondary market .",3
"as there be no need for spectrum aggregation limit at this time and such rule have the potential to stifle the development of the 3.5 ghz ecosystem , att oppose their application to the 3.5 ghz band .",-3
"the commission can best optimize protection of fixed satellite service by encourage industry collaboration and standard - setting efforts.in the second fnprm , the commission make a variety of technical proposal regardingin - band and out - of - band protection of fix satellite service fss earth station .",5
"industry stakeholder group be currently hard at work formulate good practice and standardization for this band , with an eye toward ensure protection of fss incumbent .",2
"as both a licensee of grandfathere earth station facility and a potential licensee of the 3.5 ghz band , att support these effort and ask the commission to leave it to the industry to formulate good practice and standardization for this band .",2
"att do , however , agree with the commission that each sas administrator should use an agree - upon set of propagation modeling model toensure consistency across the 3.5 ghz ecosystem with respect to interference prevention .",0
this will also promote spectral efficiency and effective coexistence among cbrs device user .,1
att believe that the commission should support the effort of industry group that be work to develop standard and good practice for coexistence in the 3.5 ghz band .,3
"as the commission itself note , a multi - stakeholder group focus on the complex technical issue raise by this proceeding",-2
could provide [ the commission ] with a wealth of valuable insight and useful information .,2
such effort be well underway .,1
"att support the work of industry stakeholder group and urge the commission to continue rely upon such body to provide technical recommendation , as it have do successfully in the past .",4
one of the coexistence issue highlight by the commission in the second fnprm be the selection of appropriate propagation model for sas - base protection of fss incumbent .,1
"on this issue , att agree with the commissions proposal that all sas administrators use an agree upon set of propagation modeling method , use model that can be tune with measurement .",-1
"by use uniform model and method , each sas will produce the same set of result for interference prediction and will therefore enforce the same minimum separation distance to protect incumbent .",0
the provision of a uniform set of propagation model will also simplify sas administration by reduce the frequency with which sas need to communicate with each other .,1
this will also prevent discriminatory and unfair sharing of spectrum among user serve by different sas .,-1
each sas should include a collection of propagation model suitable for the diverse environment and deployment scenario that will be present in the 3.5ghz band .,1
"these propagation model should be vet and validate by an expert internationalbody , and should be use for protection of both fss incumbent and pal license .",1
"by tailoringpropagation model to specific environment , the sas will be able to increase spectrum sharingwhile provide improve protection and reduce the number of interference complaint .",0
att also strongly urge the commission to ensure that an appropriate and effectivemechanism for elimination of actual interference to fss facility exist and can be invokedrapidly by fss licensee .,-1
"as the commission be well aware , there be instance where operationfully consistent with the rule may nonetheless result in the creation of harmful interference toother license user .",0
"in the event that a pal or gaa user be cause interference to agrandfathere fss facility , even if the user be operate in full conformance with the 3.5 ghzrules , the fss licensee can and should have the ability to interact with the sas to determine the source ofand impose operating restriction to eliminatethe harmful interference .",-5
"conclusionwhile the commissions adoption of rule for the cbrs be a significant achievement , asthe commission note there be additional matter require resolution before service can bedeploye in this spectrum .",2
"att support a use - it - or - share - it regime that be simple toadminister , adequately protect pal right , and provide incentive for pal to make full use oftheir spectrum .",3
"att also support flexible , light - touch secondary market rule that promotethe efficient use of spectrum .",3
"finally , att ask the commission to permit stakeholder groupsto continue their effort in develop incumbent protection mechanism , and to ensure theconsistent adoption of propagation model that adequately protect in - band and adjacent - banduse .",2
