text,score
"cantor telecom services , l.p. cantor telecom applaud the commission for seek further comment on the development of a spectrum exchange to further the commissions goal of promote widespread innovation and access to flexible , fungible spectrum in the 3.5 ghz band and encourage efficient use of this valuable resource .",6
"cantor telecom maintain that a spectrum exchange would be the most effective way to facilitate rapid , robust , open market transfer as priority access license need arise , provide significant benefit and efficiency to consumer and the u.s. government , include enhanced price discovery , transparency , and paperwork and cost efficiency , improve access to and significantly increase the liquidity of the spectrum .",8
"as further discuss herein , cantor telecom envision that a spectrum exchange would be complementary to , and interoperable with , one or more spectrum access systems that would compile and publish relevant datum regard use , pricing and availability , among other function .",2
"cantor telecom support partitioning and disaggregation of priority access license , such that use right may be divisible by geography , time and capacity in order to derive maximum value per unit .",2
an engineering definition of use for priority access licenses should be adopt to permit the commission and spectrum exchange participant to determine what spectrum be or could be make available for secondary market transaction .,1
"finally , cantor telecom suggest that the commission adopt a registration or precertification process to screen for licensee eligibility that would allow spectrum exchange participant to participate in rapid , real - time transaction .",1
"cantor telecom services , l.p. cantor telecom hereby submit these comment in response to secondary market issue present in the federal communications commission fcc or commission second further notice of proposed rulemaking establish rule for the citizens broadband radio service cbrs in the 3550 - 3650 mhz 3.5 ghz band and seek additional comment on discrete issue include secondary market structure .",-2
"backgroundcantor telecom be a subsidiary of cantor fitzgerald , l.p. cantor fitzgerald , the hold company for a diversify organization , include financial service such as investment banking and security brokerage , and real estate service and real estate financing operate in the global financial and commercial real estate market , which have be in operation since 1945 .",0
"as one of the last private partnership operate on wall street , cantor fitzgerald have utilize its extensive experience and innovation as a computer - base bond brokerage to become a global premier financial service firm .",2
"cantor fitzgerald and its affiliate have approximately 10,000 employee in 20 country include major financial hub worldwide and cantor fitzgerald act as one of 22 primary dealers to the united states federal reserve .",0
"for decade , cantor fitzgerald have be a market leader in the most efficient and cost - effective trading method , provide expertise in a variety of area , include the equity and fix income capital market , commercial real estate brokerage and finance , prime brokerage , game technology , insurance product and other .",3
cantor fitzgerald and its affiliate conduct more than 150 trillion of notional volume in financial transaction for customer annually .,0
cantor fitzgerald have a long history of leadership in the development and operation of innovative electronic exchange and cantor telecom have participate in a number of rulemake proceeding pertain to spectrum issue .,0
"cantor fitzgeralds electronic trading platform enable participant to transact business online instantaneously and can be rapidly customize with auction and reverse auction capability , inquiry - base function , real - time distribution and transaction capability which can operate on a secure , high - speed private network or over the public internet .",3
cantor fitzgerald have long be at the forefront of electronic exchange innovation and recently divest one such platform facilitate trading in several forward u.s. treasury security market to nasdaq.cantor telecom applaud,3
"the commission for seek further comment on the development of a spectrum exchange , recognize that the secondary market could provide a viable mean of match supply and demand and facilitate a vibrant anddeep market for [ priority access license pal ]",2
"as discuss in its prior filing , cantor telecom envision a spectrum exchange as a tool under the government supervision that can be use to balance resource availability and transparency , while preserve classified information to maximize public utility and government revenue .",0
"cantor be well positioned to offer originally and support aftermarket transaction for 3.5 ghz use right give its experience in maintain a low - friction and pervasive marketplace for u.s. government security as well as one of the world large trading platform for government and corporate security , generally .",2
"cantor telecom agree with the commission that such an exchange could improve the ability of individual licensee to obtain microtargete in geography , time , and bandwidth access to priority spectrum right narrowly tailor to their need on a highly customizable , fluid basis , and urge the commission to ensure that any rule ultimately adopt be sufficiently flexible to accommodate innovative spectrum exchange approach , as further discuss herein .",5
a spectrum exchange would be the most effective method of facilitate voluntary trading of pals.the commission seek additional comment on the potential use of one or morespectrum exchange to facilitate the transfer of pal in the secondary market and any relate change to exist part 1 secondary market rule that should be consider .,3
"atthe outset , cantor telecom commend the commission for adopt ntias revise recommend exclusion zone and two - phase approach to federal incumbent user protection , which will open up a much large portion of the country for cbrs once the spectrum access system sas be approve and commercially viable .",3
"this , in turn , will yield a great supply of pal available for auction and secondary market transaction in potentially valuable market .",3
"cantor telecom believe that a spectrum exchange would be the most efficient and effective way to facilitate rapid , robust , open market transfer as pal need arise but may require further consideration of certain exist secondary market and licensee eligibility rule to enable rapid , real - time transfer .",6
a streamlined spectrum exchange would support the commissions goal of promote efficient and widespread use of the 3.5 ghz band for a variety of potential user .,4
"the adoption and use of a spectrum exchange through which pal user could trade and acquire spectrum base upon their need at any give time would provide significant benefit and efficiency to consumer and the u.s. government usg , include enhanced price discovery , transparency , and paperwork and cost efficiency , improve access to available spectrum and significantly increase the liquidity of the spectrum .",5
an interoperable spectrum exchange with the propose sas would enable a robust secondary market .,1
"in the order second fnprm , the commission outline the require function the sas which will be responsible for coordinate operation among pal , gaa and incumbent access user and for prevent harmful interference to incumbent and pal user to promote a stable spectral environment .",-1
"as spectrum bridge inc. spectrum bridge note , the tv whitespaces database provide one example of a fully functional spectrum management system capable of support a secondary marketplace for spectrum with the demonstrate ability to support n - tier user , spectrum allocation policy , configurability to support various interference model , incumbent protection and pre - emption .",4
"similarly , cantor telecom envision that a spectrum exchange would be complementary to , and interoperable with , one or more sass .",1
"if multiple sas be establish , the sass must be synchronize and will have to communicate with each other and with the spectrum exchange real - time to prevent conflict secondary market transaction .",-1
"as discuss in prior comment , cantor telecom believe that a 3.5 ghz spectrum exchange would best be manage by an independent and disintereste third party who can compile and make available the necessary information to facilitate these diverse use in the most efficient manner .",4
an experienced broker and exchange operator would be able to utilize its expertise to provide an electronic marketplace through which operator can come together to share this limited and valuable resource .,0
"such an exchange could provide the necessary interference prediction to protect operator , and the exchange operator could actively work with user to resolve any claim of interference as well as provide dynamic usage reporting .",2
"moreover , a spectrum exchange would be compatible with geolocation database technology , which would serve as the underlie mechanism to assign frequency and authorize spectrum user to transmit .",1
"cantor telecom urge the commission to solicit detailed proposal from prospective spectrum exchange operator , concurrent with the request for proposal from sas administrator .",0
cantor envision that the select spectrum exchange operator would work with the commission to establish framework regulation for the operation of a spectrum exchange and develop a rulebook and relevant agreement that would apply to exchange participant .,1
"the regulation and rulebook would cover topic such as the participation and qualification of broker , trader , market - maker , clearing member , clearinghouse , margin requirement and procedure , interference review , kill - switch criterion for reversion of spectrum to the usg as need , trading procedure for example whetherhow off - market negotiate trade would be permit , reporting and public dissemination of trade price , eligibility and documentation requirement for the various type of market participant .",-2
certain requirement must be meet in order to obtain maximum value for use right associate with pal available on the spectrum exchange .,2
"first , information regard the commercial utilization of the 3.5 ghz spectrum resource must be publish and could be incorporate into the sas .",1
"second , holder of use right must be able to easily andfreely exchange such right while comply with rule and regulation associate with use right ownership .",3
"as discuss above , use right should be divisible by geography , time and capacity in order to derive maximum value per unit .",1
"once set , each use right must be freely tradable on a liquid , reliable exchange .",2
"if a secondary market have low liquidity , it may discourage market participation , and thus reinforce the market illiquidity , provide a disincentive for holder to use the exchange , or for prospective holder to use it .",-1
"a secondary market with great liquidity may also be useful for private firm to be able to value their spectrum holding , by reference to market price .",2
the commission should therefore adopt policy that create incentive for holder and prospective holder to conduct a trade .,0
"for example , a clearinghouse process would help to assure creditworthiness and reduce the risk of fail trade settlement .",-1
trade could also be require to be conduct on the exchange with reporting of price and other relevant datum to help establish market price .,0
"third , the usg must receive adequate recompense for allow the 3.5 ghz spectrum resource available to non - incumbent user .",2
"spectrum , a finite public resource own and administer by the usg , increasingly drive the united states economy and a virtual innovation economy globally .",1
"just as use right holder must receive fair value for holding they acquire in the aftermarket , the usg must receive value it attain for issue initial spectrum use right to ensure a properly function economy .",3
adoption of an engineering definition of use would be most compatible with a spectrum exchange model .,1
the commission seek comment on the most appropriate definition of pal use to determine if priority access right have not be claim such that the commissionmay permit opportunistic access to the spectrum to promote maximum flexibility and utility of the 3.5 ghz band for the wide range of potential user .,2
cantor telecom maintain that the definition of use should constitute verifiable commercial use and not simply light pal capacity for testing or non - commercial purpose .,1
an engineering definition of use which effectively leverage the sas to define a boundary that would forbid gaa access near priority access cbsds would be most compatible with cantor envision spectrum exchange and could encourage additional secondary market participation .,3
"give that pal user will retain their use right for their entire license area for the entire license term , if use datum be populate into the spectrum exchange base on a yet - to - be - determine metric e.g. , minimum signal strength , spectrum exchange participant interested in acquire pal",1
"right on the secondary market could utilize this information to proactively extend an invitation to a pal licensee about trade its unused spectrum right , in part or in full .",2
"partitioning and disaggregation of licenses would facilitate a vibrant secondary market.in the order second fnprm , the commission seek comment on proposal toallow partitioning and disaggregation of pals .",2
"cantor agree with comment file by att services , inc. att , qualcomm incorporated and the wireless internet service providers association wispa that support partitioning and disaggregation of license to facilitate a vibrant secondary market .",3
"as att assert , flexibility in thedeployment of pal will be important to commercial operator and other priority access licensee , give that pals may be need for vary duration and geographic area and licensee should be able to gain access as need arise .",3
"the commission have determine that 3.5 ghz spectrum will be allocate in 10 mhz block , at the census tract level , over three - year non - renewable license term with the option for an initial six - year term comprise of two consecutive three - year term .",0
"cantor telecom urge the commission not to prohibit , as it suggest , segmentation of pals , despite their relatively small geographic size and limited duration and the potential prevalence of gaa spectrum in license area .",-2
"the availability of gaa spectrum do not provide the same meaningful use and interference protection right afford to pal uer , which be often necessary to meet stringent quality of service requirement for commercial service and which encourage innovation and capital investment in the spectrum .",4
"permit dynamic disaggregation and partitioning of the license in term of geography , duration or bandwidth could enhance liquidity and improve demand and value of the spectrum in the secondary market , allow the market to work freely and encourage the most efficient use of spectrum .",6
"cantor telecoms exchange and geolocation database technology operate in near real - time , and can dynamically disaggregate and partition spectrum .",0
"as such , cantortelecom maintain that these parameter could be easily build into the spectrum exchangewithout create any significant administrative burden .",0
"a spectrum exchange complementary to the sas would reduce transaction costs and increase automation of pal transfer and lease applications.the commissions exist secondary market rule which permit leasing or transfer of license do not provide for immediate , real - time transfer of license right and often require week or month to approve because of commission review or backlog .",3
"a spectrum exchange would reduce the administrative burden on the commission to review , process and approve license transfer and lease under exist part 1 rule and would facilitate more rapid use of spectrum that would otherwise lie fallow pende commission approval of a transaction .",2
"cantor telecom also agree with spectrum bridge , inc.",0
"that the operational cost of an sas system be minimal when amortize across the total cost of implement , deploy and maintain a 3.5 ghz wireless eco - system and that the cost of sas operation could be incorporate into the cost of good sell radio device and virtually eliminate with respect to cost incur by regulatory agency , notwithstanding oversight .",1
"a spectrum exchange would permit qualified participant to gain immediate access to pal use right with additional benefit include enhanced price discovery , transparency , and paperwork and cost efficiency , improve access to available bandwidth and significantly increase the liquidity of the spectrum .",7
"interested pal user would have immediate access to pricing and spectrum availability information through the exchange , which would eliminate the burden of enter into individual negotiationsand contract with potential seller and submit individual application through the fccs universal service licensing system .",-1
"the completion of the transaction would be real - time and fund would be electronically process through the exchange , with a certain percentage go to the commission to cover transaction cost .",0
cantor telecom envision that the spectrum exchange would provide the commission with automate report on a real - time or periodic basis for oversight and enforcement purpose .,-1
compatibility with existing auction and secondary market rule requires further consideration.a vibrant secondary market would be enhance by retain unclaimed pal use right after auction .,3
"cantor telecom urge the commission to consider that a vibrant secondary market require maximum flexibility and should permit pal user to gain access to additional spectrum as future need arise between auction window , give that pal use may be short term , e.g. , coverage for a large event , or long term , e.g. , backhaul or access application .",3
"the commission note that the 3.5 ghz band be design to allow new , innovative operation access to flexible , fungible spectrum .",2
the small cell deployment envision for the 3.5 ghz band should enable tremendous spatial reuse and coexistence among user .,0
"however , as currently structure , pals will be assign by competitive bidding only where the commission receive multiple compete application in a give license area , as require by commission rule .",1
"in order to facilitate competitive bidding , the commission will make available one less pal than the total number of pal in a give census tract for which all applicant have apply , up toa maximum of seven .",3
"where there be only one applicant and hence no compete application , access to such spectrum will be make via share gaa use only .",0
"thus , any potentially available pal that be unclaimed in an auction window will revert to share gaa , thereby lose any associated use right , until a new auction window open .",0
"cantor telecom be concern that the pal auction , as currently structure , could impede a vibrant secondary market exchange , give that the number of pal available would be predetermine every three year , limit supply and potentially restrict access to valuable market entrant desire to acquire pal usage right within the three - year time period , contrary to the commissions state goal of the 3.5 ghz band .",0
"to the extent that interested party file for reconsideration of these issue , cantor telecom would support a system whereby a single applicant could obtain pal use right during an auction window and under which any pal spectrum that be unclaimed during an initial auction window would not automatically revert to gaa use and could still be acquire in the secondary market as a pal to ensure continued access to exclusive usage right .",1
"notwithstanding the foregoing , cantor telecom would support opportunistic gaa use of any unused pal spectrum until a pal be acquire on the secondary market to promote the most efficient use of the spectrum .",1
precertification of pal applicant eligibility requirement would deliver significant efficiency benefit to consumers and the commission .,2
"in the order second fnprm , the commission extend pal eligibility to a broad class of user , namely any entity eligible to hold an fcc license generally .",0
cantor telecom applaud this approach and assert that this will result in more robust utilizationof 3.5 ghz spectrum and encourage innovation in the band .,4
"cantor telecom recognize that , pursuant to commission rule , all applicant for pal must demonstrate their qualification to hold an authorization and demonstrate how a grant of authorization would serve the public interest .",0
"qualification include those under section 310 of the communications act of 1934 , as amend , regard foreign ownership , as well as the bar on participation in spectrum auction with respect to any person who have be , for reason of national security , bar by any agency of the federal government from bid on a contract , participate in an auction , or receive a grant .",3
"to facilitate an efficient secondary market exchange , cantor telecom suggest that the commission adopt a registration or precertification process that would allow spectrum exchange participant to participate in rapid , real - time transaction to acquire pal in the secondary market without hold up application for extended period of review .",3
cantor telecom envision that an applicant could answer a series of qualify question in the sas that must be certify prior to enter the spectrum exchange system to engage in any transaction .,1
"once preauthorize , the participant could view all available pal license in the applicable census tract along with system - determine pricing information , permit the applicant to acquire immediate pal use right upon transfer of fund and completion of a trade .",2
"give the tremendous number of pal license potentially available over more than 74,000 census tract , a registration orprecertification process permit rapid trade in the secondary market withouttriggering additional commission review would result in significant manpower-,paperwork- , and cost- efficiency for the commission and would serve the publicinterest by facilitate rapid access to pal use right by qualified applicant seekingnear - term , small cell deployment in the 3.5 ghz band .",7
"to the extent an entitymisrepresent its eligibility or become disqualify to hold fcc license at a later date , the exchange would implement safeguard to block trading and , if necessary , to unwindtransaction .",0
"conclusionfor the foregoing reason , cantor telecom urge the commission to explore theuse of a spectrum exchange of 3.5 ghz spectrum to increase liquidity and efficient use ofthis finite resource .",1
