text,score
"kanokla communications , inc. kanokla , by its attorney , hereby submit these comment on the second further notice of propose rulemaking nprm in the above - caption proceeding .",0
"kanokla , as a current licensee in the 3650 - 3700 mhz band operate in rural kansas , appreciate this opportunity to submit comment on the nprm.kanokla limit its comment to the issue of define use of priority access licenses pal .",-1
the federal communications commissions fcc or commission report and order in this proceeding adopt rule to allow general authorized access gaa user some degree of opportunistic access to unused priority access channel .,-1
the nprm seek comment on how to define use by priority access licensee .,0
kanokla oppose any definition of use that would facilitate spectrum hoarding by pal licensee .,0
"as a grandfathered incumbent terrestrial licensee in the 3650 - 3700 mhz band , kanokla will only derive the protective benefit of its incumbent license status for a five year transition period that will end on april 17 , 2020 .",2
the new citizens broadband radio servicecbrs regulatory scheme adopt by the commission in its report and order will force kanokla to either operate on a gaa basis without protection from interference or compete for a pal license in the 3550 - 3650 mhz band .,0
"to obtain the protection against interference that its user demand , kanokla will need to obtain a pal license after the end of the transition period .",0
"however , there be no guarantee that kanokla will be able to successfully acquire a pal license at auction , and in order to continue provide service under such a scenario , kanokla would have to obtain a gaa authorization .",2
any definition of use adopt by the commission that would limit the availability of spectrum for gaa use would harm kanokla and other small rural carrier like it .,-1
"adoption of an economic definition of use , such as the definition propose by massachusetts institute of technology economist , william lehr , would allow pal licensee to let spectrum lie fallow .",-1
"while such a definition would provide such licensee some incentive to make use of their investment , such incentive could easily be outweigh by the strong incentive to hold on to spectrum for future , more lucrative , use .",2
"pal licensee should not be permit to hold spectrum hostage , while service provider like kanokla have urgent need for such spectrum to meet the demand of their customer .",-1
kanokla also oppose any engineering definition of use that would allow pal licensee to engage in the equivalent of hoarding simply by deploy low - cost citizens broadband radio services devices cbsds .,-1
"such a tactic , commonly know as a license save , do nothing to further the public interest in term of provide the public with the value derive from full deployment .",0
kanokla urge the commission to account for the need of prospective gaa user and their customer when develop the definition of use that will govern the availability of 3650 - 3700 mhz spectrum for the foreseeable future .,0
