text,score
the dynamic spectrum alliance dsa commend,2
"the commission for adopt rulesthat will enable effective sharing between federal incumbent , fix - satellite station , and wireless service in the 3550 - 3700 mhz band the 3.5 ghz band .",1
"as the commission refinesand implement its share policy for the 3.5 ghz band , it should heed the follow principlesin order to maximize spectrum utilization and consumer benefit .",1
"first , the commission shoulduse engineering criterion to determine whether a priority access license pal holder have placedspectrum in use , such that general authorized access gaa user be exclude .",0
"thecommission should not adopt an economic definition of use , which would enable spectrumwarehouse .",0
"second , the commission should establish fss protection base on real - worldrather than bad - case interference protection criterion and enable sas provider to improve their propagation model over time.1 .",1
the commission should adopt an engineering - base definition of use .,0
"in the second fnprm , the commission ask how to implement gaa access to spectrum that be license to a pal holder , but not in use .",0
"for this purpose , the commission should adopt a definition of use base on the engineering requirement of the system deploy by the pal holder , not economic consideration .",0
"for example , the commission could establish protection area by require pal holder to provide to a sas the location and technical characteristic of citizens broadband radio service devices cbsd it deploy in each of its licensed service area .",1
the sas could then calculate require protection for each cbsd base on the device characteristic and its operating environment .,1
"alternatively , the commission could require pal holder to register protection area directly with the sas and ask pal holder to support their request with a verify statement to the commission state that the protection area be base on sound engineering consideration .",3
an engineering definition of use should also permit both pal operation and gaa operation to traverse license tract boundary .,0
"for example , pal operator should be permit to register protection area that span multiple adjacent census tract where they have right , so long as the operator actually deploy service in the declare protection area .",3
"conversely , gaa use , include highly directional point - to - point link that may span several license tract in a densely populated area , should be permit so long as it do not interfere with pal operation .",-1
an economic definition of use would not serve the commissions goal of maximize use of 3.5 ghz band spectrum .,0
"under an economic definition of use , a pa licensee could preclude gaa user from use pa spectrum regardless of whether it have deploy any service at all in the license area .",0
"by allow and perhaps even encouraging pal holder to limit access to spectrum even if they have no plan to put such spectrum into productive use , an economic approach encourage warehouse .",2
"as such , it should be reject .",-1
"the commission should protect in - band and out - of - band fss station use reasonable , real - world interference protection criterion .",2
"the commission should apply the follow precept when fine - tuning its approach to protect fss stationsfirst , the commission should not adopt default or generalize protection zone for fss earth station .",3
"instead , protection should take into account individualized factor such as propagation , terrain , earth station point angle , and transmitter characteristic .",2
"default protection zone will rely on bad - case assumption regard all of these factor , result in over - protection of incumbent , loss of usable spectrum for cbsds and , therefore , diminished investment in the 3.5 ghz band .",2
"in particular , the commission should require sass to take into account actual effect of aggregate interference in determine fss protection .",0
"failure to take into account aggregation effect will require sass to make bad - case density assumption , even if deployment be not dense .",-3
"the dsa acknowledge concern that aggregation could allow early adopter to use up a large share of the interference margin associate with a particular fss site , leave little or no opportunity for subsequent entry .",-2
the commission may wish to consider other approach thataddress this issue .,-1
the dsa express no view how well to balance these policy consideration .,1
"rather , it simply emphasize that use bad - case assumption regard deployment density will ensure that spectrum in all area will be under - utilize at first , and in many place it will always be underutilize .",0
"limited utilization , in turn , undermine the commissions overall goal in adopt rule for the 3.5 ghz band .",-2
"second , the commission should promote research and innovation in more accurate propagation modeling by establish a baseline propagation model and allow sas provider to differentiate themselves by offer more sophisticated modeling technique .",3
allow sas provider to offer differentiated propagation model have several benefit .,1
"it will open avenue to competition among sas provider in develop more accurate propagation modeling method , as each seek to offer optimal spectrum use option to priority access and gaa user .",2
it will also allow sas provider to improve their spectrum availability calculation by incorporate datum report by cbsds regard local signal propagation environment .,2
"advancement in propagation modeling for the 3.5 ghz band be likely to be applicable to other band and application , as well , thereby contribute to improve spectrum utilization across many band .",2
the commissions april 2015 report and order establish a strong framework for spectrum sharing in the 3.5 ghz band .,1
"as the commission continue to refine this framework , it should adopt approach that maximize commercial wireless use while protect exist incumbent .",2
