text,score
introduction and summarythe commissions report and order adopt rule for the 3.5 ghz band represent a significant achievement it establish an innovative approach to intensive spectrumsharing that will free 150 mhz of currently underuse spectrum .,4
"in the accompanying second further notice of propose rulemake second fnprm , the commission ask for comment on key issue that will determine whether opportunity in the band be maximize to their full potential .",-1
the follow principle should guide the commission as it elaborate its framework for operation in the 3.5 ghz band .,0
"the commission should adopt an engineering - base definition of use , rather than an economic definition .",0
an engineering definition base on actual deployment condition will maximize availability for general authorized access gaa user while protect priority access license pal holder and can accommodate secondary transaction .,1
"an economic definition , by contrast , will encourage warehousing and hoarding .",1
"the commission should establish rule that protect fix - satellite service fss site base on real - world , rather than hypothetical worst - case , scenario .",0
"in order to maximize spectrum use near fss station while protect those operation , moreover , the commission should recognize the aggregate effect of interference and allow spectrum access system sas provider to apply improved propagation model .",1
"the commission should adjust its hardware certification process to identify device with superior out - of - band emission performance , so that their userscan access 3.5 ghz spectrum in additional geographic area .",1
"each of these principle foster an environment where 3.5 ghz spectrum can be use to the maximum extent possible , while fully protect both incumbent and pal user .",1
the commission should adopt a definition of use that be ground in sound technical consideration .,0
"in its second fnprm , the commission request comment on the adoption of anengineere - base definition of use of pal , as oppose to an economic definition orother approach .",-1
"in order to maximize usage of the band , google recommend that the commission adopt an engineering - base approach .",1
pal holder citizens broadband radio service devices cbsds and their affiliated end user device should be protect against aggregate interference by a sas.the commission should protect registered area from interference accord to thefollowe consideration,0
reflect an engineering - base approach .,0
pal cbsds should be allow to seek protection only within a service area and frequency band assign for the pal licensee use .,1
"the claim protection area be to be define by the pal licensee accord to engineering consideration , base on the licensee actual deployment .",1
"a protection area should be define as the area within which end user can reasonably expect service from a pal cbsd , while end user could not reasonably expect service from the pal cbsd outside the protection area .",4
"a claim protection area should be contain completely within the pal licensee 's authorized service area , but may traverse the boundary of multiple contiguous license area , provide those license be hold by the same licensee .",1
the commission should permit licensee to register multiple protection area within the same license area or service area .,1
the commission should permit affected pal licensee in adjoining service area to agree alternative protection limit and communicate those alternative limit to the sas .,-1
this exception could be capture as a waiver of the default interference level or by use an alternate power level as the threshold for aggregate interference .,-2
"that is , adjacent pal licensee could reach an agreement regard operation at their shared service area boundary , and a sas would implement the term of the agreement , rather than the commissions default interference level of -80",0
dbm10 mhz .,0
the non - default condition would apply to all nearby cbsds that use agree mitigation technique .,0
"gaa user should be permit to use spectrum within or near a pal license area , provide that such operation do not interfere with operation thelicensee have deploy in its protect area .",0
the figure below show how these principle would work in practice .,1
the illustration adopt the service and license area definition set forth in the report and orderestablishing rule for the band .,0
the protection area be the area from which a pal licensee would be permit to exclude gaa use base on actual deployment by the licensee .,1
the colored area in each figure represent different service area .,0
some service area encompass multiple license area .,0
"the solid , colored shape with black border represent permissible protection area .",3
the red - border area would not qualify for protection .,2
"the gray circle represent request gaa deployment , which have black border if a sas would permit them and red border if a sas would not permit the request protection .",1
"implement this approach would require the commission to revisit , modify , or eliminate rule 96.41d1 , which limit cbsd transmission to a receive signal strength of -80 dbm at the boundary of a service area .",-1
"google understand that one or more petition for reconsideration will address this issue , which bear directly on define use in a way that maximize utilization of the band .",-1
figure 1 show priority access pa protection in one census tract and the surround area .,1
"the black - border green area all receive protection , even if they overlap the same pal licensee have register them , and they fall completely within the licensee authorize service area .",0
the oddly shape protection area at the bottom of thecensus tract have be truncate to lie completely within the service area .,-1
"while it may be possible for some end - user device to receive service outside this area from a cbsd locate inside the service area for example , in the green spot show , service to those end - user device be not entitle to protection from interference .",0
the red - border area be not afford protection because they seek protection extend outside the pal service area .,3
a sas should have the option to grant a modify protection area that end at the service area boundary or simply reject such a request .,0
this figure and the one below describe the simple treatment of reject the request .,-1
"as discuss further below , modify or eliminate the rule require protection at the service area boundary will maximize use of the spectrum near the edge of a service area , such as in the southernmost protect area in figure 1 .",2
"the current rule state that [ f]or both priority access and gaa user , cbsd transmission must be manage such that the aggregate receive signal strength , measure at any location on the service area boundary of any co - channel pal , shall not exceed an average rms power level of -80dbm .",1
"it be not clear whether this requirement be intend to apply if there be no adjacent co - channel pal , as be the case in the license tract just south of the green tract in figure 1 .",1
"but there be no reason to apply the limitation in such case if there be no pal adjacent to an operators service area , an operator should receive protection all the way to the edge of that service area and should not be require to limit receive signal to -80 dbm at the service area boundary because there be no protect adjacent operation to respect .",1
figure 2 show how a sas may accommodate alternative agreement .,0
the orangeand pink licensee have an arrangement to waive interference protection .,0
"they arecooperate to avoid interference , so they be not protect from each other via a sas , even though device in one protection area would otherwise be model by a sas asinterfere .",1
"this approach enable end user in adjacent area , represent by the pink and orange spot , to receive service across service area boundary .",0
"however , even if the pink licensee have a similar arrangement with the blue licensee , a claim protection area may not overlap the border of a service area , so the illustrate red - border pink pal protection area on the pink - blue border would not be permit in its current form .",2
figure 3 and 4 show interaction between gaa and pa user .,0
"the black - border operational area be all permit protection area , provide that the gaa cbsd stand - off distance be sufficient to provide aggregate protection for all claim protection area operate on the same channel .",4
"in both figure , the gray circle with red outline be not allow .",0
they be too close to the indicate pal protection area .,1
"in addition , some gaa user operate within or overlap the service area of a pal .",0
"adopt googles propose engineering definition of use allow gaa user to operate co - channel within the service area , provide that they do not in fact interfere with the pal protection area .",0
"figure 4 , in particular , illustrate the use of a point - to - point gaa link that stretch down a freeway close to a number of pal protection area , represent by pink and yellow ellipsis .",1
"because the beam be highly directional , this gaa use do not interfere with pal operation within the claim pal protection area pink and yellow ellipsis .",0
"while this gaa deployment would not interfere with pal operation in its vicinity , the commissions rule limit signal strength at the boundary of a pal service area to -80",-2
"dbm make it impracticable if the gaa user do not seek pa license for four census tract that its beam traverse , it will likely violate the rule limit signal strength at the boundary of the yellow and pink service area .",-2
"adopt this propose approach to protect pal operation will maximize use of the band , protect actual operation , and enable rapid deployment of device .",3
the approach outline above have several advantage .,1
"first , it maximize opportunity for productive use , especially in large , irregularly shape census tract .",1
"where the pal holder have not extensively deploy facility , gaa cbsds in a large census tract can make use of pal channel if they do not introduce aggregate interference exceed the pal protection limit .",0
"large census tract comprise most of the land area of the united states , so this change will significantly improve utilization of the 3.5 ghz band in rural area .",1
"it particularly enable point - to - point gaa deployment , which may be highly directional and thus generally non - interfering , to operate co - channel with pal licensee inthe same census tract .",0
"conversely , gaa cbsds in small census tract adjoin a pal license area",0
will not be permit to use a channel if such use introduce aggregate interference exceed pal protection limit into a protection area .,1
"second , this approach rely on well - study point - to - area interference model , which be comparatively simple and inexpensive for an sas to implement .",1
"in addition , small cell will be concentrate in area of high population density , which tend to be in area of low terrain complexity .",0
make interference calculation and assessment be especially straightforward in area where the terrain modeling be simple .,0
"these benefit , however , will be realize only if the commission also revisit its rule regard receive signal strength at the service area boundary .",2
"otherwise , sas provider will be require to implement point - to - area interference model to accommodate the definition of use and point - to - line interference model to address boundary edge condition .",-2
"point - to - line model be less well - develop , so sas provider will be force to choose between simple point - to - line model , which will likely be overly conservative , and complex model , which will take time develop and delay dense deployment of device into the band .",-3
"similarly , if the commission adopt the propose definition of use without eliminate the boundary edge condition , sas provider will be require to model interference effect over complex terrain because census tract often track terrain formation such as river , mountain ridge , or gorge .",-2
"as such , the benefit of limit model to actual deployment area will be diminish , and possibly nullify .",0
the commission should require pal holder to register protection area base on engineering requirement of actual operation .,1
register protection area base on the location and technical specification of cbsds actually deploy in the field would result in the most accurate interference protection and would open the great amount of spectrum for gaa use .,3
"however , recognize carrier concern regard disclosure of their own operational plan , google recommend a pragmatic approach to define protection area that sacrifice some measure of efficiency in the interest of confidentiality",2
"the commission should permit a pal holder to define the area of operation for which it seek protection , provide that its claim be support by engineer analysis of actual operation .",2
"such engineering analysis should be document as of the time protection be request , and that contemporaneous documentation should be preserve so that it can be make available to the commission upon request .",2
"as illustrate in the figure above , protection area could be specify use the same series - of - vertex - point description that define census tract , or in term of a point and radius , or parameter for an ellipse .",1
protection area should be register directly in a sas .,1
"after receive protection area information both directly from pal holder and from other sass , a sas will make spectrum not in use by pal holder available to gaa user , even if such spectrum be within a pal holder license area .",2
"of course , pal holder will be free to update their protection area as operation changewhether area be add to active service or deployment be scale back in a particular region .",2
"if the commission wish to maximize spectrum utilization , it should also modify or eliminate its rule limit transmit power at the edge of a pal boundary .",-1
"in its report and order , the commission adopt a rule require cbsd transmission to be manage such that the aggregate receive signal strength , measure at any location on the service area boundary of any co - channel pal , do not exceed an average rms power level of -80 dbm in any direction when integrate over a 10 megahertz reference bandwidth , with the measurement antenna place at a height of 1.5 meter above ground level , unless the affected pal licensee agree to an alternative limit",0
andcommunicate that to the sas .,0
"as note , this rule be inconsistent with the engineering - base approach to use describe above .",-1
"indeed , google understand that a petition for reconsideration will be file that ask the commission to modify this boundary requirementwhich will both over- and under - protect pal operationsto allow use of the protection criterion propose above .",2
that petition should be grant .,0
the rule limit signal strength at the service area boundary create problem in a number of common situation .,-2
"first , even if receive signal strength be limit accord to rule 96.41d1 , a cbsd operate within a protected service area may not , in fact , be protect from interference .",-1
the topographical variation at many census tract boundary result in imperfect protection .,0
"for instance , a census tract which have border in deep valley may have interior point at much high elevation .",0
"because they be not shield by terrain , cbsds site at the high elevation may experience high interference level than cbsds at the census tract boundary where the -80 dbm limitationapplie .",-1
"in this situation , rule 96.41d1 fail to provide the intend protection to the pal holder .",0
"figure 5 , below , illustrate this weakness with an example near pittsburgh , pennsylvania .",-1
the eastern edge of the highlight census tract be at the bottom of a deep gorge .,0
point at 1.5 meter above ground level at the census tract edgei.e .,0
", deep within this gorgewill receive very limited signal energy , even from nearby cbsd .",-1
"signal will be weak at the boundary because of the natural shielding present in the environment , so measure the protection require at that point will not adequately protect operation locate above the gorge , particularly if interfere cbsds be also above the level of the gorge .",0
"conversely , if a census tract edge crosse or follow high terrain , cbsd deployment may be push back unnecessarily in order to avoid exceed the maximum signal strength at the tract boundary .",1
"when confront with line - of - sight path to a high - elevation point , most propagation model apply free - space path loss estimate .",-1
"the high - elevation point be treat as one that will receive a high level of radio energy , while low - elevation location will receive less energy even if they be close to the transmitter .",0
"as a result , the mere existence of high - elevation point along a pals license area boundary will require neighbor cbsds to adopt an extremely conservative stand - off distance .",-1
"yet if the high - elevation point do not host any pal operation , those large stand - off distance serve no practical purpose .",0
this overprotection of elevated tract boundary will prevent pal licensee from serve some area even if the service would create no risk of interference to co - channel pal operation in an adjacent license area .,-2
figure 6 illustrate this aspect of the problem .,-1
"the southern edge of the highlight census tract , locate near los angeles , be place high above more populated area .",0
this southern edge have height above average terrain haat around 1000 foot .,0
"because the terrain at the boundary edge be itself so much high than the surround area , a point merely 1.5 meter above ground level at these high elevation command a large view over dozen of high - density census tract to the north of the highlight tract .",0
"but because the current rule require that interference limit be define at the census tract boundary line , deployment in place like avocado heights will be constrain unnecessarily .",-1
"while signal from the northern tract may reach the far boundary edge of the highlight adjacent census tract , which sit at a high elevation , they be still unlikely to reachdeployment inside the highlight tract , which be close but much low in elevation .",-1
"such interior deployment should not prevent use in avocado heights , but rule 96.41d1 would have that prohibitive effect .",-1
the limit on receive power at the boundary edge also unnecessarily limit the registration and use of category b device .,-2
these device will often be use to support,1
point - to - point communication use higher - gain directional antenna .,1
"these device willtypically be site in less dense population area , and their high - gain antenna allow them to avoid interfere with co - channel cbsds locate away from the main beam .",-1
"a useful point - to - point link may traverse one or more census tract boundary , particularly if the census tract be irregularly shape .",1
"but if the protection criterion be define at the census tract edge , operator of such point - to - point link that cross census tract boundary would almost certainly be require to purchase pal right for each tract that a link traverse , even if there be no pal cbsd to be protect along the line - of - sight path between the endpoint of a link .",3
"by contrast , if the commission adopt an engineering definition of use and eliminate the boundary protection requirement , several advantage will result .",2
"this approach will provide effective protection to actual cbsds offering service , which may be situate in propagation environment very different than the one present at a license area border .",2
it will also provide protection to end - user device communicate with a pal cbsda critical feature in operate a real - world network .,0
and it do not necessarily require that a pal cbsd be restrict to a -80dbm10mhz limit on received power at its own pal license border .,-2
"instead , the pal be simply prohibit from interfere with other co - channel pal cbsd operation in their own respective protection areaswhich may be quite distant from the close pal service area edge , especially if the service area include a large census tract .",-1
"under this approach , sass apply their propagation model where there be an actual pal cbsd deploy and a properly claim area to protect , rather than apply the model to complex pal license tract boundary which may be far from any deployed cbsd.the propose engineering approach to define use be compatible with sas support for secondary market operation .",3
"in its second fnprm , the commission ask whether a sas can support the operation of a secondary market , which could potentially partition pal license areasgeographically or in frequency .",1
"an engineering definition of use be compatible with such a function of a secondary market , and introduce no significant additional complexity to the operation of a sas.sass will be design and scale to manage thousand of license area and many time that number of pal cbsd deployment , each with their attendant protection area .",3
"for these robust system , support transfer of pal protection right , in whole or in part , will introduce only the minor additional complexity of verifying that claim pal protection reflect transaction in the secondary market .",5
"sass must verify pal protection right to implement the commissions auction of 3.5 ghz spectrum , and the same capability would support transferability of pal license right .",5
"therefore , there be no technical obstacle to sas support of secondary pal license market operation .",0
"under such an approach , moreover , licensee and transferee could make arrangement to waive interference protection at their border , which sass can implement as describe above .",0
"in that regard , the commission have recognize that secondary market for spectrum can enable efficient use because they permit spectrum to flow more freelyamong user and use in response to economic demand .",2
"while secondary market maybe less significant in the 3.5 ghz band because the commission have establish relativelyshort license term , they nevertheless may play a beneficial role in management of pal spectrum .",2
"for example , partition pal license area may allow small provider to offer quality - of - service offering in limited geographic area .",-1
"for maximum flexibility and efficiency , therefore , pals should be partitionable by channel and geography .",1
"the commission should remain responsible for qualify participant for secondary market transaction and establish secondary market rule for the 3.5 ghz band , but as note in part 1.e . , above , a sas can easily support such beneficial sharing .",3
"because sass can support these arrangement and they have the potential to accelerate beneficial license transfer and improve spectrum utilization , the commission should allow such flexibility .",4
an economic definition of use predictably would reduce spectrum utilization .,0
the second fnprm ask whether adopt an economic definition of use wouldmeet the commission goal of maximize spectrum utilization and enable opportunistic use of pal spectrum .,-1
"because an economic definition place no obligationon the pal holder actually to use pal spectrum , it increase the likelihood of spectrumhoarding or warehousing .",0
"for example , under the framework propose by william lehr , apa user could purchase an option to exclude gaa user , which could then be exercise at alater date .",0
lehr propose that a pa licensee should be able to exercise its option to exclude gaa user regardless of whether it have deploy service in the license area .,0
"by decouple the ability to exclude other user from a requirement to make productive use of spectrum , an economic definition allow and may even encourage licensee to bid on license even if they have little or no intention of deploy service .",2
"the commission have long disfavor private warehousing of public spectrumresource , and there be no reason to depart from this sound policy in devise rule for the 3.5 ghz band .",-1
"instead , the commission should adopt an engineering - base definition of use that take into account actual deployment condition .",0
in - band and out - of - band fss earth station should be protect use reasonable interference criterion .,1
the commission should establish protection for fss earth station operate inand adjacent to the 3.5 ghz band that take advantage of sas capability and be base on real - world condition .,3
"strike a balance that adequately protect fss station without unnecessarily constraining cbsd deployment , rather than adopt interference criterion that rely on a cascade series of bad - case assumption , will enable maximum use of the 3.5 ghz band .",-2
the wireless innovation forums spectrum sharing committee have establish a task group to address the fss protection issue raise in the commissions second fnprm .,1
"the task group have broad participation from representative across the wireless industry , include potential sas provider include google and federated wireless , serviceprovider , infrastructure vendor , as well as participation from satellite and broadcast representative .",1
the task group hope to submit consensus view on fss protection as soon as practicable .,1
"in the meantime , google offer several observation regard fss protection requirement .",2
"in determine fss protection , the commission should rely on certain trigonometric equation and key fss system characteristic set forth in its 2005 coordination methodology .",1
the commission 2005 order address coordination between fss station andfixe wireless station contain useful element for determine fss protection in thecontext of this proceeding .,2
three particular aspect of the wireless broadband servicesorder provide useful starting point .,1
"first , equations 1 - 4 of appendix d provide useful derivation of the complexspherical trigonometry equation that allow the calculation of the discrimination anglebetween an earth station and a potential source of terrestrial interference .",-1
"the input tothese equation include the latitude and longitude of the earth station , the geostationaryorbital slot that toward which the earth station be point , and the azimuth from the earthstation to the interference source .",-1
"second , table 1 of appendix d provide a usefulsummary of typical fss earth station parameter , include receive bandwidth and system noise temperature .",-1
"while these two aspect of the wireless broadband services order provide start point for determine fss protection , the commission should not adopt wholesale the separation distance methodology set forth in appendix d. equations 6 and 7 of the appendix , which establish recommend separation distance between interference source and fss earth station , contain latent assumption that be not discernible from the information provide .",1
"for example , assumption regard propagation model , transmitter characteristic , and interference objective be build into these equation , but those assumption be not formulate in the appendix in a manner that would allow equations 6 and 7 to be modify if the assumption change .",0
"as a result , modify the appendix d methodology to address different type of interference source and accommodate improve propagation model be likely to be very difficult .",-1
"for this reason , google suggest that the fcc base fss protection on the fss system characteristic and the trigonometric equation set forth in appendix d , as well as the system requirement adopt by the international telecommunication union itu and discuss below , without adopt appendix ds overall approach .",2
"third , the wireless broadband services order recognize that itu radiocommunication sector itu - r recommendation s.1432 - 1 set forth appropriatedesign objective for fss station .",1
google recommend that the itu design performance criterion for system noise interference serve as a starting point for protectionof fss earth station .,-1
the itu recommendation adopt a design performance criterion for fss earth station that allow as much as 6 of overall system noise temperature to comefrom interfere non - satellite license service .,-1
"this apportionment include consideration for statistical variation in propagation , include allowance for temporal variation normally include in fss interference analysis .",-1
"to avoid ambiguity due to variation in noise temperature among fss system , this value should be apply specifically to the 142.8 k noise temperature assume in appendix d , result in a baseline interference protection criterion of 6 142.8 k , or 8.6 k.",-3
"the baseline interference noise temperature should serve as a starting point for fss protection , but the commission should consider revisit it in the future , once it have gather additional datum on effective protection of incumbent fss system .",1
this standardlimite noise increase to less than 8.6 kshould be apply to both in - band and out - of - band system .,-1
"co - channel interference , blocking , and out - of - band emission all result in the same phenomenon an increased noise level within the fss receiver intend band .",-2
"because there be no functional difference between earth station that operate below 3700 mhz and those that operate above , they should be protect to the same degree .",1
"however , protection for fss earth station operate above 3700 mhzmust assume that such station be use commonly available filter that limit reception ofsignal below 3700 mhz .",1
"the commission should tailor fss protection to actual condition , rather than establish a default protection zone for all fss station .",2
the commission should not adopt default or generalize protection zone for fss earth station .,1
"instead , protection zone should take into account real - world factor such as propagation , terrain , earth station point angle , and transmitter characteristic .",1
"default protection zone typically rely on bad - case or near - bad - case assumption regard all of these factor , result in over - protection of incumbent , substantial inefficiency in spectrum use , and diminished investment .",0
sas technology can be use to calculate individual protection with specificity and accuracy .,1
the commissions rule regard fss protection should take advantage of these technological advance .,3
protection of fss station should take into account aggregate interference effect .,0
aggregate interference from multiple source can have a substantial impact on incumbent operation .,-1
"most obviously , multiple transmitter can create more interference than any single transmitter in isolation .",-2
"for this reason , calculate an aggregate level of interference provide the most realistic estimate of the total impact on an fss system .",0
"by contrast , failure to take into account aggregation effect will require sass to plan for bad case density assumption for example , by use fix multiple - exposure factor regardless of how many exposure there actually be , even if deployment be not dense .",-3
there may be equitable concern about allow early entrant into the 3.5 ghz band to use up a large share of the interference margin associate with a particular fsssite .,-1
this advantage for early entrant could instead be view as a beneficial incentive to invest quickly in the band .,2
"furthermore , while other approachessuch as require all device to reduce power if the band become saturate near an fss sitecould mitigate some of those concern , they may have attendant cost , include increase complexity and uncertainty regard cbrs deployment condition .",0
"but regardless of how the commission choose to protect for aggregate effect , it be important for the commission to do so .",2
"otherwise , power level and other technical parameter will be base on bad - case assumption and thus limit to what suit the dense deployment , unnecessarily limit cbrs user operational flexibility where dense deployment do not in fact exist .",-4
"because there be no exist deployment , moreover , spectrum in all area would be under - utilize at first .",0
"in many place , particularly outside urban center , it would always be underutilize .",0
"if the band can not be use to its full potential because the commission create a rule that apply only to bad - case scenario , then investment will be limit .",-2
"the commission should allow sas provider to adopt vary propagation model , so long as such model protect incumbent service from harmful interference .",-1
"as the commission recognize , research in propagation path loss model in recent year have advance considerably and offer an increase array of practical and realistic tool and method for predict path loss and determine practical bound on predictionerror .",-1
"yet , even while recognize these advance , the commission tentativelyconclude that each sas must use the same propagation model .",0
this approach be misguide .,0
"rather than mandate a one - size - fit - all standard for propagation modeling , the commission should establish a baseline model for compute interference to fss earth station .",-1
this model could serve as a safe harbor for basic or early - stage sass .,1
"for example , the propagation model set forth in itu - r recommendation p.452 have beencreate specifically for satellite coordination work , and could serve as a baseline propagation model for use in calculate fss protection .",3
"at the same time , the commission should permit and encourage innovation in propagation modeling by allow sas to use more sophisticated propagation model if they be capable of do so .",4
establish a baseline while allow refinement promote investment in improve propagation model for use in the 3.5 ghz band .,2
"indeed , a variety of government , industry , and academic team be conduct extensive research on propagation in the 3.5 ghz band .",1
"the national telecommunications and information administrations institute for telecommunication sciences , for instance , be develop new 3.5 ghz suburban clutter loss model base upon measurement in the boulder , colorado , area .",-1
"google be collect and analyze hundred of thousand of propagation loss datapoint in california and virginia , which , when combine with datum regard terrain , building , and foliage , can bind clutter loss in the 3.5 ghz band .",-1
"with support fromgoogle and other source , professor chris anderson of the u.s. naval academy have beenconducte measurement and build improve propagation model for the 3.5 ghzband use an incumbent 3.5 ghz navy radar and sophisticated measurement equipmentin and around rural st. inigoes , maryland .",3
google hope to take advantage of suchinvestment in develop,1
improve propagation model for the band to offer superiorspectrum use option to pal and gaa user who choose to use our sas .,1
requiringuniformity in propagation modeling would discourage similarly motivated futureinvestment in more sophisticated and accurate propagation model and limit theopportunitie for innovation in the 3.5 ghz band .,2
"because the commission require cbsds to report interference level back to asas , commercial use of the 3.5 ghz band also will vastly improve knowledge regardingpropagation in the band .",0
"cbsds will report potentially million of datum point , all of whichcould be use to further refine assumption about propagation in the band .",1
such closed - loop propagation modeling promise to enable significant refinement over time .,3
sasprovider should be encourage to use this resource to build well and more accurate model .,3
but the commission will discourage such effort if it require all sas propagation model to be develop in lock - step base on commission mandate .,-1
"this issue , moreover , be relevant beyond just the 3.5 ghz band .",-1
allow innovation in propagation modeling in the 3.5 ghz band will likely improve spectrum utilization across all band .,2
this be because information regard propagation model improvement in the 3.5 ghz band can be apply to propagation modeling problem in other band as well .,2
"for all these reason , the commission should adopt a baseline , safe - harbor propagation model but permit sas provider to deploy more advanced or innovative technique , provide they adequately protect incumbent .",4
"to ensure full protection of fss and other priority user , such model should be vet by the commission , ntia , or an appropriate expert organization such as itu study group 3 , under appropriately streamline process .",2
the commission should adjust its hardware certification process to allow device with superior out - of - band emission performance to access additional spectrum .,1
google agree with the commission that market incentive may .,0
encourageindustry to deploy radio with improve low adjacent emission and thereby havegreater access to spectrum .,1
adopt such an approach to out - of - band emission will require only minor adjustment to the commissions equipment certification framework .,0
"when a device be test for certification today , its out - of - band emission be measure only to confirm that they comply with the limit establish in the commissions service rule .",-1
"in fact , with respect to out - of - band emission , certification test report often provide only an affirmation that the subject device meet the require level for example , by providingplot of the out - of - band emission compare to the emission mask , rather than the actual emission level at all frequency as measure in the test lab .",2
"in order to enable well - perform device to take advantage of additional spectrum access as a result of their low out - of - band emission into fss frequency above 3700 mhz , the commission should make the follow change to its certification procedure for cbsdsfirst , certification report should specify the actual level of out - of - band - emission between 3700 mhz and 4200 mhz that be measure during testing .",2
"second , certification report should state the minimum level , in db , by which the device improve upon i.e. , be low than regulatory limit .",0
"when determine this level , the test lab should account for statistical variation in the manufacturing process .",0
"third , the test lab should categorize the device within a class base on how much it reduce out - of - band emission beyond what be require by regulation .",0
"for example , device that meet the minimum regulatory requirement may be designate as class 0 device , while device that exceed the regulatory requirement by 5 - 10 db in the 3700 - 4200 mhz band could be designate class 1 device .",1
"device that exceed the regulatory requirement by 10 - 15 db could be designate class 2 device , and so forth .",1
a 5 db step between class be a minimum meaningful performance differentiation .,1
"fourth , the device class should be include as a field in the fcc certification database .",0
"because the commissions part 96 rule require eachcbsd to include its fcc id number in the registration information providedto the sas , a sas could determine a register device out - of - band emission performance class by query the fcc certification database .",0
adopt these definition will ensure that sass can use device class information to calculate spectrum availability base on the device actual out - of - band emission performance .,0
take device characteristic into account when protect fss earth station in the upper adjacent band 3700 - 4200 mhz will maximize spectrum availability while ensure those station receive protection from harmful interference .,0
"by contrast , it may not be appropriate to take account of cbsds improve",2
out - of - band emission characteristic in protect military radar activity below 3550 mhz .,1
"sass generally will have no information regard the response of military radar to differ level of out - of - band emission , and therefore will have no basis upon which to take differing level of out - of - band emission into account when compute interference .",0
implement the suggested refinement require only small change in test lab procedure .,1
and the commissions certification database already support the concept of device class .,1
"unlicensed device in the television band , for example , be categorize as30mode 1 , mode 2 , or fix .",-1
"a review of the fccs equipment authorization search pagealso reveal multiple certification class that delineate between characteristic such asheld to ear , hold to face , and body wear , among other example .",0
"as such , establish device class for part 96 device will require minimal additional effort and willmaximize use of the 3.5 ghz band while protect incumbent operation .",1
conclusionthe commissions report and order in this proceeding lay out a framework thatshould enable intensive use of the 3.5 ghz band .,0
"refinement to the framework shouldcontinue to prioritize maximum spectrum utilization , while protect both incumbent andpal user .",2
