text,score
"softcominternet communications , inc . re fcc proceeding 12 - 354this letter be to voice our opposition to the proposal make by t - mobile and ctia regard the cbrs band .",0
"softcom internet communications , inc. be a wireless internet service provider operate in the central valley of california serve approximately 4,000 customer .",0
we offer download speed of up to 50 mop .,0
"our coverage area be predominantly rural , and we focus on bring the good possible service to area that incumbent provider refuse to service .",0
"since 2011 , we have invest significantly in equipment which provide service to our customer in the 3650 - 3700 band .",0
"we have recently begin invest in lte equipment in the past two year , with the strong belief that the several year of time that the fcc take in work with all the appropriate stakeholder include the wireless internet service provider association in the rulemaking process for the cbrs band would open up additional spectrum to wisp such as ours .",3
we also be thankful for the grandfathered protection include in the rule which allow us to continue to offer service to our customer use our investment in the 3650 - 3700 band equipment until we be able to replace it with cbrs compliant equipment .,3
"to hear that one of the large mobile carrier in the country and the lobby organization of the mobile carrier have file last second petition in an effort to fundamentally alter the cbrs rule in their favor be distress , to say the least .",0
"despite their claim to the contrary , the large mobile carrier be very anti - consumer , and their coordinated attack on the cbrs rule will drive many wisp most of whom be small business -- out of business .",-1
"community who lack affordable broadband service or any broadband service whatsoever will continue to be mire in the digital divide consumer choice will be stifle , and price will continue to rise .",-2
"over the year , the fcc have make enhancement to the minimum speed require for service to be classify as broadband , and this be a very challenging goal to continuously meet .",0
wisps such as softcom be ready and willing to meet the task .,2
many wisp be count on the cbrs rule to protect their exist 3650 - 3700 gear and the additional spectrum to help them meet the goal that the fcc have lay out these propose rule change by t - mobile and ctia,1
be effectively tell rural citizen that they do not deserve quality broadband service at an affordable price .,2
the fcc should not give in to the effort to control even more spectrum by a multibillion dollar company and the lobbying arm of a group of multibillion dollar company .,0
"for these reason , softcom internet communications , inc. strongly oppose the petition file by t - mobile and the ctia",-1
regard change to the cbrs band .,1
