text,score
introduction and summary.comment on the further notice of propose rulemaking fnprm demonstrate thatthe commission have an opportunity to transform the 3.5 ghz band into a platform for innovationand a resource for economic growth .,0
"google agree with other commenter that , to seize thisopportunity , the fcc shouldimplement small , dynamic exclusion zone rather than those identify in the national telecommunications and information administrations ntia fast track report .",1
adopt operate and license rule that take full advantage of spectrum access system sas capability .,2
"in particular , the commission shouldx finalize flexible rule that enable a wide range of small cell operation rather than tailor its regulation to a narrow set of usesadopt its propose three - tier licensing framework and assign spectrum dynamicallycreate priority access license pal area base on interference protection criterion rather than ill - fitting geographic boundary andprotect incumbent satellite earth station efficiently by use real - world information rather than bad - case interference assumption .",0
ensure impartial sas administration without undermine service competition .,0
the follow reply comment and accompany technical declaration focus on thesethree critical point .,-1
"small , dynamic exclusion zone will protect incumbents while encourage investment in the 3.5 ghz band.the record leave no doubt that the commission must revise its propose exclusion zone for incumbent federal radar system .",0
"not a single commenter support the commissions planto codify the exclusion zone set forth in the ntia fast track report , even as a starting point for a possible reduction of those zone in the future .",1
"first , it be unnecessary and inappropriate for the commission to use exclusion zone toprotect commercial operation from federal user in this band .",-3
this would be contrary to thecommission longstanding rule that low - tier operation must accept interference from high - tier user .,-1
"therefore , in contrast to ntias approach , the commission should consider only thepotential for harmful interference to federal system when determine appropriate exclusionzone .",-1
"do otherwise would set a dangerous precedent in spectrum management , render the3.5 ghz band unattractive for investor , and deter innovation by restrict commercialoperation base on speculative prediction about the amount of interference they will be able to tolerate .",-4
"second , even if the commission consider interference from federal user to commercialuser when calculate exclusion zone , googles recent test independently confirm that thefnprms propose exclusion zone be excessive .",-4
"the fcc base the propose exclusion zone on those suggest by ntia , which draw its zone in part to protect commercial base station from military radar system .",0
"the distance at which radar will cause interference into small cell network , however , be much small than that calculate in the fast track report .",0
"for example , the fast track report predict interference from the primary incumbent radar into a wireless network at a distance of up to 361 kilometer .",0
"as show in appendix a , however , real - world test use an actual incumbent radar and an lte picocell demonstrate that co - channel lteradar operation be possible with no discernible impact on the lte network at a distance of only 4 kilometer .",0
"this result in exclusion zone about 90 time small in distance and over 8,000 time small in area than those calculate in the fast track report .",0
laboratory testing suggest that lte performance can remain strong with separation distance from the radar of as little as 0.6 - 1.4 kilometer .,1
laboratory testing of wi - fi device produce similar result for operation that be not co - channel with radar .,0
google previous test result also show that the large exclusion zone originally propose by ntia be not necessary to protectfederal operation against interference from small cell deployment .,-2
these finding complement analysis submit by other commenter .,1
"third , the commission should adopt an engineering - base protection standard for federal incumbent rather than static , fix exclusion zone .",-1
"as federated wireless have observe , fix geographic frequency assignment [ would ] lead [ ] to significant spectrum and market inefficiency .",1
this be because incumbent ship - bear radar system be not static or fix .,-1
"the incumbent system be quintessentially mobile , and have highly vary spectrum usage pattern .",0
"moreover , fix exclusion zone do not take into account deployment condition forcommercial operation at a specific location , such as local terrain and whether a citizens broadband radio service cbrs network be operate indoor or outdoors .",-1
"as note in prior comment , google have deploy a prototype dedicate listeningdevice dld to identify the presence of incumbent radar system so that a sas can determine dynamically when and where an exclusion zone be necessary .",-1
"this researchindicate that it be straightforward to detect the presence of ship - bear radar operation evenbeyond the visual horizon , at a distance of more than 50 kilometer .",1
"at that distance , evenscore of cbrs device operate at full power from a high - rise locate directly on the shore , each use an outdoor antenna point directly back at the radar , would not create aggregate interference above the -10 db in objective of the radar .",-1
"in short , a dld be able to detectincumbent operation and inform a sas of the need to protect the frequency long before theincumbent receive harmful interference from secondary device .",-1
"even if incumbent operationsbegin suddenly , close to land , the dld will detect the operation , and the sas will be able to command local device to avoid the frequency .",0
several commenter have propose re - conceptualizing exclusion zone as coordinationzone .,-1
this be not necessary .,0
"as explain above , the zone establish to protect incumbentsshould change dynamically base on when and where federal incumbent system be in use .",1
"ifthe commission adopt this approach , federal operator would not be at risk of harmfulinterference anywhere they operate , so there would be no need for a time - consume , mutuallyburdensome coordination process in which each user seek permission from federal operator to access a static exclusion zone .",-3
"to be sure , the commissions rule should allow federaloperator to coordinate with commercial entity if they wish to do so .",0
"in such case , a sascould record such agreement and make spectrum available accordingly .",1
"the commissionshould not , however , permit the possibility of voluntary coordination with federal user toobscure the critical need to avoid over - protection of federal incumbent , nor should it revert tothe sort of resource - intensive , unpredictable coordination process that the sas be conceive toreplace .",-2
"rule that take full advantage of sas capability will enable innovation.as the pcast report conclude , [ a ] well - design [ f]ederal spectrum policy open upopportunitie for innovation and growth in sector that be barely imagine , much less well - define , when the policy choice be make .",5
"in order to implement such a policy , thecommission should prioritize flexibility for a range of cbrs operation and resist call to forcea traditional , macrocell license framework onto shared , small cell use of the 3.5 ghz band .",1
"the commission should adopt flexible rule to enable diverse , efficient small cell operations .",2
"the commission have recognize the opportunity small cell present to turn some of theperceive disadvantage of the 3.5 ghz band , such as limited signal propagation , into advantage .",-1
"accordingly , the commission should reject call to allow excessive power level , oversized license area , and other operating parameter that be inappropriate for small cell operation .",-3
the power level currently in use for femtocell and unlicensed consumer accesspoint be appropriate for the 3.5 ghz band .,0
"a limit of 36 dbm for these device have prove tobe high enough to allow network operator to achieve dense operation in other band , while alsopermitte efficient reuse of spectrum by nearby transmitter .",0
"since make vast amount ofadditional spectrum available for macrocell - type network deployment be not realistic , spectrumreuse be necessary to address the huge demand for more wireless capacity .",2
"and , as find by thepcast and the commission , the 3.5 ghz band be an ideal location for develop rule that facilitate reuse .",2
the commission therefore should adopt rule that be gear to achieve thespectrum reuse that be essential to meet wireless demand .,0
"within the framework of small cell operation , the commission should accommodate awide range of priority access and general authorized access gaa operation andapproache instead of cater to any particular exist technology .",0
"thus , while incumbentmobile carrier and their supplier largely envision this band as a home for heterogeneousnetworks hetnets and other conventional license network deployment use ltetechnology , the commission should decline to pick win technology or business model .",0
"flexible rule should make available sufficient spectrum for pal deployment by traditionalmobile operator and other interested licensee with different plan , while also allow gaauser to access designate spectrum as well as any pal spectrum that otherwise would lie fallow .",3
"even if fail to tailor the rule to promote expansion of major carrier network doesmake the band somewhat less attractive for a few establish operator in the short term , thelong - term benefit of use the band to promote a diverse array of network technology faroutweigh that consequence .",1
the fcc experience with unlicensed band demonstrate thepoint .,-1
"because the commission insist on neutral rule , a wide array of unlicensed spectrumtechnologie now contribute over 200 billion to the u.s. economy each year , and that number be increase at an astounding rate .",0
"the commissions neutral rule in the 2.4 ghz and 5 ghzbands allow innovator to make investment in new , risky , and low - cost technology thatare drive the tech economy today .",-1
the commission should not undermine the potential of the 3.5 ghz band to provide similar opportunity .,-1
"several commenter maintain either that the commission should not apply the new cbrs rule to the 3650 - 3700 mhz band , or that user operate in the band under part 90 subpart z should be entitle to operate under those rule indefinitely , even after the commission apply the new rule to this portion of the spectrum .",0
"these approach , too , would favor some operation over other .",1
"as google have note , incorporate a full 150 mhz of spectrum increase the attractiveness and functionality of the band for a diverse array of wireless operation , and will give all cbrs user great flexibility to operate in the presence of incumbent federal operation .",2
"the commission should grandfather exist fix wireless use in the 3650 - 3700 mhz band for a transition period , and otherwise prioritize regulatory simplicity , flexibility , and neutrality and certainly should not carve up the band by adopt different rule for different frequency .",1
a three - tier framework with dynamically assigned pal and gaa channels will maximize the utility of the 3.5 ghz band .,0
some commenter suggest that the commission should abandon its propose three - tiershare framework .,0
these commenter seek either a permanent two - tier approach or atransitional approach in which gaa user would share spectrum with priority access licensee only at some uncertain time in the future .,-1
the fcc three - tier framework will serve the commissions goal more effectively than these alternative .,1
critic of the three - tier framework mistakenly assume that a sas can not manage the interaction between pal and gaa user while protect incumbent .,-1
"but as spectrumbridge explain , [ e]xpande upon the functionality currently implement in the tv band for tvws to enable three 3 tier access be well within the technical capability of an sas.indeed , google have develop a work prototype sas that it present at the commissions sas workshop .",3
"that prototype provide all the functionality require in the fnprm , include protection of pal user from other pal user , protection of federal user fromaggregate pal and gaa operation , protection of pal user from gaa user , and relocation of gaa user when necessary to permit deployment of pal device .",3
the prototype can readily be scale to meet the need of cbrs operator nationwide .,1
several commenter claim that sass will impede their ability to manage ltenetwork .,-1
they be mistaken .,-1
"the role of a sas be limit to protect high - in - right usersand help implement the commissions minimum standard for cbrs operation , whileassiste efficient network deployment .",2
"as the commission have explain , sass would .",0
.take into consideration any channel request submit by [ device ] as well as geographic and spectral efficiency consideration .,1
"similarly , sass will aid in optimize use of the band for operator hold pal in adjacent area or multiple license within the same area .",0
"sass would not set power level for device in the band , but would merely [ d]eterminethe maximum permissible radiated transmission power level for [ device ] at a give location and communicate that information to the [ device ] .",1
"operator retain discretion to control theirown lte network , so long as their preference do not interfere with high - in - right user or hamper the efficient allocation of the band .",0
"sass also would not prevent pal with large aggregation of adjoining spatial orspectral license from operate on common frequency throughout their contiguous licenseholding , and in contiguous spectrum , to the extent possible .",0
"as explain in the accompanyingdeclaration of dr. preston marshall , sass can accommodate such operation by staticallyassigne pal reservation to contiguous logical channel .",1
"exist lte managementservice can accommodate these condition inasmuch as they will be similar to the condition onexclusively license spectrum , except that in the 3.5 ghz band , pals must avoid causingharmful interference to incumbent user .",-1
"far from be an impediment to manage lte network , dynamic frequencyassignment be a tool for provide the consistent service that lte customer seek .",1
somecommenter argue that this approach create risk .,-1
but quite the opposite be true .,0
dynamicfrequency assignment provide great certainty because the loss of any specific channel in anyspecific location do not result in the loss of pal right due to federal or fss operation .,0
"dynamic assignment ensure that operator have access to the well available spectrum channeland , by relocate operation when high - tier user claim their spectrum , minimize disruption to service .",2
dynamic assignment allow protection of federal incumbent and priority accessoperations while enable a seamless experience for end user of cbrs service .,3
"as discussedin dr. marshalls declaration , google have develop a propose framework that protect incumbent ongoing and episodic operation , while minimize disruption to carrier .",0
"as dr . marshall explain , sass should be design to minimize the degree of dynamic , or change assignment .",1
they should only use dynamic feature to avoid situation in which pal userswould otherwise lose access to pal spectrum .,0
a two - tier framework would not eliminate the need for sass .,0
"some commenter have suggest that in a two - tier framework , cbrs operation couldbe implement with primitive sass or without any sas at all .",-1
these commenter disregardthe entire thrust of this proceeding .,0
the commission propose to determine interference condition base on the total aggregate interference from all user because this will dramatically increase the utility of the 3.5 ghz band .,-2
"such an approach enable device to make dynamic use of the spectrum , rather than unnecessarily limit the capability of each individual device .",1
"implement this approach require both knowledge of all relevant device in the band , regardless of tier , and the ability to ensure that the aggregate activity of the device be not harm high - in - right user .",0
"whether in a two - tier framework or a three - tier framework , a robust sas be need to implement this efficient sharing by cbrs operator .",2
"include the 3650 - 3700 mhz band , cbrs device will have access to fifteen different 10 mhz channel .",0
"so long as multiple pal holder be permit to operate in the same geographic area , no individual pal holder will be aware of the emission of all other priority access licensee in the same band .",0
"without a sas , pal holder would not be capable of ensure that their incremental contribution to aggregate emission be below the level that would trigger protection of incumbent .",3
"the commission would need to limit pal operation base on bad - case interference modeling , thus dramatically limit the utility of the band for commercial service .",-4
"google demonstrate the functionality of its sas at the commissions sas workshop onjanuary 14 , 2014 .",0
"below be two figure excerpt from the presentationthe blue dot in figure 1 represent an incumbent fixed satellite service fss earth station , and the red dot represent area where full - power cbrs operation be categorically prohibit in order to protect that earth station .",0
the orange dot show the permissible area for placement of a single cbrs device in the absence of any other device in the vicinity .,0
"although the exclusion zone require for a single device be quite small , the interference margin be consume by those exist device as additional cbrs device enter service , and there be less and less opportunity for additional cbrs device .",-2
figure 2 depict the sas view of the same area as more device enter .,0
operationalcbrs device be show in orange .,0
device that the sas do not permit to transmit,0
be shownin red .,0
"as note above , only a system with knowledge of all user in the cbrs band canaccurately determine the extent to which interference margin have be affect by existingdevice and assess whether additional device should be permit .",-1
"in the absence of such asas , each cbrs operator would need to restrict its own use formulaically , in order to ensureprotection of incumbent operation base on mere assumption about what other cbrs user may be do .",-2
"similarly , efficient management of priority access operation to accommodate federal need or to avoid interference with fss require awareness of other pal and gaa user .",0
"in particular , if federal incumbent displace a pal holder on a give channel , the coordination provide by sas will allow seamless relocation of gaa user to free up another channel for the licensee priority access use .",1
"as a result , a robust sas be critical to manage the 3.5 ghz band efficiently .",1
base pal areas on interference protection need will avoid waste .,-1
geographic unit like census tract be a poor fit for small cell operation because their boundary bear no relationship to the edge of wireless network coverage this mismatch will lead to substantial under - use of available spectrum .,2
"if the fcc use census - tract - base license area , an operator that obtain a license to deploy a small cell network to cover a building or group of building will block any other priority access use of that channel throughout the entire census tract , regardless of how little of the tract the licensee be use .",0
some census tract cover ten of thousand of square mile .,0
"give grow demand for limited spectrum resource , the commission can not afford such waste .",-1
"the commission should reject call by some commenter to compound this problem by adopt even large geographic license area , such as county .",-2
"while census tract haveserious drawback as license area , they be axiomatically large in geographic size and mostinappropriate as a pal licensing unit in those area with the low population density .",-1
"thus , census tract be bad where the need for additional commercial wireless spectrum be least .",-1
"county , by contrast , be frequently enormous even in populous area .",0
"for example , eight of theten large city in the united states be within a single county .",0
"los angeles county alone cover more than 4,000 square mile and be home to more than 10 million people .",0
to assign asingle license for small cell cbrs operation across the entirety of los angeles countyexclude other priority access operation on the same channel everywhere in l.a.would beprofligate use of spectrum resource .,0
"as the pcast report correctly recognize , large license area effectively deny small potential user an opportunity for protect spectrum right .",3
"for example , only the largestentitie would have the mean to secure a 10 mhz band of spectrum across a large city .",1
"incontrast , small license area will lower barrier to entry and tend to increase the number ofparticipant in the market , which in turn will foster deployment of new technology and business model .",0
sass should use real - world information to protect incumbent satellite earth stations .,1
"numerous commenter agree with the commissions assessment that sass can useinformation about device , earth station , and operate environment to maximize the spectrum available for cbrs network while protect fss earth station .",2
"nevertheless , some fssuser continue to argue that the commission should base its protection of fss earth station ongeneric assumption that over - protect the incumbent service , rather than take full advantage ofsass capability to establish protection zone that be correctly sized for the real - world environment .",6
this inefficient approach would unnecessarily constrain commercial use of the3.5 ghz band .,-1
"for example , the satellite industry association sia recommend over - sizedexclusion zone base on two factually flawed premise 1 that sass will not be able toconduct the require propagation modeling , and 2 that determine aggregate interference willbe unworkable .",-2
"in addition , sias technical analysis use unrealistic bad - case scenario andunsubstantiate assumption to justify overbroad protection .",-1
"with regard to sia assertion that propagation modeling will be challenge , the commissions own rule demonstrate that such modeling be feasible .",2
"as google already have show in this proceeding , nearly ten year ago the commission provide an analytic framework for determine interference to c - band downlink from in - band operation .",-1
the same methodology can be use to compute both adjacent channel interference and out - of - band emission to fss operation above 3.7 ghz .,-1
"the commission should rely on this well - establish approach in address interference protection requirement , although the framework should be modify slightly to constrain the range of protect azimuthelevation to those occupy by domestic fss service above 3.7 ghz and actual satellite usage below 3.7 ghz .",2
"moreover , this methodology can be apply use baseline information regard",1
"the fss service , such as fss site location , actually occupy domestic satellite slot , and commercial filter and receiver noise performance , as well as baseline information regard cbrs device , such as their location , power , and directionality .",1
"while fss operator and device manufacturer should be free to provide additional datum that may improve protection modeling , these basic requirement will provide sufficient information for sass to calculate appropriate protection without great complexity .",7
sass can also account for aggregate interference .,-1
"google demonstrate this functionality at the fcc sas workshop on january 14 , 2014 .",0
"as note above and in the accompanying declaration of dr. preston marshall , moreover , modern computing technology ismore than capable of scale this functionality to account for million of cbrs device .",2
"to the extent that sia rely substantially on the assumption that most cbrs device will be mobile , its assumption be erroneous",-1
"it be more likely that most device will be fix access point , while end user device will operate in client mode only .",0
"end user equipment will have to communicate with one of these access point in order to gain permission to operate , while the sas will interact directly only with the access point .",1
"even if access device move , the accuracy requirement propose by the commission will likely require that the device re - register and request authorization .",0
"therefore , device mobility should not create a significant issue in protect fss or any other service .",1
sias analysis also rely on a number of flawed and unsupported technical assumption .,-2
"first , sia assume that fss operation have little margin to interact with cbrs device , because they be receive substantial interference from exist federal use .",-1
but sia provide no evidence or reason to substantiate its argument that half of its propose interference margin should be allocate to federal user .,-1
"sia approach , therefore , unjustifiably reduce the propose sas interference margin by 3 db.second , sias propose protection contour in section 1.4 of its technical annex conflate bad - case and average scenario .",-1
"as sia concede , the recommend protection area represent the maximum envelope above all of the test scenario .",1
"by apply the maximum envelope to all fss site , sia analysis admittedly overprotect all but one fss sitein the country .",0
"such protection be absolutely unnecessary , as the location of each protect fss site be know , and satellite position be fix .",1
"relatedly , sia analysis fail to account for the effect of actual antenna gain , directionality , and elevation angle that be specific to each site .",0
"in most location in the united states , elevation angle be high enough that the antenna gain will be no more than the front - to - back ratio of the antenna .",2
the front - to - back ratio of an antenna be define as the difference in db between the maximum gain or front of the antenna usually 0 degree and a point exactly 180 degree behind the front .,1
rely on these front - to - back ratio reduce the power by more than 30 db as compare to sias analysis .,0
"even in location with low elevation angle , the result geographic restriction be minimal because the exclude area be likely to be long but very narrow in shape as a result of the directionality .",-1
"lastly , in most case , any directional antenna use would not be point squarely at the fss site , as sia unrealistically assume in its filing by rely on high eirp that can only be achieve use significant directionality .",1
"the sas should be inform of antenna directionality when cbrs assignment be request so that the sas can evaluate these impact , thereby eliminate the need to restrict the operation of all device base on hypothetical or unlikely bad - case deployment .",-3
"finally , sia compound these technical error with a policy argument that turn spectrum right upside down that the commission should preclude cbrs operation to guard against disappoint[ment ] by priority access operator .",0
pal operator will establish their network know that they lack interference protection from incumbent fss and federal operationsalike .,-1
"because adjacent band fss location be relatively stable , and in - band operation arefixe as a result of the commissions freeze on new fss operation in the 3550 - 3700 mhz band , priority access user will have full visibility of potential restriction to protect these site beforeinveste in deployment .",0
there be no reason to believe that due diligence on the part ofpotential priority access operator would not identify those region at risk of constraint ondeployment .,0
the fcc regulation nee not protect against disappointment on the part of anycbrs user .,0
satellite interest also understate the effectiveness of mitigation technique that canreduce the need for large exclusion zone .,0
"for example , national public radio npr arguesthat earth station filter would only be partially effective in reduce interference from cbrs operation .",0
npr appear to base this claim on its characterization of the performance of a single low noise block filter .,-1
"as google have previously explain , however , numerous filtervendor have develop the radar elimination filter intend to protect fss earth station against exist high - power military radar system in the 3.5 - 3.7 ghz band .",0
"this equipment , which be widely available for less than 500 , can be use to filter out interference from small cell operation .",0
the commission should take account of available filter performance when create final rule to protect fss operationscertainly before impose a restriction that would dramatically reduce the value of the cbrs band .,0
require sass to account for the geolocation abilities of different device will permit technological flexibility and promote efficiency .,1
the commissions proposal to require device to detect location within 50 meter horizontally and 3 meter vertically be unreasonable and unnecessary to protect incumbent operation .,-1
"instead of establish a bright - line rule that require every device to meet this accuracy requirement , the commission should allow location accuracy to be a characteristic of each device , and allow sass to calculate bad - case interference base upon the location capability of the device .",0
this will allow technological flexibility while create incentive to invest in develop device with improve geolocation capability .,3
"the fcc inquiry into indoor location accuracy in the 911 context demonstrate that 50-meter horizontal accuracy be not technologically reasonable today , and the 3-meter vertical accuracy requirement even less so .",1
"there , the commission propose rule that would require horizontal location within 50 meter of the caller for 67 percent of call within two year , and for 80 percent of call within five year , plus vertical location estimate within 3 meter of the callerfor 67 percent of call within three year , and for 80 percent of call within five year .",0
but therecord in that proceeding be clear that these propose benchmark can not be meet .,1
"although some emerge technology have show promise in test , none can comprehensively meet a 50 meter3 meter requirement today .",1
"this be equally true for the 3.5 ghz band , and perhaps evenmore so because 3.5 ghz device will generally not include the large variety of receiver andtransmitter band that be available in cell phone to assist with geolocation .",2
"fortunately , the commission need not establish a bright - line 50-meter3-meter accuracyrequirement for 3.5 ghz device in order to protect incumbent operation .",3
the role of locationaccuracy in the 3.5 ghz band context be different than in the 911 context .,0
"here , the goal be toensure that a commercial device do not operate at a geographic point that will result in harmfulinterference , rather than to allow public safety personnel to determine the exact location of anindividual .",0
"a device that can not provide 50-meter3-meter accuracy can still operate effectivelyin the repurpose 3.5 ghz band , as long as it protect high - priority user by operatingconsistent with its location capability .",2
"this approach would continue to protect incumbent butallow less precise device to operate in all the area that be consistent with the device location - determination capabilitiesincrease flexibility , incentivize efficiency , and improved device performance , all while account for the reality of today available technology .",6
"relatedly , the commission should establish a confidence interval for report location information .",1
the commission have take a similar approach in the wireless e911 location accuracy requirements proceed by propose that 67 percent of call must meet horizontal accuracy requirement within two year and 80 percent of call must meet those requirement within five year .,0
"while the fcc propose accuracy requirement in that proceeding be not reasonable , its use of a confidence interval be the right approach .",3
"the commission should assign a similar probabilistic requirement in the 3.5 ghz band in order to avoid harmful interference , because meet a specific location accuracy requirement with absolute certainty under every conceivable circumstance simply be not physically possible .",-2
"the commission should establish rule that ensure impartial service bysa administrators , but should not prohibit administrators from obtain pals.competition among multiple administrator be the good way to ensure that sass provide high quality service .",1
competition will drive sas administrator to innovate and improve their performance .,1
the propose rule require each administrator to make its service available on a non - discriminatory basis .,0
"moreover , with competitive sas administration , customer who be dissatisfied with the service offer by their current sas administrator can go elsewhere .",0
"a commission rule that prohibit sas administrator from obtain pal , as suggest bymicrosoft , would only discourage party from invest to design and manage a sas , thusreduce competition - base protection against discriminatory sas administration .",-2
the commission rightly decline to impose that sort of restriction in its tv white spaceproceeding .,-2
"although the fcc require white space database administrator to make theirservice available on a non - discriminatory basis , administrator be not prohibit from use white space .",-1
"microsoft itself oppose a rule that would bar tv white space databaseadministrator from have the right to use the spectrum their database administer , note that such a rule would lessen beneficial competition .",1
microsoft explain that the commissions ban on discriminatory treatment of customer be sufficient .,0
microsoft wasright .,0
"conclusion.for the reason state above , the commission should 1 adopt right - sized , dynamicexclusion zone to protect federal incumbent operation 2 take full advantage of sascapabilitie to promote efficient spectrum use and 3 prohibit discrimination by sasadministrator without prevent administrator from obtain pal .",2
"by do so , the commission will well advance its goal of support innovation and maximize the utility of the 3.5 ghz band .",3
