text,score
tarana wireless hereby submit comment in response to the commissions further notice of propose rulemaking fnprm in the above - referenced proceeding .,0
"introductiontarana wireless have pioneer the development of absoluteair , the world only universal backhaul solution that meet operator requirement for metropolitan small cell backhaul deployment and fix wireless access .",0
it provide the flexibility and simplicity of deploy,1
wireless backhaul anywhere small cell be locate without compromise capacity or link reliability .,0
"build from the ground up as a carrier class product , this breakthrough innovation combine ubiquitous coverage , unprecedented capacity and scalability , and unparalleled cost effectiveness in both non - line - of - sight nlos and line - of - sight los installation that can not be meet by any other offering .",4
"april 23 , 2014 fnprm.response on",0
incorporate an additional 50mhz to the nprmwe,0
"applaud the commission effort to make additional spectrum available to address the exponential growth in wireless network capacity demand , and we encourage opening up the additional spectrum in the 3550 3650 mhz band .",3
"however , tarana strongly oppose thecommission proposal to extend the consider regulation to include the 3650 - 3700 mhz band , the reason outline below in paragraph 1 - 6 .",-1
tarana also provide reply comment and propose additionsmodification to the propose rule in the 3550 3650 mhz band to further promote improve spectral efficiency and economic viability of the band .,1
they be provide in paragraphs 7 - 10.the exist regulation in the 3650 3700 mhz band,0
be effective,1
"give severe interference potential in the 3550 3650 mhz , and the number of incumbent federal operation that need to be protect , an innovative but complex licensing scheme like the one propose be necessary .",0
"however , potential for interference in the 3650 3700 mhz be far less , allow effective sharing under the exist regulatory framework , without the additional restriction , licensing complication and additional cost incur by switch to a new set of rule .",-2
the 3650 3700 mhz band be important for nlos backhaul .,1
small cell deployment will play an increase role in the deployment of wireless infrastructure .,0
"to that end , opening up 100mhz of additional access capacity in the 3550 3650 mhz provide much need additional spectrum .",0
but large - scale small cell deployment can only happen if cost - effective backhaul solution be available .,2
"with backhaul cost represent the lion share ofoperator small - cell deployment capex , large - scale small cell deployment hinge on a cost - effective backhaul alternative .",1
"in many case , this cost - effective solution be nlos backhaul .",1
"the 3650 3700 mhz represent a very important band for nlos backhaul , especially since there be few other band usable for this application in us .",2
"a strong ecosystem of equipment provider be form - include tarana wireless - and these provider have develop highly - innovative , high - capacity backhaul solution in this band , with major carrier plan to deploy it at scale .",2
"a change in the regulation for this band would make such equipment obsolete , and would hurt and delay small cell deployment .",-3
"finally , the experimental nature of newly propose regulation , and the associated risk of poor performance or additional subsequent regulatory change constitute a strong deterrent for any large - scale backhaul deployment in the band .",-2
nlos technology in the 3650 - 3700 mhz feature very high spectral efficiency .,0
give that nlos backhaul technology,0
"be generally not follow a particular standard at the phy layer , there be a large potential for innovation .",1
"the introduction of advanced antenna - array processing , beam - forming and interference cancellation technology , nlos backhaul system feature spectral efficiency that be much large than the one achievable today in access system .",1
"for example , the tarana wireless aa2 system achieve a spectral efficiency of 60bpshz , much high than any access system .",0
this allow backhaul system deploy in very little spectrum to backhaul access deploy over much wide channel .,0
"maintain exist regulation in the 3655 - 3670 mhz band will allow the deployment of such system , which will make for an optimize use of the band .",0
"sas model great for access , backhaul need to be always on .",1
"while the adoption of a sas - base licensing model may be adequate for a range of access system , the slarequirement be very different for backhaul system , which need to be highly available andreliable , essentially always - on .",2
this be not achievable in the sas model .,1
"a change in regulation will hurt incumbent , but also new entrant in the band .",-1
"change regulation to the 3650 - 3700 mhz can hurt incumbent who , even if grandfathere over a period of 5 year , will need to reduce the emitted power level of their deploy equipment in accordance to new regulation .",-1
but it will hurt even more the mobile operator plan to deploy nlos backhaul for small cell in the near future .,-1
"for these new deployment , the reduction in allowable eirp will limit range and capacity of backhaul systems essential in this application , while the short licensing period and the large number of licensing area will make the use of the band much less attractive and practical .",0
"large investment to date , financial hardship , loss of business at the time tarana wireless commence develop its absoluteair line of product in 2011 , and in year to follow , discussion with a number of mobile operation reveal that the 3650 3700 mhz band be a prime candidate for large - scale deployment of cost - effective nlos backhaul for small cell .",-1
"the original pcast recommendation bolster this business case , with the promise of free up an additional 100mhz spectrum for small cell .",4
"give this , tarana wireless have decide to invest million of dollar and year of research and development in order to build a nlos backhaul system in this band .",0
"the result of these activity , taranas aa2 product line , be schedule to launch commercially at the end of 2014 , and position for immediate large - scale deployment with a number of customer .",0
"a change in the 3650 3700 mhz regulation would result in significant loss of business , with most prospective customer re - evaluate",0
their plan of use 3650 3700 mhz band for backhaul .,0
"even if backhaul inthis band will remain a possibility , implement the necessary equipment change would introduce year of additional delay and million in additional expenditure .",-1
multiple point to point for backhaul .,0
tarana seek to clarify the rule for point to point to system operate in the 3550 -3650 mhz .,0
point to point system will be primarily use for small cell backhaul in this band .,0
common deployment scenario consider that small cell will be deploy with 2 to 4 small cell per sector of a macro cell 3 sector .,0
the small cell backhaul will typically terminate at a fiber point to presence typically available at a macro - cell site .,1
"in this use case , multiple point to point radio will terminate at the macro cell or fibre point of presence .",0
tanana seek to clarify that each link may operate with a conduct power 30 dbm and eirp 53 dbmi as describe in section 96.38 b of the propose rule .,0
we note the each link carry independent information and narrow antenna beam pattern do not overlap no significant power summation because the backhaul seek minimize interlink interference .,0
fcc innovative rule to improve spectral efficiency reuse in the 3550 to 3650 mhz band .,2
"in part 15.247 , operation within the band 902 - 928 mhz , 2400 - 2483.5 mhz , and 5725 - 5850 mhz , the fcc adopt rule to promote improve spectral efficiency in this proceeding .",1
"tarana recommend similar rule for the 3550 to 3650 mhz band to promote improve spectral efficiency and low interference at the seam of the service areas define by the 74,000 census tracts .",1
"our recommendation be as followsfixe , point - to - point operation and multiple point - to - point operation , exclude the use of multiplexed point - to - multipoint system , omnidirectional application , and multiple co - located intentional radiator transmit the same information .",1
"transmitter operate in the band that emit multiple directional beam , simultaneously or sequentially , for the purpose of direct signal to individual receiver or to group of receiver provide the emission comply with the follow .",0
different information must be transmit to each receiver .,0
"if the transmitter employ an antenna system that emit multiple directional beam but do not do emit multiple directional beam simultaneously , the total output power conduct to the array or array that comprise the device , i.e. , the sum of the power supply to all antenna , antenna element , stave , etc .",0
"and sum across all carrier or frequency channel , shall not exceed the limit",0
specify however,0
", the total conduct output power shall be reduce by 1 db below the specify limit for each 3 db that the directional gain of the antennaantenna array exceed 6 dbi .",1
the directional antenna gain shall be compute as follow the directional gain,2
shall be calculate as the sum of 10 log number of array element or stave plus the directional gain of the element or stave have the high gain .,2
"a low value for the directional gain than that calculate in paragraph b will be accept if sufficient evidence be present , e.g. , due to shade of the array or coherence loss in the beamforming due to multipath or other environment effect .",2
"if a transmitter employ an antenna that operate simultaneously on multiple directional beam use the same or different frequency channel , the power supply to each emission beam be subject to the power limit specify in section 96.38 b of the propose rule .",-1
"if transmit beam overlap , the power shall be reduce to ensure that their aggregate power do not exceed the limit .",0
"in addition , the aggregate power transmit simultaneously on all beam shall not exceed the limit specify in section 96.38 b of the propose rule by more than 8 db.phase in the strict out of band emission limit .",-2
tarana support the rule that emission limit below 3520 mhz and,0
above 3680 mhz shall be attenuate below the transmitter power p in watt by at least 70 10,0
"however , these limit require technology such as low cost fbar filter or low cost custom saw filter .",-1
"due to the experimental nature of this band , uncertainty exist .",0
the design and fabrication of filter require very large investment to produce filter that can be manufacture at low cost .,-1
filter vendor be not go to make the capital investment without market size visibility of million of unit .,0
"due to the experiment nature of the band , it be not certain that market will develop in a robust fashion .",1
"accordingly , tarana recommend a phase in of this requirement .",1
"it be estimate that pals can be auction within one year , first article equipment with standard filter available in year 2 , custom rf filter design , fab and test within year 3 give credible use of the band indicate that volume can be achieve , and compliant equipment available in year 4 .",4
"accordingly , tarana recommend full compliance with the 70 10 log10p db requirement after 5 year from adoption .",1
"until then , 43 10 log10p db should be the requirement .",0
we believe this will encourage the rapid adoption of the band and ultimately serve the public with the benefit of superior out of band emission once volume be confirm in this band .,4
tdd time synchronization promote well spectral efficiency .,1
the 3.55 to 3.65 ghz band be a tdd band by design and regulation .,0
"it be well known , that if the cbsd and end user device be synchronize in time that interference be minimize between in - cell user and inter - cell user .",0
this in a fundamental requirement in td - lte .,0
"accordingly , tarana propose to coordinate and minimize in band , adjacent census tract , and adjacent band interference by standardize on the td - lte frame structure .",-1
this standard provide,0
several well know frame format and configuration .,1
"moreover , by propose a standard - base frame structure , the fcc canminimize the interference discontinuity at the edge of the service areas define by thecensu tract .",-2
"to wit , there be 74,000 census tracts x 10 band of 10 mhz each .",0
"the number of census tracts bands be over 740,000 .",0
the prospect for increase spectral efficiency be just stagger through coordination of the tdd timing .,0
