text,score
"the rural wireless association , inc. rwa and ntcathe rural broadband association ntca hereby submit joint comment file in response to the federal communications commission fcc or commission wireless telecommunications bureau wtb and the office of engineering and technology oet public notice seekingcomment on petitions for rulemaking petitions file by ctia and t - mobile , usa , inc. t - mobile .",0
"the petitions request a new rulemaking proceeding to adopt certain requested rule change to the license framework in the citizens broadband radio service cbrs establish in the 3550 - 3700 mhz 3.5 ghz band , as well as several ex parte filing in",1
"12 - 354 , the cbrs rulemaking docket that be initiate in 2012 .",0
"rwa and ntca oppose the petitions and , at the onset , assert that they should be dismiss as untimely petition for reconsideration .",-2
"if the petitions be not dismiss on procedural ground , then rwa and ntca urge the commission to deny the petitions insofar as they propose major rule change to the establish three - tier cbrs license structure discuss below that , if adopt , would delay the service commercial implementation and undermine the commissions goal of provide economic opportunity to a wide variety of applicant",-2
include numerous 3650 - 3700 mhz license holder that be transition into the 3.5 ghz band .,0
the t - mobile and ctia petition should be dismiss as untimely petitions for reconsideration .,-1
"as an initial matter , rwa and ntca maintain that the t - mobile and ctia petitionsshould be dismiss pursuant to section 405 of the communications act of 1934 , as amend act and section 1.429 of the commissions rule as untimely petition for reconsideration .",-1
ctia and t - mobile both have avail themselves of the opportunity to participate in multiplecomment round during the establish rulemaking proceeding and again under reconsideration .,0
ctia be one of several entity that file a petition for reconsideration in gn docket,0
12 - 354 in 2015,0
and that be consider and dispose of by the full commission .,0
t - mobile alsoparticipate in the reconsideration cycle .,0
"after a lengthy and exhaustive rulemaking commentperiod , the full commission unanimously adopt the cbrs rule in 2015 and later , uponreconsideration , modify in part and affirm its rule in 2016.since that time , a wide array of diverse stakeholdersincluding small and ruraltelecommunication and broadband provider throughout the countryhave invest resourcestoward new and innovative deployment while rely upon a predictable regulatoryframework .",1
"now , the very filing of these petition , let alone the prospect of a major licenseoverhaul , have cast a pall of regulatory uncertainty over the cbrs band .",0
"the petitions introduceundue delay to the implementation of the cbrs , include the commissions ongoing spectrumaccess system administrators and environmental sensing capability operator approvalprocess , and may chill further investment by stakeholder .",-1
"moreover , in substance the petitions largely revive argument that already have be consider and address by the commission , twice in some case .",1
"among other thing , the commission have already consider and adopt rule cover license designation in the 3.5 ghz band , priority access license pal term length , and pal license area size , all of which be the subject of major cbrs licensing modification propose in both petition .",0
"accordingly , the petition be unmistakably nothing more than late - file petition for reconsideration that should be dismiss on procedural ground alone .",0
"even if the commission be to consider the petitions for reconsideration , reconsideration would be warrant only if the petitioners cite error of fact or law , or present fact or circumstance that raise substantial or material question of fact that otherwise warrant commission review of its prior action .",-1
the petitioners have not show any error with respect to the fact or law nor have they make a showing that acceptance of the late - file petition for reconsideration would benefit the public interest .,1
the commission should not modify pal area to partial economic areas .,0
"census tract - base pal license area be adopt by the commission to allow flexibleand target network deployment , to promote efficient use of the spectrum , and to allow easy aggregation to accommodate large network footprint .",2
"census tract vary in size and population density , and in rural area of the country they can be large and sparsely populated .",0
the commission also find census tract to be practical as they nest into common license arease.g .,0
", cellular market areas , economic areas , and partial economic areas pea as well as political subdivision .",1
"significantly , the commission note that the mandate of section 309j strongly support its goal , particularly in prescrib[ing ] area designation , of provide economic opportunity to a wide variety of applicant .",2
"here , the commission expressly praise the low capital investment requirement associate with small service area and note that the large , traditional license area be inconsistent with its desire to promote innovative , low power use in the cbrs band , such as small cell .",1
"the commission also expressly note that traditional licensing area will not allow user of the band to acquire pals only for those specific geographic area they intend to serve and that [ d]iveste large , unwanted swath through secondary market transaction could impose significant transaction cost .",-1
"conversely , entity that wish to serve traditional geographic license area be free to aggregate multiple contiguous census tract .",1
"now , at well past the eleventh hour , the petitioners grasp for a second or even third bite at the apple by seek to upend the cbrs license framework and request that pal be license on a pea basis .",1
petitioner also request that the cbrs rule be modify so that pea - base license may be partition and disaggregate through the secondary market .,0
"permit such a major modification of the license framework would be an about - face for the commission , as it would restrict economic opportunity to a small pool of applicant .",-1
pea - base license would inherently cause price to skyrocket and would freeze out many small and rural provider and particularly new entrant from the auction process .,-1
"instead , the framework advocate by thelarge national mobile network operators mnos would impose significant secondary market transaction cost on a broad group of small entity that desire cbrs access .",1
"bad yet , for over two year many of these entity have be rely upon and make investment on the basis of the commissions exist cbrs license frameworkone that have run its course include through reconsideration .",-1
"small , rural provider have the desire and motivation to serve rural community .",0
change the geographic area licensing scheme at this late date all but ensure that no small provider will successfully utilize the spectrum .,1
"only large carrier i.e. , the petitioners have the resource necessary to offer service on a pea basis .",0
"it would be a mistake , ultimately harm rural consumer and the objective of competition , to deny rural provider the opportunity afford by the spectrum at issue .",-3
in no event should the commission modify pal license area to pea .,0
the commission should not designate the entire 3.5 ghz band for pal use .,0
"t - mobile , the third large u.s. mno , propose that the commission designate for paluse the entire 3.5 ghz band i.e. , all 150 megahertz rather than the current 70 megahertz limit with any remain unclaimed spectrum make available for opportunistic general authorize access gaa use .",-1
"under this proposal , in - band spectrum aggregation would be limit to50 megahertz and would permit three entity to hold and aggregate cbrs license in a market area most likely the three large mno .",-1
"rwa and ntca urge the commission to reject this proposal as it would shut out many small and rural provider and new entrant , and essentially would obliterate the gaa tier .",-2
relegating gaa only to opportunistic use in area where there be no pal usage render the tier entirely unpredictable and unviable .,-2
"moreover , pal auction with all 150 megahertz would be win primarily by well - heel buyer and would largely shut outsmall and rural provider , startup , and new entrant .",2
entity that lack the resource to ensure a successful result at a pal auction would be leave with a haphazard gaa market .,-1
"as adopt , the commissions divide framework of pal and gaa be intend to promote innovation and flexibility as well as to help prevent spectrum warehousing .",3
"the three - tiere framework reflect the commission goal of ensure that a stable and significant quantity of spectrum be available for both priority access licensees and gaa in order to foster innovation , encourage efficient use of the band , and create an environment conducive to a wide array of potential user and use .",6
"in reject propose policy that would preclude opportunistic use and limit the scope of potential gaa deployment , the commission note that such policy would encourage spectrum warehousing and disincentivize efficient use of the band .",-1
"rather , the commission indicate that it be in the public interest to ensure that the 3.5 ghz band be make widely available to citizens broadband radio service user regardless of their operational tier ...",1
"there be nothing in the petition that should call into question these conclusion , and thus the commission should leave the three - tier cbrs license framework intact .",0
the commission should not lengthen the pal license term to ten year .,0
"the current pal license term of three year , which be renewable only after the initial term for another three year , be never intend to mirror the traditional exclusive licensing regime .",0
"rather , the commissions rule aim to promote deployment by a wide range of service provider and low cost of entry .",0
this framework promote additional broadbanddevelopment in rural area and lower the barrier to entry for small and rural provider as well as new entrant .,1
"additionally , the adopted framework do not foreclose nationwide mobile wireless provider from participate .",0
pal holder that be not able to obtain exclusive pal right after a three - year term may use their equipment as a gaa user .,1
ctia and t - mobile request that the commission modify the pal license term from three to ten year with a renewal expectancy .,0
"both petitioners previously address the issue of license term length in the rulemaking proceeding , propose various multi - year term in response to the one - year term initially propose by the commission .",-1
"as a compromise , the commission adopt and later affirm a three - year pal license term with no opportunity for renewal except after the initial term .",1
"in justify its decision to maintain a three - year non - renewable term despite request under reconsideration by ctia and other to extend the term , the fcc explain its continue belief that this structure strike[s ]",0
a balance between some commenter desire for flexibility with other commenter need for certainty .,1
"the commission determine that the argument raise by ctia and other concern license term be already thoroughly consider by the commission in the 3.5 ghz ro.importantly , the commission continue[s ] to believe that the current rule will effectively incentivize network investment particularly give the difference in the nature and scope of service in the share cbrs band .",0
"ctia argue in its petition for reconsideration that deploy a network take several year , and that six year be not a sufficient time period tobuild a network and obtain the financial return an operator would need to justify make such investment .",1
"among other thing , ctia argue that factor such as standardize a new frequency band , develop and certify equipment , undergo site acquisition and local zoning and permit process , deploy infrastructure and incorporate the band into consumer device demand license term of at least five year with renewal expectancy .",0
"nevertheless , the commission determine that ctia offer no support for this assertion .",1
"instead , the commission conclude that the economic and upgrade cycle for small cell use may resemble those for wi - fi deployment rather than traditional macro cell deployment and emphasis on the small pal license area size .",0
"now , ctia and t - mobile both repeat that same refrain that the current license term rule create a risk that a pal licensee would face stranded investment , which in turn would diminish the attractiveness of pal and harm the potential of",-2
the three - tiere cbrs spectrum access regime .,0
"on reconsideration , the commission have find there to be a lack of support to justify lengthen the license term to five year with a renewal expectancy .",0
"here , no new support be offer to justify an even long license term of ten year plus a perpetual renewal expectancy .",1
apply the traditional exclusive licensing regime model to the cbrs would completely undercut the commissions innovative objective with the band and would encourage large provider to accumulate cbrs spectrum in contravention of section 309j of the act to prevent stockpiling or warehousing of spectrum .,1
"accordingly , the commission should deny the request to increase the pal license term to ten year .",-1
"if , however , the commissiondetermines that a modification to the pal license term be appropriate , then rwa and ntca would support a pal license term range from three to five year with the opportunity to renew for another three- to five - year term .",2
"such a modification would accommodate the infrastructure challenge raise by ctia e.g. , siting , zoning , permit , which can be particularly challenge in rural area .",0
conclusion .,0
"base on the foregoing , the ctia and t - mobile petitions for rulemaking should be dismiss or deny .",-1
"the commission should remain committed to unanimously adopt and affirm rule , and refrain from major rule change that would undermine current investment , market expectation , and ability of operator and investor to rely on the commission rule .",0
