text,score
introductiononcor be a regulate electric transmission and distribution service provider .,0
"oncor operate the large distribution and transmission system in texas , serve ten million customer and provide power to three million electric delivery point over more than 103,000 mile of distribution and 15,000 mile of transmission line .",0
"under the commission rule , oncor qualify as a critical infrastructure industry cii.oncor have a substantial interest in the outcome of this proceeding because oncor anticipate use the 3.5 and 3.65 ghz band as one mean of support its mission - critical operation .",0
"first , oncor be implement smart grid application that require additional communication capability .",2
"the communication network for smart grid require increase capacity and coverage to support great visibility into a variety of substation , field infrastructure and customer end point on the grid .",4
"for some application , latency i.e. delay in sendingreceive message content must be exceptionally low and reliability and network resiliency must be extremely high so that communication be maintain , especially during emergency such as power outage , natural disaster or grid emergency .",-4
"second , oncor have a conceptual communication network design that it anticipate implement begin in 2015for broadband and ip - enable application utilize the 3.65 ghz band for high speed point - to - multipoint mission critical ip - base application such as voice , data , distribution automation , smart metering and supervisory control and datum acquisition scada necessary to support , monitor , control and secure various end point within the smart grid infrastructure .",3
open eligibility and spectrum auction in the priority access tier will limit access by cii to the 3.5 ghz band.oncor,-1
urge the commission to reconsider the adoption of its original proposal to reservespectrum in the priority access tier for mission critical communication .,-1
"oncor be concern that the commissions current proposal to open eligibility in the priority access tier and resolve mutually exclusive license application through spectrum auction , as embody in propose 47 c.f.r. 96.5 , 96.27 , will limit access by oncor and other cii .",-2
"on this issue , oncor agree with comment file by the utilities telecom council utc and the american petroleum institute in response to the public notice on licensing models .",-1
"access to the priority access tier be important to oncor because if it be force to operate as a general authorized access tier gaa user , rather than under a priority access license pal , oncor would likely utilize the 3.5 ghz band for short distance , with low data rate and low number of endpoint per master station .",2
"this would , in turn , raise oncor cost to deploy smart grid communications field area network , as more base stationsmaster station would be require in order for oncor to work within the confine of the gaa - accessible spectrum and to overcome the inevitable interference generate by other gaa user .",1
"open eligibility will lead to congestion and interference in the band , and will increase the likelihood of spectrum auction .",-1
"this , in turn , would increase the cost of use the 3.5 ghz band , particularly in urban area where commercial broadband provider would likely compete at auction for exclusive access to the spectrum .",0
"historically , cii have not be successful at compete for auction spectrum against commercial carrier .",1
"this be likely due to the fact that ciis access spectrum for internal application , not to serve subscriber .",0
"further , electric utility be unable to compete financially for spectrum with commercial carrier because electric utility be restrain in their investment of capital by the oversight of the applicable public service commission .",-2
"oncor be thus more akin to a public safety organization or first responder than a commercial telecommunications carrier , in that it provide a critical public service and be constrain in the amount of funding it can utilize to support its operation through the use of spectrum .",0
"further , the fact that the commission propose to offer numerous license within relatively small geographic licensing area do not assist oncor in compete with commercial carrier in the competitive bidding process because , like commercial carrier , oncor would also have to purchase enough license to cover its service area of approximately 95,000 square mile .",3
"in addition , the propose one - year license term will not make it easy for oncor to compete with commercial carrier in spectrum auction , as oncor will , like commercial carrier , seek to aggregate its license for the maximum of five year and reapply upon the expiration thereof in order to ensure an acceptable return on investment and the continuity of its operation .",3
"thus , should the commission remain committed to the use of auction to resolve mutually exclusive application for pal in a give market , oncor advocate that the commission 1 reserve some of the priority access spectrum for mission criticalcommunication , 2 give bidding credit to ciis andor 3 otherwise place limit upon commercial carrier that will level the play field and allow cii to fairly participate .",1
the commission should decline to extend the part 96 rule to the 3.65 - 3.70 ghz band.oncor oppose the extension of the part 96 rules to the 3.65 ghz band .,-2
"many electricutilitie , include two of oncors neighboring utility , centerpoint energy and oklahoma gas and electric , have already invest in license for the 3.65 ghz band in order to support their operation .",1
"use the exist rule and available technology , such utility have successfully deploy smart grid communication network , and oncor be now work on similar network deployment plan within its telecom strategy .",4
"oncor anticipate utilize the 3.65 ghz band by 2015 to support mission critical , ip - base application such as voice , data , distribution automation , smart metering and scada necessary to support , monitor , control and secure various end point within the smart grid infrastructure .",4
"as state by the utc , there be already interference and congestion in the 3.65 ghz band , and adopt open eligibility for the priority access tier would only make it bad .",-3
"in order to guard against such interference and congestion and to protect the investment many electric utility have already make in that spectrum , the commission should not adopt its proposal to extend the part 96 rule to apply to the 3.65 ghz band .",-1
"alternatively , the commission should retain the 3.65 ghz band in part 90 of its rule , permanently grandfather exist equipment , but provide that after a suitable interim period at least 10 - 15 year , new equipment will not be certify except under part 96 .",1
"the currently propose five - year transition period be insufficient to protect the investment that some electricutilitie have already make , and that oncor contemplate make , to utilize this spectrum .",0
a10 - 15 year transition period would allow all incumbent in the 3.65 ghz band time to considerdeployment option and to fully amortize their investment in legacy network equipment thatmeet the current part 90 rule .,0
conclusiononcor respectfully request that the commission adopt rule for the 3.5 and 3.65 ghzbands consistent with these comment .,2
oncor look forward to work further with thecommission and its staff on these issue of great importance to oncor and its customer .,1
