text,score
introduction4 g americas submit these comment on the commissions proposal for an innovation band at 3550 - 3700 mhz 3.5 ghz .,1
"g americas be a lead wireless industry association in the americas represent the 3gpp family of technology , include lte and lte advanced .",2
"4 g americas promote , facilitate and advocate for 3gpp technology adoption throughout the americas .",2
the 3.5 ghz band have property suitable for small cell and backhaul deployment and macro cell deployment where appropriate .,2
moreover 3.5 ghz could also provide a test bed for the introduction of innovative service .,1
"to maximize efficient use of reliable mobile broadband service in that band , mobile operator license as priority access licensees require stable assignment of frequency not dynamically assign",3
"spectrum.4 g americas recognize that some band , like 3550 - 3650 mhz , can not be clear in a time frame consistent with meet the explode demand for mobile broadband spectrum .",2
"because of the existence of navy radar at 3.5 ghz , that band will need to be share .",0
spectrum sharing can effectively provide access to unused or underutilize spectrum .,1
"however , exclusively license spectrum be still the approach prefer by 4 g americas and its operator and vendor member .",1
"we therefore support the commission effort to develop innovative approach to share underutilized spectrum , where band can not be clear to allow exclusive licensing in the near future , provide those approach be structure in a way that will expedite commercial mobile access .",3
"g americas reiterate in these comment that innovation in the band should not jeopardize international harmonization , through exist standard , to the maximum extent possible .",0
the commission request more focus comment prior to establish rule .,0
"specifically , in part , the commission request information on further development that would enable a reduction in the size of the propose exclusion zones .",-1
discussionreducing the exclusion zones4,-1
"g americas be pleased the commission recognize the need for further reduction of the original exclusion zones that be base on study with macro base station , and not the small cell now envision for the majority of the commercial mobile broadband use in the band .",0
"inorder to reduce the exclusion zone , 4 g americas urge that the commission work with the federal agency on more realistic assumption in their sharing modeling .",1
"4 g americas note that at the commissions january 2014 workshop , the commerce departments institute for telecommunication sciences note the need to better understand lte signal detection and to test lte receiver and small cell not just macro base station .",1
"this suggest with further study , exclusion zones in the 3.5 ghz band can be reduce .",-1
apply realistic assumption in the sharing study for clutter and terrain that reflect today lte technology could far reduce exclusion zones .,0
reduction in the size of the exclusion zones be a critical component to the acceptance of this band and the subsequent investment that can be realize for this band .,-2
lte standard also define functionality use for manage and operate these network in an interference - limited environment .,-2
therefore these function can help support co - existence with incumbent operation .,1
"for instance , lte device have mitigation interference cancellation technique embed eicic , further facilitate spectrally efficient use through significant capacity gain .",3
advance in eicic can help user device co - exist with federal and satellite incumbent in the band .,0
"the lte standard now include self - optimizing network son technology , which reflect an evolution in network management that maximize spectral efficiency .",0
"the self - organization of small cell in a single closed operator system allow in the 3gpp standard through son enable small cell to expand and contract their coverage area as need to avoid interference with one another , to instantly recognize new cell and incorporate them into the carrier network , and to provide instant mobility with fallback to carrier network where smallcell connectivity be not available , result in more capacity and reliability than that offer by today simple wi - fi off - loading .",1
"son may help reduce the originally propose exclusion zones , and could help realize many of the commissions goal toward more efficient spectrum use and consumer satisfaction of application rely on mobile broadband technology .",0
"mobile broadband licensee use son and other technique could more efficiently move off the spectrum when incumbent need to operate , fall back to other spectrum band if need .",0
"4 g americas support rule that would allow negotiation on the size of exclusion zones between eligible operator and incumbent , since son could help reduce those exclusion zone .",-1
role of the sasthe role and responsibility of the spectrum access system sas as envision in the fnprm be complex and be unprecedented .,-1
"the sas licensing framework will require significant development , extensive testing and refinement .",2
all three tier of user must be comfortable with the assumption and methodology make by sas administrator with respect to both interference management and operation parameter .,1
"4 g americas propose that the commission adopt a transitional licensing approach that initially provide great segregation between the various tier of user , limit the potential for interference .",-1
"as confidence be gain in the operation of the sas , sharing can be increase to maximize the use of the spectrum .",2
the transitional licensing framework should provide spectrum user with the certainty and stability need to invest and deploy innovative service .,2
"during the transition period , the commission should take step to prevent and mitigate interference among the various tier of user , include divide theband between priority access licensees and general authorized access use during the transition .",-1
"once deploy , the sas will need to be a highly sophisticated system that manage the numerous complexity in the band to avoid harmful interference among three tier of user deploy different technology .",-1
"the role of the sas must be a careful balance between allow tier , particularly priority access licensees pal , to deploy system that continue to meet service requirement demand while provide equitable access to thespectrum .",1
"specifically , the sas should serve to closely and reliably manage the use of spectrum at any given moment as well as any restriction .",1
"it may be appropriate to more actively manage gaa user , but here again , a transitional approach , where the complexity of the environment manage by the sas be more limited , would help build confidence and experience with the sas and will help drive investment in use of the band .",1
"as experience be gain , it may be appropriate to increase the complexity of the environment manage by the sas to maximize dynamic sharing .",3
"in any case , the sas will need to manage its role with the same level of spectral efficiency and latency that be expect from current and future lte network .",-1
this prerequisite be necessary to provide incentive to wireless operator to utilize the 3.5 ghz spectrum and help to build the new ecosystem .,0
the fnprm envision that the sas will dynamically assign channel to pal .,0
such an approach would add significant complexity to network implementation and management and should not be adopt at this time .,1
3gpp standard be design for static spectrum channel .,-1
"the mechanism therein for operationalize the network such as network frequency setup , configuration and management of neighbor list for handoff to support mobility , be complexand require careful tuning .",1
"these mechanism would need to be redesign , standardized and test for the dynamic channel assignment envision in the fnprm .",1
"in order to facilitate rapid adoption by mobile broadband operator of the 3.5 ghz band , commission rule should support use of exist standard .",3
this will also ensure that equipment can be quickly deploy in the band .,0
"for mobile broadband operator to operate as pal at 3.5 ghz , it be essential that they be assign static frequency within their service area .",-1
the technology require for dynamic frequency assignment in a carrier network,1
should be the subject for a study item in 3gpp and other related standard body before implementation be require .,0
"once a solution be devise and confidence be gain in the operation of the sas with this functionality , the commission can evaluate whether it be appropriate for the frequency assignment to be dynamically manage by the sas.the commission request comment on interoperability across the band .",3
"4 g americas support interoperability for the entire band , in order to promote economy of scale .",1
this will address the commission concern that implement a transitional framework will create balkanization within the band .,-1
"for the same reason , 4 g americas support the commission establish uniform certification requirement for both the gaa licensee and the palequipment .",1
"internationally harmonized spectrum preferableas the commission and many other have note in recent year , internationally harmonize spectrum provide global economy of scale and scope benefit u.s. consumer .",2
"as the commission have recognize , the amount of spectrum require to support fast , more ubiquitous mobile broadband service be expand exponentially .",2
"in addition to take advantage of economy of scale , spectrum harmonization enable global roaming , reduce equipment design complexity , facilitate cross - border coordination , and improve spectrum efficiency .",3
all these benefit ultimately reduce cost for consumer .,1
widely support spectrum band and channel can lower the cost of radio frequency component a significant factor in device cost .,2
band planning include determine the duplex mode of operation .,0
harmonize the duplex mode with global preference benefit u.s. consumer through spectral efficiency and economy of scale .,2
lte standard and band plan today contemplate time division duplex tdd mode in the spectrum band consider in the commissions propose rulemake .,0
3gpp tdd band 42 be 3.4 - 3.6 ghz and tdd band 43 be 3.6 - 3.8 ghz .,0
"today , there be no single 3gpp band that cover the entire 3550 - 3700 mhz range , but that band could be segment into two block that would be cover by the exist 3gpp bands 42 - 43 the 50 mhz at 3550 - 3600 mhz be include in band 42 , and the 100 mhz in 3600 - 3700 mhz be in band 43 .",0
"a tdd option would also support expansion of the band upwards to 3700 mhz in the event the commission adopt enable rule , while still be cover by 3gpp band 43 .",1
"permit mobile access to the entire 150 mhz would expedite operator access , give the global harmonization with bands 42 and 43 .",0
"u.s. consumer would benefit from global harmonization of technical parameter with the 3gpp band 42 and 43 , which would enable as large an eco - system as possible in the band .",1
"in order to enable an innovative ecosystem of lte device and application , the final rule adopt in this proceeding should not preclude the deployment of td - lte at 3550 - 3700 mhz .",1
permit mobile operator to provide td - lte broadband across the entire 150 mhz will lower device cost for u.s. consumer .,0
"service rules for the 3.5 ghz bandthe exist lte standard for deployment at 3.5 ghz allow for macro , metro , micro , and pico cell operation in tdd bands 42 and 43 3400 - 3800 mhz .",0
the commissions service rule should therefore allow for macro cell deployment where possible .,0
"while the commission have propose allow high - power service for rural area , 4 g americas support a broad rule to allow for macro cell deployment where possible , in order to make use of the band as efficient as possible in meet demand for mobile broadband .",2
conclusion4,0
g americas commend the commission in take yet another step towards realize americas broadband future .,1
"the mobile industry have invest hundred of billion on broadband infrastructure , and be interested in use all viable band for deliver innovative mobile broadband service to u.s. consumer .",1
"mobile operator use of 3550 - 3700 mhz could be an important component of operator ability to meet explosive demand , if spectrum policy can be develop in a way consistent with lte standard and deployment that be in place to deliver quality - of - service broadband to consumer .",1
"for the 3550 - 3700 mhz band to meet consumer demand for reliable broadband service , mobile operator must have predictable stableaccess to the band with term and condition that be more suitable for long - term investment .",2
"accordingly , 4 g americas recommend a transitional licensing approach that address the experimental and uncertain nature of the propose regulatory framework until more certainty and predictability can be support .",1
