text,score
"executive summaryfederated wireless , inc. formerly allied communications , llc , a subsidiary of allied minds federal innovations , be headquarter in boston , massachusetts with office in reston , virginia .",0
federated wireless be found in 2012 by globally recognize wireless and radio communication leader to enable and commercialize technology to unlock the enormous potential of dynamically share spectrum resource .,0
"we applaud the commission for generate the further notice propose of rule making , for the citizens broadband radio service cbrs , which adopt many principle that be widely recognize as central to enable effective and efficient spectrum sharing .",3
"further , we strongly support the commission adoption of the three - tier model and make the spectrum access system sas the central feature of an innovative dynamic spectrum management scheme .",3
"however , it be the position of federated wireless that fix geographic exclusion zone be unnecessary and counter - productive to the goal for this proceeding .",-1
we present finding for the commission to consider in its reassessment of the incumbent exclusion zones .,-1
"first , the characteristic of anticipate cbrs device cbsds differ significantly from the assumption in the 2012 ntia fast track report , noticeably in term of interference resilience and the proximity with which they can operate to an active radar system .",0
"we also report method to protect such active radar system from interference from cbsds in a way that do not disclose the capability or limitation of those military system beyond what already have be release by the us federal government into the public domain via distribution notice a , public release , distribution unlimited .",1
"second , in spectrum sharing scenario , exclusion zone should not be design to protect secondary device from interference from primary device though primary device should beprotected from secondary device interference .",-2
"instead exclusion zone , when use , should be design to protect high priority user from low priority user .",0
"third , the characteristic of cbrs incumbent differ significantly from tv band incumbent .",0
"specifically , the mobility of the in - band incumbent e.g. , ship - bear radar clearly establish that sas should embody significantly more dynamic geospatial and temporal spectrum management .",2
we propose three approach for dynamically protect incumbent a federal spectrum observatory fso for dedicated sense the use of cbsds in listening mode for distribute sensing and collaboration with federal user .,2
approach that combine sense with sas management will yield the most efficient and effective management of the spectrum .,2
"therefore , cbsds should not be preemptively preclude from operate anywhere in the us , include along the shore line .",0
"when incumbent system be active , the sas manage cbsd operation to ensure that estimate and measure interference level at the incumbent device location do not exceed those power level or other signal characteristic that would comprise harmful interference .",-2
we disclose a patent - apply - for method for sense the operation of incumbent system that do not require signal classification .,0
we argue that this should be use in conjunction with general obfuscation among regional sas rsas and secure communication between a commercially provide federal sas fsas and incumbent federal and grandfathere commercial user in order to protect those incumbent without undue revelation of federal incumbent rf system capability or limitation .,2
"this same method of dynamic sas frequency management via estimate and measure interference and sense to protect incumbent rf system may be apply for the protection ofpal device from gaa interference to mitigate inefficiency pose by auction pal spectrum use fix geographic region , such as census tract .",0
"in a subsequent filing , we will provide datum demonstrate the feasibility of our propose approach for protect incumbent and pal radio system .",1
we further comment on propose rule for sas operation and approval of sas operator .,1
"specifically , we oppose any requirement for nationwide operation for sas approval .",0
"instead , we support permit multiple regional sas operator to reflect the difference in regional management characteristic of the band and the cost associate with develop the detailed propagation model and deploy dedicated sensor that enable more efficient spectrum management .",3
we ask the commission to revisit the information retention and security rule to ensure consistency of the final rule and order with industry good practice .,1
"we praise the commissions propose rule for register and authorize cbsds , and request clarification on what step be require of the sas to confirm deactivation or reassignment of a cbsd find to cause harmful interference .",-1
we differ with the proposal that the commission review sas fees and subsequently require change instead we propose that the commission ensure competition and establish sunshine rule that minimize inadvertent pricing collusion among sas operator .,-1
"we note that while the fnprm lay out many desirable principle for spectrum sharing , many technical detail be leave unspecified this be right and appropriate .",2
"define technical detail be well handle via industry good practice and exist standard augment by an fcc sanction not - for - profit multi - stakeholder group that facilitate technical consensus among federal user , service provider , network operator , cbsd supplier , and sas operator .",3
"finally , we note that the technical detail of military radar publish in the ntia fast track report and the request for comment of this fnprm regard exclusion zone enablesdouble - blind measurement of signal radiate from military radar system , e.g. , use widely available academic tool like the gnu radio .",2
"therefore academic radio , include spectrum observatory , can observe the radar report in the fast track report and ntia report 14 - 499 or indirectly via academic radio equipment employ , e.g. , for the many radio spectrum observatory currently report spectrum occupancy datum on - line from multiple academic institution e.g. , illinois institute of technology and any commercial entity interest in share spectrum e.g. , microsoft .",1
commentsfixed geographic exclusion zones for ship - borne radarshould be eliminatedwe concur strongly with the commission 's stated goal of help to ensure the long - term viability of the 3.5 ghz band and believe that the fcc reassessment of the ntia exclusions zones be critical to the success of the citizens broadband radio service cbrs .,-1
"as widely recognize , the propose ntia exclusion zone will prevent 60 of the us population from access the 3550 mhz band of radio frequency rf spectrum .",-1
"to aid in this reassessment , we suggest the reassessment consider the follow principle .",0
the robustness of anticipate cbrs devices cbsds to interference differs significantly from the assumptions in the ntia fast track reportthe ntia,0
fast track report analysis use wimax base station attempt to achieve wide coverage area as their model secondary service .,1
"in particular , the analysis assume the base station will have coverage radii up to 3.22 km rural or 0.64 km urban with base station separation range from 1.2 km urban to 6.1 km rural .",0
"the analysis then consider the potential interference level that may be see by these secondary system from offshore radar system space at 10 km interval along the coastline and define the exclusion zones as area where interference from these hypothetical radar system be such that the interference to noise in ratio exceed -6 db.but the cbrs be primarily envision for use with anticipate small cell , e.g. , cbsds employ the commercial 3gpp band 42 long term evolution lte standard in small cell orutilize enhance wifi - like indoor and short range outdoor network .",-2
"such usage establishe coverage radii on the order or 3 to 30 meter up to 100 foot for wifi - like usage and 30 to 100 meter up to 330 foot for outdoor small cell usage , differ by an order of magnitude in path loss from the ntia fast track report 's assumed range of up to 6.1 km .",1
all of these difference impact the choice of appropriate threshold at which a cbsd may not be able to operate .,1
"furthermore , the choice of -6 db in for an interference threshold would be more appropriate to a continuous wave signal interfere with another continuous wave , un - encoded , non - interleaved signal .",-1
"but the primary system radar have pulse signal , and the envision secondary system employ ofdm with relatively long interleaving period and forward error correction fec .",-1
"thus , even strong interference from the radar system pulse signal will induce only short burst of error , which cbsd protocol employ block interleaving and fec scheme could easily correct .",0
"in fact , it should be expect that far high level of interference can be accept than assume in the ntia analysis , as error remain correctable as long as the interference be not strong enough to cause component failure in the rf front end or when rf front end have sufficient memory delay effect that the interference effect extend over a significant fraction of the frame .",-2
"to examine what threshold would be appropriate if cbsds be protect from incumbent system , we review experimental result of lte performance in the presence of radar as publish by the ntia .",2
note that it be the position of federated wireless that cbsds should not be protect from incumbent interference as we expand in subsequent section .,0
"in 2013 , the ntia publish a report on the testing of the robustness of lte base station to 27 variation of generalize radar and noise interference .",-2
"to provide a controlledenvironment , the ntia use cable equipment with representative radar signal generate by an arbitrary waveform generator to avoid security issue , actual waveform be not use .",-2
the test lte equipment consistently provide great than 10 mbps of net data rate while undergo a wide range of simulate radar interference have sin level of -10 to -18 db,0
", equivalently , jammer to signal js co - channel interference level of 10 to 18 db , comparable to what the ntia fast track report term interference to noise in ratio .",-2
the follow figure extract from that report be representative of,0
the radar - lte interference result .,-1
"thus , as ntia report 14 - 499 simulation demonstrate , even 10 db interference from the radar system pulse signal induce only short burst of error , which ltes block interleaving and fec scheme correct to 10 block error rate while achieve 10 mbps net data rate .",-2
"thus , include ntia analysis and simulation and on other ieee literature regardingwimax and radar , sound radio engineering principle would anticipate that cbsd base station could accept interference power 16 to 24 db above the ntia fast track interference to noise threshold of -6",-2
"note above , the impact of interference depend on the quality of rf front end .",-1
and it be expect that user equipment ue will employ low cost and worse - perform front end .,-1
"however , as note in ntia report 14 - 499 and in the technical literature , the low rf gain typically 0 db of ue device mitigate interference in a small cell and base station",0
"will be site in location e.g. , on the top of building that will experience much more interference than ue device .",0
"in a subsequent filing , we will present datum that consider the anticipated interference robustness in the field .",-1
a related rationale for use exclusion zones to protect cbsds be to protect the cbsd equipment itself from damage from the high - power signal emit by the radar system .,0
"in a subsequent filing , we will consider this issue .",-1
"additionally , it should be note that some radar envision for the future be either x - band radar , or adaptation of a lockheed martin system to s - band and use with an x - band radar for pencil - beam search .",0
neither of these type of system will be likely to induce harm to commercial device as the x band radar will be largely filter off by the front end system .,-1
"from an examination of the measurement previously perform by the ntia in 2013 , it can be clearly see that cbsds can successfully operate in the presence of strong interference from radar transmission , which would be consistent with close operation to radar installation .",3
"from this , the minimum separation distance from radar to cbsd be expect to be small enough that it should be expect that any protection scheme design to protect incumbent system from cbsd interference will be more than adequate to also protect cbsds from interference fromincumbent system .",3
"in a subsequent filing , federated wireless will report result examine theapplicability of the ntia measurement to cbsds operate in the field .",0
"exclusion zone should not be design to protect cbsd devices from interference from incumbent radio systemsthe commission wisely propose rule 96.15 , which require that all cbsds must accept harmful interference from authorize federal user .",-2
this spectrum share principle that low tier device should not expect protection from high tier device be reinforce in the descriptive text as the further notice of propose rule make fnprm repeatedly state that it be the intention of the commission that cbsds must accept harmful interference from high priority user .,-1
"in contrast , the ntia fast track report analysis proceed from an assumption that cbsd base station should be protect from high power u.s. navy radar system .",2
"the commissions state principle that cbsds can not expect protection from incumbent device be correct and desirable since protect cbsds from interference from incumbent system place an implicit burden on incumbent system and deter future innovation in interference mitigation e.g. , via improve receiver design or enhance spectrum management , suppress path to improve spectrum efficiency .",3
"for instance , while the analysis in the ntia fast track report implicitly assume interference between narrowband continuous wave system , cbsds with orthogonal frequency division multiplexing ofdm , fec , long frame length , and interleaving should be able accept much high pulsed interferer power .",0
"similarly , the introduction of advanced interference - cancel front end , null - steer antenna , and dynamic sas scheduling algorithm couldallow secondary system to operate with much bad nominal in ratio than consider by the ntia in their 2013 report .",0
"but with the rule of the fnprm employ the ntia fast track exclusion zone , provider of cbsd equipment would have little economic incentive to deploy highly interference tolerant cbsds since regulatory constraint limit spatial access to spectrum in 60 of the us market .",-2
"similarly , the large protection margin employ in the fast track analysis stifle the technical incentive to innovate and deploy more interference tolerant device .",0
"to quantify the spectrum inefficiency pose by the fast track exclusion zones , consider that the ntia exclusion zone analysis model an anspn-43 radar along every 10 km of coastline and the us have 19,924 km of coastline .",-2
"thus the ntia exclusion zone implicitly assume the fix presence of nearly 2,000 anspn-43 radar along the coast when two order of magnitude fewer cite in the fast track report .",0
"further , a great many of these ship - bear radar will be deploy overseas at any point in time .",1
"instead , exclusion zone , when use , should be design to protect primary system from interference from secondary system .",-1
"in do so , the fcc would promote technology innovation and gain in spectrum efficiency by equipment vendor and system manager .",2
"such a principle be employ in the television tv bands where mechanism be implement to protect the reception of the tv broadcast from interference from secondary transmission , but secondary device be give no assurance of protection from the tv broadcast .",2
"the interference generation characteristics of the incumbent systems in the 3.5 ghz band differ significantly from the characteristics of the incumbent systems in the tv bands mandate different protection mechanismsin the preceding , we cite the tv band exclusion zone as an example of exclusion zone design to protect the incumbent system transmission and not the secondary system transmission .",-1
"however , the analysis use to define protection mechanism for federal user in the cbrs band must consider the follow significant difference between federal incumbent radar system and tv broadcast site .",2
"in the tv band , the broadcast antenna be separate from the receiver , but for radar system , the receiver be co - site with the transmitter .",0
"in the tv bands , the receiver must be protect .",1
"such receiver typically be hide from rf sensing , have very low radiated signal strength by design .",0
thus it be impractical to detect a tv broadcast receiver by sense .,-1
"in contrast , the receiver for radar system describe in the ntia fast track report be not hide , but be collocate with gigawatt strong signal transmitter .",2
"in practice , this mean that sense such incumbent be practical and as show in finding 1 can be accomplish without advice from the incumbent .",1
"sense of the radar transmission , therefore , be a viable mechanism for determine the presence of a protect receiver in the 3.5 ghz band , unlike in the tv bands .",1
ship - bear radar system be mobile while tv broadcast site be fix .,0
"with fixed transmission site , the use of fix exclusion zone in geospatial zone of tv broadcast cost little in term of spectrum efficiency compare to other method .",-1
"ship - borne , airborne , and grind mobile radar system be mobile or transportable , so design exclusion zone base on all possible location of such system as do in the ntia fast track report analysis",-1
be significantly less efficient use of spectrum than the dynamic method available with contemporary technology .,3
the combined implication of both of these feature be that fix exclusion zone provide no significant contribution in the 3.5 ghz band to protect incumbent compare to sense with sas enforcement of specify level of rss at mobile incumbent receivers.4 .,1
dynamic method should be employ to protect incumbent userswe applaud the fcc goal of employ a dynamic sas to manage interference and to dynamically assign frequency to priority access license pal and general authorized access gaa device .,3
"give the dynamic nature of these device e.g. , mobile end user , vary spectrum use pattern , dynamic spectrum and interference management be require to achieve the intend level of spectrum efficiency and spectrum utilization .",1
"further , we believe this principle should be extend to also allow dynamic sas protection of ship - bear radar and other mobile radar system .",2
"the extension of this principle be reasonable as , like the envisioned cbsds , ship - bear radar be also mobile with highly vary spectrum usage pattern so that fix geographic frequency assignment lead to significant spectrum and market inefficiency .",3
"however , the application of this principle should be augment with what federated wireless term inform obfuscated incumbent protection , which will allow dynamic sas protection without undue revelation of the capability or limitation of military systemswe propose the follow mechanism for consideration for secure , dynamic management of interference to ship - bear radar system and other mobile incumbent .",4
"dedicated sense aid by appropriately site dedicated sensor array in regional network term a federal spectrum observatoryfso , an appropriate sas can rapidly detect that a radar system become active when move into the area or turn on their radar .",3
"once detect , the sas would continue to enforce a dynamic , incumbent - specific exclusion zone thatmove with the incumbent , e.g. , with the active radar in a geospatial area consistent with the interference tolerance capability of the specific incumbent .",1
the federal sas and relate cbsds employ signal obfuscation describe below to protect the knowledge regard the specific interference tolerance of such an incumbent,1
the fso and relate cbsds thus achieve the intent of the fnprm with respect to interference protection without unauthorized exposure of the capability or limitation of related military system to public knowledge .,1
"cbsd sense use spectrum sense datum from cbsds report to a regional sas , the spectrum management system determine when a federal incumbent such as a ship - bear radar have move into the area or have become active .",0
example of appropriate spectrum sensing data include channel state information csi currently use in the operation of lte network .,1
"once detect , the sas compute a dynamic exclusion zone define for each such federal incumbent",0
"e.g. , active radar as it move along the coast or for airborne system overhead , command cbsd to change frequency as need by the specific incumbent , consistent with the incumbent protection provision of the fnprm .",2
"to ensure consistent operation , the regional sas would report csi to a federal sas fsas and coordinate the movement and implementation of dynamic exclusion zone with other regional sas as appropriate .",2
"collaborative method consistent with the method envision for pal gaa interference management , operator of the ship - bear radar may inform the fsas federal sas when they will be use the spectrum in a particular area .",0
then the fsas would be sensitize to detect and enforce exclusion zone define for specific mobile incumbent .,-1
"in all of these approach , the use of an obfuscated and dynamic sas to prevent interference to incumbent system greatly improve spectrum efficiency and increase spectrum utilization by replace fix geographic exclusion zone with secure dynamic method .",2
we notethat the first three approach place the least,0
add management burden on federal incumbent .,-1
"a general principle of spectrum sharing be that the burden for spectrum sharing should be minimize to incumbent system , all else be equal.5 .",-1
"device have appropriate sensing capability and manage by an appropriatesas should be allow to operate anywhereas discuss in the preceding , there be a variety of mechanism by which a dynamic sas can learn of the onset of in - band radar transmission and evacuate cbsds when a ship - bear radar become active within range of shore .",4
"specifically , we assert that when any of three proposal in the precede be implement , cbsds should be permit to operate all the way to the coast whenever no radar or other incumbent system would be interfere with as enforce by the sas.in a subsequent filing , we will report datum on the feasibility of this approach .",-1
"rather than fix exclusion zone , per incumbent in value at dynamic locations of incumbent antennas should be use to manage interference to the incumbent systemswhile we disagree with the specific of the ntia analysis , we endorse their approach for use maximum interference to noise in ratio as a basis for spectrum management .",-3
"extend the principle of dynamic sas management to protect pal device from gaa interference , we further propose that a sas be permit to dynamically manage interference to incumbent user base on aggregate in at the incumbent receiver site .",0
"repeatedly throughout the descriptive text and specifically in rule 96.15 , the fnprm note that cbsds must not cause harmful interference to federal incumbent user .",-2
"we strongly endorse this position , but note that harmful interference be not define in the propose rule in a technical , implementable , sense .",-1
"one such implementable technical definition of harmful interference be provide in the ntia fast track report , which define -6 db in as the point at which radar operation would be noticeably degraded .",-1
"a dynamic sas could ensure that interference at a particular location doesnot exceed this number or any other number that the commission in conjunction with the ntia may establish by judicious assignment of frequency and power level base on cbsd location , propagation model , and sense datum .",2
"in this way , formal exclusion zone be not necessary and great spectrum efficiency can be gain through dynamic management .",2
this elimination of formal exclusion zone be also consistent with the principle espouse throughout the fnprm and the propose rule to permit different interference level to high priority user as long as the level be mutually agree upon by the party and be enforceable by the sas .,-2
"while this would most easily be accomplish by have the incumbent user report the interference level to the sas as we propose elsewhere in this comment and as already require for cbsds experience interference , the same result can be achieve via calibrate , high fidelity propagation model and knowledge of the location and transmitter characteristic of the secondary device so as to not impose a burden on the incumbent system .",-2
"in contrast with the bad - case interference aggregation assume for many analysis use for incumbent protection from ultra - wideband uwb device , this would allow for low density deployment of cbsds to operate close to incumbent receiver or high density deployment to operate with less transmit power or on alternate channel .",-1
such an approach of consider the specific propagation condition at specific location would also provide great protection to incumbent user than utilize an exclusion zone define by a fix distance .,1
"obfuscate detection of incumbent signalsin the precede , we identify sensing - aid dsa as a critical method to protect incumbent radio system while make efficient use of the spectrum .",1
"however , classifying signal generally imply knowledge of those signal , which pose potential national security issue when attempt to sense the presence of those signal .",-1
"to preemptively address potential concern that incumbent legitimately raise in response to our propose use of sense - aid dsa , we present herein an obfuscate mean of detect incumbent signal term informed obfuscation protection .",0
federated wireless have develop a patent - apply - for - technology for reliably detect incumbent signal with high sensitivity while protect the signal characteristic on which the detection and control algorithm be base .,2
one realization of inform obfuscate protection be the creation of a signal categorization sigcat neural network nn .,1
nn be train to categorize detect signal into one of four class 1 .,0
"incumbent signal , 2 .",0
"manage signal , 3 .",0
"noise , and 4 .",-1
"because the incumbent signal class categorization mechanism use by the sigcat nn would be train by a wide range of incumbent signal , such as those of ntia report 14 - 499 , a sigcat nn",0
would only be categorize class of signal and not classify specific signal .,0
"in light of our proposal in the precede , informed obfuscation protection could be deploy as follow .",1
an fsas would have the national security information necessary to train a sigcat nn with sample of specific military radar mode as well as other incumbent signal .,1
"the fsas could provide the result sigcat nn to cbsds , regional sas , and other fso .",0
"because of the inherent infeasibility of reverse engineer a neural network weight to determine the signal use to train it , it would be infeasible for a malicious agent obtain a sigcat nn to infer unauthorized national security information .",-1
in addition the sigcat nn would be incapable of actually classify signal into specific incumbent type such as spn-43 or anspy-1 .,-1
"thus , the sigcat nn successfully obfuscate federal signal usage while provide a highly reliable mechanism for alert cbsds and sass to the presence of such an incumbent .",2
we advise the fcc to adopt rule that require sas operator to demonstrate sigcat nn or equivalent obfuscation and to further require cbsds to test receive signal epoch such as need for lte csi at least once per second by a sigcat nn or equivalent .,0
"problem in manage gaa access to priority accessspectrumwe praise the commission for adopt many concept that increase the flexibility of spectrum management and usage e.g. , license aggregation , allow gaa use of pal spectrum as spectrum flexibility be the foundation to achieve spectrum efficiency in dynamic and varied system .",3
"however , in this section , we note a few difficulty that will arise from the propose rule and comment specifically on how to measure pal usage and permit gaa access to pal spectrum .",-1
"define pal boundary by census block introduce efficiency problem forspectrum managementpropose rule 96.23c1 state that each pal shall consist of a single census tract , as define in the 2010 census with subsequent rule note that the sas should attempt to ensure contiguity of area and channel assignment by licensee .",-1
"while we recognize the expediency of well - define fix geographic area for the auctioning process , the use of fixed , static census tract boundary introduce problem for manage the spectrum usage of dynamic user .",0
"first , rule 96.38 c state cbsd transmission shall be manage such that median signal strength shall not exceed -80 dbm on co - channel pal boundary .",1
"without careful definition ofpal frequency use , this be in apparent tension with rule 96.13c gaa access to unused pal spectrum and will more generally lead to inefficient spectrum usage when the unit for usage be the entire pal and only a small fraction of that tract be intend for pal operation .",-1
"for instance , in rural area census tract can cover hundred of square kilometer while the desire deployment area may only cover a few square kilometer e.g. , nye county nevada be a single census tract cover nearly 11,000 square km .",0
"however , with a definition of pal usage base on protect pal device instead of protect pal geography , these inefficiency can be overcome .",1
this approach would be analogous to and consistent with our proposal above to eliminate fix exclusion zone for protect incumbent user and instead rely on the sas to manage interference level to the device of incumbent user .,0
"further , rule 96.36d cbsd interference report already provide the sas with the information need to effectively enforce protection to pal device , though a sas further augment with predictive channel modeling would be expect to provide well pal interference protection and more efficient spectrum usage .",3
"accordingly , we request that the commission modify rule 96.38 c so that interference to pal device , rather than to pal boundary , be manage by the sas .",-1
"in a subsequent filing , we demonstrate the feasibility of this approach wherein we report the experimental success of reliably predict receive power level of cbsds to radar site , which be analogous to predict receive power level to pal device location .",2
measure pal spectrum usageparagraph 37 of the fnprm,0
astutely note that the efficient design of a mechanism for permit gaa access to pal spectrum depend on how use be define .,1
"clearly , that a pal device have register its location with the sas",1
do not imply that the pal device be activelytransmitte or receive .,0
"to differentiate between registration and usage , we previously propose that pal device should pay a nominal usage fee for those period that spectrum be actively need by pal device while incentivize pal licensee to not reserve spectrum that they be not use .",0
"if the sas examination of this accounting stream be augment with spectrum sensing datum , such an approach would reliably protect pal device from gaa transmission while maximize spectrum efficiency .",2
"however , such a usage fee approach be not propose in the current fnprm .",0
"accordingly , the follow be what we believe to be a second - good approach , though consistent with the intent of the propose rule .",2
"prior to initial operation and then as regularly direct by the sas , a gaa device shall provide the sas with spectrum sensing datum .",0
"base on recent measurement from multiple gaa device , the gaa device location , pal device location , and appropriate propagation model , the sas will determine region where no pal device be actively use the spectrum .",1
these pal frequencie in these region will then be make available for gaa use .,1
"subsequently , if sense data change or if a pal device report interference exceed some threshold as define by the commission or agree to among pal and gaa party , the sas shall reassign the frequency of relevant gaa device .",0
"similarly , if no pal spectrum usage be detect for a sufficient period of time in a region previously consider to be in use by the pal , the sas shall treat the frequency in the associated region as unused .",1
"the detail of this procedure , include the measurement procedure , report protocol , occupancy and evacuation time , should be finalize by an industry group and the commission should certify compliance to this procedure to ensure consistent implementation .",1
"note that the adoption of this procedure should not delay the issuing of a report and order , thoughpresumably sas implementation that do not conform to this procedure , or do not have appropriate gaa sensing datum , will be prevent from allow gaa device to operate in unused pal spectrum .",0
"non - contiguous census tract existwe take this opportunity to note that while census tract be usually contiguous , non - contiguous census tract exist , generally due to irregular political boundary .",-1
"in such situation , it will be difficult for pal licensee to cost - effectively deploy a network that completely cover a pal census tract , particularly when adjacent pal can not be procure .",0
the expect result spectrum underutilization be another incentive to allow gaa device to unused pal spectrum and to define pal usage by device instead of by pal geography .,0
specific comment on the regulation of spectrum accesssystemsthe follow comment on specific aspect of the propose rule and authorization of the sas.1 .,0
spectrum access system purposes and functionality 96.43paragraph 97 of the fnprm invite comment on the purpose and functionality of the sas .,0
"as define in the text of 96.43 , we concur with the purpose and functionality of the sas .",0
"we further note that 96.43 would also be consistent with allow the sas to automatically and dynamically determine appropriate exclusion zones , if the fcc choose to delegate that authority .",1
in the follow be comment on descriptive text in the fnprm relate to 96.43.a,0
nationwide service paragraph 96paragraph 96 of the fnprm state that each sas would provide nationwide service .,0
"while this requirement be not list in the corresponding rule 96.43 , we believe that it would be the intentfor the commission to include this requirement as part of the sas administrator authorization process .",0
we request clarification on if nationwide service be a requirement for sas administration and further suggest that permit multiple regional sas administrator will be well suit for foster innovation and spectrum efficiency in the 3550 mhz band .,2
"several proposal for sas operation have suggest the use of detailed propagation model , particularly in urban nlos environment , to predict interference for enhance dynamic interference management among gaa device and between gaa device and pal device .",0
scale up these operation beyond regional network to nationwide coverage will require a significant investment may be a significant barrier to entry for new spectrum sharing technology .,2
"further , if automatic dynamic exclusion zone determination be permit , the implementation complexity for sas operation will vary greatly by region .",0
"for instance , a sas cover iowa could operate with effectively fix exclusion zones and would be little different from a tvws database outside of manage interference between pal and gaa .",-1
"but a sas serve norfolk or san diego would have to deploy sensing technology or coordinate with dynamic federal user , which be both significant undertaking .",2
"finally , the regional difference in the type of incumbent user present also imply that permit a regional sas deployment can shorten the time to market for those area where testing and certification can be greatly simplified.b rule appropriateness",0
paragraph 97paragraph 97,0
invite comment on the appropriateness of the rule for sas operation and in particular ask if a compliant sas can be build and operate use exist or in development technology .,1
"with exception only for those rule for which we seek clarification inthis comment , federated wireless have demonstrate all of the component need to implement a dynamic sas as describe in this filing.c multiple sas paragraph 98paragraph",1
98 of the fnprm consider the possibility that multiple sas administrators could be authorize .,0
we strongly concur with the proposal to permit multiple sas administrators as this will be critical to achieve market efficiency and to encourage innovation in spectrum management .,1
"while most record keeping could be synchronize daily , as with tv white space tvws database , achieve a reasonable response time to when a pal device or incumbent federal user report interference imply asynchronous communication among overlap sas to address that specific event .",0
a similar capability would be require with sas - administer automatic dynamic exclusion zones .,1
"in both case , the protocol require to implement this communication and coordination among sas administrator should be standardize by industry and could be rapidly adopt by build from the internet engineering task force protocol to access white space ietf paws database specification for tvws database coordination or ongoing application of north atlantic treaty organization nato standard spectrum resource format ssrf standard for exchange spectrum - relate information.2 . information gathering and retention 96.44paragraph",0
99 of the fnprm request comment on the information gathering and retention requirement of the sas rule 96.44 .,0
we seek clarification on the retention period for which the sas should maintain a record of cbsd information .,0
"further , if automatic dynamic exclusion zone be adopt for ship - bear and other mobile radar , we propose that in a manner similar tothe datum retain for protect fss system and also for interference traceability , the sas shall maintain a record of exclusion zones for a period of time to be define by the commission in conjunction with the ntia.paragraph 100 of the fnprm note that if exclusion zone be alter , the sas may need to gather and manage a significant amount of datum on federal operation , which may be sensitive or classified .",0
"paragraph 100 proceed to request comment on if a separate database should be establish , if a separate database be more efficient and secure than entrust federal information to each register sas , the security measure that should be require and who should maintain such a database .",3
"first , as we state in section i.4 , to protect dynamic incumbent user e.g. , ship - bear radar system , the sas should employ dynamic protection method , which in turn imply exclusion zone that change frequently and automatically .",3
we further propose two different class of method for determine when dynamic incumbent user be present - coordination with federal user and sense .,1
"if coordination with federal user be require , the content of the communication e.g. , operational information with the federal user will be sensitive .",1
"in such a case , a separate database should be establish for manage the interface to the federal user and provide appropriately modify information to the sas",0
"e.g. , a listing of census tract or geographic region and channel where transmission be prohibit or limit for the follow reason .",-2
"first , this will minimize the burden on the federal user as they will have few interface to manage and secure .",0
"second , this reduce the number of potential security vulnerability no sas would need access to sensitive information .",1
"third , this would decrease the cost to the sasprovider thereby reduce the barrier to entry and increase competition and innovation as maintain the appropriate facility and personnel clearance be a significant undertaking .",3
"if a sensing approach be instead take , then a suitable method for obfuscate the signal detection process , such as propose in section ii , should be require .",1
"in this case , the sas should be free to determine the presence of the federal or other incumbent user , though the automatic adaptation of the exclusion zone should be coordinate among the various sass if multiple sas be permit .",0
the detail of such coordination should be leave to industry to finalize.3 .,0
registration and authorization of cbsds,0
96.45paragraph 102 of the fnprm invite comment on the propose rule by which the sas will register and authorize cbsds .,0
"while we believe that the three step process of registration , application , and authorization we previously outline will more effectively empower the sas to manage the share spectrum resource for the high spectrum efficiency and market efficiency , as specify in the text of 96.45 , these process be clear.4 .",2
frequency assignment,0
96.46paragraph 103 of the fnprm invite comment on the propose rule by which the sas will dynamically assign frequency 96.46 .,0
we applaud the fcc for identify the importance of dynamic spectrum management for improve spectrum efficiency and broadly concur with rule as set forth .,3
"however , we request clarification on what step be require by the sas to confirm that a cbsd cause harmful interference to an incumbent user have be deactivate or reassign upon request .",-2
it be a relatively simple task for the sas to confirm that the sas have dispatch amessage to a specific cbsd to change frequency or cease operation and to confirm that the sas have acknowledge receipt of that message assume appropriate protocol definition by industry .,1
"but confirm that a cbsd that may be malfunction have indeed cease transmission require capability not otherwise require e.g. , sensing and localization .",1
"with relatively dense cbsd deployment , this could be address by require the cbsds to perform interference report or more accurately , receive power reporting on channel other than its operating or adjacent channel , from which it could be ascertain if all cbsds have indeed evacuate the channel as request .",-1
"alternately , report observation of alarm signal transmit by the cbsds would be another mechanism by which cbsd evacuation could be confirm .",-1
the alarm signal method would have the related benefit of provide a mechanism to enforce channel evacuation when internet connectivity be lose .,-1
note that confirm,0
"be also use in 96.45 for device registration , but 96.45 define confirmation with a specific process to be implement by the sas verify that the supplied fcc identifier be valid accord to a specified list.5 .",0
security 96.47paragraph 104 of the fnprm invite comment on the propose rule for secure the sas and the communication and interaction between the sas and cbsds 96.47 .,1
we applaud the fcc for identify the importance of this issue and for allow the protocol to be define by industry subject to fcc approval .,1
signal type obfuscation should be require as an aspect of protect national security information.6 .,1
general sas requirements 96.48paragraph 105 state that it be the intention of the commission to follow an approval process similar to the one employ to approve tvws database administrators while paragraphs 107and 108 invite comment on the qualification for sas administrators .,2
"we believe that under the currently propose rule with fix geographic exclusion zones , the tvws procedure and approach be mostly adequate and appropriate , with the exception that test procedure should be add to address the acceptance of interference report and or sense datum from cbsds .",0
"but if dynamic automatic exclusion zones for ship - bear radar and other mobile incumbent be adopt and if the federal users will be coordinate directly with sas administrators , then there should be additional requirement place on the sas administrators to have appropriate facility and personnel clearance to handle sensitive federal user information .",2
"likewise , if sas administrators will be permit to deploy sensing equipment for the purpose of implement dynamic automatic exclusion zones , then this equipment should also be certify by the fcc follow traditional equipment certification procedure to satisfy performance specification to be coordinate with the incumbent federal users.7 .",1
"96.49paragraph 109 of the fnprm request comment on the propose rule to allow sas administrators to collect fee from pal and gaa user and request 96.49 and for the commission to review and require change to fee , when excessive .",-1
we believe that have a government agency set price implicit to 96.49b,0
be counter - productive to stimulate innovation and achieve market efficiency and imply significant regime uncertainty for sas administrator as plan,4
could be change post - deployment outside the constraint of the marketplace .,0
"instead , we propose that the commission work to maximize competition and innovation among the sas administrators by permit multiple sass , minimize barrier to market entry for new sas administrators , and allow differentiate andregional operation .",2
"additionally , the commission should establish sunshine rule that minimize inadvertent pricing collusion among sas administrators .",-1
v. comment on interference,-1
reportingthe fnprm propose rule 96.36 d require cbsds to report interference to an sas if the cbsd experience interference above a threshold and request comment on the cost and implementation detail of the requirement .,-2
"give the variety of different wireless device and application envision for the 3550 mhz band , we believe that the detail of this requirement e.g. , channel , bandwidth , measurement guideline should be leave to industry to finalize and adopt .",1
we note that ieee standard 1900.6.1 have previously be define for task sense activity and communicate sensing result among device with disparate capability .,1
a subset of a standard like 1900.6.1 could be use as the starting point for rapid adoption of the technical detail for interference reporting .,1
"industry groups should finalize and adopt the technicalrequirement and procedures to implementthroughout the fnprm , the commission request comment on specific implementation detail of the method and procedure use to manage the cbrs .",0
"while a political process good serve the objective of achieve a consensus among disparate stakeholder , once principle be agree to , a technically - focus industry - lead group be well suited to finalize implementation detail .",3
"conclusionfor the foregoing reason , federated wireless encourage the fcc to continue make progresstoward promote and enable innovative spectrum access management in the 3.5 ghz band , provide an example for a new future paradigm .",2
"we encourage the commission to quicklycomplete its reassessment of the exclusion zones , and to establish foundational rule forcommercial use of the 3.5 ghz band , allow early commercial access and the opportunity forexperimentation to drive comprehensive solution to challenge that arise .",1
