text,score
"before thefederal communications commissionwashington , d.c. 20554in the matter ofamendment of the commission'srules with regard to commercial operations in the 3550 - 3650 mhz bandgn",1
docket no .,0
12 - 354comments of hkt limitedhkt limited hkt be hong kong'spremier telecommunications service provider serve the hong kong public and local and international business with a wide range of telecommunications service .,-1
"as a member of the pccw group who own uk broadband ltd , hkt be separately list on the hong kong stock exchange in november 2011 .",0
hkt be a member of the global td - lte initiative gti and have interest in lte band 42 and 43.hkt hereby submit its comment in response to the further notice of proposed rulemaking and order the fnprm in the above - caption proceeding of the federal communications commission commission.1,0
"introductionon december 12 , 2012",0
"the commission issue a notice of propose rulemaking nprm , under gt docket 12 - 354 , propose the creation of a new citizens",-1
broadband rad io service cbrs share the 3550 - 3650 mhz band with incumbent user .,0
"in the nprm , the commission also seek comment on a supplemental proposal to include the adjacent 3650 - 3700 mhz band in the propose regulatory regime to create 150 mhz of contiguous spectrum for cbrs .",0
"on april 23 , 2014 the commission issue a further not ice of propose rulemaking fnprm , under gt docket 12 - 354 seek further comment .",-1
as a mobile operator hkt have wish to encourage a healthy ecosystem for 3gpp td - lte equipment and device capable of operation in 3gpp lte bands 42 and 43 as show in figure 1 .,3
"consequently hkt have an interest in the propose cbrs and the associated rule detail in the fnprm whichapply to the 3550 - 3650mhz band and potentially , after a transition period to the 3650 - 3700mhz band .",0
present below be hkt'scomments relate to the fnprm which we trust will receive due consideration.2 summaryhkt be encourage and pleased to see progress towards wide use of 3.sghz spectrum in the usa .,4
we agree that this spectrum have an important part to play in relieve spectrum scarcity and the fcc'sdrive to address wireless coverage and capacity issue .,-1
the importance of and need to protect incumbent spectrum user be understand as be the desire to innovate with regard to spectrum sharing .,2
"however , we implore the fcc to consider how this innovation can embrace international standards that be the basis of service already provide in the 3.sghz band by operator worldwide .",1
in do so hkt urge deep consideration,0
ofthe need of licensee in the united states already use the 3650 - 3750mhz band primarilywimax user .,0
the rapid global trend of migration from wimax to 3gpp lte i lte - advanced and inparticular,2
the growth of new td - lte network in the band .,0
the lack of dynamic spectrum access functionality in exist 3gpp standard and the need for them if the aim of the spectrum access system sas propose by the fnprm subpart f be to be achieve .,0
the concept of a licensing regime that protect incumbent user and permit priority access licensing pal licensee protection from gaa user be support fprm para 41 .,3
"however , hkt argue that the pal scheme propose be not in the good interest of united states consumer , manufacturer and exist licensee .",1
further it be not in the interest of 3.sghz license operatorsand equipment vendor as the approach be contrary to that use in the exist and grow 3.5ghz ecosystem .,0
this argument be base onthe need to support sas functionality fprm par 43 .,1
this be not consistent with current or propose wimax or 3gpp standard .,1
the use of sas imply that a pal licensee may be require to reduce power output or desist from transmission entirely,0
should the sas dynamic channel allocation mechanism determine that a neighbour license have priority .,1
this will affect an operator'sability to guarantee service and could be a disincentive to invest in network roll - out .,1
"the combination of small granular census tract licensing area fprm para 44 and short , annual licensing term fprm para 49 be likely to be a disincentive to invest capital inequipment and deployment in the us and globally .",0
"moreover , hkt consider that some guarantee fix channel spectrum should be license for long term use across wide geography particularly for use with small cell deployment to t he benefit of us consumer .",2
such license would not require this use of sas but would be restrict in term of geography and power output to protect incumbent .,0
"additionally , like incumbent , these license would be protect against interference cause by the propose gaa and pal user due to their use of sas the database of which",1
would reflect a licensee 's fix allocation .,0
evidence and rationale for hkt 's position be provide in the follow sections.3 international allocation of the 3 .53.6ghz,0
"bandssince the wrc-07 meeting in 2007 , international telecommunications union member have agree to allocate 3400 - 3700mhz across all three itu region to mobile or imt use .",0
"this allocation agreement cover most country of the world as state in radio regulation rr 5.430a , 5.431a ,",0
5.432b and 5.433a.,0
current regulation result from wrc-12 allocate 3400 - 4200mhz to mobile use .,0
"it be expect that deep global agreement to use band in this range for imt use will be an outcome of itu - r wrc-15 in 2015.furthermore , on december 9 , 2011 the 48 pan - european member country of the ceptecc pass the ecc decision 1106 resolution amend march 14 , 2014 harmonise arrangement for 3400 - 3800mhz across the wide european continent .",-1
this decision designate this spectrum to mobilefixed communication network mfcn with tdd the preferred duplex mode for 3400 - 3600mhz and compulsory for 3600 - 3800mhz.3.1 itu spectrum allocation implicationwhere imt use be allocate by itu radio regulation,0
"the use of imt technology be specify , which in the case of mt - advanced encompass wimax 802.16 m and lte - advanced .",2
"consequently equipment vendor and operator worldwide have focusse their effort on these and their parent technology 802.16d , 802.16e and lte.4 international standardsthe dominant standard for equipment use in these band be ieee wimax 802.16d and 802.16e and 3gpp lte and lte - advanced .",1
"whilst roll - out of wimax base equipment continue , wimax standard development and adoption of 802.16 m have slow as l te and lte - advanced traction have increase .",1
the 3gpp have formally sanction 3.4 - 3.8ghz band for use .,0
since 2011 the tdd band 42 43 have be include .,0
relevant band define for lte - advanced rel-10 ts 36.101 be as show in figure 24.1 lack of dynamic spectrum access in current standardscurrent release of the wimax and lte - advanced specification assume unencumbered use of spectrum with at good interference coordination feature as part of the technology implementation .,2
dynamic spectrum access by the mean describe in the fprm spectrum access system be not a part of the specification .,1
research into dynamic spectrum success for lte - advanced be the topic of academic study6 but to date a 3gpp agree scheme for dynamic spectrum access have not emerged.5,4
3.5 3.6ghz deploymentsglobally 3.53.6ghz band have be deploy by over 100 operator globally .,0
many of these operator have deploy wimax in the past but be increasingly migrate to,0
td - lte.in the united states wimax 802.16d and 802.16e be heavily use in the 3650 - 3700 mhz band which since 2005 have be available under a light licensing regime .,1
"the nprm paragraph 29 reportedthat as of october 2012 there be 2,117 licensee with more than 25,000 register site throughout the united states use 3650 - 3700 mhz band .",0
"with regard to td - lte deployment , there be an increase momentum around 3.53.6ghz with over twenty commercial contract award of late as show in figure 3.6 global trend in the 3.53.6 ghz banddeployment of mature wimax 802.16e",3
continue but as td - lte grow,0
"chipset vendor , equipment vendor and operator be migrate from wimax to td - lte or build new td - lte networks.3.5ghz td - lte equipment and end user device be available from multiple vendor with some chipset offer software only upgrade from wimax to td - lte .",1
"the august 2013 , innovation observatory's3.53.6ghz lte tdd ecosystem report identify availability of 16 end user device for use in bands 42 and 43 .",1
this same report forecast that shipment of 3.sghz capable device will be between 5 - 15 of global device shipment,1
see figure 3.the fnprm para .,0
1 12 acknowledge and encourage the use of 3.sghz for small cell .,1
we believe this be a highly likely use case exemplify by early small cell deployment for example airspan and device,0
chipset vendor such as qualcomm who see 3.4 to 3.8ghz emerge as a new small cell band .,0
to ensure continue rapid growth of solution in this band it be important that vendor be able to develop product that meet globally agree standard and interoperability arrangement .,2
"we areconcerne that the novel approach to spectrum sharing propose by the fnprm be counter to this imperative and hence make the suggestion that some guarantee fix channel spectrum should be make available protect , as incumbent will be , by sas use by sas compliant gaa and pal user .",4
"furthermore , license small cell deployment well away from exclusion zone would be simple more deterministic and arguably more reliable if licensing be achieve without the need for sas across the whole lsomhz of spectrum .",1
"this combine with the security of license tenure that extend well beyond a year would be beneficial to us consumer and no doubt a preferable approach for network operator such as verizon , sprint , t - mobile and att.7 international roamingthe requirement of international roaming be not consider within the fnprm .",2
this concern us for two reason .,-1
"firstly , in the case of ue base station compatibility and secondly potential ue phy damage from harmful interference.7.1 ue and enodeb compatibilityoutside of the us there be no requirement to implement sas .",-2
in the good case,1
"a 3.sghz ue be bring from e.g. europe would not be able to connect to a propose us sas compliant base station but would not transmit , avoid harmful interference to other spectrum user .",-1
"however , in the case of an lte compliant ue and enodeb , arrangement would need to be make to make sure that a register ue listen to rrc system information from an enodeb would remain quiet and not send rrc connection request that will interfere with other user .",1
implement this and the required element of sas signalling imply a change to 3gpp lte specification or equipment incompatibility .,-1
we urge further consultation and 3gpp standardisation in this respect.7.2 potential ue phy damage from harmful interferenceus naval radar be reportedly capable of produce highly directional rf beam with radiated power measure in gw .,-1
itu - r recommendation m.1465 - 1 give the characteristic for radar in this band .,1
table 1 of this recommendation state,1
a peak tx antenna input power of up to 6400kw with an antenna gain of 42dbi .,1
this imply a peak radiate power of over 60gw.it be unclear to hkt if the effect of such powerful pulse on the phy electronic have be consider .,0
could a ue tune in the band to listen for a base station be destroy if it be close to such naval radar,-1
would device from europe or other region expose to such pulse survive8,0
conclusionhkt be supportive of the wide use of 3.sghz in the usa but urge further consideration of the rule outline in the fnprm .,1
in particularcurrent use and need of exist light license user in the 3650 - 3750mhz mainly wimax need to be adequately address .,0
the current could potentially require equipment replacement in a relatively short timescale .,0
"there be wide global agreement through the itu that imt - advanced , which in practice mean 3gpp lte - advanced , be the technology for use in this band .",2
with cept'sbacking td - lte look set to dominate the band in europe and elsewhere .,1
"development of device that can operate globally make sense for consumer , us and non - domestic equipment vendor .",0
further consultation be need if international roaming be to succeed .hkt,1
wish to thank the fcc for consideration of the matter raise .,1
