text,score
the regulatory and technology committee of entelec respectfully submit these comment inresponse to the commission'sfurther notice of propose rulemaking fnprm in the abovecaptione proceeding seek further comment on a propose revised framework for the 3550 - 3650mhz 3.5 ghz band .,1
"critical infrastructure entity , which include entelec member , urgentlyrequire this spectrum to fill a void in affordable licensed broadband spectrum for critical system .",-1
"entelec urge the commission to recognize that for this band to be effectively utilize by the oil , gas , and energy utilities collectively the oge industry , priority access license palh access emphasisadde in accordance with the entelec recommendation detailed herein be critical .",1
"entelec the energy telecommunications and electrical association be a user associationfocusing on communication and control technology use by petroleum , natural gas , pipeline andelectric utility company .",0
our response to the fnprm be center on the commission'sstructure,0
forthe cbrs licensing framework as it pertain to the need of user within the oge industry .,0
"introduction on december 12 , 2012 the commission issue a notice of proposed rulemaking nprmpropose the creation of a new citizens broadband radio service cbrs share the 3550 - 3650 mhzband with incumbent user .",-1
"the commission hold a workshop on march 14 , 2013 to bring togetherdiverse perspective on the band and foster productive discussion on the nprm .",1
"on november 1 , 2013the commission issue a public notice to that elaborate upon some of the licensing concept andalternative set forth in the nprm .",-1
"on april 23 , 2014 the commission issue a further notice ofproposed rulemaking , seek further comment , with a structure involve but not limit to percensus tract allocation , three tier of access license incumbent , priority , and general , expandedlicensee eligibility for the priority tier , auction applicability , license term of a relatively short duration , aspectrum access system to implement a dynamic allocation structure , and an eventual assimilation ofthe exist 3.65 - 3.70 ghz band into the cbrs .",-1
"enthec be very concerned with all of these structureproposal , and will address our concern as well as other detailed recommendation of how to resolve .",0
"commentsfirst and foremost , entelec and the oge industry it represent strongly support theprospect of have access to additional spectrum resource in the 3.5 ghz range to help enable theiroperation .",2
oge entity be constantly add software application and an increase number ofcompliance activity that be drive their need for radio frequency rf bandwidth .,0
oge be alwaysseeke broadband,0
3 mhz or great channel bandwidth to facilitate enough rf capacity that can helpprovide for these ever increase need .,3
"these include much need bandwidth for the transmission ofsupervisory control and data acquisition scada , secure intranet and internet datum , and criticalprocess control datum .",1
"unfortunately , most legacy spectrum allocation available without auction be limit to narrowbandwidth that only support traditional serial connected device , versus the new trend for all - ipbased connectivity .",0
"to alleviate this , the oge industry have utilize wide bandwidth unlicensedspectrum and the exist hybrid - license 3.65 ghz band .",0
"however , the nature of unlicensed spectrumcan be unpredictable as operation within populous area be many time unreliable due to the largenumber of device , especially in the 2.4 and 5.8 ghz band .",-3
congestion on the unlicensed band hasforce oge industry to layer a number of system on various frequency band include 900 mhzand 3.65 ghz in the same location in order to aggregate enough bandwidth to support multipleapplication .,0
"further , congestion on the available spectrum in many area have increase to a pointwhere system link budget will no longer support the require datum bandwidth , especially when the rfchannel size be great than a few mhz .",2
"entelec therefore welcome the opportunity to comment on the propose regulatoryframework of this fn prm , especially in the area of priority user access and a simplification of theframework , in order to make the spectrum more viable for oge entity .",1
"we feel that the spirit of thecbrs be to build on the success the current 3.65 ghz band , whose success be highly tie to its , acceptance by enterprise user of the spectrum .",2
the follow detail our recommendation to thecommission .priority access license eligibility .,1
the current fnprm broadly define pal eligibility to include a number of entity include large commercial carrier .,0
"this be a complete turnaround to the original nprm which afford pal eligibility to supply dedicated broadband spectrum for private , mission critical operation , such as commonly find in the oge industry .",1
entelecurge that eligibility for a pal should be limit to critical infrastructure cl user in censustract which fall in metropolitan statistical areas r'msa .,-3
"in rural area outside of an msa , thedefinition can be epande to the current eligibility propose .for",0
"the purpose of this designation within msa , cl should be define as oge , municipalservices , utility service , and any fcc sanction experimental or non - profit service .",0
"the basisof this be that for this band to truly remain for citizen , it should rema in primarily for thoseenterprise that do not generate revenue through spectrum resource , but merely use spectrumresource to facilitate safe and effective operation .",3
"furthermore , inside of msa area , ogeentitie be in tight competition for eiste unlicensed spectrum resource and can not competein auction for licensed spectrum that be use to generate revenue by commercial wirelessservice provider .",-1
"in addition , there be large number of interference issue with which tocontend .",-2
"by restrict msa access to cl user , this would truly meet mandate for addedspectrum relief by provide frequency with interference protection .",0
frequency assignments .,0
the spectrum access system sas .,0
and channel bandwidth .,0
there be many challenge to re - farming radio spectrum such that incumbent be not unjustly discriminate .,-2
the oge industry know this very well as many system in the former 2 ghz microwave band be move to allow for epansion of spectrum afford to wireless operator .,2
"while we understand that the commission would like to utilize a spectrum access system to administer frequency dynamically , entelec argue that the use of this system will detract from the use of this band , similar to why the use of the tv whitespace band have be limit .",-1
"for eample , oge entity frequently operate stand - alone system that be not connect tothe internet .",0
"further , internet connectivity be not an option or convenient in many remotearea .",1
"thus , it may be impossible or impracticable to meet the sas connectivity requirement .",-1
"even if the requirement can be facilitate , it would add cost , complexity , and it securityconcern that may render the band ineffective for many use case , especially when you considerthat oge entity do not generate revenue directly from the use of spectrum .",0
"to these point , entelec do not support the use of an sas in this band .",1
entelec would therefore support fix allocation scheme that be able to balance anyexclusion zone or satellite earth station incumbent issue .,0
"one example scheme base on thespirit of the commission'srecommendations include the soso access between the priorityaccess pa and general authorized access gaa user be as follow entelec recommend an allocation of four 10 mhz channel and two 5 mhz channel to bothpal and gaa tier , rather than the commission'sexclusive use of 10 mhz channel .",1
"we arguethat allow both 5 mhz and 10 mhz channel provide for more flexibility in deal withdifferent system requirement and exclusion zone , as well as option to look into potentialfrequency division duplex fdd possibility , allow user to pair channel 9 and 10 withchannel 4 , for example .",1
channel 4 could also be segment into separate 5 mhz channel .,0
we also recommend that a future channel plan for the 3.65 - 3 .70 ghz band should beconsidere in term of both 5 and 10 mhz channel size in the event it be absorb into thecbrs .,1
allocate the current 3.650 - 3.675 ghz restrict band use only 5 mhz block can alsobe consider in order to support our propose solution in section llc .,0
exclusion area .,-1
"entelec recognize that the commission be concern that a fix band frequency allocation scheme would not be as efficient as a dynamically assign method due to a large amount of exclusion area , which may affect gaa or pal allocation disproportionately .",-1
"as commissioner o'riellystated , the 3.5 ghz band would be largely unusable on the east and west coast and along the gulf .",-1
"if by rule , much of the country be not include in the cbrs band , this will reduce the usefulness of this band for oge user .",0
"therefore , the fnprm have propose the sas as a solution .",0
"however , as state in the above section 2 , we do not support the sas as we feel that the internet connectivity require to implement a dynamic system be impractical and will limit the success of the band for oge user .",1
"to resolve this , we recommend the commission both reduce the size of the exclusion zone area and create a finite number of fix band plan like the one suggest in section 2 of this response , and then assign particular band plan on a per census tract basis that make sense when you take into account the reduce exclusion zone area .",0
we believe that this can be do in the vast majority of census tract with only a few two or three plan .,0
palgm spectrum balance .,0
we support the propose idea of a 5050 split between pal and gm spectrum allocation in the 3.55 - 3.65 ghz band .,0
"note that should the 3.65 - 3.70 ghz band be assimilate into the cbrs service , we urge that it should be dedicate as a gaa band after the grandfathering period be complete .",0
"at that time , the commission should consider the success up to that point of the pal spectrum to decide if a continue 5050 system be warrantedin consideration of the add",1
50 mhz of gm spectrum .,0
geographical licensing .,0
the use of licensing by census tract be new in term of licensing and we support this regimen .,1
"of course , an alternative would be to license the band on a pointradius method , but that would require the use of a frequency coordinator to manage license area .",0
one advantage of the pointradius method would be that large census tract would be able to support many more pal at the expense of more complex border system interference limit .,-1
"in the end , we feel the gaa tier afford many opportunity to small deployment and we be willing to support a per census tract license scheme that be less complex .",2
"we notice that the commission do not address the gulf of mexico , an area outside of the 50-states and their census tract , but within the commission'sjurisdiction .",0
"we propose that license in this region be segment the same way as in brs auction 86 , in three area that in combination form economic area ea 176.pal fee .",0
the idea of a competitive auction for license when multiple application be file would greatly disadvantage user who do not generate direct revenue from their use of spectrum .,0
"furthermore , auction on a per census tract basis be cumbersome and open up many other question that would need to be answer base on the fnprm .",-1
"therefore , the commission should adopt a simple and reasonable fee structure for a pal application , a pal initial authorization , a pal renewal , and a contained access license which use a pa allocation .",1
fee should be in line with fee currently pay for part 101 or part 90 services.license term - pal .,0
"it be in the public interest to prevent pal'sin the cbrs from be acquire by speculator , who look at appreciation of the license value versus construction of a system to be their primary intention .",0
"in addition , the idea of a competitive auction for license when multiple application be file would put user who do not generate direct revenue from their use of spectrum at a disadvantage .",0
this be the case for cl entity .,0
"thus , entelec do not support the idea of auction and support a process where a pal applicant will include general information on the type of system be plan for the license area .",2
"a pal can then be grant to the applicant on an initial 2-year basis , subject to a build - out requirement base on their application .",0
lottery for multiple pal applicant .,0
a simple lottery - base system should be implement in the event two or more applicant file application on the same day and request the same pal frequency block .,0
"in the event that two or more entity apply for a license while other spectrum block be available , we urge the commission to freeze those potential license , give those applicant ten 10 business day or some reasonable freeze period of time to reach a mutual agreement on each application and to provide notification to the fcc .",0
"otherwise , the fcc will conduct a lottery and award the winner the spectrum while deny the other application .",1
"the commission can accept an application during the freeze period , but it can not act on it until the original application be act upon .pal renewals .",-1
subject pal'sto,0
"a competitive process which do not guarantee their ability to retain a license , even when they remain upstanding , create a harsh situation that put at risk the equipment investment of the licensee .",0
this will reduce the great potential of this spectrum from make an impact .,1
entelec propose that the commission guarantee the licensee renewal provide the systemremain in bona fide operation .,1
"at the end of their initial 2-year term , the pa licensee will needto show that a radio system , serve the need as outline in their original application , wasconstructed and be in operation .",0
"provide this be meet , the licensee could renew the pal for aterm of 5-years at a fix renewal fee .",0
"any subsequent renewal would also require continualoperation of the system , and would also be for a 5-year term .",0
"note that applicant can indicatea progressive build - out over time , but would need to show bona - fide usage and progress to beguaranteed renewal .",2
license terms - gaa .,0
we agree that license for the gaa tier should be minimal as state in the fnprm .,0
"we do , however , support a simple licensing requirement for the cbrs gaa tier , somewhat similar to that use at the current 3.65 ghz band .",1
"our propose licensing requirement would involve an operator authorization , and a notification to the fcc that a station be in operation on a per census tract basis .",0
"this station notification , couple with a general operation license , would help a gaa user collaborate with one another in term of mitigate interference on a voluntary basis .",-1
"this spirit of cooperation be already in place in the 3.65 band and be facilitate with the licensing procedure , and we believe it be in the public interest to facilitate its continuation .",2
this method will also make any assimilation of the exist 3.65 spectrum into the rule for cbrs much more seamless .,1
exist 3.65 - 3.70 ghz transition .,0
"in order to simplify licensing and fcc overhead , we recommend combine the 3.55 to 3.65 ghz band w ith the 3.65 - 3.70 ghz band in term oflicense .",2
"if the gaa licensing within the 3.55 to 3.65 ghz spectrum be initiate as describe insection 10 of this response , it be a seamless transition for operator in the 3.65 - 3.70 ghz band tobe move as their license can be electronically convert by the fcc without add licenseeeffort .",1
"furthermore , we propose two 2 additional measureselimination of the unrestricted protocol requirement .",1
"the 3.675 - 3.700 ghz band should no longer require the use of an unrestricted protocol , so that it fall in line with the cbrs gaa t ier.5-year equipment grandfathering .",0
"equipment certify under old rule that be use in this band will either require re - certification under the citizen bands service device cbsd rule within a 5-year window , or must be remove no later than the end of the 5-year window .",0
subdivision of channel sizes .,0
"while we feel it be important to set a minimum channel size of 5 mhz in each block , we know that there be legacy broadband application that may only require a small spectrum .",1
"thus we would support a cbrs rule in the gaa spectrum that support legacy 1.75 mhz , 2.5 mhz , andor 3.5 mhz operation in the 3.65 - 3.70 ghz band , provide such operation be contain within one 1 gaa channel e.g. - the small channel in operation do not bridge 2 contiguous channel .",2
however a user could aggregate two 2.5 mhz or two 1.75 mhz operation into a single s mhz channel .,0
contained access facilitieslicense .,0
the use of a contained access ca system be somewhat novel in term of licensing .,0
"from an rf engineering standpoint , this amount to support an overlayunderlay frequency licensing scheme , such that a ca system would utilize a low enough radiated power level inside of a structure to provide adequate service within the structure for device to operate .",3
then the signal will degrade ra pidly outside of the structure to where after a minimal distance that spectrum could effectively be re - use by another ca or palicensee much more often than if it be an umbrella of service over a large area .,0
"base on the definition we propose , a gaa entity would be able to operate a ca system by asimple operator license and notification to the commission .",0
"entelec believe that there isnothe the commission would need to do in this case , except to allow in its cbsd rule thesystem to use an internal contention base frequency allocation assignment method within thegaa block to mitigate possible interference issue .",-3
"however , obtain a pa frequency block for a ca facility be another issue .",-1
"outside of an entityrequeste pa spectrum to operate inside of a building by obtain a pal for the census tract , the question be do we support any expand eligibility of a pal for a separate contained accesslicense cal , or whether the authorization of a cal can be consider a separateauthorization from a pal within a location inside of the same census tract area and co - channelblock of spectrumyes , entelec would support cal on a per location basis within a msa census tract only .",2
wealso would support an expand pal eligibility for the purpose of a cal that would allowwireless operator and other non - cl user access to a cal .,1
"due to rf engineering concern , wewou i d strongly recommend as part of this support for a cal , that a ca licensee must submitsystem rf detail as part of its authorization .",1
"furthermore , if a pal be already issue for thatcensus tract that would be co - channel with the propose cal , the pa licensee would have togrant consent .",-1
it be important to realize that pa licensee consent may not be possible where apa licensee have implement a remote metering or some other solution that may be justoutside of the structure where the ca licensee propose to operate .,1
much of this consent willalso revolve around the final commission definition of what constitute a ca facility .,0
"we further recommend that after the propose rf system detail be submit for a cal to theexiste pa licensee , a pa licensee would have 30 day to respond to a cal request .",1
"we stressthat request for a cal need to provide a minimum level of technical detail , include thepredicte threshold outside the structure , in order to start the clock .",0
no response by the palicensee within the timeframe would be interpret as consent .,0
"finally , the definition of the area which constitute ca be subject to debate .",0
"from an rfperspective , industrial facility such as refinery and power plant that appear to be outside ofthe ca definition act very much like building in some way due to the many metal overhang , while a high - rise ca office facility may have large window that act more like outdoor area withless rf containment .",2
"also , the size of such ca deployment need to be consider as largecampus area may be several square mile .",0
"can a large theme park be a ca facilitywe propose a definition on a ca facility that include both building and industrial complex ofless than 1 square mile where the signal level outside and above the contained area be lowerthan -95 dbm , or the pa licensee approve a high level by consent .",0
this consent shall extendto other pa licensee in the event the pal change hand .,0
"for large facility , multiple calscould be obtain .",0
"it be important to reinforce that due to the pa licensee consent requirement , it may be impractical in an rf sense for a large ca facility to obtain pa licensee consent for a calauthorization in area where the pa licensee have very close operation .",0
"in such case , it shouldbe relatively easy in most case for the ca facility to utilize gaa spectrum .",1
effective isotropically radiate power feirpl rules .,1
the eirp rule propose by the commission address point - to - point and mobile rule .,0
it allow for an eirp of 30 dbm in non - rural and 47 dbm in rural area .,0
"for point - to - point system , the maximum eirp be 53 dbm .",0
these number assume a 10 mhz bandwidth channel and they involve a mix of output power versus antenna gain to arrive at a maximum eirp.our proposal support 5 mhz channel as well as 10 mhz channel .,3
"furthermore while channel size be one thing , a slightly narrow channel profile should be permit for the gaa tier to operate under cbrd rule in order to enhance the link budget of a long range system .",1
"base on this , we recommend that the eirp limit for point - to - point system in rural area should be allow to remain the same if a small bandwidth be employ an increase of the power spectral density to 23 dbmmhz for a 5 mhz channel .",0
"for urban area give the many factor that exist , we agree to a reduced power level to maintain the same power spectral density .",0
itinerant traffic .,0
"the oge industry commonly use remote vessel and facility that stay in place for several week or month , and then move to new location .",0
the industry consider these as itinerant vessel .,0
"common example be drill rig , lift - boat , and trailer office that follow a project or operation .",0
"for the purpose of clarification , we ask that the commission clearly associate that the use of the cbrs spectrum in a point - to - point application be consistent with itinerant operation , thereby afford this connectivity the high eirp limit .",2
out - of - band emissions oobe limits .,-1
the fnprm seek comment for the need of a -50 dbmmhz versus a -40 dbmmhz oobe limit .,-1
"entelec recommend that , even with the shared usage of various block of spectrum , the large natural attenuation at these frequency willpermit effective operation at the less stringent oobe limit -40 dbmmhz .",0
receive signal strength rss limits .,-1
the fnprm propose a -80 dbm limit at the border between licensee .,-1
this may be acceptable in environment with non -line - of - sight environment and large attenuation from tree and other clutter .,0
"however , this level may be too strong in open or over - water application especially the gulf of mexico .",1
point - to -point application also present more unique situation as well .,1
"thus , a prescribe rss limit of -80 dbm would be too strong in some area and too weak in other for border system in many case .",-1
example of this can be derive from consider that licensing be propose on a census tract basis .,0
many small urban tract could not support an isolated radio service as the propose rss level will limit the effective coverage area within that tract in order to establish a weak enough signal at the border .,0
"in other case , neighboring system surround a small tract at -80 dbm border level may create too noisy an environment to be able to operate within that small tract the propose rss limit be too low .",-2
"in large rural tract , a -80 dbm interference level may also create too much noise and",-2
the result snr degradation .,-1
"since the average signal level for the user in a large tract from a base station or point - to - point transmitter will be low by virtue of large distance , rural system may not be able to achieve the high snr requirement for modulation rate that afford maximal data rate , even with the add eirp.entelec recommend that a solution to this be to simply require a coordination notice cn to be provide to pa licensee in adjacent census tract where the signal level at the border be expect to be -95 dbm or great in the prescribed channel bandwidth .",4
"such measurement orsimulation can be make at 10'above the ground , as measure by a 0 dbi gain antenna , forsystem use the 30 dbm47 dbm eirp limit .",0
"for system use the high point - to - point powerlevel , each path must be coordinate in the direction of the path with each pa licensee withinany tract along the path for a distance of 25 mile from each endpoint .",0
"all cn would have todenote the system type , base station antenna type , height , eirp , and contain a predictive ormeasure signal contour at -95 dbm or some alternate coverage representation whichdelineate the rf condition .",0
"cbrs rule should state such cn shall be deliver to the licenseeaddress no less than 10 day prior to operation , and require both pa licensee to work out anydifference within 30 day of the system operation to their mutual satisfaction .",1
"after this time , any objection can be bring to the fcc for arbitration andor resolution .",-1
letter of agreement between adjacent pa licensee can serve to eliminate the cn requirement .,0
"again , the fcc should foster the cooperation of licensee by allow some flexibility while alsopresente a framework that protect pa",2
licensee'sright .,0
"summarya representative of oge user , entelec urge the commission to expeditiously consider andadopt the above detailed recommendation .",1
oge user urgently require this spectrum to fill a void inaffordable licensed broadband spectrum for critical system .,-1
"we strongly believe that for the cbrsband to be effective in be utilize by the oge industry , pal access be critical .",0
much of it extendsfrom the wide experience with the uncertainty of unlicensed and pseudo - licensed spectrum .,-1
thelicensing should be keep simple with a simple predictable fee structure that be affordable to oge usersthat do not generate direct revenue from the spectrum .,1
pal eligibility should be restrict within msaarea to critical infrastructure user as define in our response .,-2
license renewal should not be subjectto uncertainty provide the spectrum be be use and the licensee remain in compliance .,0
channelallocation should remain constant and not require dynamic adjustment that will increase networkcomplexity and require connectivity to the internet which may or may not be available at a givenlocation .,2
"technical detail in term of bandwidth , border system cooperation , and the newcontained access license must be do right to be successful .",2
"integration of the exist 3.65 ghz bandshould be accommodate as much as practical by the cbrs rule in the gaa tier , and not be hamperedby them .",0
"we argue that these simple condition be necessary in order to keep this spectrum frombecome an overly complex , competitively bid spectrum that will deter cl user such as oge , publicsafety , and other from obtain pals .",-2
"without these change , oge user in many place will only beable to use this in the general access assignment , restrict this spectrum'sability to fulfill the spirit ofthe presidential memorandum and the bona fide need in the oge industry - that of broadbandlicense spectrum for mission",-1
"critical rf system mean to protect oge rf system that facilitatemodern , safe , and cost effective management of field operation in the 21 century .",2
