text,score
introduction and summaryspectrum sharing and dynamic spectrum access dsa have be widely acknowledge as key technology for enhanced access to the spectrum to meet the ever increase demand for bandwidth .,2
the opening up of 3.5 ghz for commercial use be a major step in that direction .,0
"while it be of immense importance to incessantly explore more opportunity for use the otherwise unused spectrum , the efficient usage of the available spectrum be as critical as find new spectrum .",1
the pcast report discuss about evolve new metric for spectrum efficiency to evaluate the wireless system of the future .,0
"in spectral planning , the guard band play a very important role in protect the receiver from harmful adjacent channel interference .",0
each receiver have different performance and tolerance level to adjacent channel interference .,-1
"contrary to the traditional guard band allocation which be largely generic , guard band carefully craft to the customized need of each receiver not only protect all the receiver against harmful interference but also can potentially boost the spectrum efficiency by several order of magnitude , especially in futuristic heterogeneous network which be a propose architecture for the 3.5 ghz .",1
in this paper we develop on the spectrum efficiency metric discuss in the pcast report and prove via simulation that channel allocation and guard band insertion term as spectrum preclusion with the knowledge of spectral performance of receiver can potentially give a huge boost to the spectrum efficiency .,1
such an informed and inclusive optimization by the sas will ensure the good possible utilization of the available spectrum .,2
"thus , we emphasize on the critical importance of include receiver performance datum in the sas for spectrum management for the propose 3.5 ghz .",-1
"the need for receiver performance characteristicsexiste spectrum regulation impose stringent restriction on transmitter and give a free hand to receiver design , which largely concentrate on cost optimization with certain standardized performance constraint .",-2
"the assumption that poor receiver would be downplay by the market be overrate , since previously receiver be almost never vulnerable to adjacent channel interference .",-3
"the lack of accountability on receiver tolerance limit , though make their service susceptible to degradation due to interference , this be take care by carefully allocate static band for transmitter with strict overlay mask regulation along with guard band .",-7
this framework work so long as network level spectrum efficiency be not a concern .,0
"however , the static setup for guard band can potentially create unwanted overhead , especially in a heterogeneous network since the guard band for every receiver would be that of the poor performing receiver .",-3
such exclusive spectrum allocation scheme and exclusion zone to protect the receiver from interference inherently lead to poor spectrum efficiency .,-1
"the spectrum effectiveness or efficiency , be define as where be communication range of user be datum deliver for user be",1
interference range to which other use of this spectrum use by user be precluded,-1
"be the time take to deliver data be spectrum preclude - the amount of spectrum not available to other user in other word , the spectrum consume by the receiver for its operation and be the total number of user for a give band or block of spectrum over a geographical region .",1
"we see that contrary to the conventional definition of spectrum efficiency , this metric have the unit",0
bitsm - s - hz .,0
"poor receiver selectivity result in large spectrum preclusion or consumption , and thus result in low efficiency as see from equation 1 .",-1
"the ratio denote asfor simplicity , dictate the achievable data rate for the receiver .",1
"inclusion of give emphasis to those system which can communicate a long range and if the co - channel interference tolerance be high , it result in a low , thus increase the spectral reuse and thereby increase the spectral efficiency .",-1
"upon a close observation , it be see that the new metric for spectrum efficiency very closely relate to the receiver performance .",0
the interference range depend on the interference tolerance limit of the operating receiver at that point and the spectrum preclusion be directly dependent on the adeptness of the receiver to reject signal from adjacent channel .,-4
"thus , it be impossible to circumvent the knowledge of these variable and perform an inclusive optimization for network level spectrum efficiency .",-1
these parameter be also require for intelligent channel assignment to protect all receiver from harmful interference base on their characteristic .,0
"there perhaps exist sub - optimal solution which can be drive through opportunistic spectrum access via sense , but in this case it be impossible to ensure adequate protection for all receiver in the network because of the hidden node problem .",0
"thus , to ensure maximum utilization of the propose 3.5 ghz band , the sas should include the receiver performance datum and optimize for spectrum efficiency .",0
it be now evident that receiver characteristic play an important role in spectrum management of the propose 3.5ghz band .,1
"while the immediate policy may protect all receiver , another advantage of make the receiver characteristics commonplace be to encourage a competitive market for well performing receiver by give the consumer knowledge of a radio quality before they purchase the device .",4
"in the eventuality that spectrum become extremely congest , a policy engine could enforce a temporary denial of service for poor performing receiver .",-2
the sas could provide a high priority to those receiver that be more efficient in their spectrum usage and encourage inefficient user of the spectrum to upgrade their equipment .,1
"alternatively , the policy may define an elevated noise floor that the receiver have to put up with in order to cope up with the increase in demand for spectrum .",-1
many such detail be be consider by several spectrum regulate agency across the world .,0
the infamous lightsquared problem could have be potentially avoid have the manufacturer of commercial gps system be encourage to provide receiver with high selectivity and well interference rejection .,-2
incorporation of quantifiable metric on receiver performance and make it available to the consumer market would automatically build a healthy competition to provide good quality receiver .,3
consumer can make rational decision if they be provide adequate information about the product they buy .,2
a policy that incorporate notification to the consumer that poor receiver be liable to be deny service at certain time will change the wireless market dynamic and yet provide manufacturer and consumer a great deal of freedom in their design and purchasing decision .,0
an example studywe now substantiate our claim by carry out a small example simulation study to allocate spectrum resource for a network of 8 node while maximize the spectrum efficiency under some constraint .,0
in this we compare the spectrum efficiency obtain in two casesreceiver performance datum for all receiver be include in sas and be use for maximize spectrum efficiency during resource allocationreceiver performance datum for any receiver be not include in sas and hence have not be account during resource allocation.the importance of receiver spectral performance .,0
"different receiver will consume different amount of spectrum to provide the same data rate , even with the same channel and modulation scheme .",0
this depend on the rf front end nonlinearity which should be capture in the receiver performance characteristic .,0
this spectral performance of the receiver be what need to be include in the sas with a suitable policy language .,1
"example curve for the variation of datum rate with spectrum consumption be show for illustrative purpose in figure 1.in this simulation study , we generate 8 such curve for receiver spectral performance relate to the achievable data rate and use them for numerical optimization to compare it in term of spectrum efficiency with the case where this data be unavailable to the sas .",0
"we assume a total bandwidth , mhz to be share among 8 receiver in the network .",0
"spectrum be allot in block of 180 khz similar to lte physical resource block and the maximum spectrum that can be allocate to a single user be set as , 1.8 mhz 10 block .",0
"we assume identical channel condition for all user , which obviate the necessity for any feedback .",0
"for case 1 , where receiver performance curve be know to sas , we enforce a minimum rate constraint , for each of the 8 user .",0
minimum rate constraint indirectly specify that a minimum amount of spectrum should be allot to each user .,0
"we vary this minimum rate constraint start from 0 kbps , in step of 100 kbp until 300 kbp this be the max achievable under the give receiver characteristic of the problem and evaluate the spectrum efficiency achieve .",0
the achievable spectrum efficiency be show in figure 2 .,1
"all 8 node be guarantee a minimum rate of .for case 2 , when the spectral profile of the receiver be unknown , no optimization can be perform in the framework of this problem since the relationship between and be unknown to the sas .",-2
"thus , one of the good strategy be to allot equal resource to all user , since we assume identical channel condition .",1
"thus , equal spectrum be allocate to each user , but the spectrum efficiency vary with the amount of spectrum allocate .",0
"start from 180 khz per user until 625 khz per user which be the maximum for a bandwidth of 5 mhz and 8 user , we evaluate the spectrum efficiency for each case use the actual data rate achieve for the give spectrum allocate or consume by the receiver .",0
the result spectrum efficiency and the number of user meet a set minimum rate constraint,0
be show in figure 3.as see from the figure,0
", the high efficiency achieve in case 2 when sas do not know the receiver performance characteristic be low than the low efficiency achieve in case 1 when sas know receiver performance and use for resource allocation .",0
"also , the number of user satisfy a minimum rate be very low in case 2 when receiver performance be unknown , while all the node satisfy the minimum rate constraint in case 1 when receiver performance be account .",1
"if the minimum rate be to be ensure for every user by provide adequate static guard band without the knowledge of receiver performance , the result spectrum efficiency be very low .",0
"if the receiver performance of all or at least some node be know , then the sas can intelligently decide the resource allocation to maximize spectrum utilization by allocate only the require amount of guard band for each receiver , instead ofwaste spectrum by be over conservative in allocate guard band or kill the aggregate data rate by reduce guard band the sas only can make guess .",-2
"we note that in this simulation study , frequency and time aspect be ignore , with the inclusion of those dimension , the result difference in efficiency between the two case would only be large .",-1
"conclusionin this paper , we have emphasize the importance of include receiver performance datum in sas and use it for optimization during resource allocation for the propose 3.5 ghz band .",0
"we have show that such a framework can boost effective spectrum utilization , thereby reduce spectrum wastage .",2
we draw the attention of the commission to the potential benefit of such a holistic spectrum management scheme and the long lasting benefit that it bring with it .,2
