text,score
"abstractthis paper present the general responsibility and composition of the sas via use case and concept of operation conops for the sharing of radio spectrum in the 3550 mhz band among federal incumbent , commercial second - tier pal usage , and third tier gaa usage .",0
this paper build upon federated wireless prior submission to the fcc regard spectrum sharing in this band .,1
the use case illustrate the sas general responsibility for conformance to implicit and explicit legal national security constraint as well as an array of unique and challenging operational security need of federal incumbent .,0
"the technical innovation of a federate sas fsas envision to successfully address these responsibility protect national security , reduce interagency datum sharing requirement , and preserve agency prerogative while provide efficient commercialization via a fsas composition as a novel commercially - base public - private ownership and operation framework for spectrum sharing .",4
"overviewhistorically , us user of designate federal radio spectrum have enjoy a relatively comfortable degree of security by statutory obscurity .",1
"express necessarily simplistically , accord to title 18 , the us criminal statute , it be a crime to listen to us federal radio channel for the purpose of discover information that could be either injurious to the us or potentially advantageous to a foreign power .",-2
note the verb could in this quotation .,0
"this paper derive the sas responsibility and composition from obvious national security implication of share radio spectrum in the 3550 mhz band among federal incumbent , commercial second - tier priority access license pal usage , and third tier general authorize access gaa usage .",-1
the terminology usage include use intend by the fcc as well as way in which malicious agent may exploit spectrum share for intent that could be injurious to the us or potentially advantageous to a foreign power .,-1
a federated sas may be compose to address these issue while provide efficient and affordable sharing of this band of radio spectrum .,1
efficient spectrum sharing require spectrum sensingspectrum sharing do not require sense as the tv white space tvws regime demonstrate .,1
"however , efficient sharing of radio spectrum do require the sensing and use of channel state information csi , e.g. by commercial share spectrum ss radio access network ssran base transceiver station ssbt and by handset , laptop , and other user equipment ssue .",1
"although it may not be obvious to the casual observer , csi sensing could be construe by a malicious agent to reveal the structure , capability , limitation , and vulnerability of incumbent us federal wireless signal in space , include military signal , often term waveform in military community .",-1
the first use case illustrate how spectrum sharing could compromise operation of federal user such as the law enforcement community .,0
"sense military and national security waveforms evokes itar , ear , and title 18military waveform characteristic have be subject to us international trafficking in arms regulations itar , manage by the us department of defense dod while the disclosure of in - depth knowledge of advanced commercial and military waveform also be subject to the export administration regulations ear , manage by the us department of commerce doc.",1
"many spectrum share architecture and concept , especially those base on tvwsdatabase , be fatally flaw from itar , ear and national security perspective .",-2
the second use case illustrate how an unconstrained sas could assist a malicious agent in violate titlea third abbreviate use case illustrate further how today state of affair in cyber securitymay facilitate malicious use of the sas by a foreign power .,-2
"the discussion of the national security issue of these use case develop a general set of sas responsibility , derive requirement , and an sas composition that render malicious exploitation impracticable , hence tend to preserve the national security of the us.a federated sas be responsible for preserving national securitybriefly , a federate sas fsas would be responsible for protect the national security of the united states , prototypically local , state , and federal law enforcement and national defense .",-2
although the federal government have identify signal of the us navys,0
"spy-1 series of radar as incumbent in the 3550 mhz band , a scalable sas would be responsible to preserve and protect any and all federal signal structure and operation , whether explicitly disclose to the sas or not , and whether of radar , communication , navigation , or other specialized use .",1
federated sas also would be responsible to preserve the confidentiality and independence of action of the many federal agency that employ federal spectrum .,0
"commercial ssran device would measure csi for efficient spectrum usage , but would be responsible for report into the fsas in a way that automatically enforce itar and ear restriction and that minimize opportunity for malicious agent to exploit spectrum share contrary to the national interest of the us.a federated sas be responsible for efficient spectrum sharingas envision , fsas be compose of element and interface that enable efficient spectrum sharing without compromise national defense .",0
"briefly , fsas consist of three federated layersa distribute layer of hundred of sas node that be able to collect csi from ssran infrastructure and by delegate authority be able to grant access to a give ssran infrastructure device in turn ssran infrastructure device authorize ssue to use the shared spectruma regional layer of a dozen sas node that be able to manage the distributed layer sas node and that forward csi and related metadata and operational context datum upwards securely for analysis anda commercial - government secure core sas for centralize csi analysis and optimization that be protect as national security information .",3
joint ownership promote,0
national securitythe secure core of fsas would be jointly own by a single commercial entity and the government and would be jointly operate on a for - profit basis .,1
"the regional and distribute layer of fsas could be own and operate commercially , contract with the secure core sas entity for spectrum access .",1
the government share of the for - profit fsas revenue would be equivalent to spectrum license fee .,0
"because of the government co - ownership , fsas secure core could realize the high level of national security protection , tantamount to the well protect us government installation .",4
"with such a high security level , the secure core sas provide one - stop shopping for federal incumbent to manage their own operation , provide agency - specific constraint and businesslogic to regional and distribute sas without disclosure of technical or operational detail of their waveform to other agency .",1
fsas composition promotes efficiency with securitythe distribute layer of fsas node acquire csi directly with each usage request from each ssran infrastructure device request usage of share spectrum .,0
"each regional sas node exert distribute control over assign sas node accord to a baseline regional spectrum sharing plan generate by the secure core and available to mutually authenticate , certify service provider .",2
"the baseline plan be statistical in nature , characterize the expected degree of availability over a relatively long planning period , such as a year with high fidelity plan for more immediate short planning interval such as for the come month .",1
the fsas secure,1
"core accept csi measurement and associate metadata from other sas node , isolate them use national security well cyber and physical security practice accord to national security agency nsa requirement for national defense and as illustrate in the nist 800 series .",0
"the fsas secure core may employ pattern of csi and incumbent usage over time to iteratively learn the statistical correlation of observation and prohibition , share them with associate federal agency with appropriate law enforcement andor national security protection .",3
additional rule and business logic unique to the secure core address spectrum sharing issue and optimization opportunity in a secure environment .,1
spectrum clearance alarms minimize data sharingunlike tvws or ieee 802.11a,0
"5.9 ghz radar sharing , fsas would employ a standard in - band spectrum clearance alarm signal that be transmit on sas command by any ssran or , on ssran command by any ue .",-1
an in - band alarm cause ssran infrastructure device and uesto cease to transmit in a give band,-1
"e.g. 3550 - 3650 , sub - band",0
"e.g. 3570 - 3580 , or channel , defer to incumbent without revelation of incumbent presence , specific signal structure , operation time line or capability of the waveform , hence deny malicious agent from knowledge of operation or vulnerability that could defeat federal , state , or nso operation .",1
a federated sas platform be extensible to other bandsunlike tv whitespace database optimize for one particular spectrum regime and one particular signal in space - broadcast tv in the uhf band - fsa composition and capability outline in this submission extend both downward from the 3550 mhz band into vhf,1
e.g. 1795 mhz and upwards into shf e.g. 10 ghz and into the military millimeter wave band,0
e.g. 24 and 60 ghz .,0
this paper be use - case drive so as to clearly articulate the need for practical implementation of the sas in today highly competitive and politically charge federal - commercial fedcom spectrum marketplace .,3
federated sas as a commercially own government operated cogo entitythe government own commercially operated goco organization and the federally funded rd center ffrdc,0
well understand legal construct for realize the need of the us federal government in partnership with industry on a not for profit basis .,1
"the fsas would be a commercially own government operate cogo legal entity , a new for - profit construct appropriate to realize the unique need of a sas that can effectively manage share spectrum on a profitable basis while protect the national security interest of the united states .",3
organization of this paperthe body of this paper consist of a series of use case with vignette that illustrate operation and technology challenge of share spectrum concept of operation conops for us national security usage and ownership .,0
associate with each use case be implication for general sas responsibility and composition .,-1
the paper conclude with finding and recommendation to the fcc.what be the feds,1
do herethis use case concern the discovery and malicious use of federal spectrum signature .,-2
"a spectrum signature vignetteseveral year ago , the author be visit a state white collar crime unit , talk to a counterpart techie , call him charlie , in his laboratory .",-1
"charlie look at the spectrum analyzer , smile , and call over the transom to a fellow officer , hey , what be [ the feds ] do here today",1
"the officer reply , no clue .",0
"they do not tell us they be come , but , thank ,",1
i well go see what they be up to .,1
"naturally , i be intrigue by the exchange , so i say , you could tell that [ the feds ] be here from your spectrum analyzer ,",1
"could not you charlie say , sure .",0
you can too .,0
charlie touch a couple of button and a very distinctive pattern appear on the display .,1
"wow , i say , so you could see the other display change enough to know what be go on without have to adjust the parameter",2
"so i could see it yep , charlie say , once you know [ what to look for ] its easy to spot .",1
"only [ the feds ] can afford radio that do that , charlie chuckle and shake his head , megabuck for [ radio ] that stand out like a sore thumb .",0
"in the actual event , charlie clearly identify who [ the feds ] be and provide other information about [ what to look for ] in the spectrum use pattern of those [ radio ] that would not be appropriate to share with general audience .",2
"this redact version of the actual event be suitable for public release , distribution unlimited .",2
"national security organization nso issues and implicationsin the spectrum signature use case , the notation [ the feds ] refer to one of more than twenty national security organization nso entity , e.g. those organize under the us office of the director of national intelligence odni and not necessarily the us federal agency that may immediately come to mind .",0
a malicious agent have access to a database of csi could correlate federal presence with spectrum signature as charlie do .,-1
"charlie , a malicious agent could correlate signature to operation , such as visit to local police , make arrest , etc .",-1
"a sas compose as a tvws database would facilitate such correlation of csi with operation , render harm to us national security operation .",0
"in addition , many us nsos avoid public disclosure of capability , limitation , and operation as a requirement for mission effectiveness .",1
operational security of any of these two dozen agency be unacceptably compromise when a person or organization of interest poi become aware of the physical or logical presence of any one of them within the pois domain .,0
"logical presence may include the conduct of lawful wiretap operation that may include use of wireline and wireless telephony equipment accord to the communications assistance to law enforcement act calea or as provide by a foreign intelligence surveillance act fisa court order , among other .",3
"in collect any spectrum occupancy information , especially channel state information csi , the sas be collect raw datum , which , as the redact spectrum signature vignette above demonstrate , could reveal the physical or logical presence of one or more nsos conduct an operation in a poi domain coincident with a give sas locale .",1
this kind of revelation make possible by a generic sas would be unacceptable to us national security .,0
"furthermore , it may be operationally unacceptable for one of these nco to expose unique radio spectrum usage characteristic to other nco because of the difference in security constraint and practice between agency .",-1
"it thus would be particularly unacceptable for such information to be aggregate into a tv white space kind of sas database , whether public , private , or secure via good commercial practice because of the increase risk of exposure over time .",0
"although many of those interested in the sas have indicate the need for security , few have offer specific information specific sas security responsibility and related method of achieve those responsibility via effective sas composition .",1
"from this use case , it be clear thatcsi must not be aggregate in a way that would allow a third party to infer federal pattern of spectrum usage , especially via the million of ssran and ssue device whose measurement of csi would be need by sas for spectrum efficiency .",1
"from a radio engineering perspective , even if some usage signature be relatively obscure most of the time , 1r be a very powerful force , so an nco radio transmit within a few foot of a 3550 mhz",0
"ran receiver may have relatively subtle characteristic when observe from a distance that impart low signal to noise ratio snr , versus the 40 db snr into a cbs ran that may tend to reveal characteristic in detail , both in a give spectrum occupancy measurement and over time .",-1
"thus , various spectrum observatory have come to realize that it may be a violation of federal law to observe signal in federal spectrum , to analyze them even from an academic perspective , and to thus accidentally discover information that clearly should not be share with a third party , particularly not with non - us citizen who be presume under the law not to have the us national security as a value share with other us citizen .",0
"thus , while any malicious entity can procure a spectrum analyzer , sas place essentially million of spectrum analyzer throughout all nso operation area , effectively one spectrum analyzer per ssran and ssue .",0
the aggregation of information by the sas under the assumption that share the 3550 mhz band be as successful as wi - fi in the marketplace,1
10therefore also may accrue completely unacceptable national security vulnerability unless manage up front .,-1
"electronic warfare use casedave adamys series electronic warfare , ew101 , ew102 , and ew103 provide a public basis for discussion of the practical aspect of warfare against enemy [ radar and ] communication signal .",-1
"in ew101 and 102 , adamy and precursor include richard wiley in electronic intelligence the analysis of radar signals artech house , 1985 call the collection of radar signal of a potential hostile emitter the acquisition of electronic intelligence elint .",1
wiley define elint as a process where an elint analyst attempt to reverse the radar design process and infer the radar capability by observe the radar signal .,1
"r. wiley , op .",0
"cit . , preface .",0
therefore the sas could provide an opportunity for a foreign power to observe us radar signal and thus could could enable a foreign elint analyst to reverse engineer us military radar system operate in the 3550 mhz band .,0
"this should come as a surprise to no one , but be spell out in this use case so that the sas responsibility for address it and the sas composition for avoid it may become clear .",1
suppose that a foreign power anticipate the possibility of the conduct of warfare with the united states in the future .,0
"all modern military organization include ew as fundamental to modern warfare [ us army field manual 3 - 36 , electronic warfare in operations , approve for public release , distribution unlimited ] .",4
"could the sas be use to the advantage of a foreign power , specifically an ew advantage , in violation of us title 18 criminal statute this use case illustrate the possibility , identify sas responsibility and result derive composition of fsas that the fcc and other federal agency could ensure to mitigate such a threat .",-1
"tvsas assumptionssuppose for this use case that a tvws database tvdb be the starting point for the sas of this use case , call it tvsas .",0
"suppose further that ssrans and ssue make csi measurement report to this commercial tvsas which use csi to enhance efficiency of spectrum usage , such as by measure and allow acceptable level of interference among tightly pack pal and gaa user .",0
"as such , these measurement may be the property of the tvsas operator and would not be in the public domain .",0
"however , drive by business pragmatic , tvsas spectrum occupancy datum would be share with company , include small start - up , to use share spectrum to provide commercial service and hence provide relatively unrestricted access of tvsas information these wireless service provider .",1
"note that such a high degree of service provider access would be a business necessity for a tvsas that be own and operate privately , just like tvws web site and tvdb .",1
foreign power motivationsuppose for this use case that a foreign power would like to exploit tvsas to its advantage .,1
"how may this be accomplish and what would the fcc responsibility for the sas to mitigate such a threat the foreign power may be a non - governmental entity such as a terrorist organization , but for realism with respect to the 3550 mhz band , let assume for this use case that the foreign power be the navy of an unfriendly nation nun .",0
it be not unreasonable to expect that nun would like to use tvsa to their advantage in a possible future conflict with the us .,0
"the widely publicize usage of the 3550 mhz band by the us navy would be sufficient to motivate nun to look into this possibility , e.g. for an ew advantage in a future conflict or perhaps to do harm to the us by interfere with us naval radar defense , e.g. against anincome weapon of some sort .",-1
the ew detail be not important .,1
"the lynchpin be that in a successful spectrum share commercial marketplace , tvsas be collect million of digital sample per day of radio spectrum use by us navy radar , so over time many million of sample of us navy radar signal would be collect by ssran and ssue , e.g. as csi.tvsas elint opportunity for a foreign powersuppose , then , that nun would like to subvert tvsas to become one of their elint signal acquisition system , a surrogate for acquire digital snapshot of signal emit by us navy ship operate in the 3550 mhz band .",1
be that possible,0
ssran and ssue csi will acquire radar signal along with everything else .,0
"radio receiver have no inherent ability to obey the law , so if its there , they will measure it .",0
"can we preclude such elint usage yes , by define a sas with a composition of a few suitably define layer of raw datum , process information , and information access .",0
tvsa registration process could be defeatedthe fcc require entity seek to acquire spectrum license to submit relatively extensive information that would reveal the high degree of foreign ownership and influence that nun would like to have over tvws .,1
suppose nun attempt to defeat this layer of protection of us interest by enlist or create a malicious agent in the us .,1
"for example , suppose that malwire be a wireless service provider that somehow attract the interest and involvement of the foreign power .",0
"suppose that nun take their time , invest in malwire and install a team of malicious agent in malwire call mal1 .",-1
"although malwire may be focus on commercial service , the mal1 subset may work wittingly or unwittingly towards the ew interest of the foreign power .",1
"malwire may register with the fcc , accurately representingthemselve to the fcc and sas as a legitimate commercial service provider business .",1
they may offer novel spectrum share technology that aggregate ssran and ssue channel state information for improved optimization .,1
"in this use case , malwire provide actual commercial service to pay commercial customer while mal1 provide elint to the nun in any of the follow otherwise reasonable and benign alternative tvsas composition .",1
"extreme of shared spectrum riska tvws database , open to the public , could divide the us geography into two zone base in part on all of the possible location of naval emitter and their range of signal penetration from off shore .",0
"tvsas could preclude hostile elint by define exceedingly large prohibit zone such as those offer by ntia in the original cbs nprm , preclude the usage of this band in most major urban center and for more than 60 of the population of the us .",-1
"as provide in many comment to the fcc original nprm , the economic of such spectrum sharing be insufficient for broad market uptake .",-1
thus risk minimization be not economically viable .,-1
"on the other hand , a tvsas that achieve spectrum efficiency by measure csi , detect incumbent signal , and then preclude spectrum usage only exactly when and where federal incumbent be operate per force be base on embodied knowledge of incumbent signal structure , e.g. of navy ship , and thus would reveal the exact presence and location of federal operation , in this case , us navy ship operate in port and off shore .",0
this also would be an unacceptable condition of the opposite polarity of the large restriction zone .,-2
thus market optimization be not operationally feasible because of risk of undue revelation of federal operation such as detail of military operation that could be use by nun against the us.neither of these two extreme be acceptable and neither be several reasonable alternative .,1
"tvsas incumbent signal templates pose unacceptable riskshowever , as a third and more reasonable possibility , a tvsas may be formulate with ssran , ssue pal , gaa device that detect and recognize the signal of incumbent user .",0
"after all , wi - fi device defer usage of the 5.9 ghz band when radar be detect , so why not employ the same strategy in the 3550 mhz band be it possible to define a template for incumbent signal such that spectrum sharing device could detect and defer probably not .",0
a template may characterize the structure of satellite communication signal .,0
"however , give the parameter agility of modern radar system , such a template for the us naval radar may tend to reveal capability or limitation of such naval radar that could be use in electronic warfare and thus should not be share with the public because of ease of access by the unfriendly foreign power like nun .",3
"in addition , the template - base approach would not scale to other less obvious federal usage of that band or of other federal usage in other band like the 1795 mhz band .",1
"future federal research in those band could not be protect unless template be update to include spectral characteristic of experimental system , significantly curtail federal usage for rd .",1
"in addition , maintain template across million of deploy device pose many practical challenge .",0
"thus while an incumbent signal template work once in the 5.9 ghz band , it may not scale well to more complex federal incumbent usage in other federal band .",1
tvsas measurement and obfuscationsuppose individual ssran infrastructure device and ssue have the ability to measure csi as be currently the case in most commercial standard include 3gpp long term evolution lte .,0
"digital capture of csi optimize dynamic spectrum allocation , minimize interference , and assist in infrastructure planning , e.g. by minimize drive test mdt .",0
"thus , a more sophisticated tvsas may empower spectrum share device to acquire csi to measureinterference without provide an incumbent template .",2
the tvsas itself may have a range ofincumbent signal template provide by federal agency and may detect the presence of federaluser via template match to csi measurement .,0
this sas - centric approach simplifiesmanagement of template but introduce time delay along with the problem of probability ofincumbent detection versus false alarm .,-4
tvsas template thus introduce a degree ofuncertainty of spectrum access into the spectrum share paradigm that would tend to inhibitmarket uptake .,0
"even if this arrangement be acceptable to market , the tvsas must somehow obfuscate itsown knowledge of the presence and location of federal user such as in this use case , us navyship operate in or near us port andor off the coast .",0
"otherwise , the business pragmatic ofsuch a tvsas may be exploit by nun .",-1
service provider like malwire would know of thelocation of federal user by the fact of spectrum usage denial in the tvsas database .,0
malwire malicious team mal1 could acquire csi from tvsas for analysis .,-1
"since csicould be provide by a time domain sample of a give channel , the ssran and ssue becomeunwitte nun elint collector , which be unacceptable both in general and specifically withrespect to title 18 , chapter 37 , sections 119 and more significantly , section 793.specter of criminal liabilityrelevant provision of title 18 , section 793 include the follow extract quotationstitle 18 - crimes and criminal procedure part i - crimeschapter 37 - espionage and censorship u.s. code as of 011904section 793 .",-3
"gathering , transmit or lose defense information ...",-1
"d whoever , lawfully have possession of , access to , control over , or be entrust with any document , writing , code book , signal book , sketch , photograph , photographic negative , blueprint , plan , map , model , instrument , appliance , or note relate to the national defense , or information relate to the national defense which information the possessorhas reason to believe could be use to the injury of the united states or to the advantage of any foreign nation , willfully communicate , deliver , transmit or cause to be communicate , deliver , or transmit or attempt to communicate , deliver , transmit or cause to be communicate , deliver or transmit the same to any person not entitle to receive it , or willfully retain the same and fail to deliver it on demand to the officer or employee of the united states",0
"entitle to receive it ... shall be fine under this title or imprison not more than ten year , or both .",0
"section 119 and the associated definition include annex a prohibit the interception of radiocommunication signal , allow service provider to receive their own signal , of course .",-1
"however , spectrum sharing render the ssran and ssue reception of share spectrum into agray area where the act of interception of signal transmit use modulation techniqueswhose essential parameter have be withhold from the public with the intention of preservingthe privacy of such communication itself may be unavoidable in share spectrum .",0
theintercept of us military radar signal may fall more specifically within section 793 .,-1
"the lawseem clear that it be the information itself and its intend usage that be subject to sanction andnot the form of the information , whether write , graphical , or otherwise include computerbase networked information .",1
"sas responsibility to protect military informationsince sas would be gather information that could be use to the injury of the us or to theadvantage of a foreign power , the sas responsibility should include the protection of the rawdata and the prohibition of aggregation and analysis of digital copy of receive signal andderive spectrum usage information outside of appropriate national security protection .",3
"although those not familiar with the operation of such system may consider national securitylevel of protection to be unacceptably arduous and expensive , if adapt to the specificcharacteristic of spectrum sharing , they can be make practical and affordable commercially .",-1
efficient sharing of federal spectrum generates legal ambiguitiesthe historical segregation of radio spectrum into commercial use versus federal use also segregate the act of listen into a commercial or public radio frequency band from the act of listen into a military radio frequency band .,1
"listen to a public band may be term amateur radio , while listen to a military band , if conduct to learn of and exploit the vulnerability of military communication , e.g. for a military , may constitute unlawful intelligence gathering , espionage , a crime punishable in the citation by up to ten year in prison per offense and in theory at least by the death penalty .",-6
"thus , party to the international telecommunications union itu treaty protect the sovereignty of nation by proscribe the differentiation of sovereign military usage of the radio spectrum from other type of usage , enable the confiscation of unauthorized equipment capable of observe military usage of the radio spectrum .",2
"organization like the north atlantic treaty organization nato expend vast amount of effort to enable military communication while preserve national prerogative and state secret of the participant , such as method of encrypt military information .",1
share spectrum between military and commercial entity make it incredibly easy for a foreign power like nun to recruit a malicious entity like mal1 have unrestricted access to a sas database to discover what otherwise would be protect as a state secret .,5
"although the degree of law enforcement with respect to specific act depend on many variable , spectrum share technology appear to make it easy for nefarious agent like mal1 to employ a spectrum access system to discover the operation , capability , limitation and vulnerability of federal user that may include nsos like the department of defense dod.sas responsibilities and compositionfsas can preclude malicious usage of the sas for elint while simultaneously ensure spectrum efficiency base on a sas composition that limit the distribution of potentially problematic measurement to a secure core sas.finding and recommendationsfindingsthe sas should be responsible for protect national security .",2
it should not allow third party aggregation of spectrum measurement such as of csi that may be use for detection of federal operation or for conduct elint against the us military .,0
"the sas should allow ssran and ssue device to make measurement , transfer measurement securely from the distribute sas level through the regional sas level to the core secure sas.the sas should respond only to specific mutually authenticate ssran infrastructure device for request for access , whether at gaa or pal level .",2
mutual authentication between the sas and a fix ssran infrastructure device provide the identification information need to mitigate national security threat .,-1
"recommendationsa federate sas should be compose to meet the responsibility illustrate above , consist of three layersdistributed sas layer dsl a low layer of hundred to thousand of highly distribute sas node able to rapidly approve or disapprove local spectrum accessrequest from ran infrastructure device",0
"whether request pal or gaa usage and able to rapidly clear spectrum for federal incumbent when and where neededregional sas layer rsl a more centralized federation of few but more secure sas server that be capable of and empower to analyze channel state information from the distributed layer in order to detect the presence of incumbent that have not previously register usage , e.g. as need for contingency operation andcore secure sas layer csa a highly secure core sas capable of protect us national security information at the high applicable level and staff with very few government and contractor employee .",8
"the core secure sas layer should be jointly own and operate by the federal government and the commercial sector on a for - profit basis , with operational profit provide payment for the efficient use of shared spectrum .",2
