text,score
spectrum bridge be pleased to provide the follow response to question stem from the fcc propose framework for spectrum sharing in the 3.5 ghz band .,1
"sbi strongly support the basic tenet the fcc have propose as the basis for a spectrum share framework in this band , especially employ a sas base geo - location policy database technology to dynamically manage frequency assignment , more open access for the priority access tier , streamline licensing of the priority access tier , mutually exclusive spectrum right for priority access , a define floor of gaa spectrum availability and additional gaa access to unused priority access bandwidth , as a means to maximize dynamic use of this unutilized spectrum .",3
"virtually any set of baseline technical standard could be implement use an sas geo - location policy database platform to prevent harmful interference , because an sas include the ability to adjust baseline rule and policy dynamically as need evolve .",-2
"it be therefore not necessary to achieve a near - perfect policy framework to proceed in a timely , albeit cautious , manner .",2
current geo - location database technology and spectrum management platform be technically capable of handle a multitude of complex policy and rule that facilitate tiere access to spectrum and a secondary spectrum marketplace .,1
"by their very nature , the spectrum management platform develop by sbi for the management of tvws , and cognitive radio network be configurable such that police can be dynamically adapt or statically provision to adjust for change requirement , need or condition .",0
"in addition , sas geo - location policy database platform can support innovative mean of assign exclusive authorization within tier , via their inherent flexibility .",3
"the fcc ask wide ranging and detail question , we struggle with enough time to provide comprehensive response .",1
we be very willing to continue this dialog and provide more detail as this process move forward .,1
we hope that our experience and perspective gain in the development and deployment of system design to support dynamic spectrum access be useful .,4
focus area a general responsibilities and composition of sasa.1 .,0
"what should be the scope of the sass responsibility for enable and de - conflicting use of the 3.5 ghz bandit be assume that the sas platform would generally be configure and provision with police that facilitate authorization allocation and access to authorized usersdevice to various tier incumbentpagaa , while concurrently manage co - existence between tier use configurable parameter , such as emission limit , separation distance , and operational limit e.g. mobilefixed , antenna height .",-2
"an sas operator may also be capable of provide co - existence support to the gaa tier , although this may be beyond the scope of requirement specify by the fcc .",2
"it be technically feasible to define police by tier , time , location , and frequency with the ability to dynamically adjust operational constraint .",1
it be envision that the fcc would be the high authority and establish baseline rule for system use and delegate some authority to pa spectrum holder with the pa tier .,0
an sas operator could facilitate the operation of the ecosystem on behalf of the fcc .,1
"finally , it be envision the sas platform manager would have delegate authority to manage the spectrum , not police it .",0
"it be assume that the primary role of an sas provider would be to protect incumbent , follow by the management of authorize pa user , while make available as much spectrum as possible for opportunistic access by gaa user .",1
"how should these responsibility manifest within a give tier e.g. , priority access , gaa or between the different tierspolicie can be define , implement , cascade and apply specifically via the sas , by tier .",0
"specifically , policy would be provision start with incumbent protection .",1
"this would be follow by grant access right to pa authorize user with exclusive right to specific spectrum define by geography , time and frequency , acquire via action or marketplace .",2
the pa tier may actually be the most complex in term of management because a determination must be make in how to manage and authorize the access of device in this tier .,-1
"in other word , be this well manage directly by the sas or through a combination of the pa network operator and sas collaboration",1
this be not so much a technical issue but one that require delineation of authority .,-1
"also note that it would be very practical for pa user to authorize or provision gaa access to a subset of [ unused ] spectrum holding that a pa user may control , through the sas .",0
it be envision that gaa access would be entirely control and manage through the sas in accordance with fcc policy .,0
clearly it be beneficial for remain spectrum [ unallocated to incumbent and pa use ],2
be available for gaa consumption .,1
we would recommend that no priority user be able to reserve 100 or even the majority of the spectrum allocate to a specific tier .,1
"should the sas identify the available spectrum to authorize use in a particular locationfrequencytime similar to , but more expansive than the tv white spaces approachit be envision that the fcc would establish baseline protection requirement for the incumbent top tier and pa middle tier , as well as a generalize band plan for pa and gaa tier access .",5
"ideally these tier would be [ approximately ] equally split in term of capacity , thereby guarantee a persistent and minimum amount ofspectrum available in the pa and gaa tier .",2
the ebb and flow of spectrum between the pa and gaa tier would be manage and control by the sas in accordance with fcc policy .,0
"or should the sas also manage the use of the band i.e. , configure andor set limit on various radio parameter to maximize efficient use of the bandthe sas platform could be use to manage , control and allocate the ebb and flow of spectrum between tier through a marketplace .",0
it be hardly feasible to predict what optimization will be most suitable at this time .,2
"however , it be clear that some baseline operational parameter should be establish to facilitate unlicensed small cell use that could benefit from the economy of scale and synergy obtain through technology compatibility between tier .",2
"subsequently , at some time in the future , performance datum could be capture over time and analyze to determine what flexibility may facilitate well use of the band .",3
"in addition , mandate specific rule for management of device within the pa tier may hardly be practical , as it be not realistic to anticipate or manage specific use case and operational aspect of specific technology within an exclusively use band .",1
"on the contrary , general management or guidance provide to gaa device to aid in co - existence , may be useful as a value add service , to mitigate the effect of interference and promote co - existence between non - coherent technology .",2
"what be the key system element of the sas e.g. , database , signal entity , etc.policy and allocation engine configure , provision and apply policy and rulesmarketplace facilitate auction and clearing house functionspublic interface spectrum dashboard for planning and statussas device interface api for radio device access to the cloud base sasclearing house function financial transaction management to support marketplace and auction capabilitydata exchangeshare portal facilitate data exchange between the fcc and other sas provider and stakeholder .",2
who should have responsibility for each of these elementsdesignated sas provider .,0
regulation should allow for a single entity to be responsible for all element or for the existence of partnership to aggregate various component of the system .,0
"for instance , diversity in expertise may be require in finance , radio system , and cloud base computing .",-1
"which system element of the sas require direct control by the commission and which element can be manage by third - party sas provider or other third partiesit be expect that the fcc would have control of certain aspect of policy provisioning within the sas system , especially as it pertain to the protection of incumbent and gaa use .",1
"as previously mention , pa network operator may need some additional flexibility and control regard the provisioning of policy to ensure the good use of spectrum for exclusive use application within their own paspectrum bridge inc. response to call for papers on the proposed spectrum access system for the 3.5 ghz band .",3
"docket no 12 - 354holdings , as long as they comply with high level policy design to prevent interference to incumbent , other pa or gaa user .",-1
"it be also expect the fcc would certify and authorize sas operator , include the ability to rescind authorization .",0
"finally , the sas would provide datum or information on conflict or issue , but active conflict resolution or police function would remain the responsibility of the fcc.what level of oversight should the commission exert over the function of the sasit be practically necessary for the sas to be permit to operate under some form of delegate authority by the fcc .",-4
"this be similar to tvws , in which the sas provider would be certify by the fcc prior to operation and repeat as require on an on - go basis .",0
the fcc should retain the right to de - authorize an sas provider for valid reason relate to unsatisfactory performance .,0
it be also expect that reasonable access be provide to the fcc to monitor operational performance and compliance .,1
what be the key architectural decision that could be affect by rule govern the sas to what extent should the sas architecture be centralize or distribute be there specific enable technology that should be contemplate within the rulesthe fcc should be primarily concern with specify what not how to implement the sas .,-1
"the what should encompass operational parameter emission , tx power , field strength limit by tier , etc . , securityauthentication , privacy , response time , and record keeping requirement .",-1
otherwise the rule should have minimal impact on the architecture .,0
scalability and overhead should also be consider with respect to the complexity and frequency of communication protocol .,1
further by restrict the rule make to what permit the sas to be develop and support by a variety of cost structure and business model which should result in the most stable and efficient method of spectrum management .,3
"how can interoperability be ensure between multiple sas provide by multiple vendor and between sass and authorized users au while leave room for technological innovation and differentiationuse tvws as an example , the fcc define the datum sharing and interoperability requirement between provider .",1
"as a result , a common standard to support data exchange and consistency between database be develop by industry .",1
"furthermore , even within the limited scope of tvws , the database provider have create enhanced and differentiated service design to support different aspect of the ecosystem .",1
"how would the sas interact with incumbent systemsno preference , although the use of industry standard protocol and datum format e.g. ip , https , etc . be desirable .",1
it be expect that the dod may have their own specific requirement or other specific concern regard incumbent datum .,0
"however it be anticipate that these interface may require custom interface or protocol , as well as requirement to utilize obfuscate datum .",1
focus area b,0
key sas functional,0
requirementsb.1 .,0
"what be the minimum set of information that must be exchange among different element of the sas ecosystem in general and in particular between au authorized users and the sasthe minimum datum set must define what be necessary for the sas to determine that network or device operation will not cause interference to incumbent , between pa network operator or by gaa user to other [ high ] tier .",-1
"for gaa and pa device , this generally mean they must provide the obvious parameter of location , time , frequency , request transmit power , and emission class .",0
information that uniquely identify the device andor user must also be provide .,0
"any additional information may be useful to enable a well more efficient allocation of spectrum , but should not be require .",3
"it be assume that the sas will also have general knowledge of incumbent operation and pa authorize spectrum allocation in term of time , frequency and geography so that these allocation can be protect .",1
note that there be two different philosophy that can be apply here .,0
"in the first , similar to tvws the query result in a list of the available spectrum and the decision on what to use be make by the device .",1
"the second be for the device to describe its need , and possibly desire and the sas simply make an offer to use a specific spectrum allocation .",0
"in this latter case if the device do not like , or can not use the offer spectrum it would have the option to refine its request and ask again .",2
while more complex this latter approach allow the sas to take more of a management role with the additional benefit of further obfuscate other use .,0
"which configuration and radio parameter such as apply initial power level , power adjustment , initial frequency assignment , channel switch over , interference mitigation , etc .",-1
would be define as require obligation of the sasthe sas should rely on and manage device in accordance with fcc limit .,-1
"however , the sas should retain the flexibility to recommend a low transmit power or frequency assignment to facilitate co - existence and optimum spectrum use .",3
over time more granular configuration should be possible .,0
"for instance current tvws rule make gross assumption about the device antenna , simply require information about location and height .",-1
"if information about antenna pattern , orientation and other performance characteristic be know the current tvws database could make significantly more white space available .",1
"also under current tvws rule incumbent broadcaster be assume to operate 247 , which be not always the case .",0
which network element would directly interact with the sas what interface would need to be specify to facilitate these interactionspa and gaa network device - to gain authorized access to spectrum .,2
"this would include all stationary access point , base station , and small cell .",0
"this category would also include mobile device with location service , as these device may also serve as a proxy for other mobile or transient device or network client , incumbent system operator - to reserve spectrum on an as need basispa network operator - request spectrum access through a marketplacesas operator - operator interface to share device registration and incumbent reservation",0
datathe necessary api would be define in accordance with industry standard and protocol .,0
"what specific capability would need to be specify for the network node device to provide information need by the sas e.g. , location capability , dynamic power adjustment , tuning range , etc .",3
"the more operational and device capability information a network device can provide , the more specific the sas platform can be in the allocation process , ultimately result in more efficient use of available spectrum .",3
"the aforementioned parameter be very useful , but could be augment by expected or actual channel usage or loading , modulation technology and antenna pattern .",1
"clearly these parameter be not essential for basic operation , but may be useful in achieve additional efficiency .",2
what mechanism should be use for update from network device to sas and from sas to network device how frequently should these update take,0
placeit would be useful if the fcc specify how frequently a device should [ re]verify spectrum availability particularly in the pa and gaa tier and allow industry to determine how well to accomplish this pull or push .,3
a balance should be maintain between update interval and efficiency .,0
"in practice , a long lease or reservation time in the gaa tier will likely yield less spectrum available than short lease .",1
a practical interval would be 5 - 15 minute .,0
"frequent update interval will also have a significant impact on system overhead , especially when communication be require with remote or mobile device , as these update may consume over the air bandwidth .",1
how can the sas well ensure information security and privacy across the entire ecosystemby adopt industry standard protocol and convention for privacy and security .,1
the fcc should define what have to be secure andor private and let industry demonstrate how it can adequately meet those requirement .,1
"if there be multiple spectrum access systems , how could they be synchronize to deal with rapid change in access to spectrum and the radio environmentone exemplary model for achieve this be propose and implement by the tvws wsdb provider working group .",2
this system serve to share device registration and protect entity reservation datum on a pseudo real - time basis in which datum be share via a many - to - many interface .,1
spectrum bridge inc. response to call for papers on the proposed spectrum access system for the 3.5 ghz band .,0
docket no 12 - 354focus area c sas monitoring and management of spectrum,0
what technique could be use for the sas to detect use and misuse of the spectrum in specific locationsfrequenciestime what criterion should be use to determine whether the spectrum be be usedthrough feedback and logged usage datum .,-1
this data should include but not be limit to voluntary notification of channel select for use .,-1
"however , it be unrealistic to assume the sas platform can reliably detect nefarious use .",-1
"although it may be unrealistic to establish usage criterion for pa use at this time , log datum may be use to determine the feasibility of monitor use and the feasibility and usefulness of mandatory usage requirement for the pa tier .",-1
"what technique should the sas employ to detect , locate , measure , and report inter - au interference problemssignificant effort have and continue to be invest in co - existence management and the mean to identify and manage interference .",-2
"however , this be perhaps beyond the scope of regulatory policy and mandate for compliance .",0
an ecosystem should be develop that encourage continue development in this area .,1
what capability should be include in au device to facilitate these functionssensing be one capability that serve as an option for assess rf environmental condition and enable feedback to capture this data .,3
"however , the specific method and capability to address interference should not be mandate or specify by policy , as this may serve as an impediment to future development .",-1
"what should be the basis for determine what constitute interferenceas technology evolve , that which be define as interference today may not be consider as such tomorrow , and vice versa .",-2
"therefore , it be unnecessary and counterproductive to specify interference as a specific threshold or binary condition , especially when consider with respect to dissimilar technology .",-2
interference be measure and assess on a continuum .,-1
one of the benefit of a sas be,1
"interference criterion can be adjust over time to accommodate change , unforeseen issue , and unintended consequence .",-3
"for example , should it be base on parameter establish by the service that be be offer or some signal threshold",0
"how should the sas deal with intermittent or transient interferencewhen necessary ,",-1
"interference threshold can be specify on a very specific basis , for example when protection be require for a very particular service e.g. dod radar .",0
"intermittent or transient interference into or between pa and gaa tier be probably not a significant detriment , as long as reasonable expectation be establish .",-1
"as mention , some interference should be expect , especially in the gaa tier , and this can be manage and mitigate through a combination of feedback mechanism and the sas co - existence management capability .",0
interference inmost case should be minimize to expect level [ in most case ] by appropriately define operational policy establish by tier .,-1
what enforcement mechanism can be implement in the sas and authorize device to ensure automatic compliance with any technical and service rule adopt in this proceedingenforcement should remain a role of the fcc .,0
"however the sas platform will enable the fcc to carry out certain enforcement requirement , such as blacklist specific device or device type , establish more restrictive use per device type or user and provision more or less restrictive policy by location , frequency and time .",-2
"the sas will also be able to support certain fcc police action , through audit and recordkeeping function .",1
focus area d issues relate to initial launch and evolution of sas and band,-1
planningd.1 .,0
"what function should be require at launch how should the sass capability evolve over time what function can be add later how would such an evolution path anticipate backward compatibility of deployed equipmentexperience dictate that the requirement for spectrum management and the capability of wireless technology will evolve rapidly , so",1
"the critical launch criterion [ for the sas platform ] be to demonstrate how it will adapt to change requirement and support additional capability , require over time .",1
"the sas platform will be able to effectively manage policy and rule set that be very specific in term of tier , device type , location , time , etc .",1
"consequently , this will permit change to baseline policy and allow new policy to be add and manage over time .",0
"beyond the extent that the initial launch be limit by geography , spectrum , or device type , application should have no impact on the operation of the sas.d.2 .",-1
"what be the key network deployment topology the sas should support at launch e.g. , low -power small cell , backhaul , high - power rural use",1
"can the sas be design to support multiple wireless technology please provide technical detail to distinguish various use and technology case as they may , in turn , generate different requirement for the sas.the sas can be design to support multiple wireless technology .",2
the fcc have already establish and develop rule set that enable distinctively different small cell point to point technology,0
to co -exist .,0
"however , it be expect that , initially , small cell use be a technology that will benefit the most from these effort .",1
this can be achieve without unduly burden exist rural broadband service deployment in the upper part of the band .,-1
"these pre -existing system can be register even if this be do manually similar to pmse registration in the tvws system , with a migration to automate , sas integrate support from new equipmentdeployment .",1
"should there be a phase approach to flexible partitioning of the band between different use case e.g. , low power small cell vs. wireless backhaul or between pa and gaa",1
"what be the tradeoff and how we can ensure backward compatibility of device as the band plan evolvesit be not unreasonable to expect that a device design and manufacture for use in the 3650 mhz band be capable of operate over 150 mhz , eliminate many concern regard compatibility across the entire band .",-1
"however , emission requirement should also be consider carefully as requirement may be specify across tier .",0
unnecessarily restrictive requirement have serve as an impediment to development and adoption of useful broadband technology in tvws.d.4 .,-1
how can we ensure that the sas and band plan evolution maximize flexibility to accommodate multiple spectrum use topology go forward while maintain backward compatibilityby make certain datum and metric be publicly available as the ecosystem be deploy and grow .,1
this will facilitate efficiency analysis by expert and stakeholder within the wireless industry .,1
"furthermore , by specify the sas as a policy manager , thereby allow policy to change and adapt to various situation .",0
"how should the system be develop and deploy to ensure a successful launch , what strategy could be employ to test the capability of the sasvia comprehensive simulation capability and test platformportal .",4
emphasis should be place on avoid a protract deployment process that take many year to complete .,0
"this can be achieve by initially limit frequency , location , service or other aspect until confidence grow enough to expand the dimension .",1
"what provision need to be establish to address the possibility of an sas experience a service outage or permanently discontinue servicea commercial market will encourage multiple source of sas service , while simultaneously encourage reliability and redundancy .",1
the bad case scenario may be a situation in which an sas provider cease to operate and orphan a set of radio device .,-2
there be a number of way mitigate this risk .,-1
"if all radio support a standard protocol , they could be migrate seamlessly to another sas , although the specification of a specific protocol at the outset may be unrealistic and bet leave to industry for standardization as experience be gain .",1
