text,score
"the undersigned nonprofit group , the open technology institute at the new america foundation and public knowledge hereinafter oti and pk , be pleased to submit these comment in response to the public notice public notice release on november 1 , 2013 in the above - caption proceeding .",1
introduction and summarythe open technology institute oti and public knowledge pk applaud thecommission for its innovative and balanced proposal to unlock the tremendous potential of the unused spectrum in the 3.5 ghz band .,3
"oti and pk have enthusiastically support the commissions proposal to create a citizens broadband service in the 3.5 ghz band , filing comment and reply comment previously on behalf of the broad public interest spectrum coalition pisc .",2
we view the revised framework in the public notice as another positive and critical step in a long - term effort to reorient the nation spectrum policy toward use rather than exclusively reserve non - use of capacity on the public infinitely - renewable spectrum resource .,0
oti and pk strongly support the commissions proposal to implement a three - tier access framework that ensure a robust amount of spectrum for general authorized access gaa onnationwide basis .,2
"a three - tier access system manage by one or more neutral , third - party database manager a spectrum access system or sas strike the right balance between protect incumbent operation and facilitate a diverse range of private sector small cell deployment .",2
we agree with the commissions proposal to reserve a substantial portion of the band for gaa user in every market .,0
"the certainty of market of national scope and scale for chip , device , application and service will be essential to encourage investment and deployment .",1
it be also a likely prerequisite to a mass market for interoperable and dynamic frequency device that can operate on either a priority access pa or a gaa basis .,1
"oti and pk believe that at least 50 percent of the bandwidth available to pa and gaa user in each local market should be reserve for gaa , at least initially .",1
"because the sas can add or withdraw permission for access to gaa spectrum at any time , if the unproven model of license small cell prove far more productive than gaa , the commission can at any point increase the relative share of the band allocate for pa license pal in the future without strand gaa device or investment .",0
"the spectrum access system sas will also enable opportunistic gaa use of unused spectrum across the entire band , include priority access spectrum that have not be assign or that be not in actual use .",-1
we agree that this use - it - or - share - it concept be an essential feature of the revised framework .,0
"licensee lose no right whatsoever and bear a de minimus burden to simply inform the commission andor the sas prior to commence substantial service in a local area , so that all gaa device can be immediately deny permission to operate on those frequency .",-2
this notice could be give 30 day or more in advance of actual use .,0
this approach will encourage pa licensee to make actual use of spectrum they reserve without the need to impose strict construction or service requirement .,-1
"opportunistic gaa use also directly address the problem that arise because pal will be cost - free in the absence of compete application , encourage speculator and broker to roll up exclusive license for not just a one - year term , but for the multiple consecutive year of pal right .",0
"in the absence of a very significant application andor annual use fee , only priority access licensee that acquire theirpal through competitive bidding will have any inherent incentive to deploy service quickly , or even at all .",1
oti and pk generally support the revised frameworks building block approach to priority access licenses pal .,1
"we agree that open eligibility , very granular license area andlease - like system of one - year , non - renewable license term be an appropriate regime for this small cell band .",2
we recommend that the commission adopt a number of additional feature intend to accommodate a very diverse range of user and to avoid foreclosure or warehousing .,1
we recommend that the commission allow a licensee to aggregate no more than three one - year term at a time the current year plus two additional year and to license no more than 20 mhz in a give license area .,1
"we also suggest the commission consider whether census block groups which be one - third the population of a census tract , on average would confer the same advantage while facilitate micro - target network deployment and intensive and efficient use of the spectrum to a great degree .",4
"finally , oti and pk agree that equipment certify to operate on the band , whether on a gaa or a pa basis , should be capable of dynamic frequency selection across the entire band base on sas channel assignment that could change depend on location , frequency or time .",2
general authorized access 3-tier access with a defined minimum for gaa and opportunistic access to the entire band best serve the public interestoti and pk strongly concur with the commissions proposal to establish a citizensbroadband service with a three - tier framework that ensure robust general authorized access gaa on a nationwide basis .,1
a substantial portion of the band should always be available for gaa in every market .,1
"the certainty of market of national scope and scale for chip , device , application and service will be essential to encourage investment and deployment .",1
"andbecause the spectrum access system can add or withdraw permission for access to gaa spectrum at any time , if the unproven model of license small cell access priority access prove far more productive , the commission can change the relative share of the band allocate for pa and gaa in the future without strand device or investment .",0
"in addition , gaa user should be able to opportunistically access unused spectrum capacity in the band across the entire 150 mhz , subject to protect the actual operation of federal incumbent and secondary priority access licensee .",1
"thank to the automate enforcement of the spectrum access system , pa licensee face no risk or loss of right whatsoever from the propose use - it - or - share - it approach since the sas can remove their channel from the list of permit channel during the notice period before they commence actual service in a license area .",0
"unlicensed and opportunistic access be the only proven model for widespread and intensive spectrum re - usealthough oti and pk do not oppose an experiment with small cell priority access licensing on a portion of the 3.5 ghz band , the only prove model to achieve high rate of spectrum re - use on a widespread basis and at low cost be open and opportunistic access to unlicensed small cell band .",-4
"increasingly , the widespread availability of wi - fi operate on unlicensed spectrum be the single most important factor in mitigate the spectrum crunch .",0
"inherent limitation on the capacity of the current carrier business model suggest that greatly expand use of unlicensed and small cell spectrum by non - carrier provider and by consumer themselves will be necessary to absorb project demand , to ensure consumer high - speed connection , and to promote innovation in m2 m connectivity more broadly .",-1
"it be clear from burgeon wi - fi offload trend that both consumer and even the wireless industry overall will benefit if every individual consumer , business and public space have the option to incorporate additional unlicensed spectrum into a small cell network establish by the end user at the very edge of the network .",1
"analyst estimate that despite the ongoing rollout of lte service , offload to wi - fi will continue to grow , rise from roughly 35-to-40 percent today to as much as 60-to-80 percent of the total traffic that would otherwise be on 3 g and 4 g network within three to five year .",0
"alcatel - lucent forecast an increase of 87 time [ the current ] daily traffic on wireless network over the next five year , with 50 percent of that traffic on cellular network while the remain 50 percent will be offload to wi - fi .",0
"juniper research project this year that 63 of the datum traffic generate worldwide by smartphone , tablet and feature phone will be transfer onto the fix network via wi - fi and femtocell by 2015 .",0
in western europe wireline isp have create cloud of connectivity by turn more than 10 million residential and business subscriber into wi - fi hotspot .,-1
a european commission study release in august project that wi - fi will be offload nearly 80 percent of mobile device traffic by the end of 2016 .,0
"even today , the study conclude , we believe that a majority of traffic that would otherwise be present on the macro cellular traffic be already be off - loaded , primarily to wi - fi in the home .",0
to understand why small cell spectrum re - use be prevalent among user and non - carrier provider but not so much among mobile carrier,0
it be critical to distinguish between truly mobile data demand on the go and nomadic data demand indoor or outdoors near a wire connection .,-1
as the european commission study note just above state relatively little smartphone datum usage be truly mobile .,0
"ciscos internet business solutions group ibsg conduct a survey last year of more than 1,540 u.s. individual and business user of mobile datum device .",0
"the cisco survey find that mobile device , include smartphone , be use primarily at home and work and overwhelmingly in location with wired network that either do or could easily offer wi - fi offload .",0
"user report that two - third of their mobile device use be at home or work , while only 10 to 15 percent be on the go or outside of retail and public location that be increasingly wire for wi - fi access .",1
"moreover , the application drive datum demand video be the most nomadic of wireless device application and be increase the fast .",1
"survey of user behavior show that nearly 85 of video on mobile device be watch at home 50 , at work 15 , or at other indoor location .",1
"only 15 be watch outdoors or in transit , and no doubt much of this be or soon will be cover by wi - fi hotspot as well .",0
"although advocate of a two - tier access model of authorized shared access claim that exclusive licensing with no gaa will optimize efficiency and quality of service for carrier , current mobile data offload trend suggest the opposite .",1
"it be the ten of million of individual consumer , business and an array of non - carrier provider e.g. , cable company isp , retailer , building owner that be in a superior position to leverage the infrastructure router , wireline connection that be already deploy , typically on their own property , at the very edge of the network .",2
small cell infrastructure and a common standard wi - fi be already broadly deploy and so additional opportunistic spectrum capacity in the 3.5 ghz band simply need to be incorporate as a supplement to this prove business model .,-1
"to be sure , its entirely possible that mobile carrier will be among the big investor in deploy small cell access point on the 3.5 ghz band .",0
but rely primarily on carrier that have be laggard in break beyond a business model premise on macro cell and carrier - provision infrastructure would foreclose the innovation and decentralized investment that have be a hallmark of the wi - fi boom .,2
"for example , while u.s. carrier bemoan a spectrum crisis , the five - company cable wi - fi consortium have deploy more than 200,000 wi - fi hotspot use unlicensed spectrum .",-2
"in five western european country , wireline isp haveturne more than 10 million customer premise into open wi - fi hotspot .",0
the evidence to date strongly suggest that it will be the proliferation of diverse non - carrier provider and consumerself - provision that will enable the most intensive spectrum re - use and innovation on this band .,1
the floor for gaa should be no less than 50 percent of the band nationwideoti and pk strongly concur with the public notice that [ e]nsure that a significant gaa floor be maintain in all geographic area .,1
"regardless of the number of priorityaccess tier user in the area , should encourage widespread deployment of base station and handset that would operate opportunistically in the band under the control of the sas .",1
"as the commission recognize previously in the incentive auction nprm , make open and opportunistic spectrum available on a nationwide basis will help to create certainty for . .",0
and promote great innovation in new service .,2
"ensure a substantial amount of open and opportunistic spectrum on a nationwide basis be critical for develop market with scope and scale for innovative and affordable chip , device , application and service .",0
it be also a likely prerequisite to the benefit of a mass market for interoperable and dynamic frequency device that can operate on either a priority access or a gaa basis .,2
a substantial block of unlicensed spectrum available nationwide have be the recipe for the unprecedented success of the unlicensed band at 2.4 ghz .,0
"in contrast , the commissions rule prohibit unlicensed use of all but one or two of the dozen of vacant tv channel so - call tv white space in the very large metro area new york , los angeles , san francisco be a deterrent to investment and innovation .",-2
"if the commission determine that open and share gaa will be authorize , then it must go the essential next step and ensure that there be a very robust amount of bandwidth available in every market subject , of course , to exclusion zone or other measure necessary to avoid harmful interference to incumbent service .",-1
"accordingly , oti and pk believe that a majority and certainly no less than 50 percent of the bandwidth available to pa and gaa user in each local market should at least initially be reserve for gaa .",1
"we suggest that this minimum gaa reservation be define as a proportionalratio that can scale with the quantity of spectrum available in a give location or time after protect incumbent , rather than a fix megahertz bandwidth .",2
the commission should also recognize that among the many virtue of three - tier access govern by a neutral geolocation database manager be that the relative allocation ratio be changeable over time .,1
"if the commission require that gaa and pa device be capable of dynamic frequency selection across the entire 3.5 ghz band , the spectrum access system can enforce a change in the relative allocation of the band or even a decision to vary the ratio by geography e.g. , make the urban core different than suburb or exurb .",2
"because the sas can add or withdraw permission for access to gaa spectrum at any time , if the unproven model of license small cell priority access prove far more productive than gaa , the commission can simply increase the relative share of the band allocate for pal in the future without strand gaa device or investment .",0
the spectrum access system can manage opportunistic access to all unused spectrum without risk to priority access licenseesoti and pk strongly support the commissions proposal to adopt a use - it - or - share,-1
"- it concept that would authorize gaa across the entire band , include on priority access channel that be either not license , or which be license but not actually in use .",0
"accord to the public notice , under the revised framework when priority access right have not be issue e.g. , due to lack of demand or the spectrum be not actually in use by a priority access licensee , the sas would automatically make that spectrum available for gaa use locally .",0
we agree that gaa user should be give temporary permission by the spectrum access system to operate ona localized basis until such time as the licensee notify the commission andor the sas administrator that the licensee intend to commence actual service .,0
oti and pk recommend that all pal assign by the commission include an explicit condition that permit gaa user to operate on a localized basis until such time as the licensee notify the commission andor the spectrum access system of the date that the licensee intend to commence actual service .,1
"licensee lose no right whatsoever and bear a de minimus burden to simply inform the commission andor the sas administrator prior to commence substantial service in a particular local area , so that all unlicense device can be immediately deny permission to operate on that frequency band .",-2
we suggest that this notice be give at least 30 day in advance of actual use .,0
this would give a pa licensee the ability to check the sas database which should be transparent to the public prior to the commencement of service and verify that the noticed pal area be no long available for gaa use .,2
"in addition , pa licensee should be able to notify the sas to block gaa access to license area on any specific date in advance of commencement of actual service when the license holder plan to run network test or trial that need protection .",1
"since this be how the microphone reservation system already work in relation to the tv bands databases , the sas could easily provide a similar online interface and authorization for licensee to give notice .",1
this will also provide the commission with invaluable datum about actual use of the band .,1
"the admonition in the recent report and recommendation of the presidents council of advisors on science and technology pcast be directly relevant to the 3.5 ghz band , whichthe pcast recommend for opportunistic share",0
"the incongruity between concern about a loom spectrum crisis and the reality that only a fraction of the nations prime spectrum capacity be actually in use suggest the need for a new policy framework to unlock fallow bandwidth in all band , as long as it can be do without compromise the mission of federal user and ideally by improve spectrum availability for federal user .",0
"pcast propose building on the tv bands database concept to enable shared access to underutilize band without harm licensed primary operation , which be also what the commission propose in the revised framework .",-1
"like the tv bands database certify by the commission to govern unlicensed access to locally - vacant tv channel , the sas will be a geolocation database that will be design specifically for the purpose of regulate opportunistic access by gaa device .",-1
we expect that gaa user will be require to receive and renew permission periodically to continue use a particular channel in a pa license area a permission that the sas can withhold when a primary licensee be ready to commence service .,1
"since this sas notice - and - permission process be automate , consumer will typically not even be aware that frequency block be add to or subtract from the list of available gaa channel .",0
"any potential concern that certain gaa operator could become overly dependent on the continued availability of pa spectrum can be mitigate in at least two way first , the commission can permit and perhaps require pa licensee to give early notice e.g. , 90 day in advance of service , during which the sas can flag the channel and send notice to gaa user that it will not be available after some future date .",0
"second , the commission can require that licensed but unoccupied pa spectrum can be utilize only by gaa device that have beencertifie to be multi - channel and frequency hopping .",0
"indeed , in the final section below we recommend all broadband internet access device operate on the band",1
should be capable of tune across the entire band in order to facilitate the dynamic frequency assignment propose in the public notice .,3
this would eliminate any risk that a wisp or other unlicensed operation would rely solely on frequency that will later be remove from the list of available channel for gaa use when a pa licensee initiate commercial service .,-1
"indeed , dependency on contingent access to spectrum in a band that protect incumbent access will simply be a fact of life for both pa and gaa user and yet another reason why the commission should require that all transmitter on the band be capable of dynamic frequency selection across the entire band .",3
"permit opportunistic and temporary gaa use of pa spectrum not actually be use be also imperative because the revised framework envision cost - free reservation of pal except when more application be submit than can be accommodate geographically , temporally , or spectrally .",0
an auction would only be trigger by mutually exclusive application .,0
"as a result , during the first application window close , in many area perhaps in most of the country private party will have an incentive to roll up exclusive license for not just a one - year term , but for the multiple consecutive year of pal right a period we suggest limit to three year .",0
"since these pal will be free of charge , we expect a gold rush of spectrum speculator and broker to file application for ten of thousand of pal .",2
"in the absence of a very significant application fee andor annual use fee , investor would have every incentive to lock up multi - year license right , particularly in urban and suburban area where they may later be able to make middleman profit by lease the spectrum to carrier , wisps and other actual service provider .",1
"in all likelihood , only priority access licensee that acquiretheir pal through competitive bidding will have any inherent incentive to deploy service quickly , or even at all .",1
"in this context of this pa gold rush , we believe the commissions propose use - it - or - share - it approach will be particularly important to minimize the degree to which large portion of the priority access portion of the band will lie fallow for year if not indefinitely .",1
"finally , the public notice ask how the commission should define use in this context .",0
"as the public notice suggest , oti and pk agree that use should mean actual and substantial service within a specific priority access license area .",0
testing or license - saver transmission without actual service delivery should not trigger foreclosure .,1
"the notification by the pa licensee should include a list of each individual pal area where actual service will commence and the correspond date , so that the capability of the sas to regulate access on a granular basis be fully realize .",1
"if pa license area be very granular , the definition of use will be less important since any actual substantial service would largely occupy a small cell e.g. , a census block or census block group .",1
"however , if the commission adopt a relatively large license area such as a census tract then it should strive to define use base on the actual protection need of the pa licensee , since even after service commence in one area within a census tract , there could be other area mile away where a gaa user could continue to operate without any risk of interference to the licensed service within the same pal area .",-1
"the commission should authorize higher power operations in rural areasas oti and pk state in their original comment in this proceeding , file on behalf of the public interest spectrum coalition , we believe that the higher power operation zones should be authorize on both a pa and gaa basis in all non - urban area , so that wisps and other rural broadband provider can potentially operate across the entire 150 mhz from 3550 to 3700 mhzat high power level .",0
"this would give wisps and other rural service provider the option to apply for a pal , or to rely on gaa spectrum , or a combination which we believe will turn out to be the most likely outcome .",0
"the ability to offer far more bandwidth with roughly the same cost of capital hold great potential for more cost - effective , high - speed service to unserve rural and small town home and business , as well as increase competition to wireline and satellite service .",3
this mean a substantially small total amount of priority access spectrum should be license in rural area for exclusively small cell use .,0
"if the commission determine that small cell gaa and high - power fix wireless operation be incompatible on the same frequency band , then some share of the gaa spectrum should be reserve for small cell use even in rural area , or at least in pa licensing area above a threshold population density .",-1
"although outdoor use of low - power , small cell device seem likely to be minimal in rural area , and especially in remote area , individual home , business , school , shopping mall and other facility will tend to exhibit the same demand for add small - cell capacity as they will in most urban and suburban area .",0
"therefore , although the commission should craft rule that facilitate fix wireless deployment by wisps and other rural broadband provider , the option to deploy small cell at low power for add capacity and localize m2 m application should not be foreclose .",1
priority access licensing pal should be limit initially to no more than half the band and one - year license periodsoti and pk generally support the revised frameworks building block approach topriority access license pal that be describe in the public notice .,0
"we agree that open eligibility , very granular license area and a lease - like system of one - year , non - renewable license term be an appropriate regime for a small cell band and will promote deployment by a widerange of service provider .",2
"since exclusive small cell licensing be an unproven concept that have not be embrace voluntarily by the marketplace despite the commissions progressive rule on flexible licensing , secondary market and leasing , we recommend that initially no more than half of the 3550 - 3650 mhz band should be available for pal .",3
thank to the governance model,1
propose in the revised framework with dynamic frequency assignment optimize and enforce by a geolocation database sas this proportion can be change over time depend on the relative demand and public interest benefit of actual pa and gaa activity on the band .,2
"oti and pk also agree that under this revised framework , allow opportunistic gaa use of all priority access spectrum not in actual use would make specific construction or service requirement unnecessary .",-2
"at the same time , our group recommend that the commission adopt a number of additional feature intend to accommodate a very diverse range of user and avoid foreclosure or warehousing of the priority access spectrum .",1
timelicense terms oti and pk support,1
"the one - year , non - renewable license term propose in the public notice .",0
"the access point , router and other equipment likely to be deploy for low - power , small cell service",0
be far less costly and likely to be amortize over far short period than the macro cell infrastructure commonly associate with long - term cmrs licensing .,-1
"more critically , pre - payment for one - year license term cover small geographic area will dramatically lower the barrier to entry for innovation and competition in the band .",1
"by essentially lease the right to interference protection for priority access on a year - by - year basis , the commission wisely make it more practical for a very diverse range of potential user and service provider to operate , include on a very localized basis .",2
"the benefit of short - term and small area license can be undermine , however , if a single entity can effectively lock up multi - year right that prevent potential entrant from bid for access .",2
"although we agree that allow licensee to aggregate multiple consecutive pal to obtain multi - year right to spectrum within a give geographic area can encourage investment in infrastructure , this must be balance against the benefit of facilitate entry and competition .",4
oti and pk recommend that the commission allow a licensee to aggregate no more than three one - year term at a time the current year plus two additional year .,1
"each succeed year the licensee could apply for an additional pal , which would effectively renew the three - year term .",2
a short lock - up period would also reduce the moral hazard inherent in a system premise on annual payment .,-1
oti and pk agree that the payment for each pal should be due annually prior to the license start date and a license would terminate automatically if the payment be not make .,0
this lease - like mechanism will promote entry and innovation .,2
"however , without a down - payment or other penalty for the failure to pay for a default on a multi - year bid , licensee will be able to acquire a low - cost option to hold a pal for multiple year , thereby block or deter other potential licensee who must assume that the pal in an area be unavailable for year to come .",-4
"rather than require upfront payment for future pal , at least initially it seem preferable to limit the maximum lock - up period .",0
"although licensee will prefer long - term certainty , it be actually less important in this band since even if an incumbent pa licensee be outbid and deny an additional year , it would have both two year notice and substantial access to gaa spectrum and possible access to other band as an alternative .",1
"geography oti and pk support the commissions goal to establish the geographic component of pals in a way that allow flexible , micro - target network deployment , promote intensive and efficient use of the spectrum , but also allow easy aggregation to accommodate a large network footprint .",4
"the public notice propose census tract as an appropriate building block for small cell , in part because they be standardized unit that frequently track natural and political boundary , and that also vary in size depend on population density vary from less than one square mile to 10,000 square mile or more in remote area .",1
"while census tract offer many advantage , we believe the commission should also consider whether census block groups would confer the same advantage while facilitate micro - target network deployment and intensive and efficient use of the spectrum to a great degree .",5
"block groups bg be contiguous component of census tract and be generally define to contain between 600 and 3,000 people .",0
there be roughly three time as many bg as census tract .,0
"although this difference would be computationally trivial to a licensing and access system administer by the algorithm of a geolocation database sas , it could make a very significant difference with respect to the number of network provider , particularly those focus on extend connectivity over a discrete geographic area , such as a shopping district , college campus , or office complex .",0
"a more granular license area would have little downside but it could make a pal more affordable , encourage more micro - target deployment , and reduce the potential waste inherent in a scenario where these small deployment leave the pa spectrum fallow over most of a license area that be three time large .",0
frequencybandwidth oti and pk support the commissions proposal to designate pal as 10 mhz unpaired channel .,1
the commission should also put a low limit on the number of pal that an entity and relate entity can hold at one time in any give license area .,-1
our group recommend that an entity and any related entity should be eligible to license no more than 20 mhz at any one time in a give license area .,1
"as we explain above , it would best serve the public interest to set aside at least half of the available spectrum in each area for gaa use , at least initially , and make the remainder available as an experiment to see if small cell licensing engender the sort of deployment and innovation typical of small cell unlicense spectrum .",4
"if , for example , the commission allocate up to 50 mhz in each area for pa licensing , then a limit of 20 mhz would permit at least three entity to acquire the interference protection of",-1
"a pal.in the absence of compete application , the commission could permit a licensee to aggregate more than 20 mhz .",-1
"however , in that situation the commission should still restrict an aggregation great than 20 mhz to a single license term , so that future entrant and potential competitor be not foreclose from bid over a multi - year period .",0
administrability the public notice state that the pal concept be intend to streamline and automate the licensing process for what could turn out to be hundred of thousand of granular license .,0
"accordingly , the commission request comment on whether sas manager should be permit to administer the auction process .",0
there be obvious advantage to automate the pal application and auction process through a sas manager certify and supervise by the commission .,1
"the sas would need to be design to track occupancy and actual use of every pa license area , just as the tv bands database must track the site - base licensing information of every broadcast station licensee in order to determine whether andwhere unlicensed device can be give permission to operate in unoccupied channel .",-1
"with this granular geolocation database as a sunk cost , it would be a marginal cost for a sas manager to accept online application , run a simultaneous auction among compete applicant , and transfer relevant information provide by the win bidder to both the commission and to the public portal that would make spectrum assignment transparent .",0
"another advantage be that the sas will presumably be privately finance , as the tv bands databases will be , through small user fee most likely a one - time device registration fee purchase wholesale by manufacturer .",1
"if the administration of the assignment , automated auction and information collection process be consider a cost of this service , then those same user fee could cover that cost as well .",1
pal assignment process oti and pk generally support the commissions proposal to use an annual application window and streamlined auction as the mean to resolve mutually exclusive application for pal .,2
"to the extent that the commission do offer multiple consecutive year of pal right , this application and auction should be do at the same time as current year pal .",1
"as note above , oti and pk strongly favor annual payment prior to the start date of each pal and the automatic termination of a pal for non - payment .",1
"broadband access devices should operate across the entire band to facilitate dynamic frequency assignment by the sasthe public notice request comment on whether authorize base station , handset , and other user equipment should be require to be capable of operate across the entire 3.5 ghz band .",3
"the commission observe that this would be necessary to enable the sas to dynamically assign specific frequency within give geographic area , rather than rely on a static channel model .",-1
this capability would both ensure that low tier user do not interferewith high tier user and . . .,1
minimize interference among user in the same tier .,-1
"oti and pk agree that equipment certify to operate on the band , whether on a gaa or a pa basis , should be capable of dynamic frequency selection across the entire band base on an sas channel assignment that could change depend on location , frequency or time .",2
dynamic frequency assignment by the sas will confer a number of important public interest benefit for user overall .,3
"first , it can well accommodate and protect incumbent access operation , such as naval radar , include the evolution of their system in the future .",2
"if channel be assign on a static basis , the need to protect a federal incumbent system on a particular channel could shut down a particular priority access licensee completely , whereas with dynamic assignment the sas can at least attempt to assign an alternative channel .",1
no equipment would be strand even if a particular channel become permanently unavailable .,-1
"second , dynamic assignment facilitate more intensive and productive use of the entire band .",3
"as the sas evolve , dynamic assignment should make it possible to fit more user and use in a give geography , particularly if the precise location , transmit power , interference tolerance and perhaps sense datum from device in an area can be factor into the calculation .",1
"conversely , dynamic assignment can prevent any potential tragedy of the common since the sas can , if necessary , limit the number of gaa user on a channel in any particular area .",-1
"third , dynamic assignment can also facilitate the coexistence of small cell and high power user in rural area .",2
"there be currently more than 2,000 active licensee operate at high power in ten of thousand of register location on the 3650 - 3700 mhz band under the commissions part 90 , subpart z light licensing rule .",0
"although we support make a substantial portion of the 3550 - 3650 mhz band available for high - power operation in rural area that enable wisps and other user , this must also be coordinate with small cell user toachieve the coexistence .",2
. . between disparate system that the public notice correctly identify as a goal .,1
the commission should require the sas to dynamically assign pal and gaa frequencie to minimize interference between high power and small cell user .,-1
"finally , a requirement of capability to tune across the entire band will further encourage common standard and interoperability among both pa and gaa device .",2
"as wi - fi have demonstrate , a common standard across a sufficiently wide band of spectrum can spur scale economy that reduce cost and encourage adoption .",2
conclusionoti and pk generally support the commissions revised framework .,1
"as we note in our initial comment , the propose citizens broadband service and spectrum access system represent a potential landmark in the commissions progress away from static command and control licensing rule and toward more flexible and spectrum - efficient approach that begin to harness the full potential of the nation spectrum resource .",2
"establish the three - tier spectrum access system propose in the commissions revised framework , with a substantial set - aside for gaa use nationwide , opportunistic gaa use of all unused spectrum , and govern by a neutral geolocation database administrator , be a critical foundation for unlock underutilized spectrum not only in the 3.5 ghz band , but in a number of additional federal band in the future .",-2
"we encourage the commission to move as rapidly as possible to adopt a final order so that investment , innovation and deployment can begin .",2
