text,score
introduction and summarythe commission have correctly identify the 3.5 ghz band as hold substantial promise for small cell and other operation .,2
small cell technology hold real promise for provide wireless network with additional capacity in the area where capacity be most need to serve customer grow demand for broadband service .,1
the commission should thus move forward toward adopt rule in this proceeding and other proceeding to facilitate small cell deployment .,1
"give the infeasibility of clear government operation from the 3.5 ghz band , it be an excellent candidate for experiment with the regulatory , technological , and administrative innovation need for future sharing arrangement .",3
"the commission should move forward promptly with its plan to explore a novel framework multi - tier framework under which three type of user government incumbent tier 1 , priority access licensees tier 2 , and general authorized access devicestier 3 will share spectrum under the management of a spectrum access system sas .",1
"a successful sharing paradigm be most likely to emerge if the commission pursue an incremental approach under which it dedicate part of the band to the ambitious multi - tier framework , while also reserve some of the spectrum for a different regime a transitional framework that support short - term deployment of exist technology .",3
"by establish a transitional framework sub - band , the commission can kick - start the investment in the infrastructure , device ecosystem , and sas database management technique need for the ultimate success of the multi - tier framework .",1
the commission should dedicate a part of the spectrum between 3550 - 3700 ghz to the experimentation need for the multi - tier framework .,0
"in that spectrum , the commission and various stakeholder can solve the novel regulatory and administrative challenge present by that project , and can develop the technological and security innovation need for it to succeed .",2
"in the short run , however , the multi - tier framework will inevitably create substantial uncertainty .",-1
"it contemplate a new licensing paradigm involve 74,000 very granular licensing area with very short licensing term and that new regime would be administer by new sas database administrator that would also manage the coexistence of multiple tier of operator use the same spectrum .",0
"also , for the multi - tier framework to be viable , new control and security technology will need to be develop to avoid rogue or unauthorized emission by tier 3 device .",-1
it be not reasonable to expect that all of the multi - tier frameworks interrelate challenge can be solve at once .,1
the large number of regulatory and technical paradigm change simultaneously under the multi - tier framework will discourage substantial investmentin the short term .,-1
"in turn , that lack of investment in 3.5 ghz technology could stifle the development of the innovation need for the multi - tier framework to succeed .",0
the commission should therefore reserve a portion of the 3.5 ghz band for a transitional licensing framework that support more rapid investment use exist technology .,2
"at least for an interim period , this sub - band should be free of tier 3 operation and should be ground in license paradigm prove to support investment tier 2 license should have secondary , exclusive - use right subject only to government incumbent priority in reasonably - sized geographic area for relatively long term .",4
"to ensure that tier 3 operation do not frustrate tier 2 user quality of service requirement , the commission should establish hardware - base limitation prevent tier 3 device from emit in the frequency reserve for tier 2.by establish such a transitional framework in a portion of the 3.5 ghz band , the commission can jump - start investment that may not take place if the multi - tier framework be the only framework adopt .",-2
"that hybrid approach would support short - term investment by tier 2 licensee use exist lte technology , which already have control and security feature that can fully protect government incumbent operation from interference .",1
"that short - term investment would constitute an important step toward develop the device ecosystem , sas management technique , and other advance need for the multi - tier frameworks success .",2
"once the regulatory uncertainty and technical risk associate with the multi - tier framework have be address , the commission could sunset the transitional framework and create a unified licensing regime under the multi - tier framework for the entire band .",-1
"of course , even under a hybrid licensing model that promote short - term investment , the chance this experiment succeed be low if 3.5 ghz spectrum can not be efficiently deploy to serve a large majority of the u.s. population .",2
reduce the size of the zones wheregovernment incumbent operation require interference protection and develop technique for provide such protection be crucial .,1
"importantly , the very large zone contemplate in the nprm can likely be reduce substantially by focus on protect incumbent user from small cell operation , rather than by model macro cell power level .",1
"by take measure to reduce the size of those zone , explore technique for coordinate within them , and pursue a hybrid band plan that promote investment , the commission can make this proceeding an important part of its overall commitment to encourage and facilitate small cell deployment .",4
the commission should pursue an incremental approach to develop a successful multi - tier sharing regime.a hybrid band plan can support both the propose multi - tier framework and a transitional framework promote shorter - term investment .,2
"the commission should combine the 3.5 ghz band 3550 - 3650 with the 50 mhz of spectrum between 3650 and 3700 mhz , and thus make a total of 150 mhz of spectrum available for commercial use , subject to interference protection for incumbent government user .",1
"that will provide a sufficient amount of spectrum to create a hybrid band that support both a multi - tier framework where a robust ecosystem of tier 3 device can emerge , and a transitional framework .",3
there be many potential configuration the commission could establish for such a hybrid band plan .,0
"the figure below illustrate one potential configuration as discuss in detail below , short - term innovation and investment can take place in the transitional framework where only tier 2 and tier 1 operation exist .",1
that innovation andinvestment nee not wait for the future innovation need for the multi - tier framework to be viable .,2
"at the same time , the more ambitious and complex sharing experimentation contemplate in the multi - tier framework can take place in the portion of the band where tier 3 operation be authorize .",0
"the technical , security , administrative , and regulatory challenges present by the propose multi - tier framework will take time to solve .",0
several technical and security innovation be necessary for the multi - tier framework to support substantial investment .,2
verizon look forward to work with other industry stakeholder to develop the security and control feature for tier 3 device need under the multi - tier framework .,1
"first , new control feature will need to be develop because , unlike networked wireless air interface that have a control plane e.g. , lte , which be commonly use by mobile network operator , many of the air interface that could be use in a multi - tier sharing paradigm e.g. , wifi , point - to - point backhaul do not have these centralized control feature .",0
"for example , the use of the wifi air interface in this band for gaa would require a mechanism , perhaps base upon internet protocol messaging , to control the wifi - base gaa access point and their serve gaa terminal .",0
the standard wifi air interface allow the access point to have local or fix autonomous control of the channel use .,1
there be no provision for unified centralized control as the wifi access point in different deployment,0
do not cooperate with one another,0
"there be no handoff , no resource control , and no interference control or coordination and hence there be no need for current wifi to have any centralized network control feature .",-1
"thus , the use of such an air interface for tier 3 gaa will require software and interface whereby the sas manager can send control message to the gaa access point and gaa terminal .",0
"also , new security feature be need for the control system .",0
"the risk of rogue use of channel via hacking of the local microprocessor be well document in other area , include game console to get access to lock game , cell phone clone to clone a subscriber identity for theft of service purpose , and cable set - top box to gain access to restricted or subscription content .",0
strong security protection for a control system therefore need to be develop for the multi - tier framework before it will ensure the interference protection need to protect ongoing tier 1 government user from possible rogue interference and support substantial investment by tier 2 operator .,2
"for gaa device use non - networked air interface , at least three secure mechanism be necessary .",1
"first , any gaa device with hardware capable of emit on channel where priority access licenses pals operate will need feature to ensure they be not hack in way that would permit them to emit on those frequency .",0
the gaa access point and end user device must be incapable of autonomously tune their synthesizer use their own microprocessor software or firmware control because such process would be susceptible to hacking .,-2
"instead , their tuning must be control directly by the sas via an encrypted technology .",0
"second , the identity of the gaa user make a request for spectrum allocation must be secure .",1
"therefore , the user identification protocol must be encrypt so that the sas can not be spoof by a tier 3 device fake an incorrect identity .",-2
"third , the gaa access point must report its valid location for interference purpose for the sas to determine the keep - out radius .",-1
"that location report must be base on an internal gps within the access point , in order to determine its own location accurately .",1
"that location report to the sas must be secure , and therefore must be encrypt to avoid the possibility ofspoofe an incorrect location .",0
"and to the extent the gaa device be use indoor where there be no gps signal , protocol will need to be develop so that accurate location information be provide to the sas.the multi - tier framework also require regulatory and administrative innovations .",1
"the public notice contemplate a regime one manage and largely administer by sas database administrator for keep track of , auctioning , and control interference between 74,000 pal .",-1
that regime will have little in common with anything the commission have establish in the past .,0
verizon look forward to work with the commission and with other stakeholder to help develop the regulatory and administrative innovation need for the multi - tier framework to work .,3
"while verizon support the commissions commitment to explore new regulatory and administrative paradigm , they will take time to develop , test , and implement .",2
"the proposal to assign 74,000 pal on a census tract basis would create substantial administration burden , and it would be challenge for wireless operator and the sas manager to address the various border interference issue that can be expect to emerge .",-3
one challenge will be the coordination of small cell site location and manage border area interference between different licensed service provider .,-1
"with small sized pal , there will be more border area between compete co - channel pal license holder .",0
border coordination will need to take into account the fact that different operator be likely to use different air interface .,0
"likewise , ascertain cell site location and ensure that their coverage contour be within the authorized pal be make more difficult if the pal be small and there be more of them .",-1
"newtechniques , along with an efficient dispute resolution mechanism , will need to be create to manage interference at the border of highly granular licensing area .",-1
"similarly , the proposal for one - year non - renewable license that can be aggregate for multiple year raise question about how wireless operator could receive sufficient assurance to justify make investment that require numerous year to recover .",3
"it be unclear how the propose predetermined cap on the total term length the number of consecutive pal term that can be aggregate in time would work , and it be not clear what advantage such short license term would have over long - term one .",2
a transitional framework limit to tier 1 and 2 in a portion of the band can support short - term investment .,0
"until the emergence of the technical , regulatory , and other innovation discuss above , the business e.g. , time to market and quality of service",1
"e.g. , rogue interference risk to tier 2 operator be too high to justify make substantial investment in the context of the multi - tier framework .",-3
"accordingly , the commission should dedicate a portion of the band to a transitional framework that facilitate the prompt deployment of service use exist technology .",2
tier 2 licensees can fully protect government incumbent use existing technology .,1
one of the reason a transitional framework sub - band without tier 3 operation will support prompt investment be that tier 2 licensee can use exist technology such as lte that already have protocol to protect incumbent government operation .,3
"at least in urban area , the most likely use case for tier 2 operation will be for the small cell portion of heterogeneous lte network .",0
"employ sas control as an overlay on top of conventional lte network willallow for fine control of frequency and usage on a per small cell base station , with no need for the development of new feature or interface .",2
"by contrast , as discuss above , other technology will need modification in order to coexist with incumbent and other user .",0
"by establish a sub - band where the only private sector operator be tier 2 licensee , there will be no need to hold up commercial use of the spectrum until such new tier 3 feature can be develop and prove .",0
"this may greatly aid the cost - effective development of subsequent tier 3 device , as the tier 2 user will drive down the price for key component in the 3.5 ghz band such as rf filter , power device , synthesizer , and antenna .",1
"to provide quality of service assurances to tier 2 licensees , the commission should establish hardware limitations on gaa devices .",0
"to promote investment by tier 2 user , the commission should establish certification standard for gaa device that preclude their hardware from have the capability of tune to the frequency reserve for tier 1 and tier 2 use .",1
"at least for an interim period , that be the good approach to create the quality of service assurance need to support substantial investment in the 3.5 ghz band .",3
similar protection can not be achieve by rely on software - base restriction on the frequency to which tier 3 device may tune because any such approach would be vulnerable to hacking .,-1
"over time , and especially to the extent substantial investment be make by tier 2 pal license holder in reliance on their spectrum license , the risk that such hack would be develop and then potentially widely distribute over the internet be substantial .",-2
the hardware - base limitation on gaa device could be sunsette once sufficient interface and security feature emerge to ensure that gaa device can not autonomously tune their own synthesizer .,0
the licensing model for the transitional framework should initially approximate exist exclusive - use models .,0
unlike the multi - tier framework portion of the band where the commission can and should experiment with ambitious new licensing paradigm the transitional framework portion should embrace licensing model that will support short - term investment and innovation .,3
"for example , whatever the merit of extremely granular license for the multi - tier framework , that proposal along with the proposal that the license term be only one year should not be adopt for tier 2 licensee operate in the transitional framework .",1
minute granularity both geographic and temporal do not afford the certainty need for substantial investment .,1
although the technical feature of the 3.5 ghz spectrum include great capacity through denser frequency reuse small cell size due to reduce propagation reduce potential for long range interference due to,0
"lower power , low - gain antenna , low antenna height or indoor antenna placement that guarantee the small cell be in the clutter and the ability to operate in a high co - channel interference environment be consistent with small cell use , they should not necessarily dictate the license size .",2
"the principal value of mobile telephony have always be the provisioning of service over a wide area to allow mobility , and large license size have be prove to support investment under that business paradigm .",1
"similarly , while the public notices proposal to establish one - year license term can be explore in the context of the multi - tier framework , it should not be impose on the transitional framework because mobile network operator will need assurance that their investment can be amortize over a long period of time .",0
"accordingly , in the transitional framework , the geographic area , term , and administration of license should approximate those use in the traditional exclusive uselicensing framework , which have be prove to support substantial investment by mobile network operator deploy lte network .",1
any experimentation with localized critical access operation should take place outside of the transitional framework .,-1
"while the public notice appropriately envision open eligibility for pals , it also seek comment on whether to assign 3.5 ghz spectrum to qualified critical access facility that could deploy that spectrum to operate indoor small cell network on a quality - assure basis .",1
"to the extent the need for such operation be establish , and appropriate interference management technique can be develop for them , that experimentation should not take place in the context of the investment - focus transitional framework .",0
"the purpose of that portion of the hybrid band be to avoid authorize operation that could undermine the quality of service guarantee need to support substantial investment by tier 2 operator , and uncertainty associate with authorize localized critical access operation within that framework would substantially degrade those guarantee .",0
the technical specification for the 3.5 ghz band should reflect licensees likely use cases.the public notice seek comment on preliminary value for define some of thetechnical parameter for the 3.5 ghz band .,0
"the use case commensurate with the relatively low base station power limitation discuss in paragraph 45 of the notice 24 dbm transmit power with antenna gain of 6 dbi be indoor picocell , which can be use for relatively limited indoor coverage e.g. , home , office .",-1
that power level be below the current part 15 rule for ism band use at 2.4 ghz and 5.8 ghz for wifi .,0
"such specification may be appropriate for certaintier 3 operation , andor for certain operation in or around zone where incumbent tier 1 radar system may operate , but they do not support additional important use case for which 3.5 ghz spectrum be attractive .",4
the technical specification for power limit should support substantially great flexibility .,2
"first , for outdoor wide area coverage base station use , commensurate with wide area sectorize small cell microcell , 30 dbm maximum transmit power with a maximum antenna gain of 17 dbi eirp of approximately 47 dbi be appropriate .",2
"second , for outdoor point - to - point narrow - beam use case , commensurate with point - to - point backhaul use , 30 dbm transmit power along with maximum antenna gain of 23dbi consistent with eirp of approximately 53 dbm be appropriate .",3
"with respect to the interference environment , different use case similarly require different specification .",0
some of the level discuss in the public notice may be too high for some of the contemplate use case .,0
"in general , the iot the rise in interference level over the thermal noise level do correspond to the size of the cell .",-2
"very large rural cell be coverage limit limited in ultimate range by receiver limitation in the presence of the thermal noise floor , i.e. , noise - limit .",-6
"small urban cell be capacity limit limited in ultimate performance or capacity by receiver limitation in the presence of the co - channel interference from nearby neighbor cell , i.e. , interference - limited .",-6
the propose rise in iot interference over thermal noise floor of 20 db do correspond to most urban interference limit scenario .,-4
the propose rise in iot of 40 db would correspond to very small picocell and femtocell use case .,0
"at these high interference level , the resultant range of the cell be very small in order to achieve adequate cir carrier - to - interference ratio above the raise interference level , and would preclude other type of use that have large require propagationdistance .",-2
"wide area outdoor coverage may not be economically feasible at such high raise iot level , because too many small cell would be require to cover a give area cost effectively .",2
"different use case especially the high antenna gain , point - to - point case , if allow as a permit use require careful analysis of antenna pattern and sidelobe to determine result interference scenario .",0
establish strong protections for government incumbents do not require sacrifice the attractiveness of the 3.5 ghz band to wireless operators.substantial investment in infrastructure and device development be only likely if thespectrum can be put to use promptly to serve a majority of americans in major population center .,2
"as verizon and numerous other commenter have observe , the very large exclusion zone contemplate in the nprm would largely destroy the attractiveness of the 3.5 ghz band by exclude private operation for zone represent 60 percent of the u.s. population .",-2
"therefore , minimize the size of the zone where government incumbent operation require interference protection , and develop technique for provide strong protection for government operation within the zone , be crucial for make the band attractive for small cell or other type of deployment .",3
the very large zone contemplate in the nprm can likely be reduce substantially by focus on protect incumbent user from the small cell operation not vice versa and by model small cell rather than macro cell power level .,0
"also , within the zone , tier 2 licensee can successfully coordinate with government incumbent use conventional lte technology .",1
"as discuss above , in an lte environment there will be no need to create any new air interfaceto",0
allow an sas overlay to have fine control of frequency and usage on a per small cell base station .,1
one potential technique that could facilitate successful sharing within the coordinationzone would be the use of sub - block front end rf filter to aid in band segmentation .,2
bysegmente the channel set into a number of sub - block,0
", high power incumbent user could besegregate from low - power use case , thus prevent front end overload anddesensitization .",0
"in addition to facilitate tier 2 operation within the former exclusion zone , that technique could also be use to enforce the channelization of the hybrid band plan discussedabove .",0
"this sub - block choice could also be manage by an sas manager , thus allowingsimultaneous use of channel within different sub - block but within the same geographic area .",0
"of course , employ sub - block filter would increase device complexity and cost consideration that should be weigh against their potential benefit with respect to enablingeffective use of 3.5 ghz spectrum within the coordination zone .",2
