text,score
the satellite industry association sia hereby respond to the commissions requestfor comment on licensing model and technical requirement in the above - caption proceeding .,0
"sia have be active in this proceeding to ensure that if the commission decide to allowintroduction of terrestrial small cell operation in the 3550 - 3650 mhz band 3.5 ghz band , itact to ensure that exist and future primary fix - satellite service fss network be protectedfrom unacceptable interference .",-2
"the notice do not substantively address such share concern , but the licensing framework and technical parameter for small cell operation discuss in thenotice be directly relevant to the potential for interference to satellite operation .",-2
sia limitedcomment here focus on these matter .,0
"small cell policy must provide flexibility for future satellite operationsa a threshold matter , sia be concern that the commission appear to have unjustifiablyprejudged question relate to future satellite operation in the 3.5 ghz band .",0
"specifically , thenotice suggest that only grandfathere earth station will be entitle to protection from interference cause by new small cell service in the band .",0
"the record before the commission , however , do not demonstrate that prevent deployment of new earth station be either necessaryor in the public interest .",0
"in particular , the commissions proposal for new terrestrial operation in this band assumethat the spectrum propagation characteristic and small cell",0
relatively low power will allow thenew system to operate on a secondary basis without cause unacceptable interference to primarysatellite operation or radar system .,-2
"if the commission succeed in develop a framework thatallow such co - existence , that framework should be fully capable of accommodate future earthstation deployment .",2
"by definition , the dynamic spectrum management approach rely on the spectrum access system sas database contemplate by the commission will be adaptable tochange in the acceptable parameter of operation .",2
future primary fss deployment can simply befactore into the sas system and take into account when decide whether secondary spectrumuse by small cell be feasible without create unacceptable interference .,-1
"in contrast , preclude future satellite operation would have the effect of re - allocate the3.5 ghz band , and the commission have not propose such a reallocation or seek comment on itsadvisability .",0
"permanently block new earth station in this spectrum would harm satelliteoperator and customer by strand the significant investment in fss capacity in this band , consist of more than sixty satellite , fifteen of which be u.s.-licensed .",0
"such an extreme step certainly could not be justify here , especially give the uncertainty regard whether significant demand will exist for small cell use of 3.5 ghz spectrum under the condition be develop in this proceeding .",2
wireless interest have make clear that access to spectrum above 3 ghz that be not available for exclusive licensing be not a priority for them .,2
"in light of that lukewarm express interest , the commission should not block the continue growth and expansion of primary fss network .",-1
license rule for small cell must incorporate protections for primary fss operationsthe notice seek comment on several specific proposal for licensing of small cellnetwork .,0
"sia take no position with respect to the detail of the licensing structure , provide that the rule incorporate measure to ensure that primary fss network include future earth station be protect from unacceptable interference .",0
pal should not be issue in areas surround,-1
"fss earth stationsin the modify framework set forth in the notice , the commission propose to retain the concept of a priority access tier of user whose right be subordinate to incumbent but superior to the general authorized access gaa tier .",1
"under this approach , priority access licenses pal would be issue to qualified applicant , with auction to be use if mutually exclusive application be submit for the same spectrum , geographic area , and time frame .",0
sia express no view on this licensing mechanism but emphasize that the commission can not grant priority access to spectrum in area where primary fss operation would be adversely affect .,0
do so would invite the possibility of conflict between priority user of the 3.5 ghz band and incumbent user that must be protect from interference .,-1
the commission should avoid any possibility of a priority access licensee be unable to use spectrum that it have pay for at auction because its operation be too close to a primary fss earth station .,-1
this mean the commission will have to define zone surround earth station site where no pal would be issue .,-1
"base on the record to date , sia propose a 150-km radius for these area as a starting point , give the absence of definitive technical characteristic and project deployment density for small cell .",-1
"the nprm in this proceeding seek comment on a baseline 150 km separation distance , note that this distance be adopt to protect earth station in the adjacent 3650 - 3700 mhz spectrum the 3.65 ghz band .",1
this be certainly the right starting point if pal operation be limit to the same parameter as the service in the adjacent 3.65 ghz band .,0
"if pal operation at high eirp density be allow , then the protection zone would need to be expand , and vice - versa if pal parameter be more restrictive .",-1
"in its comment and reply comment , sia support use of the 150-km radius , note that calculate separation distance more definitively be impossible without detailed information regard small cell operational parameter",1
"especially the maximum allowable eirp density , which be need to determine single - entry interference level , and their deployment characteristic , which be require to calculate aggregate interference effect .",-2
"sia subsequently submit a technical analysis that show a range of separation distance from ten of kilometer to several hundred kilometer that would be require to protect primary fss earth station from singleinterferer , depend upon on the allow eirp density , antenna orientation and terrain difference .",1
the entire area within the define zone whether it be 150 km or a different size base on final small cell technical parameter should be unavailable for pal .,-1
commission rule allow primary fss earth station to change pointing and use any frequency within the 3600 - 3650 mhz range at any time .,0
"as a result , in this portion of the 3.5 ghz band the commission can not purport to offer priority right to secondary user anywhere within these zone .",1
"furthermore , the commission should make clear that construction of new primary fss earth station , which should be permit as discuss above , may require modification or termination of small cell operation , even if a pal have be issue .",0
the proposal for localized critical access raise significant questionsthe notice also seek comment on whether critical access user such as hospital should be eligible to receive authorization for a specific building or facility .,-1
"sia have substantial concern about this concept , over and above its concern about the priority access tier .",-2
"first , the commission have previously find that it be inappropriate to rely on secondary spectrum allocation to meet the need of critical access user .",-2
"specifically , in rule on a request by the utilities telecom council and winchester cator , the commission reject a proposal to introduce service to support critical infrastructure on a secondary basis in a band where fss system be primary .",-1
a key concern express by the commission be the possibility that critical infrastructure service would receive disruptive interference that could be prevent only byimpose unacceptable burden on primary fss network .,-6
the commission also observe thatother spectrum be available on a primary basis that would well ensure the high quality of service appropriate for critical infrastructure system need .,2
"second , the interference prevention measure contemplate for localized service will beeffective only if they be practically enforceable .",-1
"for example , the notice state that operation of these local network would be limit to indoor use .",-1
"however , the commission do not describeany measure to ensure that user do not violate this restriction .",-2
require building to employphysical radiofrequency shielding will not be meaningful if a user can circumvent the effect of theshielding by simply walk outside with a transmit device .,1
give these concern,-1
", sia oppose permit localized critical access use within the 150-km area surround primary fss earth station .",-2
"furthermore , as with pals , the commissionshould make it clear that local critical infrastructure user of the 3.5 ghz band would have toaccommodate new primary fss earth station in the band .",0
the sas database must have robust and proven capability and securitythe notice anticipate that the plan sas database will dynamically assign 3.5 ghzspectrum in a manner that prevent unacceptable interference to protect service .,2
"however , as sia and other have observe and as the notice acknowledge , this would be possible only if thesas have highly advanced feature .",1
"the technology need to implement such a database have notyet be develop , and will need to be thoroughly test and verify prior to deployment .",0
"in addition , the commission must ensure that both the database itself and the interaction between the database and terrestrial terminal be highly secure .",1
"in order to perform its expect function , the sas database must have all the information necessary to prevent gaa user from interfere with primary fss network .",-1
"in particular , for each small cell transmitter , the sas must have accurate , update information on 1 location 2 maximum eirp density 3 antenna height above ground and above mean sea level 4 antenna beam tilt , if any and 5 validate",1
off - axis antenna gain pattern .,1
"in addition , for each satellite earth station , the sas must contain datum regard",1
1 location 2 antenna diameter 3 antenna gain 4 antenna height above ground and above mean sea level 5 off - axis gain pattern of the receive antenna if the antenna do not comply with section 25.209 and 6 gt of the earth station .,2
"the database will also need to contain a detailed propagation model , include terrain information .",0
the sas must then be able to interpret this datum to determine whether and under what parameter a small cell transmitter can be permit to operate without create unacceptable interference to high priority user .,-2
robust protection criterion must be develop and incorporate into the sas to enable the database to make frequency assignment decision .,2
"base on this datum , the sas will need the ability to calculate the aggregate interference environment into each earth station from exist small cell and determine whether permit transmission by any additional small cell will cause the fss protection criterion to be exceed .",1
the sas must also be able to reassign frequency for one or more small cell operate near a specific earth station if either the satellite operator serve that earth station or the earth station operator notify the sas that it suspect small cell transmission be cause unacceptable interference .,-3
"to do so , the sas must be able to promptly accept good faith report regard interference into a specific earth station , pende resolution of the report .",3
the sas can restore small cell operate frequency to their original value if it later determine that the interference be not due to small cell transmission .,-1
the record before the commission also make clear that security of the database system be of paramount importance .,2
the sas database itself must be equip with enforceable information security and integrity measure .,0
equally critical be ensure the datum security and integrity for the device .,-1
"in particular , the terminal must be protect from modification by either the user or a third party , such as attempt to jail - break or hack the device operational system .",-1
"in addition , measure must be employ to prevent sas spoof send fake information to the sas from the device or vice - versa .",-2
technical standards must ensureprotection of earth stationsthe notice also seek additional comment on technical specification for small cell in the 3.5 ghz band .,0
sia strongly agree that define the specific term pursuant,0
to which small cell would be permit to operate be essential in order to properly determine the constraint necessary to prevent unacceptable interference to primary fss network .,-1
baseline technical standard to prevent interference to fss be need for both the priority access and gaa tier .,-1
sia have repeatedly emphasize that information on maximum eirp density level for smallcell transmission be need to establish protection criterion for fss .,1
"although a number of partieshave suggest various maximum absolute power level , they have not indicate what the minimum bandwidth would be , make it impossible to determine maximum eirp density .",-1
"as note above , sia have calculate the require separation distance to prevent unacceptableinterference into primary fss earth station for a variety of eirp density level .",1
"the result varywidely depend on the eirp density level of the small cell transmitter and other factor , includingthe relative orientation of transmitter and receiver , the intervene terrain , and the interferencecriteria use .",0
"not surprisingly , the calculated separation distance be low for small cellstransmitting at low eirp density .",0
"thus , a concrete understanding of the maximum eirp densitylevel at which 3.5 ghz small cell will transmit be need to further evaluate the parameter forensure protection of primary fss operation .",1
another important miss element in the discussion so far be the impact of aggregateinterference .,0
"although there be agreement that assessment of aggregate interference level be critical , sias prior study do not take into account aggregate interference because assessingsuch interference require an understanding of the deployment characteristic of small cell .",-4
"todate , neither the commission nor the party have provide information regard the likelynumber and density of small cell deployment .",1
"as a result , sia be unable to meaningfully predictthe level of aggregate interference that could be expect .",-2
this information be necessary toconclusively establish fss protection criterion .,1
"the expectation seem to be that small cell deployment will be more extensive than deployment in the adjacent 3.65 ghz band , so experience in the adjacent band with aggregate effect may provide only limited guidance .",0
"sia endorse the commissions suggestion that one or more multi - stakeholder group be convene to further explore technical standard and interference protection criterion , as suggest in the notice .",1
"robust participation by the satellite industry will be essential to the success of such effort , and sia and its member stand ready to join the discussion .",3
"conclusionfor the reason express in the prior sia comment and herein , sia urge the commissionto ensure that licensing and technical policy develop to allow introduction of small cell in the 3.5 ghz band be design to prevent primary satellite service from be harm or constrain .",-1
