text,score
"the wireless innovation forum forum be a us base international non - profit organization drive technology innovation in commercial , civil , and defense communication around the world .",2
"forum member bring a broad base of experience in software defined radio sdr , cognitive radio cr and dynamic spectrum access dsa technology in diverse market and at all level of the wireless value chain to address emerge wireless communication requirement through enhance value , reduce total life cost of ownership , and accelerate deployment of standardized family of product , technology , and service .",2
"in this response , the forum offer comment on the technical consideration bring forward by the commission .",0
"in previous response to similar topic , the forum have express its support for spectrum sharing and the use of small cell technology in the 3.5 ghz band and thevalue of utilize multi - stakeholder group .",1
"to add to this discussion , we would like to elaborate on the foundational element of multi - stakeholder group , as well as the opportunity to define not only the operating rule for the 3550 - 3650 band , but significant future share spectrum band .",3
the charter of the fcc to operate on behalf of the citizen of the united states have undergo significant change through the year .,1
"these change represent direct and appropriate response to major shift in public , private and government need for wireless communication .",1
"in simple term , under the communications act of 1934 the fcc be charge with allocate spectrum space to maximize the public interest , convenience , or necessity .",1
"the communications act and its revision mandate promotion of the public interest , and thus the encouragement of a diversity of voice so as to promote a vibrant democracy .",2
initial regulatory and policy effort focus on technology issue relate to specific need for conventional communication .,-1
use case be isolate in specific spectral band .,-1
"as technology advance and service originate market voice , video , multimedia emerge , the telecommunications act of 1996 modify the charter of the fcc to de - emphasize legacy technology and reduce regulation in favour of rapid adaptation of new technology that support public service such as digital broadcast system and cellular base communication .",3
"in propose amendment to the fcc charter in the federal communications commission consolidated reporting act of 2013 , will require the fcc to determine whether law and regulation pose a barrier to entry into communication market and to include that information in the in the biennial report submit for review .",0
"rapid advancement and deployment of software defined radio sdr , cognitive radio cr ,",1
"self - optimizing networks son , dynamic spectrum access dsa , advanced physical access layer phy , media access layer mac and protocol stack technology be but a few of the innovation that support important service and use case that benefit from share spectrum for both primary and secondary user of public and government service .",6
major advance in component technology and processor base algorithmic analysis now support real - time control of spectrum .,1
"in 1996 the fcc recognize the need to soften regulation base on specific technology use in legacy system in favour of regulation base on user service , independent of implementation .",1
the result be to enable rapid advancement and adoption of digital communication which greatly increase spectral efficiently of both broadband and narrowband communication system .,2
"in 2013 it be equally important for the fcc to recognize the need to exercise a light regulatory touch in support innovation relate to spectral sharing and frequency agile communication , which will define the next revolution in spectral efficiency .",4
"the forum enthusiastically support the fcc effort in define harm claim thresholds as a tool to determine appropriate relationship between primary and secondary user , and increase multiuse spectrum available for both narrowband and wideband system .",3
the forum also support regulatory and policy development base on service rather than technology to continue foster innovation in all area of science and technology use in communication system .,2
"below be the forums response to the specific issue contain in section 2 , paragraph 50 , include below for clarity2 additional technical considerationswe note that the fcc technological advisory council tac have be study spectrum interference policy and receiver standard in general , and it recommend that the commission consider form one or more multi - stakeholder group to study such standard and interference limit policy at suitable service boundary , such as those related to the 3.5 ghz band .",-2
"should the commission encourage the formation of one or more group to investigate interference limit policy for the 3.5 ghz band if so , what should be the scope of such a group or groupsthere a number of approach that the civil sector could adopt to ensure non - interference to federal operation , and a number of venue to develop these methodology and criterion .",-2
"the process to select and appoint a single organization with sole authority to develop these , and to establish a single interference avoidance methodology could be quite lengthy , and would have the effect of have the government make implicit or explicit decision regard market use , technology , and standard that modern spectrum management policy have explicitly avoid make .",0
such a process would be inherently not technology neutral .,0
we encourage the fcc to be as involved in the process of establish the cbs federal interference protection criterion as be possible within their resource constraint and mission scope .,1
"however we also recognize that much of this expertise be present in the private sector , and that the process that implement this very exciting initiative should be maximally accessible to the wide community .",2
"we believe the eventual ro should provide , as a minimum , a process for multi - stakeholder , industry form group to propose spectrum sharing standard and criterion to the government , and that the government be obligate to act on them in good faith within a stated , and limited time period , consistent with the principle of the presidential memorandum of june 14 , 2013.such a process would entailaccepte and evaluate specific spectrum share criterion and engineering standardsperforming evaluation consistent with the transparency and spectrum sharing principle establish by the presidential memorandum of june 14 , 2013provide support to multi - stakeholder group and other industry organization in understand the share constraint of incumbent federal system , in accordance with the principle of the presidential memorandum of june 14 ,",4
"2013establishing a fix timetable for these evaluationsensure that these evaluation be transparent to the maximum extent possible consistent with national security and any adverse option be consistent with the principle of the presidential memorandum of june 14 , 2013permit proposal beyond the initial spectrum opportunity provide in the eventual cbs ro so that spectrum sharing can be establish more broadly , consistent with the principle of the cbs rowith these principle in place , the wireless innovation forum can commit to establish such a multi - stakeholder process to develop these recommendation .",5
"the forum recommend the fcc encourage formation of industry lead multi - stakeholder group to address specific interference and interference mitigation issue , such as the cbs band , which be the subject of this public notice .",0
the forum believe the fcc will well be serve by execute on the framework above to enable stakeholder to work together to form tightlyfocuse work group to evaluate all current and emerge technical issue that be reverent tospectrum share for specific use case and frequency band of interest .,2
"by enable multi - stakeholder group to participate in the process , the fcc can capture a diversity of opinionsgathere and provide from different perspective on technology , service and business model .",0
this ensure recommendation from these multi - stakeholder group will be responsive to,2
thefcc rule make process for complex multiuse spectrum issue .,-2
"the forum be an example of a broadly focus multi stakeholder group withcharacteristics list belowopen and transparentmembership open to all industry , government and academic institutionspublished researchx membership supportedoperation independent of specific industry or government fundingtechnology independentsupport for a broad range of science and technology program and project x strong relationship with other multi stakeholder groupshistory of corporative development with a broad range of government , industry and academic multi - stakeholder groupsstrong support for multiuse spectrumcentral focus of the forum advocacy agenda be open use of spectrum for benefit for all users.x user focusedproject support innovation for improve wireless communication for user x experience in military , tactical , public safety and commercial communication .",6
"understanding of communication system range from military to commercial deploymentsinternational membershipability to support development of both united states and international standard the forum recognize the challenge , both technical and policy base in enable multiuse spectrum and be dedicate to find innovative solution for frequency agile communication use by primary and secondary user .",3
the forum believe it be well positioned to form and manage multi stakeholder group for evaluation and recommendation for the cbs band as well as other other band .,3
forum member company have a broad range of experience from hf communication through v - band .,0
"although different band will likely include support from a range of additional multi stakeholder group , it be important the fcc clearly encourage broadly focused multi stakeholder group through the process outline above to do the heavy lifting coordinate the effort of interference analysis and policy recommendation for consideration by the fcc .",4
"this will encourage industry , government and academic institution to invest their good resource in this effort and also insure broad support for rapid adoption of multiuse spectrum .",4
"while the member of the forum understand the need to focus discussion on the requirement for the specific band of interest , and support the approach define by the fcc in the public notice , the forum caution the commission against over specify band specific solution .",1
"the member of the forum believe that the use of a common architectural model should be encourage across band where practical , allow the standardization of interface where appropriate and the reuse of technology develop for the sas , etc .",2
to the great extent possible .,1
"by maintain architectural integrity across band where possible , the forum believe that the commission will well enable economy of scale to be achieve in the deployment within the 3.5 ghz cbs band , improve the business case for investment in spectrum share solution and subsequently foster competition through the creation of an ecosystem of vendor with interoperable technology support the define architecture .",3
