text,score
"secretary dortch , i be write you to express our concern about the petition enter by ctia and t - mobile regard the future use of the 3.5ghz radio band .",0
"blueriver networking services be a small fix position wireless internet service provider base in salem , indiana .",0
"we begin offer service in 2003 and currently serve approximately 2000 customer across portion of five southern indiana county use the unlicensed 900mhz , 2.4ghz and 5ghz band .",-1
"our market area be a very rural one and as such , be it not for the service that we offer , many of our customer would have no access to high speed internet service at all .",0
"we believe , base on our preliminary deployment and testing , that the 3.5ghz band will allow our company to increase our product offering and improve the quality of service currently available to the resident of our coverage area .",2
this will be accomplish by the high bandwidth and well propagation characteristic associate with the 3.5ghz band .,2
"as you be aware , 900mhz be of such limited bandwidth that it can not offer the speed require to deliver the service desire by most internet user .",-1
"the 2.4ghz and 5ghz band , while able to offer high speed , be severely limited in their ability to deliver because of their line of sight dependency .",-1
"our early testing with the 3.5ghz band suggest that this band would overcome many of these limitation and allow customer in our rural market the opportunity to have access to the service that they require , and would allow small company , such as ourselves , the opportunity to deliver say service in a cost effective and reliable manner .",1
"as you also undoubtedly know , the economy of rural community be particularly fragile .",-1
blueriver networking services employ a dozen people from the area that we serve .,0
"additionally , we support many other local business through our patronage of their good and service as need by our company .",2
"finally , blueriver also be a significant contributor to the local tax base through our property and payroll taxis .",1
"by accept the change as propose in the ctia and t - mobile petition , company such as our would be force to accept an even small market share or to stop do business altogether .",0
"this would without a doubt affect the local economy where such small company operate , as the revenue that be once retain locally would now be extract from those economy with very minimal reinvestment in the market where the revenue originate .",-1
"without dispute , blueriver recognize the congested nature of all the radio spectrum .",-2
"however we feel that the propose rule for govern the 3.5ghz spectrum as propose in the cbrs outline , be reasonable and fair .",2
"they would all provider , large and small , the opportunity to compete fairly and provide consumer with choice in where they obtain their service .",1
the 3.5ghz band would allowsmall carrier to deploy in small market area that the large carrier apparently do not feel economically viable to construct facility .,0
due to its propagation characteristic,0
"that permit well short range penetration of the dense tree foliage in our market as well as the high datum speed that it allow , this seem to be the perfect vehicle for small company such as our to finally deliver quality service to remote area in a cost effective manner .",3
"while company such as our can deploy this technology successfully on a micro level via utilization of grain elevator and small , commercially nonviable tower and obtain a high level of saturation to a rural market , large company , use only a small handful of tower in a county sized market , can not .",1
"while 3.5ghz do show great promise for reach the hard to get to customer , it be not a panacea .",1
"a few broadcast point , as be the model employ by the large carrier , in a market such as our will not benefit the remote area that be obstruct by vegetation and terrain .",0
these be the customer who most need option and who have be continually overlook by the large carrier .,-1
this be evidence by the portion of our market which can not even receive reliable cell service .,1
currently blueriver have only minimally invest in the 3.5ghz platform for research and testing purpose .,0
"however , at the time of this writing , we be prepare for a network wide deployment of this technology base on our test result and expect to have that in place within 60 day .",0
"this investment , while admittedly not large by comparison to what large carrier would invest , amount to approximately 30 of our annual revenue .",0
to have this investment obsolete in the short term by adopt the recommendation in the ctia and t - mobile petition would be a devastating financial blow for a company such as our .,-2
"in closing , we respectfully request that the commission reject the petition of ctia and t - mobile and proceed with the implementation of cbrs rule as currently propose .",0
we believe that this would provide the most fair access to all party interested in use the 3.5ghz band and ultimately will provide the good environment for consumer and local economy by not allow yet another portion of valuable spectrum to be monopolize by a small handful of big player .,3
your consideration in this matter be much appreciate .,1
