text,score
motorola mobility llc motorola mobility hereby respond to the public notice issue by the federal communications commission commission,-1
seek comment on licensing model and technical requirement in the 3550 - 3650 mhz 3.5 ghz band .,0
introductionmotorola mobility strongly support the commissions effort in this proceeding to increase broadband capacity and efficient spectrum use by promote small cell network deployment in the 3.5 ghz band .,2
motorola mobility also support the development and implementation of the propose dynamic spectrum access system sas to manage use of the 3.5 ghz band by federal and non - federal incumbent and by new user under the revised framework for authorize access to spectrum in the citizens broadband service cbs.the advancement of database solution to manage spectrum access have be a longstanding company objective .,2
"nearly a decade ago , motorola , inc. pioneer the concept of utilize a geolocation database to mitigate the potential for interference between incumbent andnew user in a share spectrum environment .",-1
"motorola , inc. also develop a prototype devicefor use with a database in the broadcast television white spaces tvws , provide technicalsupport to the commission throughout the proceeding to craft rule for access to the tvws , andpropose and test the tvws database concept that be ultimately accept by the commission .",0
"although the feasibility of a database approach to spectrum resource management wasquestione early in the tvws proceeding as be its use in band other than broadcast televisionspectrum , the concept have prove to be viable and effective .",1
"to date , the commission hasapprove multiple tvws database for nationwide operation , more tvws database be beingdesigne and test , and there be a grow tvws device marketplace .",0
"the propose sas , model on the tvws database concept , represent a significant next step in the evolution ofspectrum management database .",1
"to be sure , the sas , which be intend to mitigate thepotential for interference between the operation of federal and non - federal incumbent user andmultiple tier of new user , pose novel technical challenge .",-1
"however , motorola mobility isconfident that successful development of the sas will drive even great innovation , benefitingconsumer and the national economy .",3
motorola mobility provide these comment in response to the revised frameworkpublic notice .,0
"in particular , motorola mobility urge the commission to 1 ensure that the cbsrule promote equipment interoperability within the entire 3550 - 3700 mhz band 2 adopt aband plan and technical rule that allow the great possible operational flexibility and supportmultiple mobile network technology , include long term evolution lte , and promoteglobal harmonization of the 3550 - 3700 mhz band and 3 extend the propose revisedframework for authorize access to cbs spectrum to the 3650 - 3700 mhz band .",2
"the rule should promote interoperability throughout the 3550 - 3700 mhz bandinteroperability be a critical feature of the future deployment of mobile broadbandservice , include lte - base service that be widely expect to be deploy in the 3.5 ghzband .",-1
"as the commission have note , consumer benefit when lte - base service areinteroperable .",1
"in particular , interoperability improve choice and quality by enablingconsumer to port their device between service provider and enable device to roam ondifferent network .",1
"to promote equipment interoperability , the commission should adopt uniform technicalrule for the 3.5 ghz band and , as discuss in great detail below , should extend the revisedframework to include 3650 - 3700 mhz , with one set of rule to govern the entire 150 mhz from3550 - 3700 mhz .",1
"although interoperability across the 3550 - 3700 mhz spectrum may requiresupport of more than one 3gpp - define band class , this will not unduly impact device cost orform factor , because industry be move towards multi - band power amplifier , in which a fulltransmitter chain be not require .",0
"as propose in the revised framework , the commission alsoshould allow general authorized access gaa tier user to operate throughout all spectrum dedicate to the cbs , which will spur interoperability throughout the band .",0
"the revised framework should accommodate existing and evolving standard and promote global harmonization of the 3.5 ghz bandthe commission should not mandate the use of any specific air interface in the 3.5 ghzband , but rather adopt a band plan and technical rule that allow the great possible operationalflexibility and support multiple mobile network technology , include lte .",2
"rule that takeinto account exist standard and accommodate change in those standard , and thereforeencourage lte technology in the 3.5 ghz band , will drive the continue rollout of next - generation mobile broadband network throughout the united states , and ensure that the u.s. remain the global test bed for lte app and service .",0
facilitate lte implementation in the 3.5 ghz band will advance importantcommission policy .,1
"first , it will promote international harmonization of spectrum allocationsfor wireless broadband , consistent with last year pcast report recommendation that the u.s. make such harmonization a key feature of national spectrum policy .",2
"as the pcast reportfound , international harmonization be essential to product innovation , interoperability androaming , spectrum efficiency , and cross - border frequency coordination .",1
"the commission , which have recognize that internationally harmonize spectrum benefit u.s. consumer , have an immediate opportunity to implement the pcastrecommendation .",2
"as note above , the 3.5 ghz band be within a wide band segment 3400 - 3800mhz that have be standardize by 3gpp .",0
"accommodate the 3gpp lte standard as one ofmultiple technology that may operate within the 3.5 ghz band will foster a global deviceecosystem , enable new product to achieve economy of scale and scope that give consumersaccess to a large and more diverse market , characterize by a great variety of device , atdifferent price point , and access to multiple network through roam .",2
"second , encouraging lte in the 3.5 ghz band will facilitate small cell deployment .",2
"release 12 of the evolve 3gpp lte standard will include enhancement to lte network forsmall cell deployment , and will support highly intensive use of spectrum in a small cell environment .",2
"because the 3gpp lte standard will support deployment of a variety of smallcell environment , lte technology be ideal for the 3550 - 3650 mhz band , as well as the 3650 - 3700 mhz band .",4
"moreover , deployment of lte in the 3.5 ghz band will promote efficient spectrum use .",1
"as the commission have recognize , lte be a high performance wireless broadband technologythat use ip packet rather than a proprietary packet structure , and provide a framework forincrease datum throughput rate and overall system capacity , reduce latency , and improve spectral efficiency .",-1
"and , because lte can be utilize in both exclusive and sharedenvironment , it can co - exist with other technology in the band , and be well suited for use in themulti - tier user model propose in the revised framework , which contemplate share access by priority access licensee and gaa user .",1
"finally , the commission should ensure that technical rule for the 3.5 ghz band , include transmit power and out - of - band emission limit , foster operational flexibility , include deployment of lte , and be not more stringent than current 3gpp and ieee 802.11specification .",-1
"the revised framework should include the 3650 - 3700 mhz bandthe commission have correctly pursue a forward - look , balanced approach tospectrum policy that seek to make available additional spectrum for mobile broadband use on anexclusive , share , license , andor unlicensed basis , while promote interference mitigation technique to increase efficient spectrum use .",2
"include the 3650 - 3700 mhz band within theproposed revised framework for authorize access to the citizens broadband service , andmake the entire 150 mhz 3550 - 3700 mhz subject to a uniform sas , as suggest in therevised framework public notice , be consistent with these policy .",1
"a contiguous 150 mhz for use under the revised framework , with uniform technicalrule , will have broad consumer benefit .",1
"more spectrum overall will be available for bothshared and exclusive use mobile broadband operation , consistent with the national broadbandplan and the presidential memorandum .",2
"equipment provider will benefit from a single , uniform , and large market .",1
"the economy of scale inherent in extend the revisedframework to the entire 3550 - 3770 mhz band will spur innovation in the mobile broadbanddevice market , reduce equipment cost and enable the development of multiple form factorsfor mobile device .",1
"moreover , because 3650 - 3700 mhz be within 3gpp band 43 , include this50 mhz band within the revised framework will further harmonize spectrum use in the u.s. with other itu regions .",1
"for all of these reason , motorola mobility urge the commission to include the entire3550 - 3700 mhz band in the propose cbs .",0
"the commission should seek to avoid a piecemealapproach that would unnecessarily delay the benefit of apply uniform technical rule to theentire band , and would increase cost by require manufacturer to develop device for twoband that would be subject to domestic rule that differ from other market or , alternatively , toforgo investment in new equipment for the 3650 - 3700 mhz band .",0
"notably , a broad and diverse cross - section of technology company have express general support for a uniform regulatory framework for the 3550 - 3700 mhz band .",2
"forexample , certain incumbent user of the 3650 - 3700 mhz band support such a plan , note that they will benefit by gain both the protection of the sas and access to additional capacity .",4
"at the same time , the commission can eliminate the outmoded registration process by which user access the 3650 - 3700 mhz band .",-1
"if the commission apply the revised framework to the 3650 - 3700 mhz band , it should adopt 10 mhz unpaired channel , as it propose for the 3550 - 3650 mhz band , for the entire3550 - 3700 mhz band .",0
a 10 mhz bandwidth be consistent with the lte framework and willensure that a channel be fully within either band 42 or band 43 .,1
"the commission should avoidany band plan that would result in a single channel span both band 42 and band 43 e.g . ,from 3595 - 3605 mhz , which would render that channel unusable under the 3gppspecifications .",-1
