text,score
the ieee dyspan standards committee dyspan - sc,0
hereby submit its comment on the above - caption proceeding .,0
"the document be prepare and approve unanimously by the 1900.5 working groups within the dyspan - sc.the ieee dyspan - sc be the lead consensus - base industry standard body fordynamic spectrum access networks dyspan , and have the follow technical scopedynamic spectrum access radio system and network with the focus on improved use of spectrum , new technique and method of dynamic spectrum access include the management of radio transmission interference , andcoordination of wireless technology include network management and information sharing amongst different dynamic spectrum access radio network .",4
we appreciate the opportunity to provide these comment to the commission .,1
introductionthe ieee dyspan standards committee commend the commission for its work in solicit input focus on share between federal and non - federal system in the 3550 - 3650 mhz band .,2
the ieee dyspan - sc strongly believe that dynamic spectrum access dsa technology and technique have the potential to enable more efficient use spectrum resource .,2
the dyspan - sc further believe that the benefit of the dynamic spectrum access technique require a regulatory framework that will encourage business development of product and service that utilize advanced dsa technology .,4
the acceptance of these advanced technology by both the business and regulatory community be dependent on dsa standard develop by international standards development organizations sdo such as the ieee dyspan - sc .,1
"thus , the regulatory community , the wireless industry , and sdo must work in close harmony to achieve the spectrum efficiency benefit associate with dsa radio system and network .",3
"the work be conduct under the ieee 1900.5 working group , policy language and architectures for manage cognitive radio for dsa applications",1
be directly applicable to share in the 3550 - 3650 mhz band .,0
the newly establish p1900.5.2 working group be standardize a method for model spectrum consumption .,0
this work should be consider as a core technology of the spectrum access systems sas propose in the notice of proposedrulemaking nprm for the 3.5 ghz band .,1
"while this response center around the work be complete by the p1900.5.2 working group , the dyspan - sc working group encourage industry and federalnon - federal sector to identify further area for standardization , identify the appropriate sdo to pursue those area , and start work group .",4
"in the text below , the dyspan - sc identify solution provide by 1900.5.2 to the technicalissue list in fcc 13 - 144 .",0
it describe the sas architecture 1900.5.2 enable .,0
it describe how scm enable a much more versatile spectrum management .,1
"it identify how these solution may enable other licensing , leasing , and marketing model .",0
descriptionofthespectrumconsumptionmodelingscm standardsworkthe ieee dyspan - sc p1900.5.2 working group seek to standardize an approach to model spectrum consumption call spectrum consumption model scm and the attendant computation method and algorithm to arbitrate compatibility among these model .,0
scm be use to capture the boundary of rf spectrum use by all type of rf device and system of rfdevices .,0
"these model enable model - based spectrum management mbsm , which be spectrum management execute through the creation and exchange of scms .",0
mbsm allow distribution of the spectrum management problem where spectrum user can model their use of spectrum independent of other user and place those model in the mbsm system where the common algorithm arbitrate compatibility .,-1
"these model be machine readable and serve as a means to convey rf spectrum authorization , constraint , and behavioral requirement to spectrum dependent system sds .",1
scm could be a core technology of any future national spectrum access system sas.the ieee dyspan - sc p1900.5.2 working group have just start this work .,1
it will be basedon concept in a work of the mitre corporation .,1
"mitre anticipate that it will publish the next version of its model based spectrum management , part 1 modeling and computation manual in december 2013 .",0
this manual provide a complete definition of a modeling approach .,0
this document will be the basis of the first version of the 1900.5.2 standard .,0
"in addition , mitre have implement many of the computational method in a matlab prototype to validate their efficacy .",0
"base on this foundational work , the work group goal be to complete this standard by january 2015.descriptionofscmscms",2
capture the boundary of spectrum use by capture the key characteristic of rf system and phenomenon that determine spectrum use .,0
"currently the modeling method use 12 construct element that can collectively capture transmission power , spectral emission , receiver susceptibility to interference , intermodulation effect , propagation , antenna effect , location both fixed and mobile , time of use , and radio behavior that enable compatibility .",-1
these construct element also capture the certainty of what be model .,0
scm be complement with define method for arbitrate the compatibility between model .,1
a mbsm system be thus capable of manage coexistence of multiple type of user .,1
"model can be make of any type of system that use the rf spectrum and so compatibility can be manage among type of user differentiate by the purpose or service of their spectrum use , e.g. , the radio location service of radar and the land mobile radio service of broadband .",0
these method support arbitrate compatibility base on both noise limited and interference limited sharing criterion .,-3
the scm datum schema be narrowly focused on spectrum consumption .,0
"it do not capture user identity , rf component nomenclature , model number , equipment capability or operational mission description .",1
rather it provide an assortment of construct that attempt to convey spectrum use boundary alone .,0
the schema may be combine with other schema to add the data element necessary for a particular business process .,0
this separation allow multiple spectrum management domain to communicate spectrum use to each other without the requirement that they agree to any particular data element of the business process which may contain information they do not want to share outside their own domain .,0
"additionally , it be possible to convey spectrum use boundary of system while obfuscate the particular of the system and their operational mission .",0
a sas can be build without the requirement to store sensitive information .,1
this benefit both government user who do not want to reveal their operation or the capability of their equipment and commercial user who want to avoid reveal proprietary and sensitive information about the deployment of their system .,2
in the subsequent section we first describe how the scm resolve the particular technical issue identify in the commissions request for comment .,-1
we build from this discussion to propose an anticipate evolution of the architecture of the future sas and finally anticipate the opportunity this architecture provide for additional mean for licensing and manage spectrum access to those suggest in the request and for managing band .,0
resolvingtechnicalissuesthe request correctly state that the effectiveness of dynamic spectrum sharing depend on the proper application of the interference mitigation and spectrum management technique for operate in the shared band .,3
this be the particular function of mbsm use scm .,0
the purpose of the model be to capture the electromagnetic radiation that system emit and the susceptibility of system to interference by other system electromagnetic emission .,-1
"give the envisioned system where the spectra encompass in license be convey with model and the use of spectrum be capture in model , each additional use can be evaluate for compliance with an associate license or lease by apply the compatibility computation method that accompany the scm modeling approach .",0
"further , when interference be declare , database can use the model to identify the most likely cause and take action to mitigate the interference .",-2
this can include revise the authorization to the system that be likely cause the interference .,-1
the scm concept be particularly well suited in create an acceptable interference environment .,0
all scm capture the interference limit of the system they model .,-2
these limitsare consistent with the vision of the fccs technical advisory councils for harm claim threshold .,0
the spectrum consumption modeling method provide a means to identify the acceptable power spectral flux density of interference as well as the power spectral flux density of emission and their dependence on propagation .,0
all type of system can be model and there be a common approach for resolve whether the model indicate that one system will violate another interference limit .,-3
the scm concept provide technical flexibility .,1
it be intend that any type of system can be model and so mbsm can also support the management of interference among very disparate system include between radar and broadband communication .,0
modeling support collaborative management where spectrum user of very different enterprise can communicate their spectrum use to each other without have to share sensitive information about the system that be use the spectrum or of the operation use these system .,2
this story be well describe in the dyspan - sc response to the 3.5 ghz,1
nprm.sasarchitectureevolution7the goal of spectrum consumption modeling be that it become a loose coupler for spectrum management in the same way as the internet protocol ip be a loose coupler for networking .,-2
loose coupling occur at the intersection of a large set of system and allow them to interoperate and to be integrate .,-1
figure 1 be a bowtie diagram that illustrate the loose coupler role of spectrum consumption model scm .,-1
at the top layer scm provide a means for system that collectively perform spectrum management to convey to each other their understanding of spectrum consumption and to spectrum user boundary of available spectrum and constraint to it use .,2
"at the bottom layer , it allow rf system that use the spectrum to compute coexistence and improve their usage of spectrum .",1
scm be machine readable and thus provide a means for spectrum management system to convey spectrum usage right to rf system .,2
it also allow rf system to express their spectrum need and to convey the actual spectrum they be use to spectrum management system .,0
"by standardize spectrum consumption modeling , we create thecondition for there to be innovation in the adjacent layer , in this case dynamic and policy - base spectrum management , and rf system and device that can access spectrum dynamically .",2
the timely application of the product of this standard will be in dynamic spectrum management .,2
scms can convey both the require protection to incumbent user and the spectrum requirement of new user .,1
scm provide a means for specify spectrum consumption without require the revelation of system detail .,1
combine these model with a common tractable mean for compute compatibility,0
allow multiple spectrum manager to collaborate in manage coexistence by simply share model .,0
the scm allow different community to collaborate in the use of spectrum but hold close operational and technical detail of their system .,0
it be well suited for the spectrum sharing use database as propose by thepresidential committee of advisors on science and technology,1
pcast in their 2012 report on spectrum sharing between federal and commercial spectrum user .,0
the scm provide a means to define quanta of spectrum that can be trade and so commoditize spectrum .,0
"spectrum market of the future can use scm to request spectrum , to identify available spectrum and to negotiate spectrum sharing .",1
"in a negotiation , party would iteratively exchange model until they arrive at a set that be compatible .",1
these market can be build upon and use the method of database manage spectrum sharing .,0
the spectrum consumption modeling method only capture the boundary of spectrum use .,0
they can combine with other schemata to support a variety of business process and architecture .,2
"these architecture can run the gamut of spectrum management vision from thecreation of well standalone spectrum management tool , collaborative management environment within enterprise , database manage share among enterprise , spectrum market , negotiation of spectrum sharing , and delivery of policy to rf system for autonomous selection of spectrum .",2
scm can change the nature of spectrum management tool .,0
figure 2 provide a simple diagram of the change .,0
currently spectrum management tool collect datum about system and have algorithm that assist in make assignment decision .,0
the tool be complement with custom algorithm design to support solve specific reoccurre spectrum management problem .,1
"spectrum management , however , be tool centric and require manager judgment .",0
to consider new system require the collection of detailed datum about those system and the spectrum manager use the tool need to learn how to treat the system in analysis .,0
the advancement provide by use scm,0
be first see in a change of process .,0
the first step in analysis be the creation of the model for each particular system use of spectrum .,0
"next , be the use of standardized algorithm , also refer to as tool in the diagram , which operate on collection of scm to accomplish spectrum management task .",1
"within tool , the intermediate creation of scm preserve the judgment of the manager on the use of the spectrum and it support analysis with any other model system .",1
"use scm as the basis of spectrum management decision , change the architecture that be use for distribute spectrum management .",0
figure 3 illustrate the difference .,0
"with data centric system , centralized tool be access for perform spectrum management task .",0
thisapproach require the tool to be a repository of detailed datum of all the system be manage and spectrum assignment .,0
it require the tool and the manager to be aware of system nuance relevant to their coexistence with other system .,0
"however , this architecture make spectrum management hard because of resistance to reveal detail about all system and their use and the complexity of perform spectrum management base on first principle .",-2
it be unrealistic to expect manager to understand all the nuance that be relevant in do coexistence analysis .,-1
it be unrealistic to automate the analysis for all system interaction in these tool .,-1
"we see in the alternative enable by scm , system detail do not need to be place in a central repository but can be hold close within each spectrum management enterprise .",0
distribute spectrum management be accomplish by share scm .,1
each enterprise can specialize in know the detail of their system and the method for build scm of their use of spectrum .,0
the method for arbitrate compatibility be all standardize and base on the scm,0
and so it be not necessary for the spectrum manager of the enterprise to either know the performance and operate detail of the other system or the specific nuance of their ability to coexist .,0
this advancement in distribute spectrum management can also change the nature of spectrum management .,0
"with centralized system , spectrum management by nature seekspersistent solution , solution that last until a new problem demand new analysis that dictate something else be do .",-1
"the use of scm encourage the revelation of operational use of spectrum into the future , which include spatial and temporal change in use .",2
"resolution in these dimension , in turn , encourage less greedy spectrum assignment .",0
the use of scm to define spectrum use and the full automation of arbitrate compatibility among scm remove much of the burden of dynamic management .,0
scm that reveal the change use of spectrum into the future would allow algorithm that operate on collection of model to reveal opportunity to reuse spectrum .,0
these characteristic advance database spectrum management in several way .,0
figure 4illustrates the difference .,0
"in exist spectrum management system , the role of the database be to arbitrate entry of new user base on their compatibility with incumbent .",0
rf device be certify to operate in a way that database understand and regulation define the approach to compute which channel be available to those device base on device location and establish contour of incumbent use .,1
the database do not manage secondary coexistence .,0
use scm can change this management in two way .,0
"first , assume device provide or the database can build an scm of their spectrum use , compatibility can be compute and",0
so coexistence can be manage .,0
"second , since compatibility be base on use scm , regulator no longer need to define the contour .",0
incumbent user can convey directly to database their spectrum use with scm and these would be sufficient to serve as contour for a database to determine if new use would be compatible .,2
this outcome also hold true in an environment with multiple database administrator .,0
so long as all database have a common set of scm of spectrum user they will arrive at the same conclusion on the admission of new user .,0
with the ability to add spectrum to the database and to manage coexistence come the ability to create spectrum market .,0
"figure 5 show that scm become the part of the communication between owner , exchange and user",0
"identify the quanta of spectrum owner make available , user request and exchange authorize for use .",1
"figure 6 provide the extension of this architecture show a thriving distributed market where multiple database administrator , a.k.a . broker , have customer that use their service to find spectrum and where spectrum owner can also work through broker to provide their spectrum to the market .",2
the broker use scm to communicate the availability of spectrum among themselves .,0
scm support the negotiation of spectrum use .,1
the idea be simple .,0
user propose their use of spectrum with an scm to a spectrum owner who may counter with an scm of his own anticipate use .,0
the negotiation be center on refine the scm until the pair of scm be compatible .,2
"these , when use with the optional probability data element that be part of modeling , allow spectrum user to negotiate service level agreement that account for any uncertainty the negotiate party have in project their future use of the spectrum .",0
scm may also be use as rule govern the behavior of radio and their access to spectrum .,0
scm can convey spectrum available for use .,1
so long as a radio use of spectrum be within the boundary of the scm,0
it may be use .,0
scm may also provide constraint .,0
so long as a radio use of spectrum be compatible with the constraining scm,1
it meet the constraint .,0
"a radio that have self - awareness in the sense of know where it be operate and how it would generate its own scm can use the standard algorithm for compute compatibility to compute whether spectrum be usable by assess whether its use , as define by an scm , be within an authorize scm and compatible with any constraining scm that it be give as rule .",2
the ultimate architecture link multiple enterprise and support market .,1
"each enterprise can have its own business process and at each interface between enterprise , market , user , and device there may be specify datum that be provide in addition to scm .",0
"however , throughout this super - architecture scm would provide the common definition of spectrum use and the common method for arbitrate compatibility .",1
effectsonlicensingandbandplana sas base on the use of scm can support any one of the anticipated band plan and licensing scheme propose in the fcc 13 - 144 .,1
"as already describe , the scm can capture the boundary of spectrum use and be use to prevent new user that would cause interference to system with localized critical access or which be use under a priority access license pal .",-2
"they can be use as a means to manage coexistence of any system , between broadband and radar system and even between the unlicensed system operate in the general authorized access gaa tier .",-1
the scm can do more .,0
we believe that scm could readily support the creation of market which in turn would find the good use of spectrum base on market demand .,3
"potential change in the proposal that would allow the creation of market would be to allow all eligible participant to build out infrastructure , not just those who win pal .",1
all those who build out infrastructure be likely to participate in the market and make it a success .,1
it should encourage incumbent to add spectrum to these market and to seek opportunity to share it by allow the market to provide them positive incentive to do so .,2
the ieee dyspan - sc plan to provide additional comment on the technical detail of the spectrum consumption modeling as part of its response to the commissions call for papers on the proposed spectrum access system for the 3.5 ghz band .,0
conclusionthis standard project of ieee dyspan - sc working group ieee p1900.5 be directly on point with the objective of the 3550 3650 nprm .,0
"the work promise to create the management capability necessary for a sas in this band and , as describe , this solution would be a catalyst for innovation in spectrum use and sharing .",4
"this standardization work provide the opportunity for industry , federal spectrum user , and government regulator to collaborate in its creation .",1
the working group plan to provide a more detailed description of spectrum consumption modeling in our response to call for paper on the propose sas .,0
