text,score
"introduction and executive summaryfederated wireless , llc formerly allied communications llc , a subsidiary of allied minds federal innovations , be headquarter in boston , massachusetts with office in reston , virginia .",0
federated wireless be found in 2012 by globally recognize wireless and radio communication leader to enable and commercialize technology to unlock the enormous potential of dynamically share spectrum resource .,0
"we applaud the commission for generate the revised framework , which make significant step in include the extensive comment from the wide range of stakeholder that have participate in the original comment solicitation and subsequent workshop .",2
"furthermore , we strongly support the commissions effort in supplement the record by solicit further focused comment on licensing and authorization concept discuss in the nprm .",1
federated wireless support,1
"the core concept of the propose revised framework , as describe in section",0
"however , we caution the commission regard the public interest .",1
"we believe that the public interest be well serve by rule that support the sixth concept of the revised framework , which be enable additional general authorized access gaa to unused priority access bandwidth , as identify and manage by a spectrum access system sas , to maximize dynamic use of the unutilized portion of the band and to ensure productive use of the spectrum .",4
we believe that it be necessary to align financial incentive with the core concept of the revised framework .,0
"adoption of a two - part tariff monetization scheme for utilization of share spectrum encourage efficient use of spectrum and discourage warehousing and anticompetitive behavior , protect the public interest .",2
"if the entirety of the payment for priority access be do on a yearly basis , then there be an incentive for the priority access licensee to hoard the spectrum because they have pay for it for the entire period .",-1
however establish a two - part tariff would mitigate hoarding .,0
"we propose a monetization scheme where the priority access licensee annually pay a lump sum for the right to bid for priority access , and then pay for actual usage as need .",1
"this will provide a financial incentive for priority access licensees to request only the spectrum that they actually need at any give time , such as during peak hour .",0
this can readily be accomplish by a three - step share spectrum access process .,2
this process allow for dynamic real time sas base management of the spectrum resource while minimize the signaling information that be send .,1
"utilize step of registration , priority application , and authorization , the sas be empower to effectively manage the share spectrum resource for the high spectrum efficiency while ensure that fluctuate market demand be reflect in the real time price of this scarce resource .",1
"to support the highly dynamic nature of these supplemental spectrum resource , we propose that entity use one or more spectrum access control systems to manage and control the use of shared spectrum resource by their network node , while enable a flat system architecture that promote the maximum efficiency and system flexibility .",3
we introduce a digital token system call scash which be use to manage the transaction and billing process between entities and the sas in real time .,0
spectrum sensing be an essential part of any dynamic share spectrum system .,1
we describe sense requirement for user equipment and network node that must be part of the commissions rule for any federal share spectrum band .,0
we describe how this sensing can be use to more effectively manage spectrum efficiency and to promote the use of increasingly innovative spectrum sharing technology .,2
incumbent tier system require a unique level of operational agility that will always challenge any system that rely entirely on database technology .,1
"we propose a sas manage alarm signal which can be effectively use to clear specific spectrum resource efficiently and in an obfuscate manner , thereby ensure that incumbent system do not suffer harm due to interference from priority access and gaa user .",-1
we discuss in detail the ability for the sas to identify and manage real time gaa infrastructure node and user equipment access to unused priority access bandwidth .,0
rule that support this ability,1
"be critical in order to maximize dynamic use of the unutilized and under - utilize portion of the band , and to ensure productive use of the spectrum while discourage warehousing .",0
"we believe that this can be readily accomplish by direct pal infrastructure node and gaa infrastructure node interaction with the sas , utilize spectrum sensing requirement combine with real time accounting stream from network infrastructure .",2
"with appropriate license rule and readily achievable device technical requirement as propose in the follow comments , the sas play a significant role in efficient spectrum use enforcement , thereby serve the public interest .",5
"lastly , we discuss obfuscation and security requirement for the sas , and way in which the comments herein serve to enhance the capability of the sas with respect to protect national security .",4
the second workshop plan for january 2014 to specifically address the technical aspect of the sas will enable the commission to leverage to the full extent possible the vast expertise and experience of the stakeholder community for spectrum resource .,1
"this collaborative and inclusive effort will ultimately ensure that the specific rule , when propose , succeed in enable highly efficient and diverse use of the 3.5 ghz band .",2
"this public notice and request for comment and the planned technical workshop take an important step in make the 3.5 ghz band concurrently available for federal , non - federal private , non - federal government , and broad commercial use .",2
we believe this rule make process also pave the way for federal user to become secondary user in many other band of spectrum that may be readily access by currently deploy federal device but that be exclude by rule from use because of the historical role of spectrum clearing and legal guarantee of freedom from interference in those band .,2
currently deploy technology such as tv whitespace and ieee 802.11h radar avoidance demonstrate that unused radio spectrum may be employ by a secondary user without cause harmful interference to primary user .,-2
thus the sas with appropriate rule for pal and gaa infrastructure nodes and user equipment will establish a next generation of spectrum sharing effectiveness .,2
"build on this proceeding , in the future , in part mitigate negative aspect of spectrum sharing , federal user may obtain great degree of freedom in spectrum sharing with commercial incumbent than rule currently allow .",1
"we therefore encourage the commission to consider the comments provide in this response as a contribution towards enable a truly dynamic , efficient , and economically viable spectrum share ecosystem that promote the public interest through leverage technology with new legally bind expectation , that be to redress spectrum hoarding where it may have become particularly onerous to the public interest .",4
"definition of termsthis section of our response introduce new term in order to clarify concept of the fcc request for comment on licensing models and technical requirements in the 3550 - 3650 mhz band , gn docket no . 12 - 354 .",0
incentivizing efficient spectrum use through two - part tariff pal monetizationfederal spectrum resource be monetize by payment for priority access to the 3.5 ghz band .,1
it be important that the monetization scheme provide strong incentive for productive and efficient spectrum use .,4
one of the revised framework core concept be granular but administratively - streamlined licensing of the priority access tier .,1
we request that the commission consider priority access payment base on a two - part tariff scheme .,0
a two - part tariff be an appropriate pricing system in competitive market when consumer be uncertain about their ultimate demand .,1
"the priority application fee form the lump sum payment of the two - part tariff , and be analogous to the upfront payment typically require in the fcc auction process with the submission of fcc form 175 .",0
"the priority application feemay vary from pal to pal , and also may vary depend on the class of the entity that be request priority for the pal .",0
"for example , the priority application fee for a give pal require for an entity that operate a point to point directional system may be different from the priority application fee",0
require for a small cell network to request priority for the same pal .,0
the priority application fee be a flat fee charge on a yearly basis once per priority application period .,0
the payment of this fee do not grant the entity usage right for the pal it give the entity the right to request priority access authorization for subset of the pal for a give access authorization period .,2
"as discuss in the public notice , we agree that micro - target licensing and annual pre - payment requirement for priority access use of shared federal spectrum would sufficiently incentivize construction of network facility .",1
however we feel that annual payment alone would not incentivize intensive spectrum use for a diverse range of use in the public interest while discourage warehousing .,-1
it be critical that the pal concept provide strong incentive for licensee to productively use their priority right .,2
the second part of the two - part tariff be the allocation transaction price which be part of the priority access authorization process .,0
"this establish a pay - per - use model , enable by a dynamic auction process which reflect the competitive market for the scarce spectrum resource at any give point of time .",1
"the granularity of the pay - per - use period the access authorizationperiod be significantly short than the priority application period , therefore the allocation transaction price be able to correctly reflect change and fluctuation in market demand .",1
we believe that establish a two - part tariff monetization system will provide a strong incentive against spectrum warehousing and anticompetitive behavior while simultaneously encouraging intensive spectrum use .,2
three - step access approach for federal shared spectrumthe revised framework define a set of priority access licenses pal by which to manage and control spectrum use in the priority access tier .,0
"one of the core concept of the revised framework be mutually exclusive spectrum right for priority access , subject to licensing by auction .",1
"the commission be seek comment on the priority access tier , include open eligibility for pals , the specific construct of pal , and the assignment , authorization and administrability of pal .",0
"additionally , the revised framework seek to balance the benefit of exclusive licensing and open eligibility with the need to preserve gaa spectrum access and promote productive small cell use of the band .",2
"we believe that a three - step access approachmanage by the sas enable the wide variety of market - derive licensing model with the least onerous technical requirement , while simultaneously guarantee the good protection of federal spectrum use capability and operation .",4
"the propose three - step access approach , consist of registration , priority application , and authorization step , offer an innovative and effective way to maximize efficient spectrum usage and to concurrently protect the public interest , thereby realize the full potential of government - hold spectrum to spur economic growth .",4
it additionally serve as a model for future coexistence scenario in other encumber spectrum band .,0
splitting up the access process into three step serve to ensure that the frequency that information be send from network to the sas be directly correlate to the frequency at which this information be likely to change .,-1
"minimize message size decrease the signaling load , and serve to reduce the latency of the access process , increase the efficiency of the overall system.1 .",-1
step 1 registration and the ntia priority access database padthe protection of federal spectrum use capability and operation be well serve by rule in which a secure priority access database pad contain registration record that can be use to align license to entities .,4
the pad also contain information about all equipment that willoperate in a federal spectrum band .,0
"the pad interact with the sas , which be responsible for manage access to federal share spectrum through all three step of the access process .",0
the commission seek comment on the amount and type of information that would need to be collect from potential priority access licensee .,0
"the communications act establish certain category of eligibility for license application , while give the commission broad discretion to determine specific eligibility criterion .",0
an entity that wish to obtain priority access through priority application and authorization must first register with the priority access database pad .,0
the pad registration contain all the information that would be necessary for the fcc to ensure that the entity meet the legal constraint necessary for authorization to use federal shared spectrum at a priority access level .,0
"in the auction context , the commission typically require applicant for spectrum license to submit short and long form application detail their qualification and any supplemental information the commission deem necessary .",0
"the communications act also limit foreign ownership of fcc license and comprehensive ownership information be require for all licenseapplication , whether or not they be subject to competitive bidding .",1
certain additional qualification be prescribe by statute .,0
"at the time of registration , an entity record be create in the pad and a unique id be assign to the entity .",0
"in order to permit the sas to make real time dynamic authorization of spectrum within pals , it be necessary that the record in the pad for each entity contain , for example , all the information that be currently find in fcc forms 160 , 175 , 601 , and 602 .",1
a single network operator may have multiple entity record each with unique id for different operation within their business .,0
"without an entity record in the pad , the entity be not able to request priority use of any federal share spectrum .",0
"for the gaa tier , a license - by - rule approach be propose in the nprm , whereby gaa user would be license under part 95 .",0
separate license would not be require for individual gaa infrastructure node .,0
"however in order to protect national security , the pad still need information about the gaa infrastructure nodes that intend to use federal share spectrum , as set forth in the revised framework .",1
therefore a gaa infrastructure node record will be create in the pad for each gaa infrastructure node which intend to utilize federal sharedspectrum .,0
this record will be reference by the sas in subsequent authorization request from the gaa infrastructure node.2 .,0
"step 2 priority applicationthe commission seek comment on approach to spectrum assignment and auction that could be use to productively manage use of the priority access tier , while allow sas authorize opportunistic use of the gaa tier as describe in the nprm .",0
priority application be the process by which an entity which have register with the pad make an application to the sas in order to obtain priority right for a specific pal .,1
a pal infrastructure node can not make priority access authorization request to the sas for spectrum resource associate with that pal unless the sas have approve priority right to the pal infrastructure node entity for that pal via the priority application process .,2
each entity determine which pal in which geographic area it be interested in have priority use of for the upcoming application period .,0
"for example , an entity may not be interested in a pal in a census tract in nebraska , but that entity do want the option to use 30 mhz of spectrum in adjacent census tract area that cover all of boston , and therefore will make a priority application for those specific pal to the sas .",0
"a priority application to the sas must be accompany by the priority application fee , which will be hold in trust by the sas duringthe application review process .",1
"when the sas receive a priority application request from a specific entity , the sas will check the entity record in the pad , which contain all of the necessary information about the type of system that the entity have include , but not limit to , rf property like tx power , rssi measurement capability , acpr , antenna height , frequency reuse pattern , and so on .",1
"if no entity record exist in the pad , the priority application will be reject by the sas.under the revised framework , the time frame for priority access licenses be propose to be one year , and the geographic granularity be propose to be at the census tract level .",-1
"we believe that this represent significant progress from the current spectrum lease format and duration , and support the commission in the proposal of this granularity .",3
therefore we suggest that the priority application period be nominally set to one year to align with the revised framework .,0
"the information send with the priority application request be design to supplement information that be already in the pad record for the entity to include , but not limit to , information about the type of operation of the entity .",-1
this choice of information send at the priority application step,0
be predicate on the assumption that the type of operation associate with the entity be likely to be stable through the one year priority application period .,1
"as this information will be store by the sas , it would not need to be send with each individual priority access authorization bid , which serve to significantly reduce the size of those message .",0
"priority applications be make by entity prior to the start of the next priority application period , during an application window .",0
"at the close of the application window , the sas consider all of the received priority applications and determine which priority applications to approve for the next priority application period .",1
"when a priority application be approve , the priority application fee hold in trust be transfer to the sas .",2
the approve priority application be valid for the upcoming priority application period .,1
"note that an approve priority application do not grant the entity permission to use the pal however , it do grant the entity the priority to bid to use spectrum resource within that pal on a pay - per - use basis , provide that the sas indicate that the spectrum be available for use at that specific time .",2
"the sas may approve a priority application for more than one entity for a give pal , even if the entities be of the same entity class .",1
mutual exclusivity be resolve during the priority access authorization process via competitive bidding to be enable by dynamic and flexible auction mechanism .,3
we encourage the commission to consider antitrust rule to prevent collaboration between entity with the intention of prevent fair competitive bidding .,3
"the sas may allow entities to make a priority application for multiple consecutive priority application periods for a give pal , in order to secure multiyear right to request priority access authorizations for that pal while retain flexibility through the short term priority access authorization process .",3
we support the commission recommendation that payment for each consecutive year priority application fee for a give pal could be due annuallydure the application window prior to the start of the next priority application period .,2
"if an entity fail to make a consecutive year payment for a multiyear pal priority application , then the entity would lose their multiyear priority right , and would be require to make a new priority application request during the application window precede the next priority application period that they be interested in this pal",-1
step 3 access authorizationthere be two different type of access authorization .,0
priority access authorization be for entity that have approve priority applications and that seek to utilize the priority access tier .,1
general access authorization or simply access authorization be for infrastructure node that seek to utilize spectrum as part of the gaa tier .,0
the public notice seek comment on ensure productive spectrum use .,1
"specifically , the commission request comment on whether the pal - base allocation model outline in the revised framework could , by assign priority spectrum right in a targeted and dynamic fashion , help to ensure that priority access right be allocate to the party that would make the most productive use of quality - assure spectrum within a give geographic area .",5
we believe that priority access authorization for share spectrum use need to be consider at a muchfiner granularity than pal unit in order to enable the most productive and intense use of the 3.5 ghz band .,0
"as put forth in the revised framework and as describe in these comment , the granularity of the spectrum that an entity be approve to make a priority application request for be in pal unit , define as 10 mhz spectrum block for a geographic census tract for the period of one year align with the priority application period .",1
"a first consideration be to make the access authorization period in the order of six minute , rather than align this period with the priority application period .",0
"timer in six minute increment be common in gsm network , use for example for periodic network selection attempt .",0
combine this shorten authorization period with a pay - per - use model will provide a significant incentive to minimize spectrum warehousing and prevent anticompetitive behavior .,1
"the access authorization period may vary depend on the class of the entity as list in the registration record in the pad.further , we suggest the commission consider that there be potentially negative efficiency consequence that arise from make the bandwidth granularity utilize for access authorizations equal to the pal granularity as define in the revised framework .",-1
an infrastructure node will not necessarily want or need 10 mhz of bandwidth .,0
"similarly , an infrastructure node would not likely need the spectrum for the entire census tract .",0
consider for example a small cell in a personal residence .,0
"this small cell may need additional spectrumwithin the confine of the residence at that address , which be considerably small than a census tract .",0
"it may need only the small usable lte bandwidth of 1.4 mhz , not 10 mhz , and it may only need this bandwidth for the duration of a large gathering to be hold on the premise , which be plan for a period of several hour over the course of an evening .",1
infrastructure node have the good knowledge at any give time as to what additional capacity they require in order to serve the ue that be attach to them .,1
"if the access authorization granularity be fix at the priority application granularity which we recommend to coincide with the pal as define in the revised framework , then there be a potential for significantly less efficient spectrum use than be possible .",2
"for optimal spectrum efficiency , the sas should be able to allocate a subset of a pal in bandwidth , geography , and time to pal infrastructure node or gaa infrastructure node for the access authorization period .",1
the sas know many thing about the infrastructure node base on in the information that be store in the pad record for this node .,0
"it have knowledge of the location of the infrastructure node when fix , or it may track the location of the infrastructure node if it be mobile .",0
the sas have knowledge of the radio frequency characteristic and transmission parameter and therefore understand the coverage footprint for this node .,0
"the infrastructure node know what additional capacity it need to serve its ue , and embody this information in the access authorization request .",0
"combine this knowledge with the knowledge of the other access authorization request for subset of the same pal , the sas be able to manage access authorizations to maximize frequency reuse , result in the great possible spectrum efficiency .",1
the entire 10 mhz pal should not need to be completely idle for any portion of it to be make available to another user .,0
"one option for address the pal granularity issue be have the entity itself request pal access authorization , and then the entity be subsequently responsible for allocate subset of the pal to its pal infrastructure node .",-1
"the entity pay for the entire pal for the access authorization period , and it should only request the pal it need for all of its pal infrastructure node .",0
however this be still prone to waste .,-1
"say for instance the entity really only need 5mhz of additional spectrum for its network during the day , and only need 1.4mhz of additional spectrum for its network overnight .",0
"there be no way for the entity to request and pay for priority access authorization for part of a pal , so the entity need to request an entire pal because of the authorization granularity limit in frequency .",-1
"the entity pay for the entire pal , but only truly need a fraction of it .",0
"the entity be therefore not incente to use the spectrum resource efficiently , which therefore do not achieve productive use of the spectrum , which be one of the core concept of the revised framework .",2
"additionally , it be not easily possible to make a portion of the pal available to the gaa tier .",1
"because the entity pay for the entire pal , there be no reason to be spectrally efficient in its use , and therefore gap that may be usable by another node be unlikely to exist .",1
we advise the commission to seek a different option to address the pal granularity issue .,-1
another possible outcome be that the entity that have purchase the entire 10 mhz pal for the access authorization period could sell small portion of it on a secondary market .,0
"the problem with this approach be that this spectrum may move between priority access user but itwont end up go to the gaa tier , because gaa user be not go to pay the entity for it .",-1
"since the entity have already pay for it , if they can not sell it on the secondary market",0
then they may as well keep it and use it inefficiently rather than have it use by the gaa tier .,1
"as in the previously present option , this arguably do not serve the public interest .",0
it be relatively straightforward to implement a small granularity of access authorization in time and geography .,1
the sas be able to manage this fine granularity .,1
"a significantly fine frequency granularity in particular for infrastructure nodes use lte may take long to achieve commercially , however there be bandwidth option small than the 10 mhz pal bandwidth , which should be readily supportable in the first version of the system .",2
"lte release-8 support six different bandwidth option 1.4 mhz , 3 mhz , 5 mhz , 10 mhz , 15 mhz , and 20 mhz .",1
"an lte ue read the complete system information from the physical broadcast channel pbch , which contain information about the bandwidth of the lte signal .",0
the pbch contiguously occupy the 1.08 mhz wide central portion of the transmission bandwidth .,0
"the occupied bandwidth for each of the aforementioned bandwidth option be therefore 1.08 mhz , 2.7 mhz , 4.5 mhz , 9 mhz , 13.5 mhz , and 18 mhz .",0
many standardize lte band only allow a subset of these six possible bandwidth option with the most common be 5 mhz and 10 mhz and,0
the least common be 1.4 mhz and 3 mhz .,0
the 3.5 ghz band be cover by lte tdd bands 42 and 43 .,0
"only 5 mhz and 10 mhz also 15 mhz and 20mhz , but these be big than the propose pal bandwidth size channel bandwidth be currently support for these band in the specification .",1
however tdd band 35 1850 - 1910 mhz and tdd band,0
"36 1930 - 1990 mhz support the 1.4 mhz and 3.0 mhz bandwidth option , so it should not be too onerous to support these small bandwidth granularity in the 3.5 ghz band .",1
the lte release-8 physical layer specification actually support 105 different bandwidth option 180 khz granularity between 1.08mhz and 19.8mhz occupy bandwidth .,1
however release-8 performance requirement be only define for the six bandwidth option previously describe and today only those six case be commercially viable .,0
"it would require significant minimum performance specification expansion effort to add new lte channel bandwidth option , and additionally , device implementation impact have not yet be fully evaluate .",1
"because of this , in the near term , all infrastructure node access authorization request should use one of the currently standardize lte bandwidth option .",0
"we propose that the fine possible granularity in bandwidth , geography , and time should be the ultimate goal of the commissions rulemaking .",1
"it may take time for exist system to evolve to be able to support 180 khz granularity for lte radio access system , but it be essential that the sas architecture , the license model and technical requirement and the commissions relatedrulemake for the 3.5 ghz band , do not preclude evolve to finer bandwidth granularity and therefore great spectrum efficiency.a .",3
"priority access authorizationpriority access authorization be the process by which a pal infrastructure node request , bid for , and may be give permission by the sas to use some portion of spectrum from a priority approved pal for the current access authorization period .",0
"the architectural assumption be that , in the first version of sas manage share spectrum , individual ue in a give entity network be not allow to communicate directly with the sas .",0
"instead , their request be manage by pal infrastructure node .",0
"furthermore , the pal - ue usage requirement be aggregate by the pal infrastructure node in order to determine the supplemental bandwidth requirement to request priority access authorization for at any give time .",0
entity have to pay for priority access to share spectrum .,0
they in turn bill individual user of their network base on various service level agreement and user plan .,0
"if an individual pal - ue be allow to request pal spectrum directly from the sas , then the current billing and customer management system will not readily scale to support this .",2
"entity management system - sacsas discuss the public notice , give the large number of license area and relatively short license term envision in the revised framework , combine with the increasingly fine granularity propose for access authorization in these comment , we agree with the commission that there be an opportunity for third - party to add value to the auction process by develop tool to help bidder manage their share spectrum inventory and to structure bid in dynamic auction .",2
entity have multiple choice for where to utilize authorized priority access share spectrum in their network .,0
we propose that each entity have a spectrum access control system sacs .,0
the sacs determine the amount of money that the entity wish to spend on priority access share spectrum resource .,0
the sas interact directly with pal infrastructure node in the priority access authorization process however the sas bill the entity for the spectrum use of its pal infrastructure node .,0
we propose that the entity sacs utilize a digital token system call scash to manage share spectrum resource in their networks.scash be a digital token that represent an actual amount of legal currency .,0
"the pal infrastructure node bid for priority access share spectrum resource use scash , and the sas , via scash digital token accumulation , provide a complete audit trail of priority access share spectrum cost for the entity .",0
the sacs thereby effectively control and manage the entity pal infrastructure node capacity request through the distribution of scash .,1
this leverage the exist network operator billing management system .,1
"the entity sacs would determine , for example , how much additional spectrum it wish to make available to its pal infrastructure node , and will use this information to determine which pal to submit a priority application for .",1
"the sacs will then determine how much scash to provide to each pal infrastructure node per month , integrating , for example , the knowledge of which pal infrastructure node could bid for priority access authorization for spectrum belong to the same pal resource because they can use the same resource simultaneously without interfere with each other due to spatial or temporal separation .",-1
"the sacs also utilize business logic which take into account , for example , different customer service level agreement and other factor in determine how to distribute scash to its pal infrastructure node .",0
the aggregate need of all of the pal infrastructure node and therefore of the pal - ue themselves may be parse by the entity sacs .,0
this allow the entity to determine the boundary on the total spend with the fcc .,0
"additionally , the sacs can use accumulate learn from past priority access authorization request from its pal infrastructure node in analyze and prioritize these request in order to make well future decision about how to distribute its scash through its network .",1
"the scash distribution from the sacs serve to empower the pal infrastructure node to make priority access authorization request directly to the sas accord to their scash balance , their ue population need , and other rule that may be define by the entity sacs .",1
the monetary liability of the entity to the sas for share spectrum resources be control by how much scash the sacs distribute to its network node .,-1
"if a network operator be an integrated carrier with multiple operation of different class forexample a carrier with a mobile network , as well as a wireless backhaul network , they may have more than one entity record in the pad , and they may choose to operate one sacs per entity i.e. one for the mobile network and one for the backhaul operation in order to manage separate business division more effectively .",3
"the pal infrastructure node make a priority access authorization request to the sas and include specified parameter , for example frequency range , minimum necessary bandwidth , radio access technology , maximum output power , eirp with rbw , antenna radiation pattern , spectrum mask with low and high possible frequency , etc .",0
"in the priority access authorization request , the pal infrastructure node do not include information that be already know by the sas , such as information that be part of the pad record for the entity or for the pal infrastructure node itself , or information that be send as part of the priority application process by the entity for the pal that include the spectrum resource that the pal infrastructure node be request priority access authorization for .",0
"in addition , the pal infrastructure node make an initial scash bid for the request bandwidth .",0
"this process empower individual pal infrastructure node to request additional spectrum when and they need it , but within boundary that the entity sacs can control base on the pal infrastructure node scash balance .",1
"when the sas receive a priority access authorization request from a pal infrastructure node authorize by a network operator through the distribution of scash , the sas have all the information necessary to decide whether or not to grant that request give the need of federal spectrum usage .",0
"the sas may decline the priority access authorization for a give portion of a pal in order to obfuscate sensitive federal operation , for example .",0
there be two different approach for priority access authorizations .,0
one approach allow continuation and one approach only allow authorization for a single access authorization period .,0
"single priority access authorizationsif only single priority access authorizations be permit , then the pal infrastructure node must request priority access authorization in each access authorization period , regardless of whether or not the pal infrastructure node have successfully bid for priority access authorization in the previous access authorization period .",1
"in each access authorization period , the sas consider all priority access authorization requests that it have receive for the particular spectrum resource , and where necessary , conduct a dynamic auction where pal infrastructure node can increase their scash bid by the minimum bid increment in order to successfully win the right to use the spectrum resource .",4
various kind of traditional or innovative methodology can be use to manage the dynamic auction process .,2
the sas will indicate the parameter of the priority access authorization to the successful pal infrastructure node for access authorization period,1
"n.continuations of priority access authorizationsif continuations of priority access authorizations be allow , then a pal infrastructure node that be grant priority access to a spectrum resource in authorization period n at the allocation transaction price , measure in scash may request a continuation of authorization for access authorization period n1 at the start of the next access authorization period .",0
"if the spectrum resource be still available for priority access during access authorization period n1 , then the sas may grant the pal infrastructure node permission to continue use the same spectrum resource for access authorization period n1 for the previous allocation transaction price .",1
"if continuation be permit , a pal infrastructure node may have increase certainty of be able to have use of a specific spectrum resource for a long period of time at a know price , provide that the resource continue to be available for priority access use as previously describe .",1
"for example , the sas may grant the pal infrastructure node permission to continue use the same spectrum resource for multiple future access authorization periods , base on a duration request from the pal infrastructure node .",0
"reserve priority access authorization bidthe sas may establish a minimum reserve bid value for a give time , geography , and frequency granularity for each pal .",0
"the minimum reserve bid may vary depend on several different factor , for example the time of day , the day of the week , specific calendar day e.g. thanksgiving , veterans day , the month or the year , specific geography , spectrum resource geographic footprint size , bandwidth , etc .",0
"if during the priority access authorization process , no pal infrastructure node submit a bid for a share spectrum resource that be above the sas reserve bid value for that specific spectrum resource , then the sas will authorize the use of that specific spectrum resource to the gaa tier for the duration of the current access authorization period.b .",0
"gaa access authorizationthe revised framework propose a define floor of gaa spectrum availability , to ensure that gaa access be available nationwide subject to incumbent access tier use .",1
we identify this spectrum as the gaa spectrum pool .,0
"for the spectrum within the gaa spectrum pool , gaa infrastructure node make access allocation request directly to the sas for a spectrum resource for the next access authorization period .",0
the sas will make a determination of whether or not to grant the gaa infrastructure node permission to access the requested spectrum resource .,0
"this determination may be base on incumbent access tier use , obfuscation and security need , and other gaa infrastructure node request .",0
"the gaa infrastructure node may need to make a new request for the sas for each subsequent access authorization period , or alternatively the gaa infrastructure node may have permission to keep use the previously grant spectrum resource until the sas indicate that the gaa infrastructure node need to vacate the band and silence its transmitter and its gaa - ues .",0
a gaa - ue may not emit rf energy without first receive permission from a gaa infrastructure node .,0
"additional gaa access to unused priority access bandwidth , as identify and manage by the sas , be also one of the core concept of the revised framework , and will serve to maximize dynamic use of the unutilized portion of the band , thereby ensure productive use of thespectrum .",2
"if the sas identify to the gaa tier that there be unused priority access bandwidth , the gaa infrastructure node may request permission to use this spectrum resource use the same gaa access authorization process .",0
"spectrum sensing requirementsall pal infrastructure node , gaa infrastructure nodes , pal - ue , and gaa - ues will be capable of sense power in the federal share spectrum band .",1
the rule for the 3.5 ghz band to be establish by the commission need to make such equipment level measurements elm a requirement for every ue or node that intend to operate use share federal spectrum .,0
pal - ue and gaa - ues can measure channel state information csi utilize,0
well establish technique for csi measurement that be already available in lte and wifi product .,2
the pal - ue and the gaa - ue report these measurement back to the infrastructure nodes to which they be attach .,0
"the infrastructure nodes will aggregate the ue measurement with their own spectrum sensing measurement and report this back to the sas at regular interval , as well as when request by the sas to do so , or combine with any other message or request that be send to the sas.the elm requirement for all node",1
"and ue should be no more than require for the equipment to operate efficiently in its own channel with respect to its own spectrum usage , assuringaffordable introduction and rapid market uptake .",3
even such minimalistic spectrum measurement enable the collection of significant information on actual channel occupancy that allow the sas to compute valuable analytic .,2
"the aggregate information could be combine with accounting information and use , for example , for tune the access authorization period duration , for determine the appropriate reserve bid amount , and for monitoring for anticompetitive behavior that be detrimental to the public interest .",0
"aggregated statistic of spectrum utilization be essential to determine the success of the revised framework , and to measure improvement as enhanced technology feature of the sas be adopt .",3
"it be important for the sas to be able to calculate and report aggregate spectrum efficiency perhaps on a pal by pal basis , or for some other granularity for the purpose of understand how this federal resource be be use , and such that the sas may attribute the efficiency of pal spectrum use to the licensee , for fcc , ntia , and public scrutiny .",1
"alarm signalsthe priority application and access authorization process previously describe should encourage optimally efficient spectral use during normal plan function , bound by the implemented system granularity .",1
"there will be time , however , when the sas be not aware of the plan usage by incumbent tier system .",0
"this can be due to basic need for operational agility for federal system , but also it will likely take time for the federal spectrum database e.g. gemsis to have the temporalcapabilitie and real time flexibility need to keep the sas fully update of all plan incumbent tier spectrum use .",2
"in the fullness of time , a majority of federal use of the band may be accurately and dynamically reflect in the gemsis database however in the short run , base on a need for operational agility of federal system , there be a high probability of unplanned incumbent tier use of the band .",2
the sas therefore need a way of clear spectrum resource near instantaneously when an incumbent tier system be detect .,1
spectrum clearing via alarm signal generation also support the operational obfuscation of federal usage of the band .,0
"equipment level measurements elm , make by all equipment use the federal share spectrum , be send to the sas by all infrastructure node .",0
the sas may process the received elm in order to determine if there be an unplanned incumbent tier system operate in one or more frequency channel in specific location at a specific time .,0
"the sas determine through aggregation and analysis of the elm which portion of which pal have the potential of negatively impact the incumbent tier system , and therefore the sas can identify which infrastructure node both pal and gaa , along with their respective ue , that it need to silence in order to prevent interference to the incumbent tier system .",-1
we propose that this sas control target band clearing will be accomplish by way of a standardized alarm signal .,0
all equipment both infrastructure nodes and ue that operate in federal share spectrum need to be capable of recognize this alarm signal and must be program to disable all transmission in signal channel upon detection of the alarm signal .,-2
all equipment that operate in federal share spectrum need to be capable of transmit the alarm signal upon request of the sas if the equipment be an infrastructurenode or upon the request of their associate infrastructure,0
node if the equipment be a ue .,0
"the sas give the alarm signal proxy to communication equipment , require it to transmit the alarm signal , thereby allow the sas to be able to rapidly disable all transmission in signal channel in very specific geographic area .",-3
the transmission of the alarm signal must not cause interference with the incumbent tier system .,-2
"to prevent such interference , the alarm signal may be transmit over resource that be not part of the shared federal spectrum .",-2
the sas may send the alarm signal to the infrastructure nodes via a secure ip connection .,0
"once define , infrastructure node may retain a reference model of the alarm signal in space , term the waveform so that thereafter the sas may indicate alarm in a message without transfer of the alarm signal per se .",-3
"in general , however , the alarm signal may be transmit in exist support licensed band with respect to pal infrastructure node and pal - ue or in exist unlicensed support band with respect to gaa infrastructure nodes or gaa - ues .",2
the alarm signal could contain specific location information e.g. gps coordinate in which operating equipment must be quiet .,0
"alternatively , the specific geographic region in which the federal spectrum must be clear of transmission may be implicitly describe by the equipment that be instruct by the sas to proxy the alarm signal , combine with the power at which they be instruct to transmit it .",0
"in other word , if the equipment can hear the alarm signal , then it must silence its transmitter in the signal channel .",-1
"if it can not hear the alarm signal , then it do not have to change its operation .",-1
the duration of the suspension of transmission may be control in a number of way .,0
the nodes and ue that detect an alarm signal can be require to remain silent in the signaledchannel as long as the alarm signal be still be transmit .,-1
"once the alarm signal have 35stoppe , infrastructure node may need to wait until they have alert sas that they have respond to an alarm signal , have request permission to restart , and have receive instruction from the sas that they have permission to restart use the alarm signal channel that they previously have authorize access for .",-3
"alternatively , the infrastructure nodes may need to wait at least until the start of the first access authorization period after the alarm signal stop , at which time they may request access authorization for the signaled channel for the next authorization period .",-1
"the infrastructure nodes may request access authorization for a different channel which be not be advertise in the alarm signal , even while the alarm signal itself or the alarm condition induce by such a signal persist .",-3
"pal - ue and gaa - ue will follow the exist paradigm , which be that they must listen before transmit accord to the radio access standard that they be utilize .",0
"gaa access to unused priority access bandwidthunder the revised framework ,",0
"when priority access right have not be issue e.g. due to lack of demand or the spectrum be not actually in use by a priority access licensee , the sas would automatically make that spectrum available for gaa use locally .",0
this approach would ensure that the great possible portion of the 3.5 ghz band would be intensively use .,1
"the commission seek comment on implementation detail , include , for example ,",0
how the use - it - or - share - it concept describe above could be implement .,0
we support the commission inseeking rule to protect the public interest of balance gaa and priority access use in the 3.5 ghz band through ensure that spectrum be intensively use when be where there be demand .,2
successful priority access authorization for a spectrum resource within a priority pal give the successful pal infrastructure node the right to use the spectrum resource with priority over any other user .,3
"there be a risk that an entity with significant market power may bid for , pay for , and be grant priority access right for significant tract of priority access license unit in order to prevent other entities from have access to them .",2
"to mitigate this risk , a pal infrastructure node that have obtain priority access right to use a give spectrum resource have an obligation to actually use this spectrum resource if the bandwidth be unused then this spectrum resource should be provide to the gaa tier , as describe in the revised framework core concept .",0
"this requirement serve the public interest by prevent entity who have significant market power from exclude other small entity , which would compromise the principle of open eligibility for priority access tier use .",1
"if the pal infrastructure node that have be grant priority access to a spectrum resource do not occupy the spectrum resource within a reasonable amount of time after the start of the access authorization period , then the sas may make this spectrum resource available to another user .",2
this other user could be part of a different priority access entity perhaps another palinfrastructure node that bid for the spectrum resource but be not successful or it could be a gaa infrastructure node .,1
"the likelihood that the 3.5 ghz band will include significant small cell deployment make the task of verification of usage of pal infrastructure device configure as small cell potentially onerous , particularly if the sas must interact via incumbent operations and support systems oss with the associate panoply of legal constraint regard , among other thing , requirement for permission from end spectrum user to disclose their physical location .",2
a universal spectrum sensing requirement for all infrastructure nodes and ue that plan to operate in federal share spectrum can be utilize in order to determine whether a priority access spectrum resource be actually be use by the pal infrastructure node that achieve priority access authorization .,0
"if , for example , after one minute into the access authorization period , the sas determine through aggregate elm information that priority access spectrum resource be not be use and verifie this information through real time account streaming datum , the sas may announce this spectrum to other infrastructure nodes on a gaa basis whether it be a pal infrastructure node or a gaa infrastructure node , thereby provide authorization access to that infrastructure",0
node when the spectrum be not be use by the priority access,0
authorize node .,0
"physical tap measurement and aggregation on individual infrastructure node to measure spectrum utilization will not likely scale up to the anticipated quantity and density of pal infrastructure node due to the expectation of significant small cell use in the 3.5 ghz band , and this therefore become impractical in the envisioned ecosystem .",0
"however , the commissioncan make rule that require pal infrastructure node and gaa infrastructure nodes to have 38application programming interfaces api on each small cell or access point that can be provide to the sas in order to determine in real time what bandwidth in what specific location may be available for use by the gaa tier .",1
"precise real time account streaming datum can be require from infrastructure nodes , and can be collect and aggregate by the sas .",1
"base on this information , the sas could determine what license priority access spectrum be not be currently use , and could announce this available spectrum resource to the gaa tier such that gaa infrastructure nodes could make an access authorization request to use it .",1
a hybrid approach which combine spectrum sense with real time account streaming datum be also possible .,0
"security obfuscation , anonymization , and thesecure sasthe commission must take step to ensure that incumbent tier user information be protect through obfuscation and anonymize technique .",1
"additionally , the rules propose by the commission must ensure that any spectrum sense or accounting information be sufficiently aggregate and anonymize such that it can not be use to identify incumbent tier user , compromise federal operation or national security .",1
there be a concern about the sas susceptibility to probe attack .,-2
"in our comment , we propose that the registration record of each entity , infrastructure node and user equipment in the pad provide the sas a direct way to check that the credential of a pal infrastructure node make a priority access authorization request match the corresponding credential in the pad .",0
"in addition , as detailedin our comment , our recommendation be that the fcc require request for spectrum usage of a portion of a give pal to be provide directly to the sas from the pal or gaa infrastructure node seek that usage .",1
"in alternative license model not have the technical requirement that pal and gaa infrastructure node use scash to request spectrum directly from the sas , an entity know to the sas may probe the sas for the availability of spectrum , result in operationally unacceptable aggregation of information .",-1
"in the access method propose in these comment , in order for a malicious agent to effectively mount a probe attack against a specific federal user , the entity would have to acquire pal or gaa infrastructure nodes , register them with the pad , and cause them to interact directly with the sas with monetary consequence .",-1
"although false information may be provide via a less secure pad , we envision a high level of due diligence regard pad credentiale for entity , and pal and gaa infrastructure nodes .",2
"specifically , industry good practice would include the use of public key infrastructure pki for the registration of such entity and infrastructure node with pki requirement phase in , over time , with scash , accord to the balancing of divergent need of commercial and federal aspect of share spectrum .",0
rule that require a direct interface between pal infrastructure node and gaa infrastructure nodes and the sas enable a wide range of measure for operational obfuscation of federal use of shared spectrum .,0
these method include a level of randomized denial of spectrum access request by pal or gaa infrastructure nodes .,-1
"in addition , the definition of an alarm signal from the sas itself limit the exposure of technical feature of federal signal",-2
"e.g. there need be no federal signal detector in any 3550 mhz capable device , and the initiation of the alarm signal from the sas can be a tool use in operational obfuscation .",0
"generation of the alarmsignal by federal device also may provide further operational obfuscation initiate by a 40particular federal entity without recourse to the sas per se , allow a distribute operation that be scalable and that allow independency of action of each of the federal agency .",0
"such obfuscation be necessary to protect the operation of federal user while deny malicious agent knowledge of the capability and limitation of such federal radio device , network , and related capability , which be essential to public safety and national defense .",0
"we encourage the commission to create a secure sas core , employ well",3
know defense in depth technique as describe in nist standard .,0
the outer layer of the sas would interact with device base on datum that be in the outer layer .,0
this data may have be manipulate by inner layer of the sas in order to protect confidential information .,0
the middle layer control the database that the outer layer of the sas be use the pad .,0
"the inner core communicate with the middle and outer layer via secure ip , for example use vpn or ipsec or pki.the",1
core be the secure sas .,1
this be the part of the sas that interact with the federal agency and the federal spectrum management system .,0
the secure sas should be implement so as to be fully trust with respect to federal user .,3
people who interact with and operate the secure sas would need security clearance .,1
"simple obfuscation , anonymization , and other know technique which be in the public domain may be relevant but be not sufficient , and have a secure core in the sas will be necessary to protect the public interest .",3
"therefore , the fcc should adopt a license model that anticipate a sas secure core , with technical requirement that recognize federal standard and practice .",1
"specifically , the national security agency nsa be responsible for secure dod informationsystem .",1
the nsa web site for information assurance ia include an exemplary reference .,2
"the national institutes of standards and technology nist publish standard that realize defense in depth such as for cryptographic module which be use , for example , in banking and other critical information system and include the nist federal information processing standard fips 140 - 2 .",-1
"in addition , the nist 800 series specify good commercial practice for information assurance which be applicable to the sas , particularly to the degree that it will of necessity interact with federal information system .",2
"requirement and model for federal spectrum sharing should include a sas secure core that follow good commercial practice as outline in the nist 800 series , and that conform to the degree practicable to federal need for operational security , specifically for defense in depth , e.g. as articulate by nsa report defense in depth .",3
"we encourage the commission to require that the ntia and its affiliate federal agency support spectrum sharing by evaluate the effectiveness of any propose sas architecture with respect to include defense in depth , as well as understanding of , commitment to , and implementation of nist 800 good practice .",7
