text,score
"introduction and summaryblinq networks inc. blinq submit these comment in response to thecommission november 1 ,",0
2013 public notice that seek comment on licensing model and technical requirement in the 3550 - 3650 mhz band the 3.5 ghz band .,0
in its public notice the commission propose a newly integrate approach to dynamically authorize access to the priority access and general authorized access gaa tier of the 3.5 ghz band .,0
"major new propose change to the original model include 1 expand eligibility to the priority access tier 2 incorporate minimal technical requirement to ensure that multiple network can coexist in the band and 3 rely on the spectrum access system sas to accommodate different type of end user and a variety of use case , include high - power use such as non - line - of - sight nlos point - to - multipoint backhaul and valuable point - to - point operation like last - mile rural connectivity .",3
blinq support each of these propose modification .,1
"first , open the priority access tier to broad category of user will expand deployment , promote investment , and accelerate innovation .",1
"second , support additional technical information both in the end - user device andwithin",1
"the sas will increase spectrum efficiency , reduce the need for protection band and geographic separation , and enhance flexibility in deploy new and innovative service in the future .",4
"third and finally , make allowance for context - sensitive , higher - power use in at least a portion of the 3.5 ghz band can expand the small - cell business case beyond site with immediate physical access to fiber node .",1
small cell represent an important mechanism to satisfy burgeon demand for broadband capacity .,2
"make full use of this new network typology , however , will require a holistic , end - to - end concept of broadband service delivery .",0
"for small cell to succeed , short - range , non - line - of - sight backhaul need to remain part of the end - to - end service offering enable by the 3.5 ghz band spectrum .",1
"commenters recognize the importance of enabling nlos backhaul in the 3.5 ghz banda broad group of wireless carrier include att , t - mobile and verizon , industrygroup include 4 g americas , pcia the wireless infrastructure association , competitive carriers association , and wimax forum , equipment manufacturer include alcatel - lucent , ericsson , cambium networks , and tarana wireless , unlicensed interest include microsoft corporation , and standard organization include the institute of electrical and electronics engineers ieee support rule to allow for non - line - of - sight backhaul in the 3.5 ghz band .",1
blinq strongly support this view and join these commenter in recognize that small cell can not exist without small cell backhaul and that the widely anticipate explosion of small cell technology promise to tax all form of last - mile backhaul connectivity .,2
"three basicbackhaul typology exist today 1 wire broadband connection , 2 line - of - sight link , and 3 non - line - of - sight operation .",0
"competitive with fiber in many setting , non - line - of - sight backhaul will prove essential to provide connectivity to the many potential small cell access point that do not have , and can not cost - effectively receive , access to wireline or line - of - sight backhaul .",2
"in urban area , for example , relatively few lamppost , bus terminal , or theater marquee boast wireline broadband access .",0
"meanwhile , provision wireless line - of - sight backhaul to these site can prove too difficult to configure , too congested , too powerful , or too complex to support hundred or thousand of small cell amidst extensive urban clutter .",-1
"create additional opportunity for non - line - of - sight backhaul in the 3.5 ghz band , therefore , represent an important tool to support small cell deployment and to realize the broadband capacity these system can provide .",2
expanded access to priority access license will promote innovative and intensive use of the 3.5 ghz band spectrumthe proposal to expand eligibility for the priority access tier will promote extensivedeployment in the 3.5 ghz band and ensure that the band be intensively use .,1
"as many commenter recognize in initial and reply comment , several potential use for the 3.5 ghz band , nlos backhaul among them , require guarantee regard quality of service that unlicense spectrum simply can not offer .",2
"by expand access to the priority access tier , the commission can encourage innovative and other use require investment certainty .",2
"moreover , by offer the type of certainty that wireless business often require , the commission will promote significant investment in research and development in the band , which will in turn reduce deployment cost by increase economy of scale for 3.5 ghz device while simultaneously accelerate deployment and innovation in the band .",2
"relaxing technical limit in portions of the band will enable innovative use , include nlos backhaulnlos backhaul require less stringent power limits in 20 mhz of the priority access tier .",-2
permit high power limit in a small fraction of the 3.5 ghz band at frequency that can vary both market - by - market and over time will increase spectrum efficiency and enhance thelikelihood of successful commercial deployment of small cell infrastructure in both the priority access and gaa tier .,1
"while the commission propose a 24 dbm transmit power limit and 6 dbi antenna gain maximum , it seek comment on the degree to which power level in excess of 24 dbm may be appropriate to enable other use case .",1
"in typical base station , permit high power level expand the radius of the cell and , by extension , reduce the amount of frequency reuse any operator can achieve .",0
"in backhaul application , however , permit high power level do not expand the radius of the cell , but rather allow for the direction of energy to one or more discrete small - cell base station operate in the same frequency band .",0
"unlike high power associate with end - user access application , permit high level for point - to - multipoint and point - to point backhaul application can actually increase spectrum efficiency by allow the introduction of small cell to the street - level edge of the network , such as lamppost , bus shelter , and building facade , where wireline fiber connection do not exist and where high - frequency wireless backhaul solution be too large or too costly to deploy .",-1
"to be practical , economical , and reliable enough for deployment , however , non - line - of - sight backhaul require eirp well in excess of 24 dbm to operate in dense urban environment at sufficient range .",4
"while nlos equipment in the 3.5 ghz band be not intend to penetrate building , it must navigate around building corner by , for example , bounce signal off of exist infrastructure , and this nlos capability require high power .",1
"base on blinqs analysis , most nlos point - to - multipoint operation will need at least 40 dbm over a 10 mhzchannel to close a link over the 500 - 1500 meter distance optimal for this frequency range .",1
"similarly , for operation over a 20 mhz channel , nlos backhaul require an eirp of 43 dbm i.e. , 1 watt per 1-mhz slice of spectrum .",0
"these power limit be comparable to those already exist for the 3.65 ghz band , which limit operation to an eirp of 25 watts per 25 mhz channel , with a peak eirp power density of 1 watt in any 1-mhz slice of spectrum .",-2
"to the extent the commission incorporate the 3.65 ghz band under its propose rule , adopt a less stringent power limit of 43 dbm eirp for a portion of the 3.5 ghz band would establish a great measure of harmonization between the two adjacent band and could lead to an improved consumer experience in the future .",1
"however , whether or not the commission ultimately incorporate the 3.65 ghz band under its propose rule , permit qualified licensee to operate at power limit of up to a maximum eirp of 43 dbm , or a maximum transmit power of 30 dbm and a maximum of antenna gain of 13 dbi , would help enable nlos backhaul and other important use case .",2
"while non - line of sight backhaul require more power than standard small cell , nlos backhaul be of little use if there be not a robust small cell ecosystem in the 3.5 ghz band that need backhaul in the first instance .",1
"the commission , therefore , can and should adopt a hard cap on the total amount of spectrum within the 3.5 ghz band that could operate at high power level in any one geographic area at any one time .",-1
"at the other extreme , however , someminimum threshold of high - power capable spectrum should be available in all location on a use - it - or - lose -",1
it basis to ensure all geographic area have access to point - to - multipoint small cell backhaul .,0
"provide reliable , cost - effective backhaul on a short - range basis while ensure sufficient capacity to support multiple user at each node will require twenty megahertz of high - power , nlos - capable spectrum .",5
"consistent with the dynamically assign structure propose for the 3.5 ghz band , however , the sas nee not set aside twenty megahertz of a specific set of frequency capable of support high power use within the 3.5 ghz band , but rather can opportunistically assign up to the maximum bandwidth available for high power use at whatever specific frequency location",4
be best suited to a higher powered use base on local market condition .,1
"moreover , to the extent high power , nlos backhaul operation be not deploy in the area , other more traditionally powered operation may access and use the frequency resource .",0
interference mitigation technique allow for somewhat higher - power nlos operation while create no greater amount of interference .,-2
adopt less stringent power limit for nlos backhaul can promote great frequency reuse within a heterogeneous small - cell ecosystem while still ensure adjacent - channel and even indoor co - channel use receive protection against harmful interference .,-2
"in the context of a well - manage sas , high - power nlos outdoor backhaul will not cause harmful interference to other low - power use .",-1
employ well - establish interference mitigation technique include antenna downtilt and directional antenna can replicate the protection provide by the commissions current restrictive propose power limit .,-1
"indeed , these interference mitigation technique be already an integral component to how nlos be deploy .",0
"if the commission be concern that a power limit of 43 dbm eirp by itself be too permissive , it could require interference mitigation technique mediate by the sas that would ensure that end - user device replicate the protection provide by the current limit through automate deployment of what be today largely manual interference mitigation technique .",-4
"to illustrate that the commissions overall eirp limit can be replicate through sas - administer interference mitigation technique , consider the commissions propose eirp of 30 dbm .",-2
the example below show that an omnidirectional antenna operate at 30 dbm eirp produce a similar amount of interference as a cluster of three to four directional antenna with proper downtilt operate at 43 dbm eirp.while,0
"the two use case be functionally very different , the average receive signal strengthrss be remarkably similar and , within the context of a well - design sas , the high - power operation with sas - mediate mitigation would result in little more incremental preclusion of user than a lower - power operation .",2
"incorporate these mitigation technique into device operation can be relatively straightforward as the commission recognize , the maximum operational power of individual base station could be reduce by the sas to prevent interference and promote efficient network operation .",1
"in other word , the commission need not necessarily adopt rigid downtiltand directional requirement and instead could rely on the sas to determine whether the base station be operate within appropriate technical parameter .",0
"of course , the commission could also implement the downtilt and directional requirement as a condition of the more permissive power limit .",-1
"if necessary to enable somewhat higher - power operation like nlos backhaul , the commissions technical rules should account for urban clutter .",1
"in addition to interference mitigation technique such as downtilt and directional antenna , the commissions power limit should account for isolation and interference protection offer by deploy below the typical height of building and other morphological obstacle to radio frequency operation .",-4
"as blinq explain in its reply comments to the commissions notice of proposed rulemaking , the propose power limit of 30 dbm eirp do not adequately account for the attenuation offer by urban clutter .",-1
"while the commissions 3.5 ghz public notice recognize the value of in - building attenuation , it do not discuss the potential for attenuation with outdoor deployment deep within urban environment .",0
"as in other contexts , the commission can rely on exist detailed morphological datum , include land clutter , to predict interference and calculate power limit .",-2
the 3.5 ghz band should accommodate a variety of use cases and environment where less stringent power limit enhance broadband delivery .,0
neither geography nor use case be monolithic .,0
power limit in the 3.5 ghz should not be either .,-1
"while less stringent power limit would enable urban nlos point - to - multipoint deployment , it will also enable point - to - point and other type of deployment in urban and rural area .",-2
"several commenter , include the wireless internet service providers association wispa , pcia the wireless infrastructure association , and motorola solutions , inc. , support relax power limit to promote outdoor deployment in both urban and rural environment .",0
"as pcia recognize , one of the advantage of the sas be the flexibility to avoid design to the low common denominator and instead have the ability to respond to different deployment model and environment as they arise .",2
"if properly design , context - sensitive deployment mediate by the sas could enable nlos backhaul in densely populated urban area as well as large , macrocell deployment by wireless internet service providerswisps in rural area .",3
allow for less stringent power limit in some portion of the 3.5 ghz band on a context sensitive basis will allow company to respond opportunistically to the wide variety of use case that the 3.5 ghz band could support .,1
incorporating synchronization into the sas would enable more efficient use of the bandsynchronization among device in the band will allow significantly more efficient use ofspectrum than would otherwise be possible because synchronize device can operate in close geographic and spectral proximity than unsynchronized device .,2
"the challenge with random , uncoordinated use of spectrum be that these operation require more stringent out - of - band emission oobe limit and more restrictive power limitation on operation near the geographic edge of the channel .",-4
wifi operation illustrate this challenge .,0
"as qualcomm explain , wifi network be generally uncoordinated and , when many different wifi network operate in close proximity , the lack of synchronization result in inefficient spectrum use .",-2
"of course , in propose highly localize license area and 10 mhz channel , the commission be introduce many potential point of friction between unsynchronized network deployment .",-1
promote synchronize usage will enable the 3.5 ghz band spectrum to carry more traffic more reliably than can be achieve through a simple unsynchronized deployment framework .,1
promote synchronize operation in the band would be straightforward to implement as the sas provide a perfect platform to encourage synchronization across all device .,3
"a master clock could be incorporate into the sas , and synchronize system present in the networkcould operate on a flexible frame structure base on 1 millisecond subframe similar to the base unit for lte operation .",2
"moreover , promote synchronize operation need not preclude other unsynchronized operation .",0
"while the commission could adopt a blanket requirement that all device be synchronize to the sas master clock , the commission could also adopt less stringent limit for operation that be synchronize compare to operation that be unsynchronized .",-1
these less stringent protective measure be justify because synchronized operation create less interference to other synchronized operation and enable more productive use of the spectrum .,0
"meanwhile , operator elect to operate on an unsynchronized basis would still be authorize to deploy and would not unduly suffer from technical restriction in the absence of any synchronization , their operation would already have to incorporate similar protection from neighbor unsynchronized use .",-2
"to the extent that synchronization in not require because device be locate in area with no geographic or spectrum neighbor , there would be no need to synchronize , and the sas could allow these device to transmit as they desire .",0
"if the master clock feature and a predetermine frame structure be adopt now , synchronization can be easily and inexpensively achieve .",1
the master clock represent a minor addition to the sas requirement that could be realize on a fairly cost - effective basis .,3
"moreover , as device in this band have yet to be design or manufacture , the necessary planning for synchronization adjustment can be incorporate early and easily so that device can enable more efficient deployment .",1
"if the commission do not incorporate synchronizationa a feature of the sas in the early stage , however , subsequently incorporate this feature mayprove prohibitively expensive or impractical .",-3
"additional technical issues sas requirementsto successfully deploy an sas that would foster intensive and efficient use of the 3.5ghz band , the sas must be capable of dynamically evaluate the interference environmentand , base on that environment , guide user deployment in the band .",1
"in facilitate access tothe band , both by priority access licensee and gaa user , the sas must be capable ofeffectively communicate with network infrastructure .",2
"to accurately collect datum regard the interference environment , the sas should communicate with and query information from infrastructure node such as access point , base station , and hub .",1
collect datum necessary to determine available spectrum and calculate the interference environment .,0
"several variable be necessary to determine the interference environment , include the type of device e.g. , low - power indoor access device vs. medium - power outdoor deployment , geographic location of the deployment , antenna pattern , direction , height , and tilt , and transmit power .",-1
"this information should be supplement with on - the - ground measurement e.g. , interference - over - thermal iot at a give location communicate by device with sensing capability .",0
calculate the interference environment .,-1
"as the commission recognize , determine the iot as represent by the ratio between the total received interference power and the thermal noise present in a give area be key to determine the potential for spectrum sharing .",-2
"base on the relevant input enumerate immediately above , the sas must determine the iot and whether there be availability for a deployment in a give area .",0
implement device authorization base on these prediction .,0
"base on the interference environment and exist protect user , the sas should dynamically assign and re - assign channel to priority access licensee and gaa user .",0
"the sasshould also inform gaa device regard the available operating area and the relevant restriction e.g. , power limit to avoid interference .",-1
"these parameter should be communicate dynamically so that device can perform self - optimize network son function , like activate a device or increase power level should additional spectrum become available .",2
provide synchronization information .,0
"as discuss above , the sas should incorporate a master clock to enable more efficient and intensive synchronize deployment .",2
mediate conflict .,-1
"if a user violate the noise floor of a priority access licensee , the sas must identify the interferer and advise the appropriate corrective action , such as require the power to be adjust or channel to be switch .",-1
"before operator even deploy a device , the sas should play an important role ininforming operator where and how to deploy .",1
"the sas should be accessible and containinformation that will be use to guide deployment specific , include the exist interferenceenvironment , the area available for deployment , and the requirement to avoid interfere withexiste user .",1
"this role for the sas will be true both for gaa operator , who must determinewhether the exist environment allow for the necessary operational characteristic , and forpriority access licensee , who will want to determine exist incumbent operation to calculatethe value of the license and to determine deployment configuration .",0
flexibly granular license areas and power limit tailor to devices will further promote intensive use of the bandadopte flexibly variable license areas for priority access license would enable microtargete deployment and would foster even more intensive use of the band .,-1
"in seek comment regard the appropriates geographic size for priority access license pal license area , the commission explain that its goal be to allow [ ] flexible , micro - target network deployment , promot[e ] intensive and efficient use of the spectrum , [ and ] allow [ ] easy aggregation to accommodate a large network footprint .",4
"while the commission propose license pal at the census tract level , the commission could further enable highly localize deployment by enable wireless operator to license certain microtargeted portion of a license area .",0
"in other word , an individual could acquire a pal on a microtargeted basis , such as an individual building as contemplate for localized critical access use , while another entity could acquire a pal in the surround outdoor area .",-1
"at the same time , wireless operator could still aggregate pals to enable large geographical deployment .",0
"in particular , these microtargete pal could promote an attractive co - existence between lower - power indoor use and somewhat higher - power outdoor coverage area .",1
"due to propagation characteristic at 3.5 ghz and the attenuation offer by build exterior , lower - power indoor use and higher - power outdoor use can operate harmoniously in the same geographic area .",1
this possibility be particularly attractive in enable indoor wireless accessdeployment in large urban office building while offer a medium - powered deployment like nlos backhaul outdoors .,2
authorize pal at this microtargete level of granularity will also allow license area to accommodate different deployment scenario and will allow the sas to efficiently group user .,1
"under the commissions revised framework , there will be significant disparity in the practical geographic size of license area base on exist incumbent operation and localize critical access use .",0
license pal base on different - sized area will accommodate thesevariation .,0
"additionally , licensing base on variably - sized area will allow the sas to groupthese differential area accord to band to optimize efficient usagecreate power limit tailor to device will enable coexistence between indoor and outdoor uses and promote optimal use of spectrum resources .",1
"as discuss above , and as the commission recognize in relation to localized critical access use , the 3.5 ghz band offer a unique opportunity to accommodate simultaneous indoor and outdoor deployment .",-1
"by tailor power limit for operation under pals to the precise device that be deploy , the commission can further promote this intensive use of the band .",0
"specifically , under this proposal , device would be authorize to operate under eirp level tailor to an individual type of device .",0
"so , for example , an indoor wireless access device would have a low authorize eirp while a rural outdoor deployment would have a high authorized eirp .",0
below be an illustration of how device could be categorizedthis proposal offer at least two important benefit .,2
"first , it ensure that power limit be tailor precisely to how the band be actually be use .",0
"essentially , it allow the use case to drive the technical rule .",0
"second , it facilitate the ability of the sas to coordinate use to allow efficient indooroutdoor coexistence .",2
"conclusionby open the priority access tier , the commission have propose a revised framework that promise to encourage innovation and foster deployment in the band .",3
"the commission have the opportunity to further promote innovation by adopt less stringent power limit for non - line - of - sight point - to - multipoint backhaul and other innovative use in a portion of the band , and the commission can do so without create any more interference to neighboring user simply by require standard interference mitigation technique .",-2
"however , without the potential for somewhat higher - power operation at 3.5 ghz , small cell deployment will not meet their full broadband capacity - boost potential , and small cell will be limit to location at or near where fiber backhaul already happen to exist .",0
