text,score
"motorola solutions , inc.",0
msi hereby submit these comment in response to the federal communications commission fcc notice of proposed rulemaking propose the introduction of a citizens broadband service in the 3550 - 3650 mhz,0
band 3.5 ghz band .,0
introductionmsi support the core element of the commissions innovative proposal for the citizensbroadband service .,2
"by employ flexible operating rule and priority access protocol , the commissions proposal could enable quick and efficient wireless deployment in the 3.5 ghz band , particularlyas the commission recognizesto the benefit of mission critical use such as public safety , medical and other safety of life , critical infrastructure , state and local government , and enterprise operation .",1
"build upon the work of the national telecommunications and information administration ntia , which identify the 3550 - 3650 mhz band as spectrum that could be make available for commercial wireless broadband on a fast track timeline by 2015 , thecommission propose in the notice a three - tiered framework for manage access to and use of the 3.5 ghz band , which will be facilitate in near real - time by a spectrum access system sas .",4
"this system will accomplish a number of important policy goal include protection of federal incumbent , availability of spectrum for critical operation currently suffer from capacity constraint , promote innovation in wireless broadband , and effective management of access by a variety of user over deployment of vary size and complexity .",4
the commission should adopt a three - tiered authorized share access system for the 3.5 ghz band with multiple levels of dynamic prioritization.msi support the three general tier of access outline in the notice 1 incumbentaccess 2 priority access and 3 general authorized access .,2
"additionally , to best promote dynamic spectrum sharing of the 3.5 ghz band and to ensure spectrum availability for mission critical use consistent with the commissions vision , particularly during public safety incident , msi support a multi - tiered prioritization model for manage spectrum access among priority access user .",3
"the utilization of an authorize sas database approach , if architecte properly , will allow the commission to dynamically control access to and efficiently manage the use of 3.5 ghz spectrum .",2
the incorporation of several priority access level within an sas database would facilitate efficient coexistence of multiple service .,2
"msi support small - cell use of the spectrum , and also support enterprise and other use of the spectrum , potentially with different operating rule and technical limit for different class of equipment .",1
a multi - tiered priority access service will provide substantial benefit for mission critical and other users .,0
the priority access tier of spectrum access be critical for the success of the overall dynamic spectrum sharing system .,1
the different service license in the priority access tiershould be give distinct priority .,0
"public safety operation , medicalsafety of life , critical infrastructureutilitie , and state and local government should receive high priority level , with enterprise and commercial operation receive less priority , respectively .",-1
commercial operation may include service such as wireless internet service providers wisp and wireless local area network wlan service .,0
consumer equipment would generally be give the low priority and fall into the general authorized access category .,-1
priority access and pre - emption capability on a near real - time basis be key aspect of the sas that will allow for the guarantee quality of service essential for many type of critical deployment .,1
"public safety operation , in particular , will benefit from have additional broadband spectrum and flexibility at incident scene .",2
"even advanced communication system like lte can be spectral efficiency - limit at urban macro - cell edge , result in the need for additional localize capacity for these system .",1
on - demand small cell deployment in the 3.5 ghz band would help to address these issue .,-1
"critical infrastructure facility also would benefit from additional wireless networking capability , both for operational management and control , as well as security monitoring purpose .",2
enterprise wireless local area network user at commercial or industrial site would also benefit from a high level of spectrum access and less interference than in the heavily - utilize unlicensed band .,-1
"both outdoor and indoor commercial access to the spectrum , for example by wisp and wlan hotspot provider , could be manage through the database as well .",1
"each of these use should be include in the priority access tier of the database system , although with decrease level of priority .",0
"each of these use typically be geographically limited , and could be easily register and incorporate into the sas.higher power outdoor operation would be appropriate for many type of priority access network .",0
"msi support the use of high transmit power e.g. , 20 w eirp and appropriate power spectral density level in less - congest area , as well as for certain public safety operation throughout the 3.5 ghz band .",3
"these type of use would generally be spatially localized and short in duration , limit the overall demand for 3.5 ghz spectral resource by each incident , and like many other use of the spectrum would benefit greatly from near real - time spectrum sharing database .",1
"msi be generally supportive of expand the sas concept above to the 3650 - 3700 mhz band as well , as this approach would expand the economy of scale of equipment for a large user class .",2
priority use zones should be establish wherever technically feasible .,1
"it should be note that different system be able to tolerate different level of interference , so wherever possible , judgment of the suitability of use of spectrum in a particular location should be leave to the user .",-1
"as long as the sas system be able to communicate the interference and usage characteristic for a particular region , user can make informed judgment as to the available spectrum use .",0
one potential way to communicate interference environment information would be through the interference limits approach propose by the receivers and spectrum working group of the fcc technological advisory council .,-3
the database system should also be able to coordinate user in time and frequency in similar geographic region to further minimize interference between system .,-1
"due to all of thecommunication service that can be effectively coordinate via priority level through the sas , it be recommend that at least 80 mhz of spectrum be dedicated to these purpose .",3
this approach good grant the flexibility need to efficiently manage spectrum locally and in an orderly fashion .,4
general authorized access should be available where high priority uses be not need .,1
"in area where spectrum be unused , general authorized access gaa can be grant , however gaa use should not generally be permit in area subject to interference from high priority service .",-1
general authorized access to spectrum in particular geographic region should be grant if there be a reasonable expectation of adequate service level for consumer .,2
"for example , in special case where the interference from high priority service be limit e.g. , periodic with less than a 1 duty cycle , gaa may be permit .",-2
it be imperative that low priority service not cause any harmful interference to high priority system .,-2
"at a minimum , protection should be base on transmitter location , emission characteristic employ by the various service , the specific interference protection requirement of the high priority service , and detailed propagation modeling take into account local terrain .",1
"it may also be beneficial to segregate high priority user into a portion of the band , to assure adequate separation of service and high reliability .",3
a robust sas database will be crucial to the success of the 3.5 ghz band .,2
"to adequately support priority spectrum access , the sas database should support near - real time spectrum usage update , such as geo - location database update on a minute - by - minutebasis .",2
dynamic spectrum utilization for various service may be grant through explicit sas - provide spectrum usage permit or right that expire on short - term basis .,1
"in this manner , user need to renew periodically their permission to occupy the band , perhaps even on a minute - by - minute basis .",0
msi generally support the registration of all user of the spectrum in the sas .,1
"as discuss above , such operational information would typically include transmitter location or operating area , transmit signal characteristic , operate time , and the like for each operational transmitter .",1
"access to this information should be strictly control , and only accessible by high priority service on an as - need basis , with appropriate security and privacy mechanism .",1
"it may be necessary to obscure or abstract the usage information of certain high priority and incumbent user , such as military , certain public safety , critical infrastructure , or government operation , in order to protect operational security .",-1
"one possible method to help protect user information would be to utilize a federally - control clearinghouse architecture for incumbent and registered user information , as be propose for tvws .",1
"it be not expect that incumbent and high - priority access user information would normally be visible to other , to help protect user privacy .",1
"incumbent protection information may further be abstract through storage in separate secure database , with abstract limited - access interface .",1
it be also important to carefully control and limit access to the user - face sas interface through the use of strong security and authentication means.3.5 ghz band segmentation should promote flexibility .,2
flexibility be essential in the channelization of the share 3.5 ghz spectrum .,1
"a majority of the spectrum may be channelize into 5 mhz unit , with a portion of each subband set aside with 1 mhz channelization for different service .",0
"channel aggregation should be allow within certain limit e.g. , up to 20 mhz for 5 mhz channel , up to 5 mhz for 1 mhz channel , with the possibility of high level of channel aggregation for highly localized low power user .",-1
exclusion zone under the citizens band service framework should be small than previously estimate .,-1
"msi agree with the commission that the originally propose exclusion zone for the 3.5 ghz band should be relax , due to the low power transmitter and low deployment density than be originally study .",-1
"msi believe that priority access system will be able to effectively deal with interference from radar in the field , and the main concern should be about interference into operate radar system .",-2
"protection computation should be perform on an individual basis use actual deployment information , and consider aggregate level of interference into operational radar system .",0
"in general , only region with active radar signal or expectation of such in the near future should be protect .",1
"it be expect that 3.5 ghz deployment typically will have low antenna height , result in high attenuation of the signal at significant distance 200 m. even for wide area outdoor system , transmit power level would generally be limit to 1 wmhz as oppose to higher power commercial cellular system deployment .",-1
"thus , for a 20mhz aggregate channel , 43 dbm device transmit power level , a 60 m radar receiver height , a 100 m height agl base station transmitter , and a bad case -114 dbm level of acceptable interference , a conservative propagation model would predict a 73 km bad case exclusion zone .",-5
"in any case , if any operate government radar system experience any significant level of interference , it would be a relatively easy task to order a shut down or a reduction of power for the offend unit through the sas database mean describe above .",0
"as outline above , msi support both low power and high power use of the band to realize its full potential for both small network and large area network .",1
"device antenna pattern should be model in the database , and exclusion zone should be variable base on the actual parameter e.g. , device class , transmit power level , antenna height , transmit mask , interference protection ratio , etc .",-1
employ for each service .,0
device with less stringent transmit spectral mask should not be allow to operate as close to protect incumbent as device with well spectral mask .,1
this approach be similar in many respect to one propose by ofcom for tvws spectrum .,1
"a variable level of secondary devicenetwork location accuracy can also be readily accommodate , use method previously propose for tvws .",1
"power spectral density level should not be unnecessarily limit below 1 wmhz for high priority base , mobile , and fix - portable device , with the expectation that consumer wlan network would employ much low power spectral density level e.g. , 40 mwmhz .",0
it be expect that a vast majority of the spectrum user would be of the low power variety and over local area .,1
"conclusionthe 3.5 ghz band represent an opportunity to address the spectrum need of missioncritical user such as public safety include hospital , critical infrastructure , and government use , as well as a variety of enterprise , commercial and consumer application .",1
"key to the success of this band will be the commissions three - tier spectrum access system , which should be develop to employ multiple level of prioritization to facilitate dynamic sharing .",3
"with appropriate flexibility and safeguard build - in , this system will protect incumbent while make available in an innovative way substantial additional spectrum resource .",5
