text,score
the national association of broadcasters nab submit these comment on the above - caption notice of proposed rulemaking .,0
the commission propose tocreate a new citizens broadband service in the 3550 - 3650 mhz band that will utilizesmall cell and spectrum sharing technology .,0
notice at 1 .,0
the notice also offer asupplemental proposal to potentially include the 3650 - 3700 mhz band in the newregulatory regime .,0
idaho at 77 - 82 .,0
"the notice seek comment on the licensing andrelate aspect of the new broadband service , on which nab take no position .",0
"we do , however , have significant concern regard interference from the propose service toimportant exist c - band satellite service .",0
broadcast network and other use c - band satellite service to distributeprogramme to thousand of earth station satellite receiver in the united states thatoperate in the 3700 - 4200 mhz band .,0
"this spectrum be use intensively bybroadcaster , syndicator , cable network and other to deliver most pre - recorded news , sport , public affair and entertainment programming to local station , and in turn , to audience throughout the united states .",0
"the c - band be also use to distribute certain widely - view , pre - scheduled live programming , as show by the c - band truck locate on - site at the super bowl and the grammy awards .",2
the importance of such programming and information to american audience be obvious .,0
"from popular comedy , drama and sport , to syndicate game show and talk show , and news and public affair programming , americans rely on broadcaster and other c - band user to provide programming with a crisp , clear , uninterrupted signal .",3
such programming be the backbone of the television industry .,1
"as demonstrate in the attach statement of sidney m. skjei , p.e. , the notices propose new citizens broadband service would increase the risk of emission cause harmful interference to conventional satellite service in the 3700 - 4200 mhz band .",-3
"give the thousand of earth station satellite receiver in use , and the nature of the propose broadband service",0
", mr. skjei conclude that the likelihood of interference be significant .",0
statement at 2 .,0
such interference would degrade the quality of service and programming that television station deliver to audience across the country .,-2
"as discuss in more detail in his statement , mr. skjei explain that interference be so likely because many conventional c - band earth station , operate at 3700 mhz and above , can hear the signal transmit by operation above 3400 mhz , include the propose citizens broadband service to operate in the 3550 - 3650 mhz band and in the adjacent 3650 - 3700 mhz band .",-1
statement at 1 - 2 .,0
"he also explain the difficulty ofpredicte and protect against this interference , due to the lack of geographic boundary and database registration of operation both below and above 3700 mhz .",-2
"indeed , mr. skjei describe this interference as random because neither the location of the interferor i.e. , the citizens broadband service device nor the interferee i.e. , the c - band earth station receiver can be adequately predict .",-1
"idaho at 2 , 4.it be therefore important for the commission to take step in this proceeding to ensure that incumbent satellite service in the c - band be not harm by emission associate with the propose citizens broadband service .",0
"american audience place a high value on the news and entertainment programming distribute through c - band service , and their reception and enjoyment of these service should not be degrade .",0
"as discuss herein , nab take no position on the licensing and related aspect of the newly propose citizens broadband service .",0
"give the significant interference concern explain by mr. skjei , however , if the commission ultimately determine to establish this new service , then specific additional protection will be need to safeguard incumbent c - band service from any harmful interference .",-2
"moreover , in light of these complex and difficult to resolve interference issue , the commission should refrain from expand its proposal include the adjacent 3650 - 3700 mhz band .",-4
"engineering statement of skjei telecom ,",0
the request of the national association of broadcasters nab the undersigned have prepare this engineering statement regard the commissions notice of proposed rulemaking in gn docket,1
"skjei telecom have more than 30 year of experience in engineering , operate and develop a wide range of hardware and software for satellite communication system and service .",0
"we be highly knowledgeable in all major satellite communication operational area global , u.s. domestic and military .",1
"in the notice , the commission propose to create a new citizens broadband service cbs consist of small cell wireless communication service that would share spectrum with other service in the 3550 - 3650 mhz band .",0
"we believe that the commissions supplemental proposal to integrate the 3650 - 3700 mhz band within the propose citizens broadband service , notice at 77 , pose a risk of cause interference to exist c - band satellite",-2
down - link operate in the adjacent 3700 - 4200 mhz band .,0
"broadcaster and other use this latter band for the distribution of most programming to thousand of earth station receiver at television and radio facility throughout the united states , and in turn , to american audience .",0
the potential for cbs interference into c - band receive earth station use by broadcaster,-1
"be significant for a number of reason , the most serious of which arefor many year , the majority of earth station satellite receiver use by broadcaster to receive c - band satellite deliver programming",1
have be equip with,0
low noise block converter lnbs whose pass band extend down to 3.4 ghz 3400 mhz .,-1
"as a result , many receiver can hear the signal transmit by service operate above 3400 mhz , include the propose citizens broadband services .",0
"indeed , for receiver with such lnb , the interference cause by cbs operation would be in - band .",-1
"on a geographical basis , the interference cause by cbs operation would be random because the location of both the interferor i.e. , cbs device and the location of the c - band receive earth station be not adequately document or amenable to database derive interference calculation .",-1
"cbs emissions into c - band earth stationsunder the current rule , the out - of - band emission oobe suppression formula for operation in the 3650 - 3700 mhz band into the 3.7 - 4.2 fix satellite service fss receive band",-1
be govern by the equation 4310logp.,0
"under certain deployment of these propose cbs system , these oobe level would not provide sufficient suppression of emission to preclude interference to c - band downlink operation in the adjacent 3700 - 4200 mhz band .",-1
even one isolate cbs device transmit near a c - band receiver could cause interference .,-2
"moreover , the notice contemplate situation where multiple cbs user could be locate in the same area , notice at 4 , which would multiply the risk of interference to broadcast service in the adjacent band .",-2
this be especially true in those scenario where the cbs emitter be locate within 1 kilometer of an earth station receiver .,0
"give the thousand of such receiver locate throughout the united states , and unlimited nature of cbs operation , the likelihood of such interference be significant .",1
"it should be note that improve , well - filter lnb , even with the addition of band - pass filter , will not mitigate in - band interference in those case where the cbs transmitter meet 4310logp oobe suppression but be within close proximity to the earth station .",0
"additionally , in many case the interference from cbs device will be in the pass band of the earth station lnb , not out - of - band , so the 4310logp emission requirement would not apply and the signal level observe by the c - band receiver from the cbs transmitter would be much high .",-1
this be because of the prolific use of extended band lnbs whose pass band include thefrequencie in question .,1
"these lnb have be in use for year because of the use of the extended band worldwide and the mass produce of lnb for the global satellite market , not just the u.s. market .",0
"in many case , vendor only manufacture and sell these extended c - band lnb , not lnb for the u.s. market of 3.7 to 4.2 ghz .",0
"these extended band lnb would be susceptible to signal suppression when cbs transmitter , in close proximity to the earth station , saturate the lnb cause signal suppression of want carrier clip , an increase in - band noise reduction in carrier cn , and phase non - linearity .",-4
"while filter can be use to improve performance in the presence of oobe emission , the impact of the filtering at the input of the lnalnb will impact the overall receive performance of the terminal , degrade the system gt by a potentially significant amount .",1
"in some case , these filter require the earth station operator to replace the antenna with a large and more costly antenna in order to maintain the same gt and performance .",-1
coordination zoneswe agree with the commissions proposal to continue to protect incumbent extended c - band fss and those new earth station locate within 10 mile from grandfathere earth station .,1
"in addition , we recommend that the protection criterion remain as before 150 km exclusion zone with a requirement to coordinate with fss earth station licensee in those case where operation within the exclusion zone be require .",0
"we also submit that , because the exact nature of the signal emit by cbs fix and mobile transmitter be unknown at this time e.g. , power , oobe , additional study regard the interference potential of these device may be necessary before the commission consider relax the 150 km exclusion zone .",-2
spectrum sensingthe notice also ask if spectrum sensing would be warrant .,0
notice at 148 .,0
"in the case of protect fss receive - only earth station , sensing would be not be applicable because most receive earth station do not transmit any signal .",1
"thus , there be no signal for the cbs device to sense .",0
"it should also be point out that the commission do not require the licensing of c - band receive earth station as a result ,",0
"hundred if not thousand of such station , even those with many year in service , be neither license nor document in any database .",0
"as a result , the location of many such earth station receiver be know only to the earth station owner .",0
"the notice suggest that the location of the interfere cbs user will similarly be unavailable , as they will not be subject to documentation in a database , nor at a fix location in all case .",-2
"this will result in a completely random interference situation , where neither the location of the interferorcbs device or the interfereec - band earth station receiver can be adequately predict .",-1
summarywe believe there be a real potential for interference into thousand of licensed and unlicensed 3.7 - 4.2 ghz fss receive only earth station .,-2
this be due in part to the many lnb already in operation which would be susceptible to interference from cbs operation in the extended c - band the geographically random nature of the interference due to the fact that the location of neither cbs device or c - band receive earth station be know specifically and the inadequate oobe protection level provide by the current rule for earth station operate at c - band .,-3
the high cost to preclude interference and to rectify those case of interference that may arise be also of concern .,-2
"certificatei , sidney m. skjei , certify that i be the technically qualified person responsible for the preparation of the technical discussion contain in the communications broadband services nprm comments file by the nab , that i be familiar with part 25 of the commissions",1
"rules 47 c.f.r. part 25 , and that i have either prepare or review the technical information submit in these comment and find it to be accurate to the good of my knowledge and belief .",2
