text,score
ieee 802 respectfully submit its comment in the above - caption proceeding .,1
"ieee 802 , as a lead consensus - base standard body , produce standard for wireless network and device , include wireless local area network wlan , wireless personal area network wpans , wireless metropolitan area network wireless mans , and wireless regional area network wrans .",1
"include in our standard development activity be an emphasis on coexistence , which be the focus of our wireless coexistence working group .",0
"we appreciate the opportunity to provide these comment to the fcc.introductionon december 12 , 2012 the commission issue a notice of propose rulemaking nprm , under gt docket 12 - 354 , in which the commission seek comment relate to spectrum sharing in the 3550 - 3650 mhz and the 3650 - 3700 mhz band .",0
ieee 802 applaud,1
the commission for adopt the recommendation of the pcast report for find novel way to use the spectrum for commercial use .,1
ieee 802 agree with the fcc that the spectrum should not remain unused if there be radio technology that can make use of the spectrum while preserve the establish regulatoryframework .,0
"spectrum can be share in frequency , time and space .",0
"ieee 802 support the fcc notice of propose rule make , to create a new citizens broadband service in the 3550 - 3650 mhz band 3.5 ghz band which will promote advance that enable more efficient use of radio spectrum .",2
ieee 802 support the establishment of a regulatory framework as suggest in paragraph,1
7 permit the opportunistic use of cognitive device in these band .,-1
ieee 802 recommend a rigorou analysis of separations around fixed satellite service earth,1
stationsthe protection of the fss below 3700 mhz be an issue require more rigorous analysis .,0
exclusion zone can be augment by new technology like the geo - location database .,0
"industry experience in the 3650 - 3700 mhz band indicate that if fss protection be by power control and oobe , rather than by spatial separation , the number of deployment would be significantly large than it be today .",1
the fss industry have 20 year of experience demonstrate that a fence of moderately good conducting material around an fss receiver site see can protect receiver from terrestrial interference .,1
we propose that the commission take into account the possibility of action by the 3700 - 4200 mhz band fss license holder to improve the immunity of their site from interference .,0
such one - time investment can create immunity from interference for fss earth station .,-1
this would protect fss operation as well as pay for itself many time over if access to and use of adjacent spectrum be create .,2
"ieee 802 supports the use of a variety of interference mitigation techniques that can be deployed cooperatively to enhance spectrum efficiencyieee 802 have create multiple standard for white space deployment in the tv bands specify device that access the database service and , base on parameter communicate from it , can change their radio parameter to utilize the spectrum at a give location and at a give time .",3
"ieee 802 believe that technology exist to enable real time and semi - real time spectrumshare , where such sharing can be enable through a geolocation database as the sas in the nprm .",0
"some advance approach to interference mitigation , such as the one develop in the ieee standard 802.22.1tm-2010 originally design for interference protection of licensed wireless microphone , sense technique and dfs technique may be applicable .",-1
ieee recently authorize a revision project to add advanced beaconing capability to the ieee standard 802.22.1tm-2010 to enable spectrum sharing in the 3550 - 3650 mhz band with existing radar and fixed satellite earth station .,2
this revision project par be introduce to support the pcast promote spectrum sharing and more efficient use of spectrum through new cognitive radio technology and interference mitigation technique .,1
ieee 802 supports continuation of the exist light licensing rule in the 3650 - 3700 mhz,1
bandparagraphs 77 - 82 of the nprm address a supplemental proposal to include the 3650 - 3700 mhz band .,0
ieee 802 agree with the observation that such a transition would likely entail equipment upgrade and technology conversion .,0
"as note in the nprm , wimax system base onieee standard 802.16 have be deploy for broadband wireless access in the 3.5 ghz band .",0
"as note in an early comment , fixednomadic wireless backhaul should be consider as an element of the small - cell deployment scenario .",0
"if small - cell deployment flourish in the 3550 - 3650 mhz band under the propose rule , then the lightly - license 3650 - 3700 mhz band could become significantly deploy for backhaul service of those same small cell .",1
ieee 802 note that the new ieee p802.16r project be develop standard to enhance ieee standard 802.16 for backhaul application .,1
"accordingly , ieee 802 do support the supplemental proposal to include the 3650 - 3700 mhz band in the propose regulatory regime .",1
conclusionieee 802 endorse the fcc nprm promote spectrum sharing and more efficient use of spectrum through new cognitive radio technology and interference mitigation technique .,1
ieee 802 applaud,1
the commission for adopt the recommendation of the pcast reportto find novel way to use the spectrum for commercial use .,1
ieee 802 have and continue to develop standard that will support the regulatory framework to be establish in the 3550 - 3650 mhz band .,1
