text,score
"fox entertainment group , inc. , time warner inc. , viacom inc.",0
", and the walt disney company together and on behalf of their affiliate business , the content companies , hereby respond to the recent notice of propose rulemaking and order nprm issue in the above - caption proceeding .",-1
"the content company be global leader in the creation of news , information , and entertainment programming , with program and network reach million of television viewer in the u.s. and in approximately 190 country throughout the world .",0
"while the content companies appreciate the broad goal articulate in the nprm in term of seek additional spectrum for wireless broadband use , we be nonetheless concerned that certain proposal contain therein may interfere with incumbent c - band satellite operation , which be a critical part of how we deliver television content to our affiliate and ultimately to consumer .",-1
we urge the commission to carefully and thoroughly study the interference implication before give further consideration to share in the band adjacent to the c - band .,-2
"only once interference study have be undertake , and the result make available for analysis and comment , should the commission consider specific share proposal , but in any event it should not put at risk the vital news , entertainment and sport programming rely upon by hundred of million of american television viewer .",-1
"all 114 million us television household rely on c - band operation from 3.7 - 4.2 ghz in some measure for content distribution largely from program network to virtually all broadcast television station around the country , as well as more than 7,000 cable , dbs , and telco headend .",1
"these operation distribute more than 1,400 standard definition channel and 300 high definition channel , encompass brand such as abc , bet , cartoon network , cmt , comedy central , cnn , disney , fox , fx , espn , hbo , mtv , national geographic channel , nickelodeon , tbs , tnt , and vh1.consumer nationwide rely on these service for critical news and information , in addition to their favorite entertainment programming , make reliable and interference - free delivery of this content essential .",1
"while other method of delivery , such as via fiber , supplement satellite delivery in limited circumstance , these alternative can not be scale to provide the same ubiquitous and dependable service to all provider particularly small provider in rural area as do c - band satellite .",0
"further , c - band satellite ensure redundancy and continued signal delivery in circumstance where terrestrial infrastructure may be compromise , such as with weather or other emergency disruption .",-3
u.s. television viewer expect the reliable service that can only be provide from c - band satellite distribution .,1
"as such , c - band satellite be today , and will be for the foreseeable future , an integral part of the television industrys content delivery system .",1
any movement toward share use near this band shouldcome only after there be a thorough opportunity to determine whether sharing would put at risk the entire television industry that hundred of million of americans rely upon and for which they have come to expect near - perfect reliability .,0
"the nprms proposal to enable small cell wireless use in the 3.5 ghz band , and particularly the potential inclusion of high power operation from 3.65 - 3.7 ghz , raise interference concern for our domestic satellite delivery operation from 3.7 - 4.2 ghz .",-2
"while the nprm do not detail sufficient technical datum about the propose wireless operation to enable a comprehensive interference analysis at this time , past study involve the 3.4 - 4.2 ghz band have find significant technical challenge with share between wireless and satellite operation .",2
"further , recent satellite outage in other jurisdiction due to wireless interference demonstrate the potential for catastrophic disruption .",-3
"in order to preserve consumer uninterrupte access to vital television news , information , and entertainment content , the commission must therefore carefully and thoroughly study the interference potential of any propose wireless deployment before move forward with the proposal outline in the nprm .",-1
"the commission should also ensure that sufficient technical datum be available for industry to perform independent analysis , and that potentially affect party have ample opportunity tocomment on all relevant study and specific propose wireless implementation .",3
"where the potential for interference to incumbent c - band satellite operation exist , the commission must refrain from take any action that could negatively impact the delivery of news , weather , and other television content important to consumer .",0
"in other word , the record in this proceeding must affirmatively demonstrate the absence of harm to all 114 million television household before enable additional wireless deployment in the 3.5 ghz band .",-2
"in addition to the potential domestic satellite impact that could result from the nprms proposal , the commission should also take into account broad international consideration as part of its decision make in this proceeding .",0
"specifically , a wide range of content interest , include but not limit to the content companies , also use the c - band for television content delivery abroad .",-1
"in some case , this include frequency from 3.4 - 3.7 ghz that be not otherwise use for these purpose in the united states .",0
"give the importance of this international distribution to the significant positive u.s. trade balance that the content industry promote , the commission must carefully consider the precedential impact in the international arena i.e. , wrc-15 of any new domestic wireless allocation in the c - band .",2
