text,score
alcatel - lucent submit these comment in response to the above - caption notice of propose rulemaking,0
nprm seek comm ent on service rule for unlock thepotential for shared use of the 3550 - 3650 mhz band .,0
"i. introduction and summaryalcatel - lucent be the trust transformation partner of service provider , enterprise , and strategic industry worldwide , provide solution to deliver voice , data and video communication service to end - user .",1
"a leader in mobile , fix , ip and optic technology , and a pioneer in application and service , alcatel - lucent be name on mittechnology reviews 2012",0
"top 50 list of the world most innovative company for breakthrough such as its small cell , lightradiotm t echnology , which cut power consumption and operating cost on wireless network while deliver lightning fast internet access .",4
"alcatel - lucent currently sell a portfolio of small cell product with 3 g , long term evolution lte as well as wifi capability , automatic network discovery and selection function andsf gateway for enable",2
wifi3g4 g handover and host - neutral device neutral platform for usethe world over .,0
"alcatel - lucent also be at the forefront in explore dynamic spectrum sharingarrangement and use of whitespace spectrum in small cell , and participate in each of thecommerce spectrum management advisory committees work groups to collaborate withthe united states government and other industry representative on share solution inspectrum band currently allocate for federal government use .",2
"alcatel - lucent leverage theunrivale technical and scientific expertise of bell labs , a lead innovator in thecommunication industry .",2
"alcatel - lucent appreciate the commission recognition of the benefit of smallcell to mobile network generally , as well as for the 3.5 ghz band .",3
"while exploration of smallcell in the 3.5 ghz band be relatively new , the value of small cell technology in other band , throughout the wireless ecosystem , be well recognize .",1
"alcatel - lucents lightradio be a keyenabler of network densification , one of many technology carrier be deploy to squeezeevery ounce of utility out of their spectrum holding .",0
"by add small cell to their network , carrier be supplement exist macrocell deployment with cell close to end user",0
topermit great reuse of scarce wireless frequenci es .,0
"small cell also be an excellent tool to fillin coverage gap and offer the promise of assist with offload traffic from congested network , reroute traffic to landline network .",1
"in this proceeding , the commission have recognize that the low power technology deploy in small cell may unlock the 3.5 ghz band .",0
"indeed , due to incumbent government use that will remain in the band , the nprm note that high power commercial wimax technology would result in expansive exclusion zone , exclude approximately 60 of theu.s.",0
population from the benefit of service in the band .,1
"in contrast , by leverage low power small cell , and give the short propagation characteristic of the band , the commission propose to significantly shrink those exclusion zone and substantially increase the value of the band for non - federal use .",0
"to quote commissioner rosenworcel in her statement to the nprmhow cool be that while open to the commissions approach to the 3.5 ghz band , there be several change to the commissions proposal that alcatel - lucent believe will enhance it .",2
"in particular , alcatel - lucent urge the commission to not be overly prescriptive in place of market force .",0
the commission should allow the market to unfold without place undue restriction on use of the band and formulate rule that allow experimentation with multiple use case .,-2
"for example , to the extent commercial wireless operator seek access to the band , their service may require quality of service guarantee .",1
"as a consequence , the commission should not prescribe an arbitrary class of entity that be eligible for priority use of the band , but rather should permit any entity that desire a high - quality of service in the band to seek that priority access .",-1
"wireless access , traffic offload and non - line - of - sight nlos backhaul be example of potential carrier use in the band , not all of which be enable by the commissions proposal .",0
alcatel - lucent further request that the commission not seek to arbitrarily set power limit across the band .,-1
"different parameter may be appropriate across different geography and topography , and depend on indoor or outdoor use .",1
the commissions proposal to establish a spectrum access system sa s be recommend as a means to maximize non - incumbent use of the band .,1
"it be of great importance that the sas have access to complete , up - to - date information .",1
"there be several method for entity to gain access to the band to ensure it be put to its good use , include through commercial fee or through auction .",2
alcatel - lucent further recommend that this band be likely most amenable to time division duplexing tdd due in large part to the relative ly large duplex gap that would be require for frequency division duplexing fdd at this freque ncy .,2
a critical component to unlock the utility of the 3.5 ghz band be gain as much information as possible about incumbent federal use of the band .,0
"further study of exclusion zone during incumbent operation , datum regard temporal usage pattern by federal incumbent and the like be critical to maximize the value of this band for non - federal operation .",0
"the commission should permit innovation and experimentationthe commission should not limit prioritized acces s to niche users in the nprm , the commission propose a multi - tier spectrum accessframework which would include a priority access tier tier 2 for limited category of user andsuggest such user may be hospital , utility , s tate and local government andor other user .",-1
the commission also anticipate that priority access user will operate primarily indoor .,0
"alcatel - lucent urge the commission to not reserve high - quality use of this band to a subset of potential user , or indoor - only scenario .",0
"rather , alcatel - lucent assert that a superior approach would be for all non - incumbent user to be eligible to participate in the priority access tier , subject to the same benefit and responsibility in the band .",2
"for example , any class of user that demand wireless service with high quality of service guarantee , high reliability and availability should be eligible to obtain such access .",1
cellular operator would be among the entity that would have such need .,0
"without the capability to gain priority access to the band , any operator contemplate develop expensive infrastructure to use this band would necessarily worry that new primary service may emerge that may eliminate secondary resource and essentially strand any investment for secondary use .",0
"furthermore , alcatel - lucent urge the commission not to limit priority use of the band to area where no interference from incumbent operation would be reasonablyanticipate .",-2
"it be one thing to ensure incumbent user be protect from commercial use in the band , it be quite another to tell a class of user",1
they be not permit to operate in an area because they would be subject to a level of interference from incumbent user .,-1
it should be up to the authorize user to determine whether a give level of interference be acceptable for its operation .,-1
"even in those geography where there be incumbent operation that may materially impair non - incumbent use , those incumbent operation may not operate every hour of every day .",-1
"today share technique be sufficiently dynamic that certain geography would offer high - quality service opportunity , while signal user to move to other frequency during time of incumbent use .",2
"many of these capability hinge on the quality andtimeliness of information provide to the sas , as discuss further below .",1
"the record in this proceeding , include further investigation into incumbent use , will well define the market opportunity for priority use of the band , include inside area previously designate as exclusion zone .",0
"b. potential carrier uses of the 3.5 ghz bandalcatel - lucent believe that , among the potential use of the band , the 3.5 ghz band present an opportunity for deployment of fixed wireless access , wireless backhaul for small cell , indoor and outdoor small cell , or perhaps even macrocellular use in region far from incumbent user .",0
"specifically , the 3.5 ghz band could be utilize for fix wireless broadband access in rural and semi - urban area leverage outdoor small cell .",1
"where technology such asphantom dsl , pioneer by alcatel - lucent , or fiber - to - the - node , curb , or home fttx may not be cost - effective or feasible , wireless solution offer another tool for bolsteringbroadband access .",2
verizons home - fusion be an example of a wireless broadband solution be use as a fix - line substitute .,0
"access to the 3.5 ghz band , along with a system to ensure high quality of service , could be instrumental in enable similar offering .",1
service provider in the americas be roll out heterogeneous network hetnets where outdoor small cell micro and metro cell and indoor small cell femto and pico cell be embed in the cove rage area of macrocell .,-1
"as detail in a 4 g americas whitepaper , small cell and macrocell can share the same channel spectrum bandsin the carrier license band for add spectral efficiency .",0
"the result interference interaction across macro and small cell layer need to be control to achieve optimal performance , and alcatel - lucent small cell product , for example , already support cut edge solution for such interference management .",0
"small cell deployment be support with co - channels , soft - reuse of co - channel , as well as s eparate channel .",3
"consequently , the 3.5 ghz band may be particularly useful for small cell use -- especially the priority access portion -- as an additional offload resource in a hetnet .",1
"the 3.5 ghz band also could be employ for wireless backhaul , solve an important impediment to great small cell deployment .",1
small cell technology be a promising part of the solution to the spectrum crunch .,1
"however , availability of backhaul to connect small cell into a carrier network be critical to its widespread rollout .",-1
"because of their small size and visual profile , small cell be expect to be deploy on a large variety of site far beyond rooftop , include bus stop , advertising panel , sidewall of building , traffic signal , utility pole , etc .",1
such deployment be often at a height range from 8 to 20 foot .,0
"great height require careful and expensive site acquisition , more expensive installation , and high labor cost training , equipment , insurance , etc ..",-1
"while the ease of deployment of small cell be a very attractive feature of the technology , it also pose challenge with respect to backhaul .",3
"put small cell in arbitrary place , and in far large number than macrocell , make the cost of provide wireline backhaulan expensive proposition .",-2
"in fact , in many case , the cost of deploy wireline backhaul may exceed the cost of the small cell .",1
"therefore , an inexpensive wireless backhaul solution would be an valuable tool for facilitate large scale deployment of small cell .",3
"in the absence of such a solution , small cell deployment may be limit to location where wireline backhaul be available .",-1
"traditional wireless backhaul solution , such as line - of - site los backhaul provide challenge in a small cell setting .",0
"deployment of small cell at height 20 foot or low put them in a clutter environment with significa nt obstacle e.g. , vehicle , bus , truck , building , tree .",-1
traditional microwave backhaul solution at 286080 ghz mmwave solution require line of site that be often not available due to this clutter .,1
"in contrast , in sub-6 ghz spectrum band , nlos backhaul be feasible , as it can well penetrate obstacle describe above .",1
therein lie the challenge .,-1
"since large swath of dedicated spectrum below 3ghz be not available , a solution must be identify in spectrum band between 3 to 6 ghz .",2
3.5ghz represent an ideal band .,1
"for this reason , alcatel - lucent urge the commission to allow 3.5 ghz to be use for short range 2 km nlos backhaul .",0
"use large scale multiple input multiple output mimo technology , alcatel - lucent can deliver cost effective high capacity backhaul solution that use low transmit power over such distance .",1
"as an additional note , because of the small size of the 3.5 ghz small cell antenna , 2x2 , 4x4 and even 8x8 mimo trx radio can be build quite cost effectively to deliver high capacity for fixed and mobile broadband and nlos backhaul application .",1
"to that end , alcatel - lucent urge the commission service rule in the band to support deployment of multi - antenna system .",1
"by allow nlos backhaul use in the 3.5 ghz band in addition to access use , the commission can help create an important tool promote robust small cell deployment to begin with.3.5 ghz power limit should not be set artificially or arbitrarily across an entire geographywhile low power technology have the capability to substantially increase the utility of the 3.5 ghz band , it be important to clarify that small cell have use in many band .",3
million of small cell have already be instal in the u.s. market outside of 3.5 ghz .,0
"most of these be indoor residential unit , but many thousand of moderate power 5 watts of rftransmit power be also be instal .",0
there should be no doubt that small cell be an important and currently commercial approach to address the spectrum crunch and the burgeon demand for wireless broadband access .,0
"in the spirit of be flexible to allow experimentation and aggressive spectrum use , the commission should not be too prescriptive in term of maximum power limit and allow sas to calculate the same on a spatial and temporal basis .",-1
this will allow small cell that may have sufficiently large coverage and help increase their value proposition in many rural and semi - urban market .,1
"in term of coordinate with federal user , the sas , describe in great detail below , can be make to coordinate the power and class of base station , include indoor or outdoor small cell , and even macrocell provide",1
they be sufficiently far from federal user .,1
"in region where there be federal user of the spectrum , even intermittent use , the constraint on power , antenna orientation tilt as well as azimuth and time of operation , will likely make the economic of instal macrocell less attractive compare to small cell .",1
"close to the federal coordination zone , perhaps only indoor small cell of low power may be all that be economical .",1
"the market , aid with coordination study with the sas , can determine appropriate tradeoff and zone of applicability for various class of wireless base station .",1
"d. sas be an appropriate way to manage use of the bandin the nprm , the commission propose to enable a s pectrum access system in the 3.5 ghz band .",1
alcatel - lucent agree that a sas be an appropriate mechanism to manage use of this band .,1
"the sas must not only protect incumbent federal operation , but should also protect secondary user from each other , and should provide sufficient information to allow secondary user to protect themselves from incumbent operation .",4
"otherwise , secondary user spectral efficiency will be reduce and the directive to use the spectrum to maximum benefit willnot be meet .",1
"in order for secondary operation to be coordinate amongst themselves , the sas need to have timely information about other nearby or co - channel radio in the geographic area .",1
this be well facilitate with a single sas spectru m broker .,2
"alternatively , the commission should require that all sas database manager share information , at least on a query basis , with other sas entity , and to share this information at predictably quick speed .",0
any outage by one will cause interference to the use of other sass .,-1
the sas mechanism be amenable to several alternative arrangement for ensure the spectrum be put to the most valuable use .,2
"for example , secondary right may be auction for maximum economic utility .",1
give the local exclusion zone require for separation fromvarious federal fix use and occasional federal mobile use,-1
e.g. naval radar,0
the geographic area for these auction ought to be regional in size rea .,0
the auction would express the market sense of the value of the spectral resource in different market and with the expected impact of the primary license holder operation .,0
an auction of the secondary license provide the license holder with maximum certainty with respect to long - term spectrum right and quality of service .,2
"alternatively , it be conceivable for a sas to essentially auction off spectral resource in time and geography to near continuously seek to maximize the spectrum utilization , perhaps even on a time scale measure in second .",0
"similarly , in place of an auction , an access fee could be charge for guarantee access .",1
the auction - base and fee - base model both would provide a way to monetize sas operation .,0
"such access model can meet multiple objective of efficient use of spectrum , high quality of communication and revenue generation .",1
"e. sas database must be complete and update in real - timegiven the importance of the sas and its database , this rulemaking should consider method to ensure the sas database incorporate accurate and timely information on spectrum occupancy , include incumbent spectrum occupancy .",2
the innovative potential of this rulemaking will be diminish if the incumbent tier spectrum usage record in sas overinflate their spectrum use in spatial and temporal dimension .,1
this can artificially diminish spectrum availability and attractiveness of spectrum in the band for non - federal use .,0
"ensure the sas have complete temporal use information be just as important as complete geographic information , as temporal usage pattern could cause certain geographic exclusion zone to disappear completely when spectrum be not in use by the incumbent user .",0
permit dynamic sas technology will spur innovation in such technology furtheringeffort to most efficiently use scarce spectrum resource .,2
similar consideration apply to non - incumbent user .,0
"in general , a light weight mechanism to track and record spectrum usage in sas will improve spectrum utilization , anomaly detection , strengthen security and improve revenue potential .",1
f. tdd be recommend for 3.5 ghz operationsalcatel - lucent recommend that the 3.5 ghz band should be reserve for tdd service .,2
any pairing of spectrum for uplink and downlink as in fdd would greatly suffer from sas reassignment of one link or the other as primary user come on - line or various secondary user move about .,-1
"at this relatively high frequency , a duplex gap would require ten of mhz to accommodate the temperature and manufacturing variation that be proportional to the frequency , likely in excess of 54 mhz over half the spectrum include in the 3.5 ghz band - use the1.5 challenging rule of the iwpcs mobile filter group .",-1
the large duplex gap require forfdd argue in favor of tdd in this band .,1
"tdd do pose certain obstacle , but we believe they can be manage in this band .",-1
"tdd use require adjacent carrier to use the same timing parameter in both phase , cadence , and compatible duty cycle .",1
"otherwise , a radio on one carrier may be transmit full power while a nearby radio on an adjacent carrier may be listen with full sensitivity .",0
"this interference scenario cause both out - of - band blocking , as well as leakage into adjacent band .",-1
"to ameliorate these problem would require filter which , at this frequency , would be impractical without substantial guard band between the various carrier .",-1
"consequently , alloperator in this 3550 - 3650 mhz band would need to operate with coordinated timing parameter , with common disciplined timing source such as gps.the coordination require among tdd authorize user can be do through private agreement , but because these be likely to be need nation - wide because geographically contiguous co - channel license must be coordinate in this way it may be good to require that the sas manage the timing parameter as well as the frequency , scheduling and space resource .",2
"alcatel - lucent caution that the commission should not mandate a specific duty cycle and cadence in its rule , but rather permit situational flexibility .",1
the desire timing parameter be evolve as different smart phone application consume more or less downlink traffic relative to uplink traffic .,1
there be also venue such as the super bowl at which an unusual amount of uplink traffic be produce as attendee upload many photo while create relatively little downlink traffic .,0
"at such an event , the sas may assign timing parameter that accommodate uplink traffic , while in the surround neighborhood , the more typical downlink - intensive timing parameter would still be use .",0
the parking lot around the stadium would serve as a buffer zone where the timing parameter would conflict but where there may be relatively little demand during the event .,-1
"as the event end , the timing parameter can be return to normal .",0
such flexibility could substantially increase the utility of the band .,1
g. air interface protocol for 3.5 ghz operationsalcatel - lucent urge the commission to not mandate use of a particular type of media access protocol in 3.5 ghz band .,0
"specifically , the commission should not mandate useof wi - fi like contention resolution base random access protocol to the exclusion of other technology .",-1
"though wi - fi may be suit for certain operation , the priority access portion of 3.5 ghz may be ideally suit for synchronous air interface protocol such as td - lte that provide high spectral efficiency and support priority traffic class .",2
"the rapid growth in the world - wide lte device ecosystem make possible cost - effective support of the 3.5 ghz band and , potentially , commercial adoption by mobile operator .",3
iii.further study of incumbent operations be requiredalcatel - lucent caution that detail technical study use simulation tool and testbed be essential to characterize various aspect of three tier spectrum sharing advocate in this proceeding .,1
"specifically , topic such as the size of exclusion zone , spatio - temporal characteristic of incumbent interference to secondary user , aggregate interference cause by low power small cell in configuration of various density , and impact of sas lease grant and termination event require careful study .",-3
"for independent study of these and other issue , industry and academia require great understanding of incumbent transmitter characteristic and their usage pattern .",0
"give that some of this information may be classify , alcatel - lucent urge fcc and ntia to establish a process for industry - government information sharing .",0
"experience with current csmac work group effort demonstrate that this be not a simple process , but these be necessary step .",1
"conclusionfor the forgo reason , alcatel - lucent fully support",1
the commissions effortsto facilitate non - federal operation in the 3.5 ghz band .,1
