text,score
the wimax forum be not - for - profit industry association that certifie and promote the compatibility and interoperability of broadband wireless product base upon ieee standard 802.16 .,0
"wimax forum certified product be interoperable and support broadband fixed , nomadic , portable and mobile service .",2
the wimax forum hereby submit its comment in response to the notice of proposed rulemaking and order the nprm in the above - caption proceeding of the federal communications commission commission .,0
"introductionon december 12 , 2012 the commission issue a notice of propose rulemaking nprm , under gt docket 12 - 354 , propose the creation of a new citizens broadband service cbs",-1
"share the 3550 - 3650 mhz band with incumbent user , with a supplementary proposal to incorporate the 3650 - 3700 mhz band under the new regulatory regime .",0
the wimax forum support the commission effort to further the overall efficiency of usage within this spectrum band by mean of the two propose technique small cell and spectrum sharing .,1
"as note in the nprm 1 , the 3.5 ghz band be identify by the national telecommunications and information administration ntia for share federal andnon - federal use in the 2010 fast track report .",1
"as note in the nprm 6 , the fast track report recommendation for the 3.5 ghz band be base on an assessment of commercial deployment of wimax equipment in the band .",2
"as note in the nprm 28 , the 3650 - 3700 mhz band be also allocate for terrestrial non - federal use .",0
wireless broadband services in that band be authorize through non - exclusive nationwide license require the registration of individual fix and base station .,0
all station operate in this band must employ a contention - base protocol .,-1
"the nprm 29 report 2,117 licensee with more than 25,000 register site throughout the united states as of october 2012 .",0
it refer 125 to the assumption in the 3650 - 3700 mhz rulemake that commercial mobile radio services licensee would operate high - powered wimax device .,0
"as note in the nprm 29 , the 2007 world radiocommunication conference wrc-07 identify the 3400 - 3600 mhz band for international mobile telecommunications imt in much of itu region 1 and in area within itu region 3.world radiocommunication conference resolution such as wrc-12 resolution 223 specify that that imt incorporate imt-2000 and imt - advanced .",1
"the imt-2000 recommendation itu - r m.1457 incorporate the wirelessman - ofdma airinterface specification of ieee std 802.16 , as incorporate in wimax .",1
"the imt - advanced recommendation itu - r m.2012 incorporate the wirelessman - advance air interface specification of ieee std 802.16.1 , as incorporate in wimax forum specification t28 - 001-r020v01.in",2
"many country , the band 3600 - 3800 mhz be also be consider for imt .",0
"for example , a european commission decision 2008 move to harmonize the entire3400 - 3800 mhz band .",1
"the cept european conference of postal and telecommunications administrations electronic communications committee in 2011 agree on a harmonized tdd time division duplex frequency arrangement in the 3600 - 3800 mhz band , move to provide a contiguous 400 mhz of radio frequency spectrum to a unique opportunity to meet some of the new demand for mobile broadband .",0
many in the industry worldwide be view the 3.5 ghz band as favorable for small - cell operation .,1
"in february 2013 , itu - r working party 5d which develop and maintain imt specification begin preliminary drafting of a compatibility study between fss network and imt system in the band 3 400 - 3 600 mhz for small cell deployment .",0
"the ieee 802.16 working group begin , in january 2013 , to develop projectp802.16r to enhance the wirelessman - ofdma air interface use in mobile wimax for application to small cell backhaul .",1
the work address small cell base station that be fix or nomadic and may support mobile device .,2
the backhaul band be presume to be below 6 ghz and distinct from the mobile band of the small cell .,0
"the exist ieee 802.16 point - to - multipoint architecture will be maintain , with a single p802.16r base station support multiple small cell , without a line - of - sight requirement .",1
the p802.16r project will utilize standardize carrier ethernet transport connectivityto backhaul small cell .,0
"the user side of the small cell can support arbitrary radio technology , such as lte , wi - fi , mobile wimax , etc .",0
"by utilize standardized carrier ethernet transport , the p802.16r project will provide support not only for small cell but also for a variety of industrial application , such as oil and gas field communication , smart grid communication , and other utility application .",3
all of these could readily be deploy in the 3.5 ghz band under a suitable regulatory scenario .,2
"for these reason , we believe that the significant trend in industry as well as within worldwide regulatory body be to view the 3400 - 3800 mhz band as a core band for future deployment of wimax and other 4 g technology for fixed and mobile broadband , include small cell deployment and backhaul .",2
we believe that the commissions effort to provide additional opportunity for imt - like technology in the 3.5 ghz band be consistent with these worldwide trend and will leverage the result synergy and economic efficiency .,3
"unnecessary restriction in the band 3650 - 3700 mhzwimax technology have be widely deploy in the 3650 - 3700 mhz band , as discuss above .",-2
"however , such deployment have be restrain by regulatory limitation .",-1
deployment of equipment be significantly restrain by the excessive 150 km exclusion zone surround grandfathere fss earth station fss earth station .,-2
"deployment of wimax equipment be also hamper by failure to account for the fact that wimax technology provide a point - to - multipoint architecture in which subscriber station , whether fixed or mobile , be under the control of a base station .",-2
"the regulation part 90 , subpart z require that a licensee can not operate a fix or base station before register it under its license 47 c.f.r. 90.1307 .",0
"however , they also allow 47 c.f.r. 90.1333 mobile and portable station only if they can positively receive and decode an enable signal transmit by a basestation .",2
we introduce the term subsidiary station in this document to refer to station that operate under control of an enable signal transmit by a base station .,0
the language of 47 c.f.r.,0
90.1333 appropriately recognize the principle that a subsidiary station nee not be subject to the same restriction as the base station itself .,-1
"unfortunately , part 90 , subpart z recognize the subsidiary station concept only with regard to mobile and portable station .",1
"fix subscriber station be subject to the same requirement as base station , include the requirement that the subscriber station be register .",0
"the requirement to register each fix subscriber station in the fcc public universal licensing system uls database be a major deterrent to deployment aside from the administrative burden , it violate the demand of both the operator and the subscriber to maintain privacy regard the nature of the subscription service provide to private address .",-2
"the wimax forum propose a broad recognition of the opportunity to reduce restriction on all subsidiary station , fix as well as mobile .",0
we return to this concept below .,0
"in the case of the 3650 - 3700 mhz band , we urge the commission to remove the requirement for uls for all subsidiary station , fix as well as mobile .",1
"small cell deployment demand wireless backhaulthe wimax forum endorse the view of the nprm , and of its cited pcastreport , that increase use of small cell network deployment will enhance capacity within exist spectrum resource by take advantage of spatial reuse .",3
high - capacity deployment demand high - capacity backhaul .,0
small - cell deployment demand distribute high - capacity backhaul .,0
"to provide efficient service , small cell must be locate accord to capacity demand , not only accord to wireline backhaul availability .",1
"in an effective small cell deployment , a wireless backhaulsystem , in which the small cell backhaul connectivity be wireless , will allow cell to be site without regard to wired connectivity .",2
"since fixednomadic wireless technology be well suited to provide distribute backhaul , and since mobile spectrum be well use for access rather than for backhaul , we urge the commission to consider fixednomadic backhaul spectrum as a critical element of the small - cell deployment scenario .",1
the wimax forum support the use of a spectrum access system sas with provision for subsidiary stationsthe wimax forum support the nprms proposal to enable sharing base on a spectrum access system,2
sas incorporate a dynamic geolocation database .,1
many radio system such as wimax and lte system will operate as base station communicate with subsidiary station that as define in paragraph 18 above operate under control of an enable signal transmit by a base station .,0
the wimax forum urge the commission to specify that subsidiary station need not communicate directly with the sas but can instead operate under the control of a base station that communicate with the sas directly or indirectly .,0
"thus , for example , and lte handset may operate under the control of an lte small cell base station .",0
"if the small cell base station control the transmission of the handset and be configure so as to be control directly or indirectly by the sas , then the handset should not be require to directly access or respond to the sas .",0
such indirect control could be provide over the wired or wireless link provide backhaul to the small cell base station .,0
"the wimax forum do not object to mitigation technique such as beaconing , but it have serious concern regard a mandate of individual device to sense and respond to beacon .",-1
"give that device will be responsive to a sas , we believe it would be incumbent for the generator of the protective beacon to provide sensor technology to sense the beacon and insert information into the sas database accordingly .",2
"this would allow the individual device to refer to the sas database alone for information about current usage among the incumbent and priority accessusers , without be force to bear the capital expense and electrical - power burden of operate a sharing receiver .",-1
"the wimax forum generally support the supplemental proposal to incorporate the 3650 - 3700 mhz band into the propose regulatory regimethe nprms offer a supplemental proposal to include the 3650 - 3700 mhz band 77 - 82.generally speaking , the wimax forum support the nprms supplemental proposal for the 3650 - 3700 mhz band .",2
"the exist non - exclusive , nationwide licensing system have be reasonably effective , although we have concern state above regard the need for more flexibility in the regulation .",3
"the spectrum access system sas propose in the nprm could provide a more definitive and effective solution to the problem address by the contention - base protocol requirement , while also allow geographically broad deployment consistent with appropriate protection .",2
"the propose license by rule framework 63 would streamline deployment as compare to the light license scenario of the current 3650 - 3700 mhz band , particularly with its onerous requirement to register each fix device .",-1
we believe that the 150 mhz contiguous block would be in the public interest .,0
"we support the view 80 that the utility of the band could increase , attract new operator and encourage the development of a large equipment market and that economy of scale could drive down the price of equipment for current 3650 - 3700 mhz licensee and future citizens broadband licensee , make it more affordable for new and exist operator to expand their service offering .",3
"incorporation of the 3650 - 3700 mhz band into the propose regulatory regimeas note previously , the wimax forum generally support the nprms supplemental proposal to include the 3650 - 3700 mhz band",1
77 - 82.the wimax forum agree with the observation 81 that such a transition wouldlikely entail equipment upgrade and technology conversion and urge the commission to take these into consideration .,0
we recommend a three - year transition period .,1
the current out - of - band emission limit in the 3650 - 3700 mhz band 4310log,-1
"p db at the edge of the authorize licensed block , as note in 137 be appropriate for consideration for the 3550 - 3650 mhz cbs band .",1
"as note early , fixednomadic wireless backhaul should be consider as a necessary element of a small - cell deployment scenario .",0
"if small - cell deployment flourish in the 3550 - 3650 mhz band under the propose rule , then the lightly - license 3650 - 3700 mhz band could become significantly deploy for backhaul service of those same small cell .",1
"we suggest that , if the citizens broadband service emerge under the propose three - tier share access model , then backhaul of small cell be grant priority access status in the 3650 - 3700 mhz band .",0
"conclusionthe wimax forum endorse propose citizens broadband service in the 3550 - 3650 mhz band , with appropriate regulatory support to allow that service to flourish .",4
"the wimax forum endorse the supplementary proposal to include the 3650 - 3700 mhz band into the new propose regulatory regime , incorporate opportunity to support the backhaul of fixed and nomadic small cell .",2
