text,score
executive summarycomsearch be enthusiastic about the commissions effort to create a new citizens broadband service in the 3.5 ghz band .,1
we believe the lesson learn from several commission approach to spectrum sharing can help to inform the propose spectrum share regime for this band .,0
we also believe the need to protect incumbent federal operation while safeguard sensitive datum on these system be the most important aspect of spectrum sharing in the 3.5 ghz band .,3
"we believe that a database - enable approach , such as the spectrum access system sas , be the good way to promote sharing and govern interaction in this band .",1
we envision the sas as a system of database comprise a single federal information and control clearinghouse plus commercial 3.5 ghz database .,0
we believe the sas should be manage through a federally - designate manager .,0
we think this approach will provide a way to analyze interference with federal system while sufficiently protect the sensitive datum on these system .,2
this will help to maximize the utility of the 3.5 ghz spectrum by enable operation throughout the country while provide full protection of the incumbent federal and commercial system .,1
"finally , we believe the reliance on geolocation technology be paramount in the success of the sas .",2
"accordingly , we believe that further study of geolocation technology may be need consider how the 3.5 ghz band device may be deploy and utilize .",0
"comsearch commentsin response to the above - mention notice of proposed rulemaking nprm , comsearch hereby submit the follow comment .",0
introductioncomsearch applaud the commissions effort to make more spectrum available through the new citizens broadband service in the 3550 - 3650 mhz,2
band 3.5 ghz band .,0
"we believe that allow new type of system to operate in the 3.5 ghz band , with the appropriate protection for incumbent operation , present exciting and new opportunity for the development , manufacture , and deployment of commercial broadband system and device .",3
we believe the lesson learn from several commission approach to spectrum sharing can help to inform the propose spectrum - share regime for the 3.5 ghz band .,0
"indeed , perhaps the most important aspect of spectrum sharing in this band be the need to protect incumbent federaloperation while safeguard sensitive datum on these system .",3
this be also the most challenging to solve .,-1
comsearch backgroundcomsearch be a lead provider of spectrum management and wireless engineering product and service to the commercial and federal market .,1
"since 1977 , comsearch have be actively engage with commission , the national telecommunications information administration ntia , and various industry group and standard organization to develop rule , industry recommendation , and standard that promote the efficient use of the radio spectrum .",2
"comsearch have extensive experience work with mobile , fix point - to - point , point - to - multipoint , and satellite system .",1
"our solution focus on key area of spectrum management include frequency planning and administration , monitoring and interference measurement , wireless engineering , and strategic consultation .",-1
"our experienced engineer , software product and information database address the specific challenge of network design and spectrum management for the wireless industry in both the commercial and government sector .",0
"in addition to be an fcc - authorize tv white space tvws databaseadministrator and an fcc - certify 70 - 80 - 90 ghz link registration database administrator , we support the american society for healthcare engineering ashe of the american hospitalassociation as the wmts frequency coordinator , and we support ctiathe wireless association ctia in the ongoing management of the ctia aws cost - sharingclearinghouse .",2
"we have develop numerous software product to address the engineering challenge of network planning , spectrum management , and spectrum administration , band sharing , incumbent relocation , and spectrum administration .",0
"for over 35 year , comsearch have be at the forefront of evolve spectrum management issue .",-1
some of our pioneer effort includethe early effort in transitional sharing with the personal communications service pcs where new mobile service be require to share spectrum with incumbent user before they be relocate .,0
we be heavily involved with utam to help unlicensed pcs device share with incumbent use .,-1
we develop method in the advanced wireless service aws to support transitional sharing between aws licensee and both commercial and federal incumbent .,2
"we have be a significant contributor to tia bulletin tsb10-f , which detail methodology for mobile system to share with point - to - point microwave system .",1
we be the primary architect of the 70 - 80 - 90 ghz automate coordination regime where we develop the process to share datum with ntia on a real - time basis .,0
we be also a contribute author of the coordination handbook associate with this service .,0
we have develop automate process and system to allow spectrum sharing of point - to - point microwave link and satellite earth station .,0
"through all these effort , we have develop extensive expertise in rf interference analysis , interference troubleshooting and measurement , and propagation modeling .",-2
"through our comsearch government solutions cgs division , we provide innovative engineering product and service to the dod and other federal government and state and local agency .",1
"leverage over 35 year of expertise in spectrum management , emiemc analyse , radiation hazard and e3 field measurement of wireless technology , we support critical government mission in the area of national defense , public safety , and homeland security .",0
we also have extensive experience work with the federal spectrum management database and system .,1
most of cgs staff have active security clearance .,0
"commentsspectrum access system operationin the nprm , the commission describe a spectrum access system sas in term relative to the tvws database and the pcast report as a way to govern interaction amongdevice in the 3.5 ghz band .",0
"while we believe that database - enable system be the proper approach to promote sharing and govern interaction in this band , we also believe there be unique situation with this band that should be consider before adopt the tvws approach per se .",1
we envision the sas as a system of database comprise a single federal information and control clearinghouse clearinghouse plus commercial 3.5 ghz database .,0
we think this approach will provide a way to analyze interference with federal system while sufficiently protect the sensitive datum on these system .,2
the general operation of the sas be describe below .,0
both the nprm and the ntia fast track report describe exclusion zone to protect incumbent system .,1
"however , the commission note that the exclusion zone describe in the fast track report require to protect against interference from high - power shipborne radar thatcould operate anywhere along all three u.s. coast line would preclude access to the 3.5 ghzband for approximately 60 percent of the u.s. population approximately 190 million people .",0
"in addition , the fast track report describe two type of ground - base radar system andpresent exclusion zone around system at several location show below in figure 1.comsearch believe a critical function of the sas be to maximize the utility of the 3.5 ghz spectrum by enable operation in these zone while provide full protection of the incumbent federal system .",0
"in reality the shipborne radar operation would probably not occur continuously and simultaneously along all three coast line , but more likely in specific location either in port or at sea .",0
"therefore , it should be possible to perform near real - time analysis with these system use more exact analysis methodology e.g. multiple propagation model , specific ci criterion ,",0
"antenna gain discrimination , etc . assume their location , movement andconfiguration be know .",0
figure 2 below show a plot of the large protection zone from thefast track report for shipborne radar as the ship may be in port along with both protection zone for ground - base radar .,1
this figure depict how exclusion zone may be reclassify asprotection zone around actual area of shipborne operation .,-1
"consider that the datum on these federal operation may be either classified or otherwise not publically releasable , share analysis with these federal system would be perform through the clearinghouse .",0
the ground - base radar would also be include in this analysis .,0
"the clearinghouse would then return the device operate parameter i.e. , power and frequency at the device location that will protect the operation of the federal system .",1
this be depict notionally below in figure,0
3.device operation anywhere outside the protection zone could be administer by the 3.5ghz database .,1
"with the exception of protect earth station , this administration would consist mainly of provide operating frequency between and among the priority access and general access license tier use mutually - agree to criterion .",1
we suggest this criterion could be develop by industry stakeholder .,0
"however , for protection of earth station , we suggest that it should be feasible to calculate interference into the earth station use well - establish interference analysismethodology rather than employ exclusion zone .",0
"much like with the federal radar , protection zone could be establish around the earth station list in the nprm",2
"such that device operation within the protection zone would be condition upon the database perform an interference calculation use the specific , license operating parameter of the earth station .",0
the result would be for the database to determine the device operate parameter .,0
"we suggest that further study be need to determine the extent of the protection zone consider therespective type of equipment involve , actual operating parameter , and typical use case .",1
the notional depiction of the sas architecture include interface from the clearinghouse and the 3.5 ghz database into the fcc and ntia .,0
"as indicate , the fcc interface would be require to verify a device fccid and interact with the univeral licensing system or other commission licensing system as require .",0
"in addition , the fcc interfacecould be use to disable device as need .",-1
the interface into ntia would be require to accessfrequency and equipment authorization system as well .,1
"spectrum access system administrationas mention above , we believe the sas can comprise a system of multiple database .",0
we believe the sas could be establish through either a non - profit entity similar to wmts database administration or a select entity similar to numbering or number portability .,0
"indeed , the commission , refer to the pcast report , acknowledge this concept in the nprm when ask whether the commission , a commercial entity , or another federal entityshould create and manage the sas .",0
"accordingly , comsearch agree with the pcast and believe the sas should be manage through either a federal entity or a federally - designate manager .",0
we suggest the latter .,0
"as mention above , the sas manager may come about in several waysthe commission or ntia could outsource the responsibility through a competitively - bid contract , the sas management could be take on by an exist industry association , ora new organization could be form of 3.5 ghz stakeholder for the purpose of develop , maintain and run the sas similar to utam.the sas manager could be responsible for establish and manage the clearinghouse and select the 3.5 ghz database adminsitrator .",0
"in addition , the sas manager would be require to make a statement of non - discrimination .",-1
"basic responsibility of the sas manager would includemaintaine and safeguard datum on federal system and operation , analyze interference into federal operation in real or near - real time , interface with device and 3.5 ghz database to provide operating frequency base upon query , select and oversee 3.5 ghz database administrator , ensure fee be reasonable and non - discriminatory , establish a dispute resolution process .",-2
geolocationcomsearch suggest that additional investigation be necessary into the geolocation requirement associate with the operation of the sas and device .,0
"stakeholder must determine the specific geolocation requirement in term of accuracy , latency and yield , and assess the capability of the available location technology require and available to meet those requirement in the various expect operating environment , particularly indoor .",2
"the need to protect incumbent operation be critical , and will be base largely upon the ability of device to geolocate .",0
"base upon the feedback in this proceeding , the commission may want to consider a specific investigation into geolocation technology that can support operation of 3.5 ghz device consider mobile , nomadic , and fix use case .",1
"conclusionswe believe that allow new type of system to operate in the 3.5 ghz band , with the appropriate protection for incumbent operation , represent exciting and new opportunity for the development , manufacture , and deployment of commercial broadband system and device .",3
"database - enable system be indeed the proper approach to promote sharing and govern interaction in this band use the sas methodology discuss herein , provide sufficient protection to the incumbent operating system while safeguard datum on the federal system .",3
"in addition , give the expect reliance on gelocation technology , we suggest the commission may need to further study these technology consider how the 3.5 ghz band device may be deploy and utilize .",0
