text,score
tarana wireless hereby submit supportive comment in response to the commissions notice of propose rulemaking nprm in the above - referenced proceeding .,1
"tarana wireless have pioneer the development of absoluteair , the world onlyuniversal backhaul solution that meet mobile carrier requirement for metropolitan small cellbackhaul deployment .",0
it provide the flexibility and simplicity of deploy wireless backhaulanywhere small cell be locate without compromise capacity or link reliability .,1
"build fromthe ground up as a carrier class product , this breakthrough innovation combine ubiquitouscoverage , unprecedented capacity and scalability , and unparalleled cost effectiveness in bothnon - line - of - sight nlos and line - of - sight los installation that can not be meet by any otheroffering .",4
we applaud the commission effort to make additional spectrum available to address the exponential growth in wireless network capacity demand .,2
"to that end , we respectfully submit the follow comment in response to the fccs nprm amendment of the commissions rules with regard to commercial operations in the 3550 - 3650 mhz band .",2
small cells address sepctrum capacity needstarana wireless share,0
the commission expectation that increase small cell availability can help address constraint on spectrum capacity .,0
"quite simply , without additional small cell capacity , grow traffic demand will exceed available network capacity .",2
tarana wireless concur with the nprms observation that demand for wireless broadband capacity be grow much fast than the availability of new spectrum .,1
"while the commission and the president have outline a path for nearly double the amount of available spectrum for fixed and wireless broadband use , some expert forecast a need for a thousand - fold increase in wireless capacity by 2020.small cell deployment be already a critical element in the wireless carrier strategy to address capacity need .",0
however one of the large operational challenge to small cell deployment be high capacity non - line - of - site wireless backhaul .,0
generally fiber optic cable be not readily available where outdoor small cell be require .,2
similarly the trenching of fiber optic cable be generally cost prohibit for small celldeployment .,-1
tarana wireless note that generally when fiber connection be not available,1
", small cell deployment often require nlos backhaul .",0
"for example , small cell that be locate at street level generally be without line - of - sight connectivity , hence nlos connectivity be required.3.5 ghz band characteristicsin light the desirability of nlos connectivity for small cell deployment , a significant advantage to 3.5 ghz spectrum as a backhaul solution be that it can support nlos propagation in fix point - to - point ptp and point - to - multipoint ptmp topology .",3
tarana wireless recommend that a holistic approach to small cell deployment anticipate a system comprise of the small cell plus backhaul nlos radio .,1
"accordingly , a modest amount of the spectrum should be allocate in the ratio of 14 , approximately 30 mhz for wireless backhaul in support of small cell .",2
this provision will accelerate the rapid deployment of the small cellbackhaul system since the solution to backhaul bottleneck be adequately address .,1
the backhaul band should be time division duplex tdd in order to maximize the efficient use of spectrum asymmetrical downlink and uplink traffic rate .,1
"in order to meet the backhaul capacity requirement of a small cell , , a minimum of 20 to 30mhz of tdd 2 - 4 channel by 10mhz spectrum be recommend anticipating that spectrally efficient 30 bitssechz method would be use in this spectrum .",2
additionally an appropriate guard band should be reserve for wireless small cell backhaul in 3.5ghz band .,1
it be envision that spectrum so allocated will be sufficient to service the small cell backhaul requirement for a metropolitan area .,1
"to ensure a robust and deterministic backhaul operation , tarana wireless suggest that band should be license .",1
"exclusive licensed , flexible - use spectrum band have prove utilization efficiency , adoption density , and well - establish party to sustainably deploy them .",2
tarana wireless note that highly spectral efficient 3.5 ghz small cell backhaul solution be available now and can be leverage to backhaul,3
exist 3g4 g small cell in the cellular band .,0
"consider that no 3g4 g handset currently support 3.5ghz , it would take many year for handset to become available in order to commercialize the band for the cellular market .",2
technical rule recommendationstarana wireless suggest no change to the exist 3.65 ghz lightly license band to enable current service provider and small company to continue leverage that band .,1
tarana wireless offer,0
several specific technical rule recommendationsthe rule should permit conduct transmitter power of 100 milliwattsmhz similar to small cell into the antenna system at the small cell terminal radio .,0
"the backhaul rule should permit advanced smart antennas systems sas to enhance spectrum reuse , to enhance spectral efficiency , and to provide interference mitigation .",3
"sas should allow multi - user beamforme where the number of beam be n.sa should allow 2 x 2 mimo at a minimumin ptmp system with multiple beam , the rule should limit the transmit power per beam to 100 milliwattsmhzsame as tx power at backhaul terminal radio .",-1
spectral mask should be 43 db 10logp where p be the conduct transmitter power inwattsno listen before talk protocol requirement,0
