text,score
eibass reply comment to the globalstar petition for rulemakingengineers for the integrity of broadcast auxiliary services spectrum eibas,0
"hereby respectfully submit its comment in response to the november 30 , 2012 , public notice 2971 regard a november 13 , 2012 , petition for rulemaking submit by globalstar , inc. globalstar .",2
that petition ask the commission to create a new radio service that globalstar refer to as the advanced wireless services 5terrestrial low - power service aws-5tlps .,1
"in effect , another commercial mobile radio service cmrs band .",0
"the comment deadline be extend to january 14 , 2013 , give a january 29 reply comment",0
deadline.1 therefore these eibass comment be timely file .,1
filing by 2.4 ghz part 15,0
"wi - fi proponentsthree 2.4 ghz wireless fidelity wi - fi proponent , the bluetooth special interest group bsig , the wi - fi alliance wi - fi alliance , and wireless internet service providers association wispa , file comment express concern about interference from the propose aws-5tlps operation to 2,4002,483.5 mhz part 15 wi - fi operation .",-1
"yet none of these group acknowledge in their comment that their 2,4002,483.5 mhz part 15 wi - fi use be secondary to 2,4502,483.5 mhz",0
"tv broadcast auxiliary service bas station , or that a partdevice may not cause interference to , and must accept interference from ,",-2
"any licensed station.2 eibass find such apparent unfamiliarity with spectrum allocation and the difference between unlicensed , unprotected part 15 operation vs. license , protect part 74 station as both surprising and disappointing .",-1
"thus , bsig , wi - fi alliance , and wispa should be far more concerned about interference from up to 65 dbm eirp tv pickup station than from up to 36 dbm eirp tlps station or from up to possibly 62.1 dbm eirp aws-5 base station .",-2
"likewise , bsig , wi - fi alliance , and wispa should be concern that if the commission start aggressively enforce the section5b requirement that a part 15 device not cause interference to a licensed station , the large metro area would become off - limit to wi - fi .",-3
"that is , those area with co - channel tv bas a8 and a9 station , which 2.4 ghz wi - fi user be obligate to protect.3",0
"in order to make re - farming of the 2.5 ghz tv bas band attractive to incumbent broadcaster , it would probably be necessary to clear from the 2,4502,483.5 mhz portion chronically - interfere wi - fi operation .",1
"perhaps the recently open - up 3,5503,650 mhz band,4 or an expand band for part 15 device at 5 ghz , would be good candidates.5 in any event , until tv bas channels a8 and a9 be restore to the same low noise floor that 2 ghz band tv bas channels a1 through a7 enjoy , a re - farming of the 2.5 ghz tv bas band , to create three 12-mhz wide digital channel and thus allow clearing grandfathere a10 stationsfrom 2,483.52,500 mhz , may prove not attractive to broadcaster .",2
"but until grandfathere a10 station can be relocate , the mss s - band , and brs channel 1 station as well , will have to live with restriction on where they can deploy .",0
"this be because there be grandfathere a10 licensee in many of the top metropolitan area , as show by the attach figure 1.6in the wt docket 10 - 153 bas flexibility rulemaking , the commission open up the 7 and 13 ghz tv bas band to part 101 fixed service fs station , but only for path outside the operational area all tv pickup station in the same band .",2
"that is , a single tv pickup station authorize for a single 7 ghz tv bas channel preclude the entire 7 ghz tv bas band to newcomer fs station , and a single tv pickup station authorize on a single 13 ghz tv bas channel preclude the entire 13 ghz tv bas band to newcomer fs station .",0
the preclusion be that no portion of the new fs path can touch the tv pickup station operational area of record .,0
"thus , many of the large metropolitan area be preclude to new fs station , although this still leave large portion of the u.s. that be outside the operational area of all 7 and 13 ghz tv pickup station .",0
"eibass point out this policy to demonstrate how important the commission have deem protection of mobile tv pickup station operation i.e. , electronic news gathering eng operation to be .",2
protection of 2.5 ghz tv eng operation should be no less important .,2
"a re - farming of the 2.5 ghz tv bas band would also be the appropriate time to address coordination with medical telemetry device use unprotected , secondary , 2.4 ghz wi - fi frequency .",1
"as eibass comment in the et docket 09 - 36 rulemaking regard medical micropower network service mmns device propose to share the 450 - 451 mhz part 74 subpart d remote pickup rpu band , use of radio frequency for medical application should only be on a protect basis , whereas the mmns use be propose as a secondary use .",2
"the 3.6 ghz band , or an expand 5 ghz wi - fi band , with a portion reserve only for medical use , and not share spectrum with high - power eng operation , be again possible frequency for should - not - be - at - risk medical application .",-1
"that is , if part 15 medical use be nevertheless to be continue , at least migrate that use to spectrum where the operation will not be at risk of interference from much high power license station .",-2
"in the mean time , a re - farming of the 2.5ghz tv bas band to three 12-mhz wide digital channel would allow establish liaison between health care facility use 2,4502,483.5 mhz and eng operation .",0
"association of home appliance manufacturers commentsthe association of home appliance manufacturers aham file comment note that globalstar would have no more right than any other user of the 2,4002,500 mhz band , and can not complain about harmful interference cause by ism device , include microwave oven , to its service.7 eibass agree , and note that tv bas station likewise enjoy no immunity from part 18 industrial , scientific and medical ism device .",-1
"however , even 2.45 ghz ism device have limit on their radiation within the ism band.8 and while ism device , like wi - fi device , be intentional generator of radio frequency energy , ism device be not intentional communicator .",0
"that is , an ism device generate rf to perform a certain task , generally heat .",0
"to the extent rf be emit into the environment , it be rf energy that be waste for the task at hand .",-1
so ism device have an incentive to minimize their emission .,0
"whereas wi - fi device be try to radiate as far and wide as possible , sometimes use unauthorized , high - gain transmit antenna .",1
"clearwire commentsthe clearwire comment address interference issue involve broadband radio service brs channel 1 at 2,4962,502 mhz .",-2
"while eibass appreciate that at least clearwire acknowledge the existence of grandfathere a10 tv bas station , and the sbe proposal to solve the a10 vs. brs1 conflict by re - farm the 2.5 ghz tv bas band to three 12-mhz wide digital channels,9 clearwire fail to mention that as the newcomer service brs licensee be obligate to pay all reasonable and prudent relocation cost of clear broadcaster from the 2,4962,500 mhz portion of brs channel 1 .",2
"either that , or , like s - band mobile satellite service mss ancillary terrestrial component atc , be preclude from operate in the area show in figure 1.iv .",1
"gps industry council commentsthe gps industry council gpsic comment state that it see no significant issue relate to globalstars propose tlps service , and mention adjacent - band ism operation as the only possible complication .",-1
eibass be disappoint that the gps industry council seem as uniformed about broadcaster use of the 2.5 ghz band as be the 2.4 ghz wi - fi user group .,-1
"iridium commentsiridium , llc iridium , oppose the globalstar proposal because of the proposal to allow globalstar to avoid gate requirement to actually use satellite for mss .",-1
"iridium argue that it have be provide a viable s - band mss service for year , and that globalstar should have the same obligation if it want to use mss spectrum .",0
"iridium be guilty of the same oversight as sig , wi - fi alliance , wispa and gpsic in not mention licensed tv bas operation at 2,4502,500 mhz .",-2
"iridium explain that since it operate in the 1.6 ghz big leo band and do not operate in the 2.4 ghz big leo band , it take no position on the globalstar tlps proposal.10 iridium state that globalstar aws-5 proposal for long - term evolution lte use be so vague as to warrant summary dismissal.11 eibass",-1
"agree that the globalstar petition for rulemaking leave many question unanswere , but these unanswered question could be address at the notice of propose rulemaking nprm stage , should the commission decide to proceed with either the globalstar aws-5 proposal , the globalstar tlps proposal , or both .",0
"as long as that next stage include re - farming of the 2.5 ghz tv bas band , and step to migrate interfere wi - fi operation to 3.6 or 5 ghz , eibass support progress to the nprm stage .",1
vi . fairness issueeibass note that section 1.405c of the commissions rules govern rulemaking proceedings statesno additional pleading may be file unless specifically request by the commission or authorize by it .,1
"in fairness to all interested party , the commission need to either not grant permission to any party to submit additional comment to rm-11685 , or , if such permission be grant to one party , then allow any interested party to also submit additional comment .",1
"summarygrandfathered tv bas channel a10 station be co - primary with mss , and there be no sunset to their grandfather",0
"as the early - in - time service , newcomer user of 2,483.52,500 mhz be obligate to either protect grandfathere a10 station , or pay all cost to relocate those station .",1
"in order to provide no loss in service and capacity , the only way to do that be to re - farm the 2.5 ghz tv bas band to three 12-mhz wide digital channel , as propose by sbe in 2004 .",-1
the problem of chronic interference from part 15 wi - fi device need to be address .,-3
"finally , medical device use unprotected part 15 wi - fi frequency should be migrate to safe band , where such use will not be at risk of interference from much high power and co - channel tv pickup station .",-1
