text,score
dear ms. dortchkwisp internet file these comment in opposition to the petition by ctia and t - mobile .,-1
our company be a small wireless internet service provider,0
wisp serve 700 customer in rural northern illinois .,0
most of our customer be in 11 census tract in northern lasalle and southern dekalb county .,0
population density be low in many case the next house or farm be half a mile away .,0
on many road you see a wisp antenna from one of 3 - 4 different wisp in a give area on nearly every roof .,0
"we obtain our nn license for the 3650 - 3700 mhz band in october , 2008 , and start deployment in september , 2010 .",0
we currently have 17 active sector at 7 site serve 70 multipoint customer .,0
we also have 4 point - to - point link in the 3650 band .,0
"do the math , 10 of our end customer be currently serve use the 3.65 ghz band .",0
"go forward though , about 50 of our new deployment use this band .",0
"we have also move exist customer from license exempt band like 900 mhz and 2.4 ghz , which have become useless due to interference from consumer wifi gear and utility company smartmeter .",-1
our plan be to move the remain 2.4 ghz customer to 3.65 ghz .,0
"other than part 101 license point - to - point link , the 3.65 ghz equipment be the most expensive gear in our network .",-1
we have also have the paperwork burden of register every customer location in uls .,-1
and we be take the risk that the new cbrs rule will allow us to continue serve these customer .,-1
we understand there will be new licensing cost and the need to purchase equipment to utilize the spectrum access database .,0
we hope that all the expensive radio we have deploy will still be usable .,0
"why do we use this band despite the expense and risk unlike license exempt band , we be able to provide fast , reliable service without constantly worry about interference from consumer wifi equipment , smartmeter , etc .",-1
we do not get exclusive use of the spectrum,0
"it be license lite , so interference be possible , but coordination with other provider be much more feasible .",0
"also the propose cbrs rule include pal for small geographic area , as well as gaa operation where spectrum be unused .",1
"the use of a spectrum access database seem technically very sound compare to other spectrum share approach like dfs or lbt , even though it will involve some cost and complexity for small company like us .",2
"like most wisp , we use license exempt spectrum for most of our multipoint operation .",1
people rely on their internet service to be fast and reliable in a way they do not 10 year ago .,2
"even a disruption of a few second will cause problem for people stream video , play game , work from home , take class or test online , etc .",-1
"license exempt spectrum be mostly successful at fill this need , but interference and dfs false radar detect be a constant issue .",-2
"we also use part 101 license link between many of our tower , and this be very successful .",1
"we small company follow the same rule and pay the same fee as the big carrier , and the system serve everyone very well .",1
"cbrs should aim for the same goal , rule that allow both big and small company to follow the same rule and procedure , without harm , inconvenience , or undue cost to either .",-3
"this should not be a zero sum game , where one group win only at the expense of another group .",1
several thing concern us about the proposal from ctia and t - mobile .,-1
"for example , long license term , not grandfathere 9 year of customer deployment in 3650 - 3700 mhz , and other change that would de - emphasize gaa .",0
but the killer for us be the proposal to auction pal base on pea instead of census tract .,-1
kwisps service area be essentially 11 census tract .,0
"we would definitely bid on pal in those census tract , plus some adjacent tract .",0
"we already use this spectrum to serve customer , so we would not be warehouse spectrum .",0
"if pal be instead base on pea , the bid price will likely exceed what a wisp can afford .",2
"even if we could compete in the auction , we would certainly end up serve only part of a pea , especially those that contain more densely populate area along with rural area .",0
"the propose change will turn cbrs into just another band where big national or multistate company be the only one that can afford to bid , and then end up warehouse the spectrum at least in the less desirable rural area .",2
small isps and rural resident will be adversely affect .,0
"if , however , pals auction be base on small geographic unit like census tract , we do not see the adverse effect on big isp .",0
they can bid on as many tract as they wish .,0
the comparison to part 101 be relevant .,0
"big and small provider should be able to follow the same rule and procedure , without adversely affect either of them .",0
"the propose change seem to have a hugely asymmetric impact on small company , who would be effectively shut out of the pal bidding , just so big company do not have to submit as many bid to cover the huge swath of territory they desirethe current cbrs rule be well think out , and a lot of time and work have be expend by government and industry toward put them into action .",3
the result will benefit consumer as well as big and small provider .,2
"do we really need yet another chunk of spectrum sell off in huge geographic chunk to a few big provider , who will use it in area that already have lot of good choice , and leave it fallow in area that be underservedcbrs as currently define",1
may also promote innovation in area like internet of thing .,2
"this will not happen if all new spectrum be allocate to mobile 4g5 g wireless , with the only other consideration be how much money the license bring in to the treasury .",0
"it would be easy to ignore our comment base on our small size and number of customer , compare to the big national isp .",0
"but without wisps , our customer would have no good option for internet service .",1
the big isp be not particularly interested in serve rural area with low population density .,0
"this be true 15 year ago when we start in this area , and it be true today .",0
"and while our one company may be small , there be thousand of wisps nationwide , serve hundred of thousand maybe million of customer .",0
rulemake decision that favor large company and shut out small company from access to spectrum will have a disproportionate adverse impact on people in rural area with few internet option .,-1
