text,score
"marlene h. dortch , secretary\nfederal communications commission\nre",0
", rm-11778 and rm-11789\nj\ncardinal wireless be a new wireless internet company in southern illinois , own an operate by tech guy ,",0
"we have 6 employee , and expect the new wireless company to add 2 - 3 job in our community this year alone.\n\nour business plan rely heavily on the use of the 3650 - 3700mhz spectrum .",0
as we be focus on provide rural broadband to consumer who lack any other decent option .,0
the 3650 - 3700mhz spectrum allow our company access to equipment that can reach even far into area we could not otherwise reach .,0
"\n\nwe currently offer speed of up to 40mbps , and hope to increase our maximum speed offering to 100mbps within the first 2 year ...",0
much high than the current national average speed in rural area .,0
"\n\nto date , we have invest almost 10,000 in 3650mhz equipment and be plan to immediately invest another 20,000 .",0
"within the next 12 month , we will have almost 60,000 invest in equipment that rely on teh",0
"3650 - 3700mhz spectrum , which be no small investement for a locally own startup .",0
"\n\ni , as a small business owner , have a great concern for the late ctia and t - mobile petition .",0
i completely oppose their request for special consideration in these spectrum .,-1
"many business , similar to cardinal wireless , rely on this spectrum and will continue to rely on it to service our rural customer .",0
many of our customer will lose access to the internet completely if we lose access to this spectrum .,-2
"\n\nctia and t - mobile be not look out for the advancement of us technology in 5 g service , they be look out for the advancement of their own pocket book , at the expense of those who already have base their business around the already adopt plan of 2015 - 2016 .",0
\n\nplease remember the little guy when make your decision .,0
we be the one actually bring internet to place it do not exist before .,0
we be the one out on tower .. spend our retirement to invest in our small business,0
... deal with outage late at night .,0
"\n\nthank you for your time and consideration,\njosh ditto - ceo tech guy , inc cardinal wireless .",0
