text,score
"motorola solutions , inc. motorola solutions or msi hereby file these comment in response to the petition for rulemake file by ctia and t - mobile to modify the service rule and licensing requirement for the citizens broadband radio service cbrs at 3550 - 3650mhz .",0
"as it consider these possible rule change to the cbrs , motorola solutions urge the commission to preserve the fundamental balance it strike to ensure that the band provide access opportunity to the wide array of user and application .",-1
"to that end , and as further discuss below , motorola solutions urge the commission to 1 retain licensed service area that be much small than the propose partial economic area pea for cbrs priority access tier license 2 limit the term of priority access license to no more than 5 year and 3 continue to ensure that general authorized access user have reserve spectrum in all service area .",-1
motorola solutions have be an active participant in this proceeding since its inception and have provide strong support for the commissions innovative approach to enable opportunistic sharing of the cbrs spectrum .,2
shared access provide realistic opportunity fororganization in addition to large commercial wireless carrier to utilize the cbrs spectrum for private and secure broadband network design to meet communication need over campus environment .,2
"msi believe that there be a variety of industrial and enterprise sector such as oil gas company , utility and other critical infrastructure entity , industrial and manufacturing , mining , hospitality , and other that would benefit from the regulatory structure develop by the commission .",1
"as adopt , the cbrs framework generally consist of two access tier below the incumbent tier of spectrum user priority access and general authorized access gaa .",0
priority access licenses pals will provide authority to use a 10 megahertz channel in a single census tract for three year or six year for the first auction and will be assign in up to 70 mhz of the 3550 - 3650 mhz portion of the band .,0
"most importantly , priority access operation will receive interference protection from gaa and other pal operation , which can help ensure high quality of service qos communication .",0
"in contrast , gaa use will be allow opportunistically throughout the 3.5 ghz band and will not be guarantee interference protection from other cbrs user .",1
"all cbrs user must protect the incumbent tier of user in the band federal radar installation , fix satellite service and grandfathere part 90 subpart z user in the 3650 - 3700 mhz sub - band .",1
"as adopt , the regulatory framework for the cbrs balance the need of multiple industry segment in order to accommodate innovation .",1
motorola solutions appreciate the commission effort throughout this proceeding and would prefer to continue implementation under the exist rule .,2
"nonetheless , msi understand that the cbrs spectrum hierarchy be a complex arrangement and therefore do not oppose further consideration of limited and appropriate tweak to the spectrum access rule .",-2
"in so do , however , the commissionshould continue to maintain a balanced approach that do not undermine the potential diversity of use within the band .",0
"in motorola solutions view , the ctia petition and the t - mobile petition could significantly alter the commissions innovative approach to regulate the cbrs band in three key area .",1
"first , both petition ask that the size of the pal service area be increase from the exist census tract to partial economic area pea .",0
"second , both petition seek to lengthen the term of the pal license term from 3 to 10 year , with unlimited renewability .",1
"finally , the t - mobile petition propose to eliminate the rule restrict pal license to no more than 70 mhz of the available 150 mhz in each service area .",0
"take together , these three proposal could largely eliminate the availability of the cbrs band for private and secure broadband network .",1
"motorola solutions continue to support the use of census tract in order to maximize opportunity for small , private interference - protect use of the band .",1
increase pal service area to encompass pea will make the interference protect tier of spectrum cost - prohibitive for all but the large entity .,-1
"many of the propose pea license area contain over 1 million people , which be not well align with the market for high qo , small - cell private broadband system .",1
"at auction , the cost of the propose pal license would surely exceed million of dollar , which be well out of reach of many small private use .",2
"reduce the number of available pal service area from more than 74,000 census tract to 416 pea as propose would change the fundamental nature of the band by eliminate almost all opportunity for interference - protect , private and secure broadband application that the commission have long promote .",2
we believe the commission should provide at least several thousand priority access license area nationwide in order to facilitate a wide range of privatebroadband use case .,1
"we be concerned that secondary market for pal sub - licensing offer no guarantee or assurance that the primary pal holder will lease idle , interference - protect spectrum to other user , and thus will not be a viable option for provide access for other innovative use of the spectrum .",1
this be especially true for high qos spectrum use that may compete with large cellular carrier business .,0
both t - mobile and ctia propose to extend the pal license term to 10 year with expectation of renewability .,0
"couple with t - mobiles proposal to eliminate the rule that restrict pal license to no more than 70 mhz of the available 150 mhz in each service area , these recommendation would far limit spectrum availability to small private entity seek to deploy high qos broadband network .",0
"gaa spectrum in the upper portion of the band be already encumber by a wide variety of incumbent user e.g. , fss and part 90 user and will be limit in some area .",0
"we believe that gaa spectrum will be important for many less critical application , and should be preserve as much as possible .",0
limit the maximum amount of pal spectrum to the currently proposed70 mhz will help alleviate this issue .,-2
"extend the term of the pal licensee to 10 year with an expectation of renewal would ensure that valuable interference protect spectrum would be control by single entity for extended period of time , without any competition in large area .",1
"while the rule do permit gaa usage in unused pal area , gaa device and system must be able to tolerate interferenceby rule without any define limit .",-1
shoe - horn gaa application,0
"in - between pal network will not provide interference protection guarantee for high qo or business critical service , which we expect to be important in the band .",1
lock in long or even perpetual interference protect license to a limited number of entity will stunt innovation in the band .,-1
"recognize that balance compete need sometimes require a degree of compromise , should the commission choose to lengthen the pal license term , we suggest extend the term to no more than a 5-year term , with a single one - time license renewal allow .",0
this will help to ensure a healthy market for interference protect spectrum .,1
we notethat ctia previously provide support for 5-year pal term .,1
msi understand the position of the wireless carrier seek to reduce their risk as they continue build out nationwide network use small cell technology .,-1
"however , their proposal leave few opportunity for alternative use that also require some certainty that investment make will not be strand when the pal licensee decide to exert spectrum primacy over gaa operation .",0
improved secondary market functionality and enhanced right for other to access unused area of pal area could help address these concern .,2
"should the commission choose to expand the right of pal licensee as propose by ctia and t - mobile , it should consider more robust secondary market policy to promote additional pal access through sub - leasing in fallow area under pal control .",2
"finally , motorola solutions do not support modify the cbrs transmit spectral mask limit , which have be carefully choose and vet base on allowable interference to manyincumbent in the band .",-1
"we believe that several state - of - the - art technology e.g. , amplifierpre - distortion and other linearization technique , judicious scheduling algorithm , etc . can beutilize to help meet the current spectral mask , and no special transmit mask relaxation arenecessary .",0
"we also note that wide bandwidth system be already allow to transmit withhigher power level under the current rule , which would help to counteract any a - mpradditional maximum power reduction , if utilize .",0
