text,score
"to whom it may concern , this letter be concern the petition file by ctia and t - mobile concern",-3
propose change in the cbrs band .,0
"globalviison be a wireless internet provider wisp locate in greenville , sc provide high speed internet and other service to over 400 local and rural citizen in the upstate of sc .",0
many of these customer have little or no choice for service .,0
today we offer plan start at 3 mb uo to 100 mb depend on the area .,0
"globalvision have spend a considerable amount of time and money prepare to use the 3650 - 3700 mhz band with plan to expand our footprint to nc , other area in sc and georgia .",0
the main reason for this investment be the plan use of the cbrs band .,0
there be huge benefit in have access to 100 mhz of spectrum for our lte expansion thereby benefit our customer in more rural area .,2
we be very concerned that the fcc would even consider make these negative change to the cbrs band .,-2
"if the fcc allow this to go through rate will skyrocket for end user as have be prove in the past when big company who usually get the lion 's share of any government subsidy , push out small , lean local provider .",1
basically the fcc would be show rural america be do not care about it and assist big company be its only focus .,0
globalvision and our customer be strongly opposed to both petition due to the negative effect it will have go forward .,-1
we respectfully request the fcc say no to these petition .,1
