text,score
"re gn docket no . 12 - 354 ,",0
"rm-11778 and rm-11789i be write this letter to formally oppose the ctia and t - mobile petition put forth in the above state docket.wispwest.net focus on serve rural , fix - wireless internet service in a large portion of southern montana .",-1
"start in 2003 , wispwest.net now serve nearly 5,000 customer throughout the mountain and valley where customer have no option for dsl , cable , or fiber .",0
we provide the follow download speed package to nearly all customers1.5 mbps3.0 mbps5.0 mbps7.0,0
"mbps12.0 mbps15.0 mbpsall of our tower access point utilize all of the unlicensed spectrum , and we be now in a position that we can not offer any fast speed or additional capacity without additional spectrum .",0
"we be just now also use lte product , which can benefit greatly with additional spectrum in the cbrs band , this be the only hope we have have in improve our capacity and speed to our customer , and to see this jeopardize now would be catastrophic for all of the rural southern part of montana that we serve .",0
we understand how far behind the united states be in,0
"get rural area true high - speed internet , and the 3.5 - 3.7ghz band would allow not only additional carrier - grade lte capacity we need , but also non line - of - site penetration we simply can not get on 5ghz for those deal with foliage or other line - of - site problem .",-1
"once again , wispwest.net be oppose to the ctia and t - mobile petition to modify the structure of the cbrs band in a way that be clearly only beneficial to large carrier and not the end - customer .",1
