text,score
"leidos , inc. leidos hereby submit these comment pursuant to the public notice request comment on the petitions for rulemaking file by ctia and t - mobile usa , inc. t - mobile collectively petitioner requestingchange to the rule govern the citizens broadband radio service",0
cbrs.leidos interest in this proceedingleidos be an industry leader in communication system engineering .,0
leidos offerswireless solution that help its critical infrastructure client to efficiently interconnectcomplex system .,0
"leidos client include electric utility , nuclear power plant , airport , and hospital .",0
"access to private wireless broadband be vital to enable the level offunctionality , capability , security , and dependability that the industry be look for inorder to continue to improve service to the public , meeting today demand and prepare for future challenge .",2
"leidos client rely on the private wireless system in 3.65 ghz for critical communication , sustain day - to - day operation and provide service that the public have come to depend upon .",-1
"for example , smart electric meter program help to control energy consumption and therefore contribute to achieve over - arch goal such as improve the environment and decrease the reliance on fossil fuel .",2
commentsthe proposal of ctia and t - mobile jeopardize the ability of the industry to continue to reliably operate the critical network in the cbrs band .,-1
access to private wireless broadband on a fair basis be need in order for all to benefit from share the band .,2
"leidos believe that the petitioners proposal be not well suited for create equal opportunity for the different user , however large or small .",1
"for example , make the entire 150 mhz range eligible for priority access licenses pal can significantly decrease air time available to general authorized access gaa user and reduce the range of application of their system .",1
have to have a pal - tier protection in order to be able to sustain acceptable operation in an environment dominate by pal licensee without much space leave for gaa user,2
"be a prospect that can discourage most private operator from consider cbrs.similarly , use partial economic areas peas for licensing and increase the term to 10 year",-1
be factor that be likely to make pal much less attainable and will further alienate the public and private system operator from the band .,-1
"restrict accessto the site registration information be counterproductive to collaborative effort on interference reduction and avoidance and therefore , be not beneficial to maximize spectrum efficiency .",-2
"in order to keep with the spirit of the commissions reason in adopt the cbrs , the commission should reject the change propose by ctia and t - mobile .",-1
the basic service framework should remain as be with these suggest changesconsider increase the pal license term from 3 to 5 year so to better align with typical technology refreshment planning cycle and in order to bolster confidence in continue protect operation for those who invest in pals for their cbrs network .,4
"in addition , the commission should consider extend the interference protection period to grandfathere operator by an additional five year .",0
this additional time would be instrumental for ensure no interruption to critical service during the transition to any new rule adopt by the commission .,-1
"conclusionfor the foregoing reason , leidos respectfully request that",1
the commissionaddress the proposal set forth in the petitions in a manner consistent with these comment .,1
