text,score
"re gn docket no . 12 - 354 ,",0
rm-11778 and rm-11789re opposition to petition by t - mobile and ctia on citizens band radio servicelighthouse .,-1
net be a rural isp that be own by the local electric cooperative .,1
we serve over 400 rural member use unlicensed frequency from fixed wireless site .,-1
we have many more member who be limit to dial up or other limited access offering because of a lack of spectrum for use in rural area .,-3
the major wireless carrier have large block of spectrum that be not be use in rural area like the upper peninsula of michigan .,1
lighthouse and other small provider be very limited by the lack of available frequency for use in the unlicensed spectrum .,-2
the fcc have foresight and wisdom by set aside spectrum for public use .,2
that spectrum have allow business to flourish and consumer to have multiple option for connect to the internet that would not have exist in a licensed monopoly control environment .,1
the availability of more spectrum in the cbrs band allow lighthouse to expand to an additional service site and reach more member .,0
add more spectrum will allow us to serve the underserved that the large carrier be and have ignore .,-1
give more spectrum to the large carrier will not improve rural service .,1
the large carrier have huge band of spectrum that be not in use across our area .,0
their business model be make more money where there be more customer .,0
i would suggest look at unused area and allow access to their spectrum by other entity .,0
more spectrum be need for unlimited use in the unlicensed arena to expand and improve wireless internet in rural america .,1
lighthouse oppose the propose rule change and petition by ctia and t - mobile .,-1
