text,score
dear ms. dortchthe gsm association gsma applaud,1
"the recent commission action that could optimize the use of mid - band spectrum for fifth generation 5 g wireless technology , thus potentially create globally - harmonize allocation for the spectrum .",1
gsma encourage the commission to take the next step toward global harmonization by adopt the propose change to the rule govern the 3550 - 3700 mhz,1
"band 3.5 ghz band citizens broadband radio service suggest in the petitions for rulemaking file by t - mobile and ctia together , petitioner , and pursue the further action contemplate in the recently initiate notice of inquiry noi",0
examine flexible use of spectrum between 3.7 and 24 ghz .,1
"globally , 3 ghz frequency be be actively consider for 5 g operation .",0
international organization and country worldwide have begin to act to make spectrum in the 3 ghz band available for 5 g operation .,1
"for instance , the australian communications and media authorityissue a consultation start the preliminary replanning process for mobile broadband use of the 3.6 ghz band , with a goal of form a final view on the good use of the 3.6 ghz band later this year .",1
"across asia in china , japan , singapore , and hong kong policymaker have begin work to make 3 ghz band spectrum available for 5g.",2
"specifically , china issue a public consultation seek comment on plan to use the 3.3 - 3.6 ghz band for 5 g japan allocate and license spectrum in the 3.5 ghz band for mobile broadband and its ministry of internal affairs and communications identify and issue a public consultation consider use of the 3.6 - 4.2 ghz band for 5 g operation singapores infocomm media development authority issue a public consultation on 5 g technology development and spectrum requirement , identify the 3.4 - 3.6 ghz band , among other , for mobile use and the communications authority of hong kong intend to issue a public consultation later this year on re - allocate the 3.4 - 3.7 ghz band for 5 g mobile service .",-4
"in europe , the radio spectrum policy advisory group to the european commission release an analysis concluding in part that it consider the 3.4 - 3.8 ghz band to be the primary band suitablefor introduction of 5 g service in europe .",0
"in keep with this analysis , european country have begin to take action to make the 3 ghz band available for 5g.",1
"the united kingdom will soon be auction 150 megahertz of spectrum in the 3.4 ghz band for 5 g mobile use and it have propose make the 3.6 - 3.8 ghz band available for mobile service include 5 g ireland recently auction spectrum in the 3.4 - 3.8 ghz band for 5 g deployment italy will begin auction and award spectrum in the 3.6 - 3.8 ghz band for 5 g use by 2018 and germany have announce a 5 g plan that include make the 3.5 ghz band available in 2018 , and be complete a consultation on make the 3.6 ghz band available in the near future .",4
"adopt the petitioners proposal would , among other thing , make priority access licenses pal available on a partial economic area basis with ten - year license term and a renewal expectancy , make the full number of pals apply for available , permit bidding on specific pal block , protect citizens broadband radio service device registration information , and make technical change to the 3.5 ghz rule to accurately reflect likely 5 g technology specification such as the oobe that qualcomm propose .",4
"these change would further harmonize 3.5 ghz band 5 g use in the united states with much of the 3 ghz band in other country , and would make u.s. technical standard consistent with international norm .",2
"this , in turn , would allow company to leverage the global product ecosystem , thereby encourage the great amount of innovation , investment , and deployment .",4
the commission should therefore maximize the utility of the 3.5 ghz band for 5 g operation in the united states by adopt the petitioners proposal .,0
"the commissions recent noi would similarly assume follow - on regulatory action make additional mid - band spectrum available in the united states , consistent with the approach be take in other country .",2
it appropriately seek input in particular on way in which the 3.7 - 4.2 ghz band can be use to address the lack of mid - band spectrum for 5g.,-1
"robust development of 5 g technology require additional spectrum in low- , mid- , and high - band , and at present , the only mid - band spectrum available for 5 g in the u.s. be the 3.5 ghz band , which as the petitioners point out , be not optimize for 5 g use .",2
the 3.7 - 4.2 ghz band be ideally suited to address the united states need for additional mid - band spectrum .,1
"it be immediately adjacent to the 3.5 ghz band , have favorable propagation characteristic and can also potentially be globally harmonize .",2
"as note above , several country have begin assess , and , in some case , allocate portion of the 3.7 - 4.2 ghz band for future 5 g use .",0
"for example , japan have identify and issue a public consultation consider use of the 3.6 - 4.2 ghz band for 5 g operation and plan to issue technical rule by next summer .",-2
"the united kingdom , italy , and ireland also have take action to make the 3.7 - 3.8 ghz band available for 5g.",1
"if the united states make the 3.7 - 4.2 ghz band available for 5 g operation , it will further promote international use of the band and help accelerate innovation and development of the band for 5 g technology worldwide .",2
"gsma therefore urge the commission to take action in the above referenced proceeding that will optimize mid - band spectrum in general , and the 3.5 - 4.2 ghz band in particular , for 5 g operation .",0
