text,score
"alluretech be a wireless internet service provider or wisp base in casper , wy .",0
we have be in business since 1989 and an isp since 1991 .,0
we currently service the casper area and much of rural natrona county .,0
"we have use unlicensed 2.4ghz , 5.xghz and 3.65ghz .",-1
the 2.4 be almost useless and the 5ghz be get more crowded all the time .,-2
we have deploy 3.65 in a number of location and it work well for the last mile connection .,2
we have about 600 customer include both commercial and residential .,0
many of our customer be either cut the cord or investigate it .,0
we need to be able to deliver more bandwidth to keep up with the grow demand .,0
we strongly oppose ctia and t - mobile petition as they will make it tough to continue to deliver satisfactory service and expand in to new area .,1
"wisps can far well utilize the new channel and quickly roll out new equipment from vendor like telrad , baicells and radwin .",2
