text,score
"starry , inc. starry submit these comment urge the federal communicationscommission fcc or commission to maintain and reaffirm the exist rule for the 3.5 ghz citizens broadband radio service cbrs andor 3.5 ghz band .",1
"cbrs represent a substantialstep forward in spectrum policy and spectrum management , and will drive investment andinnovation from a diverse set of user and innovator , to the benefit of consumer and the u.s.economy .",1
"in 2012 , the commission see an opportunity to significantly increase the amount of mid - band spectrum at the time it be consider high - band by make up to 150 megahertzavailable for shared access .",0
"to do this , the commission have to solve several difficult problem , include how to share the spectrum with incumbent federal user and fixed satellite service fss earth station .",-2
"the commission rely on the state - of - the - art in spectrum policy , economic policy , and wireless and computing technology to develop an effective solution to maximize the utility of this spectrum while protect these incumbent .",2
work collaboratively with the national telecommunications and information administration and the department of defense,1
"the commission develop a three - tiere sharing model that effectively protect navy radar , make license available where and when they be need base on local demand , and otherwise make the spectrum available with very low barrier to access .",4
"the result be a spectrum management framework that be design to efficiently assign spectrum right through market - base mechanism , while protect incumbent .",3
"since the rule be put in place over two year ago , there have be a substantial amount of investment in this band and access model from equipment vendor , wisps , industrial user , the cable industry , wireless provider , and other .",0
"this investment be drive by the potential for low - barrier access to a substantial amount of spectrum and be base on the exist structure , not base upon an expectation of future change .",0
"the commission should reject the petitions , reaffirm the current rule , and expeditiously certify spectrum access system administrators and environmental sensing capability operator to enable use of the band as soon as possible .",1
"the current rule use economic- and market - based mechanism to efficiently assign spectrum rightsthe current rule structure make cbrs spectrum available on a local basis , and grant the right to exclude other only when rivalry for the spectrum exist .",2
"the framework combine the weak propagation characteristic of spectrum in the 3.5 ghz band relative to low - band spectrum , local license area , and small cell technical characteristic to target spectrum availability to the location where and when it be need .",-1
its simple to understand and efficient .,1
it be axiomatic that the commission should assign spectrum right to those entity that be most likely to put the spectrum to use in the public interest .,1
"but those may not be the same entity that place the high price on spectrum , since firm frequently find value in spectrum that be unrelated to the use of the spectrum , include as an investment vehicle or to foreclose other potential user .",0
take step to alter the cbrs structure to assign spectrum right in a less efficient manner that be in place and at time where the right to exclude other user be unnecessary because there be not competition for the spectrum would be inconsistent with the public interest and the commissions mandate under the telecommunications act .,1
"auction be useful tool for assigning spectrum , but they can create artificial scarcity .",0
the cbrs model improve upon an auction - only model of spectrum assignment in two key way 1,1
it assign spectrum via auction largely only when there be competition for the spectrum,0
i.e. there be actual scarcity and 2,-1
"it allow all user to access unused spectrum that have be auction , without harm the right of a licensee , if one exist .",0
the combination of target geographic area and short license term will force licensee to reconsider on a regular basis whether or not the license be worth the cost of acquire it again at auction .,1
"if there continue to be rivalry for the spectrum and a licensee generate value from the license , then the licensee have an incentive to win it again at auction .",0
"if there be not rivalry , or if there be a shift in the licensee network demand , then the licensee can simply operate on a general authorized access gaa basis .",-1
"this be the right outcome from an economic perspective , from a policy perspective , and be entirely consistent with the commissions mandate .",2
to suggest that a former pal licensee be stick with strand investment in the event it lose an auction ignore the fact that it can keep operate on a gaa basis .,-2
the big differentiate right between a pal and gaa use be that a pal licensee can exclude other user from its 10-megahertz channel .,1
"if a pal licensee value that right , then it will sufficiently bid for it at auction .",2
"if a cbrs user do not value exclusivity and be comfortable with the shared environment , then it have access to the gaa portion of the band and the unused portion of pal license , and do not have to pay for a right it do not desire .",2
"this be particularly important for user that do not have access to sufficient capital to successfully participate in an auction , include many wisp and utility .",3
"finally , the commissions intent be never to make this a band available solely for commercial mobile wireless service .",1
"the commission explicitly establish this band to support a wide variety of user , deployment model , and business case , include some solution to market need not adequately serve by [ its ] conventional license or unlicensed rule .",1
"change to the current rule structure will undermine the benefit that it createspetitioner propose change would fundamentally undermine the sound structure the commission already put in place , introduce economic inefficiency , and inhibit the use of the band for use other than commercial mobile wireless service .",-3
"first , license the band in large geographic area eliminate the ability to target license access to spectrum where there be actual rivalrous demand , result in large swath of the country under the control of licensee with no intention of use the spectrum in all area .",0
"this be a small cell band , and small cell use be localize by design .",0
it be therefore unnecessary and inefficient to grant license right over a large license area like a partial economic area where a significant portion of the geographic area will go unserved by the licensee .,1
petitioner do not support their assertion that large license area be more likely to drive investment than the current structure .,1
it may be the case that large license area be necessary to stimulate investment in low - band spectrum that be design for coverage and propagate over long distance .,1
that be not the case here .,0
cbrs be design to provide spectrum access where and when its need .,0
"wireless provider will use sophisticated model to determine where in their network they have the great need for additional capacity , and focus their cbrs deployment in those area .",2
"it make no sense for them to acquire vast geographic area that they have no need , desire , or intention to serve .",0
"furthermore , simply because census tract result in a relatively large number of license do not unreasonably complicate pal auction or pal license administration .",-1
"the fcc just successfully complete the world first incentive auction , with an entirely new auction mechanism and it system build from the ground up .",1
"the commission clearly have the expertise and skill to construct an effective auction for pal , the only unique characteristic of which will be the number of lot up for auction .",3
"for instance , it could make available a simple user interface that allow bidder to easily select multiple license area in advance of the auction or a bidding round it could create api to allow bidder to use custom software tool to submit their bid or it could use the auction design itself for instance , it could use package bidding .",1
"finally , because this band lack buildout requirement , there be no additional administrative burden on licensee from hold many license .",-2
"second , extend license term to 10 year will decrease investment and innovation in the band .",1
"an equipment ecosystem already exist , the sass be in the second phase of approval , and 3gpp establish a band class for the 3.5 ghz band in late 2016 .",1
there have be substantial investment and innovation in the band base upon the current rule structure .,1
"while provide a pal licensee a 10-year term allow it to spread its investment over a long term , petitioner provide no evidence to demonstrate that the net total investment from any one or all pal licensee will increase over that 10-year period relative to three consecutive license term over short period .",0
"instead of incentivize licensee to invest , long license term incentivize them to wait .",0
"long license term in cbrs , especially couple with large license area , will reduce the availability of spectrum for other use , thus limit the pool of company that could invest in the band and minimize overall investment .",-1
"finally , while short license term may result in less auction revenue , the ability to operate on a gaa basis , even in the event that anincumbent pal licensee lose the license at auction , minimize the risk and disincentive of stranded investment .",-2
"third , renew license without require the licensee to demonstrate that it be use the spectrum be inconsistent with the letter of the telecommunications act .",-1
short license term in cbrs help force licensee to regularly consider whether or not they need or value the license it become an ongoing expense rather than an asset .,0
"if a pal licensee decide it do not need a license , another entity could win it at auction , or the channel could be return to the gaa pool .",1
"this mechanism prevent warehouse by impose a real cost on hold the spectrum in the form of bid to retain the license through multiple auction , and the gaa tier ensure the spectrum be available to other user .",0
"allow licensee to renew 10-year license into perpetuity , and with no buildout requirement , serve no legitimate policy purpose .",0
"spectrum license be a limited right to use a public resource , and the commission have a statutory obligation to ensure licensee use that right to serve the public interest .",1
"in the event that the commission do change the license term to 10 year , it must impose stringent buildout requirement that be tailor to the type of deployment that limit a licensee ability to use license saver and must force licensee to forfeit those area of its license that be not in use , or those license it have not construct , consistent with the use - or - lose model in other band .",-3
"finally , t - mobiles request change amount to re - farm the band solely to support wide - area commercial wireless network , which be inconsistent with the fcc intent as it have affirm consistently since 2012 .",2
"the current structure make this spectrum available to a wide variety of user to support a wide variety of use , include fix and mobile wireless broadband , internet of things , and other industrial use like smart grid application .",6
"importantly , wisps relyon this spectrum to deploy much need broadband service to unserved and underserved community .",0
"rural broadband deployment be a cornerstone of chairman pais policy agenda the chairman should reaffirm this commitment and reject t - mobiles petition , which would destroy wisps opportunity to access this spectrum .",1
t - mobiles petition be also inconsistent with the heavily negotiate agreement with federal user for shared access to the 3550 - 3650 mhz band .,-1
"federal user support this effort precisely because it be a smart approach to spectrum policy that allow them to continue to operate and be protect , while develop and use new tool to enable commercial use .",4
"furthermore , revisit the technical rule will require a substantial amount of engineering analysis to reconsider the exclusion zone which will grow significantly , esc requirement , protection for fss earth station , and other technical requirement for the band .",0
"take such an action would delay the use of this band for year , minimize investment , and deter ongoing innovation .",-1
the market be ready for the 3.5 ghz band to come on line .,1
the commission can stimulate substantial economic activity continue innovation and new investment by dismiss the petitions and expeditiously certify sas administrators and esc operator .,2
