text,score
"summarythe petition for rulemaking be seek change to the part 96 rule for the cbrs band to enhance theprimary access licenses , primarilyto provide primary access licensees access to the full band to provide extended term for the primary access licensesto provide large geographic area for each primary access license to provide an expectation of renewal for the primary access licensescasa do not support these change , and recommend that the commission not begin a rulemaking to consider them .",3
"as we will discuss below , we believe that these change be intend to make the cbrs band more like a licensed band , and various reason for such change be put forward in the petition .",1
"we believe those reason to be generally not compelling rather , we believe that the current cbrs band rule strike the appropriate balance between license - like and unlicensed - like use of the band .",1
background and introductioncasa hereby submit these comment in response to the public notice issue by the fccs wireless telecommunications bureau and the office of engineering and technology seek comment on the petitions for rulemaking file by ctia and t - mobile regard the citizens broadband radio service .,0
"casa systems be a lead provider of fix , mobile , optical and wi - fi network solution for ultra - broadband service , which require over 1 gbps throughput today and will require 10 gbps or more within the next decade .",1
"we be focused on , and passionate about , enable these service , regardless of access network type .",1
"casa systems be found in 2003 , and be headquarter in andover , massachusetts .",0
"the company have more than 600 employee worldwide , with a customer base that include mno , mvno , mso , and fix service provider .",0
the petition for rulemaking be base on 3 main pointsthe petition for rulemake file by ctia and t - mobile make three main point which they use to justify the request for new rule from the fcc.central to their argument,0
be that regulator around the world be look at 3.5 ghz spectrum for 5 g application .,0
"in order to be more globally harmonized , they argue , the fcc should make the us 3.5 ghz band look like a classically license band .",1
"this , they claim , will enable the us to maintain wireless leadership in 5g.both petitioner",0
argue that license service be need in order to provide the quality of service that customer expect and which will be require for 5g.both petitioner argue that the only way to get a robust device ecosystem be to make the band more attractive to license mobile operator .,2
we will address each of these point below.5,0
g be not the same thing as license servicesboth petition,0
"make the argument that because the 3.5 ghz band be be target for 5 g service , the band should be make more available to license operator .",1
"t - mobile state that in order for t - mobile and other to make the 3.5 ghz band a success , the commission must modify its rule to enhance the utility of the band for 5 g license service .",2
"similarly , ctia write that [ t]he 3.5 ghz band be the only mid - band spectrum target for 5 g use in the u.s. , and the target change seek here will create an investment environment for the 3.5 ghz band to flourish here as other nation target the 3 ghz frequency for 5g.both of these comment be premise on the idea that 5 g service will necessarily be provide by license mobile operator .",1
"while that be undoubtedly true for many of these service , it be by no means true for all of them .",0
"in fact , it be very possible that the majority of those service will be provide by innovative , new operator , or by technology that be deploy without the involvement of a wireless operator .",1
"for example , as part of their file t - mobile argue that over the next 3 year there may be as many as 30 billion connect device deploy , and they use as a reference this quote from ihs ihs forecast that the iot market will grow from an instal base of 15.4 billion device in 2015 to 30.7 billion device in 2020 and 75.4 billion in 2025.interestingly , this prediction be look primarily at the iot market .",0
"two point need to be make in that context5 g be not the same as the iot , andeven within the iot",0
"it be far from certain that licensed , mobile operator will be the primary provider of connectivity for the market.5 g be not the same as the iotit have be clear for some time that unlike previous generation of wireless technology that have come before it , 5 g cover much more area in term of use case and application .",1
"in previous generation of mobile technology , the focus be on the implementation of digital voice 2 g , true mobile datum 3 g , and the mobile internet 4g.",0
"with 5 g , however , we have a large number of use case involve user , some of whom be not even people , just other device .",0
"the number of attempt to describe 5 g istrende towards infinite , but for example , a presentation from qualcomm at the nist workshop onnamed data networking identify the follow use case as fall under the 5 g umbrellaenhanced mobile broadband wearable devicessensorssmart home , building , and citiesautonomous vehicle and object trackinginfrastructure monitoring and control e.g. smart grid remote control and process automationin addition to these , an aspect of 5 g be the merger of wireless with fixed broadband access .",-1
many of the 5 g activity in the us be currently aim at use 5 g technology to provide high speed fix wireless access .,0
"the internet of thing , therefore , be only part of the broad 5 g vision , and it be not at all obvious that all of the use case identify above will be , or need to be , address by traditional license mobile operator .",0
"the iot be not a target for only license spectrum operatorsthe iot , although not the only component of the 5 g vision , will be a significant area of investment .",1
"a mckinsey report , for example , estimate that the worldwide iot offer a potential economic impact between 4 and 11 trillion a year in 2025 .",0
"but even if we focus in on just the iot component of 5 g , large fraction of this mckinsey estimate highlight area that be by no means obvious target for mobile operator , include factory , retail , home , office , worksite , and human .",0
"while some of the setting city , outside , and vehicle be place where mobile operator may have an advantage in provide a service , casa do not believe that the commission should focus regulatory effort on those mobile operator to the disadvantage of non - traditional operator and technology .",0
it be not just casa that believe that some fraction of this market will be address by non - traditional operator .,0
many analyst have make a similar argument .,0
"joe madden , from mobile experts , for example , write people talk about the connected home at 5 g conference , predict 5 g lightbulb and refrigerator and thermostat chat with each other .",0
"why would anybody mention this topic in the context of 5 g these light bulb and appliance currently use bluetooth , 802.15.4 , and other format which be cheap and cheerful .",0
nobody need low latency or high throughput .,-1
there s no room in the business chain for a mobile operator because its a local network .,0
use these application to justify 5 g,0
be simply wishful thinking .,0
new street research have write that they do not include the internet of thing or any of its related theme as key feature of 5 g even though they receive the majority of attention in most industry andpress coverage of what 5 g will become .,0
telecom investor should ignore the noise on this front because it be unlikely to translate into much value for operator ...,-3
"these be not outlier opinion , as can be see from numerous other headline even if iot hit 20bn device by 2020 mobile operator",0
"still will not care , mobile network face competition for iot traffic , etc .",0
"the point here be not to disparage the ability of the mobile network operator to compete in the 5 g area , especially in the area of iot.",-1
"they may very well play a significant role , and casa be develop product that mobile operator can use to compete in that market .",2
"it be , rather , to point out that 5 g be a large umbrella over many use case .",0
"and even within the single use case of iot , there be sub - case which may , or may not , be best address by a traditional licensed wireless operator model .",1
"we do not believe that tilt the regulatory environment too far towards the exclusive license model would be the right thing to do for this upcoming , and still uncertain , market .",0
more licensed spectrum be not require for high - quality servicesin,0
"their petition , both petitioner argue that exclusively license spectrum be require in order to provide a high quality service .",0
"while t - mobile appreciate that the current rule provide for 3.5 ghz spectrum to be available on a license - by - rule basis , exclusive licensed spectrum model offer a superior user experience due to predictable service quality .",3
"say ctia , the pal model seek to offer wireless provider the assured access and interference protection they deem essential for the quality of service they offer in today highly competitive wireless marketplace .",1
it be clear that 5 g service will not be provide use only a single spectrum band .,1
"in the us 5 g application will be provide in the 3.5 ghz band , but in other band as well .",1
"t - mobile , for example , have already announce plan to use their 600 mhz license to deploy 5g.",0
"and , of course , the fcc have already open up enormous amount of 5 g spectrum in the 28 , 37 , 39 , and 60 ghz band .",0
"and since there will be so much spectrum use , some of it traditionally license , and other use different sharing model , the traditional wireless operator will be able to combine operation in the 3.5 ghz band with operation in other band if necessary to provide high quality service use any , or all , of that spectrum .",0
"we believe that this will be possible base on what the mobile operator themselves have say in recent , related proceeding .",0
"as have be highlight in the recent discussion at the fcc regard the deployment of technology such as lte - u , traditional wireless operator",1
"have make it clear that the use of unlicensed , or share , spectrum can still make for high quality experience .",0
"for example , t - mobile state t - mobile have a long history of use wi - fi as a critical component of its network .",-1
"in addition to ensure that all t - mobile customer will be able to obtain mobile device with wi - fi call and texting capability , t - mobiles wi - fi un - leash feature the t - mobile personal cellspot , a new device that enable t - mobile customer to put the capability of a personal t - mobile tower in their house .",2
"the personal cellspot deliver a full - bar t - mobile experience , with unique patent - pende technology that prioritize voice call to first use 5 ghz band wi - fi for crystal clear high - definition voice ... in their comment in the lte - u proceeding , ctia tout among the advantage of lte - u reduced latency , which be one of the definition of a high - quality service .",0
"in their june 11 , 2015 filing in the same proceeding , ctia write that furthermore , use of lte technology will help to facilitate seamless transition between unlicensed and license spectrum , further increase the quality of service for consumer .",1
"it seem clear that the traditional license operator have become comfortable with the idea of supplement their network with spectrum that be regulate under different regime , be it traditionally license or even unlicensed .",1
they have make it clear that their use of unlicensed spectrum will increase the qos they can provide to customer .,0
"we be therefore confident that use cbrs spectrum either as a pal or in the gaa tier , couple with other available spectrum asset , will allow the traditional license operator to provide the high - quality experience their customer need .",2
"robust device ecosystem do not require licensed operator to developin both petition the petitioner state their belief that unless the spectrum be make more attractive to license operator , a robust device ecosystem can not develop , because the operator will not have the incentive to invest .",3
t - mobile state,0
the viability of the device ecosystem for the band will depend on licensee investment .,0
that investment will be limit unless the commission maximize the use of the band for licensed 5 g operation .,-1
"and from ctia , one recent study estimate that wireless operator will invest 275 billion dollar in 5 g over seven year and project that 5 g will boost the u.s. gdp by 500 billion .",1
but this can only occur if government set policy that welcome investment .,1
"first of all , it be quite clear that robust device ecosystem for wireless device can develop even in place where traditional license operator do not participate .",2
"the most obvious example of this be the extremely robust device ecosystem that have develop for the unlicensed band , by which we do not mean only wi - fi .",0
"accord to abi research , annual wireless connectivity chipset shipment across bluetooth , wi - fi , nfc , gps , and zigbee show no sign of slow down , reach almost nine billion annual shipment in 2019 ...",-1
have it not be for combo chipset and integrated platform the number of chipset ship would have be even high .,1
"cumulative chipset shipment from 2010 through 2014 will have reach over 21 billion during the next five year from 2015 to 2019 , cumulative shipment will almost double to over 39 billion .",0
"that be over 60 billion wireless connectivity chipset that will have ship over the ten year span from 2010 to 2019 ,",0
"drive by the emergence of new device type , say research director philip solis .",0
"there be constant change in the wireless connectivity space across wireless connectivity technology , version of technology , and level of integration at the same time .",0
"second , casa be not convinced that the wireless operator would require change to the spectrum regulation in order to see fit to invest in technology for this space .",0
"although t - mobile say that t - mobile do not believe there be a business case to invest in the development of a network without adequate regulatory assurance that the basic element of the network the underlie spectrum asset will continue to be available to it , this statement be belie by t - mobiles own action .",3
"t - mobile be one of the most vocal advocate of technology that merge license and unlicensed technology , sucha lte - u and laa , and unlicensed spectrum be the definition of a spectrum asset whose availability can not be assure .",0
"on june 26 , t - mobile announce the nation first live commercial network test of license assisted access laa .",0
in the same announcement t - mobile state that it be the first national wireless provider to make lte - u available to customer .,1
they write that laa be just the late example of how t - mobile be innovate the way forward .,0
"while our competitor scramble to deal with the way unlimited data plan be slow down their network , be already move on to what s next , say neville ray , cto at t - mobile .",-1
this mean that the fast lte network that s t - mobile will only get fast .,2
"in conclusion , we believe that5 g service will be deliver by both traditional and non - traditional wireless operator , and the same can even be say for enable the specific use case of the iotalthough there be no doubt that mobile operator will invest heavily in 5 g as suggest by ctia , and that that investment will be a benefit to the us economy , those operator be not the only key to 5 g investment .",0
"mobile operator have become comfortable with , and adept at , deploy high quality service over spectrum that be either wholly unlicensed , or a combination of license and unlicensed spectrum .",-1
the current cbrs rule will not act as an impediment to their investing in technology that make use of the 3.5 ghz band as well .,0
"casas view of the marketas mention above , casa be establish in 2003 and , at that time , be focus entirely on the cable cmts market .",0
"however , for the past 4 year casa have be develop wireless product as well .",1
"in addition to cable network solution , include docsis 3.03.1 ccap and distributed access , casas ultra - broadband portfolio include mobile edge computing solution , license small cell , transport security and wi - fi .",0
"with our solution , service provider can offer rich customer experience that be fuel by high - performance broadband , span seamlessly across multiple access network , and be define and optimize use software intelligence .",2
"over the past year or so , we have notice that our small cell customer be show significant interest in both 5 g application and the cbrs band .",1
"we have see interest in many of the use case define by the cbrs alliance , includingprivate cellular private lte include the industrial iot case with the addition of cellular iot attach cat - m1 and nb - iot device , mno capacity augmentation , mso mvno opportunity , neutral host solution , and fix wirelesscasa be actively discuss several of these use case with both traditional license spectrum operator and also non - traditional operator , include multiple mso , fix wireless operator , and various wireless service provider .",0
"conclusionthe wireless industry have always be one of rapid change , and now be no different .",1
"new technology have enable mobile service to migrate up in frequency , even possibly into the mm - wave band .",0
"new application be be enable , and these application such as enhance mobile broadband , the iot , fix wireless broadband , and other , be drive the development of a new generation of wireless technology",1
"more and more capable device be make it possible to deliver these new application across a variety of spectrum band , either bond together or act separately .",2
"new regulatory scheme , in addition to exclusive licensing and licensing by rule , be be try out to take advantage of the change technology and application landscape .",1
"in casas view , the fcc have strike the right balance between the pal and the gaa in its innovative three - tiere licensing scheme for the 3.5 ghz cbrs band .",1
"base on the feedback we have from the market , there be high interest in this band give its current structure .",0
"while there be many application that may well be address by traditional wireless operator , we see just as much interest from non - traditional operator .",1
"not only do the exist rule not damage the us prospect to lead in the area of 5 g , casa believe that other regulator be watch the us experiment closely and may choose to follow the us lead .",1
"in our opinion , the propose change to the rule suggest by ctia and t - mobile would tilt too far in the direction of make the 3.5 ghz band a license spectrum band .",0
"auction off all of the spectrum in the band as pals , expand the license term to 10 year with an expectation of renewal , andincrease the size of a license area to encompass partial economic areas would likely lead to only a small number of the traditional licensed spectrum operator be able to use the cbrs band .",1
casa would prefer that the rule in this band remain amenable to both the traditional licensed wireless operator as well as to non - traditional operator who may be look to provide some part of the broad set of service under the 5 g umbrella .,3
"casa systems hope to continue to develop product that would be suit for any of these type of operator , and we believe that the commissions current rule do a good job of enable both traditional and non - traditional operator to gain access to the spectrum .",2
we therefore respectfully request that the commission not proceed with a rulemaking base on these petition .,1
